<?xml version="1.0" encoding="UTF-8" standalone="no"?>
<!-- Created with Inkscape (http://www.inkscape.org/) -->
<svg
   xmlns:i="http://ns.adobe.com/AdobeIllustrator/10.0/"
   xmlns:dc="http://purl.org/dc/elements/1.1/"
   xmlns:cc="http://web.resource.org/cc/"
   xmlns:rdf="http://www.w3.org/1999/02/22-rdf-syntax-ns#"
   xmlns:svg="http://www.w3.org/2000/svg"
   xmlns="http://www.w3.org/2000/svg"
   xmlns:xlink="http://www.w3.org/1999/xlink"
   xmlns:sodipodi="http://sodipodi.sourceforge.net/DTD/sodipodi-0.dtd"
   xmlns:inkscape="http://www.inkscape.org/namespaces/inkscape"
   width="64px"
   height="64px"
   id="svg1952"
   sodipodi:version="0.32"
   inkscape:version="0.44.1"
   sodipodi:docbase="/Users/izoo/Sites/spip-zone/_graphismes_/logos/spip_tango/spip_plugins/svg"
   sodipodi:docname="crayon.svg"
   inkscape:export-filename="/Users/izoo/Sites/spip-zone/_graphismes_/logos/spip_tango/spip_plugins/png/crayon.png"
   inkscape:export-xdpi="90"
   inkscape:export-ydpi="90">
  <defs
     id="defs1954">
    <linearGradient
       inkscape:collect="always"
       id="linearGradient5048">
      <stop
         style="stop-color:#000000;stop-opacity:1;"
         offset="0"
         id="stop5050" />
      <stop
         style="stop-color:#000000;stop-opacity:0;"
         offset="1"
         id="stop5052" />
    </linearGradient>
    <radialGradient
       inkscape:collect="always"
       xlink:href="#linearGradient5048"
       id="radialGradient5054"
       cx="23.25"
       cy="37.75"
       fx="23.25"
       fy="37.75"
       r="14.875"
       gradientTransform="matrix(1,0,0,0.420168,0,21.88866)"
       gradientUnits="userSpaceOnUse" />
    <linearGradient
       id="linearGradient5068">
      <stop
         style="stop-color:#ffffff;stop-opacity:1;"
         offset="0"
         id="stop5070" />
      <stop
         id="stop5078"
         offset="0.32894737"
         style="stop-color:#ffffff;stop-opacity:0.69;" />
      <stop
         id="stop5076"
         offset="0.65789473"
         style="stop-color:#c2c2c2;stop-opacity:0.34;" />
      <stop
         style="stop-color:#ffffff;stop-opacity:0;"
         offset="1"
         id="stop5072" />
    </linearGradient>
    <linearGradient
       id="linearGradient2994">
      <stop
         style="stop-color:#000000;stop-opacity:1;"
         offset="0"
         id="stop2996" />
      <stop
         style="stop-color:#c9c9c9;stop-opacity:1;"
         offset="1"
         id="stop2998" />
    </linearGradient>
    <linearGradient
       id="linearGradient2974">
      <stop
         style="stop-color:#c1c1c1;stop-opacity:1;"
         offset="0"
         id="stop2976" />
      <stop
         style="stop-color:#acacac;stop-opacity:1;"
         offset="1"
         id="stop2978" />
    </linearGradient>
    <linearGradient
       id="linearGradient2966">
      <stop
         style="stop-color:#ffd1d1;stop-opacity:1;"
         offset="0"
         id="stop2968" />
      <stop
         id="stop3006"
         offset="0.5"
         style="stop-color:#ff1d1d;stop-opacity:1;" />
      <stop
         style="stop-color:#6f0000;stop-opacity:1;"
         offset="1"
         id="stop2970" />
    </linearGradient>
    <linearGradient
       id="linearGradient9920">
      <stop
         id="stop9922"
         offset="0"
         style="stop-color:#5b90c8;stop-opacity:1;" />
      <stop
         style="stop-color:#8fb0d1;stop-opacity:1;"
         offset="0.31578946"
         id="stop9924" />
      <stop
         id="stop9926"
         offset="1"
         style="stop-color:#34679d;stop-opacity:1;" />
    </linearGradient>
    <linearGradient
       id="linearGradient9910">
      <stop
         style="stop-color:#729fcf;stop-opacity:1;"
         offset="0"
         id="stop9912" />
      <stop
         id="stop9918"
         offset="0.31578946"
         style="stop-color:#a5bfda;stop-opacity:1;" />
      <stop
         style="stop-color:#376ca4;stop-opacity:1;"
         offset="1"
         id="stop9914" />
    </linearGradient>
    <linearGradient
       inkscape:collect="always"
       id="linearGradient9952">
      <stop
         style="stop-color:#ffffff;stop-opacity:1;"
         offset="0"
         id="stop9954" />
      <stop
         style="stop-color:#ffffff;stop-opacity:0;"
         offset="1"
         id="stop9956" />
    </linearGradient>
    <linearGradient
       id="linearGradient5058">
      <stop
         style="stop-color:#959791;stop-opacity:1;"
         offset="0"
         id="stop5060" />
      <stop
         id="stop5066"
         offset="0.5"
         style="stop-color:#f8f8f8;stop-opacity:1;" />
      <stop
         style="stop-color:#8c8c8c;stop-opacity:1;"
         offset="1"
         id="stop5062" />
    </linearGradient>
    <linearGradient
       id="linearGradient5036">
      <stop
         style="stop-color:#f5f5f5;stop-opacity:0.09;"
         offset="0"
         id="stop5038" />
      <stop
         id="stop5044"
         offset="0.2631579"
         style="stop-color:#ffffff;stop-opacity:0.89999998;" />
      <stop
         style="stop-color:#c7c7c7;stop-opacity:0.46000001;"
         offset="0.74792242"
         id="stop5088" />
      <stop
         style="stop-color:#ffffff;stop-opacity:0.78039217;"
         offset="1"
         id="stop5040" />
    </linearGradient>
    <linearGradient
       inkscape:collect="always"
       xlink:href="#linearGradient9910"
       id="linearGradient2054"
       gradientUnits="userSpaceOnUse"
       gradientTransform="matrix(-0.493304,-0.716654,0.716654,-0.493304,18.58795,87.13595)"
       x1="28.244684"
       y1="60.445503"
       x2="28.244684"
       y2="68.224884" />
    <linearGradient
       inkscape:collect="always"
       xlink:href="#linearGradient9920"
       id="linearGradient2056"
       gradientUnits="userSpaceOnUse"
       gradientTransform="matrix(-0.493304,-0.716654,0.716654,-0.493304,18.58795,87.13595)"
       x1="28.244684"
       y1="60.445503"
       x2="28.244684"
       y2="68.224884" />
    <linearGradient
       inkscape:collect="always"
       xlink:href="#linearGradient9910"
       id="linearGradient2058"
       gradientUnits="userSpaceOnUse"
       gradientTransform="matrix(-0.493304,-0.716654,0.716654,-0.493304,18.58795,87.13595)"
       x1="28.244684"
       y1="60.445503"
       x2="28.244684"
       y2="68.224884" />
    <linearGradient
       inkscape:collect="always"
       xlink:href="#linearGradient9952"
       id="linearGradient2060"
       gradientUnits="userSpaceOnUse"
       gradientTransform="matrix(-0.493304,-0.716654,0.716654,-0.493304,18.58795,87.13595)"
       x1="55.876038"
       y1="62.401989"
       x2="38.061356"
       y2="62.827091" />
    <linearGradient
       inkscape:collect="always"
       xlink:href="#linearGradient2994"
       id="linearGradient3398"
       x1="9.5369997"
       y1="14.052"
       x2="23.16"
       y2="14.052"
       gradientUnits="userSpaceOnUse" />
    <linearGradient
       inkscape:collect="always"
       xlink:href="#linearGradient9952"
       id="linearGradient5177"
       gradientUnits="userSpaceOnUse"
       gradientTransform="matrix(-0.476701,-0.692534,0.692534,-0.476701,-11.20758,84.50613)"
       x1="55.876038"
       y1="62.401989"
       x2="38.061356"
       y2="62.827091" />
    <linearGradient
       inkscape:collect="always"
       xlink:href="#linearGradient9910"
       id="linearGradient5180"
       gradientUnits="userSpaceOnUse"
       gradientTransform="matrix(-0.476701,-0.692534,0.692534,-0.476701,-11.20758,84.50613)"
       x1="28.244684"
       y1="60.445503"
       x2="28.244684"
       y2="68.224884" />
    <linearGradient
       inkscape:collect="always"
       xlink:href="#linearGradient9920"
       id="linearGradient5183"
       gradientUnits="userSpaceOnUse"
       gradientTransform="matrix(-0.476701,-0.692534,0.692534,-0.476701,-11.20758,84.50613)"
       x1="28.244684"
       y1="60.445503"
       x2="28.244684"
       y2="68.224884" />
    <linearGradient
       inkscape:collect="always"
       xlink:href="#linearGradient9910"
       id="linearGradient5186"
       gradientUnits="userSpaceOnUse"
       gradientTransform="matrix(-0.476701,-0.692534,0.692534,-0.476701,-11.20758,84.50613)"
       x1="28.244684"
       y1="60.445503"
       x2="28.244684"
       y2="68.224884" />
  </defs>
  <sodipodi:namedview
     id="base"
     pagecolor="#ffffff"
     bordercolor="#666666"
     borderopacity="1.0"
     inkscape:pageopacity="0.0"
     inkscape:pageshadow="2"
     inkscape:zoom="5.5"
     inkscape:cx="32"
     inkscape:cy="32"
     inkscape:current-layer="layer1"
     showgrid="true"
     inkscape:document-units="px"
     inkscape:grid-bbox="true"
     inkscape:window-width="823"
     inkscape:window-height="577"
     inkscape:window-x="20"
     inkscape:window-y="42" />
  <metadata
     id="metadata1957">
    <rdf:RDF>
      <cc:Work
         rdf:about="">
        <dc:format>image/svg+xml</dc:format>
        <dc:type
           rdf:resource="http://purl.org/dc/dcmitype/StillImage" />
      </cc:Work>
    </rdf:RDF>
  </metadata>
  <g
     id="layer1"
     inkscape:label="Layer 1"
     inkscape:groupmode="layer">
    <path
       sodipodi:type="arc"
       style="opacity:0.31868131;color:black;fill:url(#radialGradient5054);fill-opacity:1;fill-rule:evenodd;stroke:none;stroke-width:1;stroke-linecap:butt;stroke-linejoin:miter;marker:none;marker-start:none;marker-mid:none;marker-end:none;stroke-miterlimit:4;stroke-dasharray:none;stroke-dashoffset:0;stroke-opacity:1;visibility:visible;display:inline;overflow:visible"
       id="path5046"
       sodipodi:cx="23.25"
       sodipodi:cy="37.75"
       sodipodi:rx="14.375"
       sodipodi:ry="5.75"
       d="M 37.625 37.75 A 14.375 5.75 0 1 1  8.875,37.75 A 14.375 5.75 0 1 1  37.625 37.75 z"
       inkscape:r_cx="true"
       inkscape:r_cy="true"
       transform="matrix(0.856675,0,0,0.731225,-1.239355,21.6917)" />
    <path
       style="color:black;fill:#e7e7e7;fill-opacity:1;fill-rule:evenodd;stroke:#7d7d7d;stroke-width:0.96634257;stroke-linecap:butt;stroke-linejoin:miter;marker:none;marker-start:none;marker-mid:none;marker-end:none;stroke-miterlimit:4;stroke-dashoffset:0;stroke-opacity:1;visibility:visible;display:inline;overflow:visible"
       d="M 20.821331,36.269721 C 21.674043,35.682762 24.088357,37.801096 26.263755,40.961434 C 28.439152,44.121773 28.89108,47.590902 28.703207,47.720223 C 28.493822,47.864352 25.436182,46.188848 23.260783,43.02851 C 21.085386,39.868171 19.968619,36.85668 20.821331,36.269721 z "
       id="path9903"
       sodipodi:nodetypes="cszsc"
       inkscape:r_cx="true"
       inkscape:r_cy="true" />
    <g
       id="g9975"
       transform="matrix(0.769223,7.980116e-2,-7.980116e-2,0.769223,-0.77251,7.054542)"
       inkscape:r_cx="true"
       inkscape:r_cy="true">
      <path
         transform="matrix(-0.56251,-0.817194,0.825069,-0.567931,-15.22056,83.88674)"
         sodipodi:open="true"
         sodipodi:end="6.067175"
         sodipodi:start="4.0433671"
         inkscape:r_cy="true"
         inkscape:r_cx="true"
         d="M 32.085889,57.685642 A 13.0625,5.5 0 0 1 52.946432,60.821161"
         sodipodi:ry="5.5"
         sodipodi:rx="13.0625"
         sodipodi:cy="62"
         sodipodi:cx="40.1875"
         id="path9905"
         style="color:black;fill:none;fill-opacity:1;fill-rule:evenodd;stroke:#3465a4;stroke-width:1.25350261;stroke-linecap:butt;stroke-linejoin:miter;marker:none;marker-start:none;marker-mid:none;marker-end:none;stroke-miterlimit:4;stroke-dasharray:none;stroke-dashoffset:0;stroke-opacity:1;visibility:visible;display:inline;overflow:visible"
         sodipodi:type="arc" />
      <path
         transform="matrix(-0.56251,-0.817194,0.825069,-0.567931,-14.28556,81.45324)"
         sodipodi:end="9.0633414"
         sodipodi:start="5.9815064"
         inkscape:r_cy="true"
         inkscape:r_cx="true"
         d="M 36.364517,54.473244 A 3,1.5625 0 0 1 30.693831,55.490029 L 33.5,54.9375 z"
         sodipodi:ry="1.5625"
         sodipodi:rx="3"
         sodipodi:cy="54.9375"
         sodipodi:cx="33.5"
         id="path9907"
         style="color:black;fill:#729fcf;fill-opacity:1;fill-rule:evenodd;stroke:#3465a4;stroke-width:1.25350261;stroke-linecap:butt;stroke-linejoin:miter;marker:none;marker-start:none;marker-mid:none;marker-end:none;stroke-miterlimit:4;stroke-dasharray:none;stroke-dashoffset:0;stroke-opacity:1;visibility:visible;display:inline;overflow:visible"
         sodipodi:type="arc" />
    </g>
    <path
       style="color:black;fill:url(#linearGradient5186);fill-opacity:1;fill-rule:evenodd;stroke:#3465a4;stroke-width:0.96634269;stroke-linecap:butt;stroke-linejoin:miter;marker:none;marker-start:none;marker-mid:none;marker-end:none;stroke-miterlimit:4;stroke-dasharray:none;stroke-dashoffset:0;stroke-opacity:1;visibility:visible;display:inline;overflow:visible"
       d="M 15.441557,33.895535 C 18.284353,37.91041 21.07807,41.387599 23.383502,43.886236 L 27.120847,41.313659 C 25.418799,37.882755 22.768027,33.442977 19.553842,28.773527 C 13.752001,20.344824 7.998727,13.923558 5.7230501,13.16181 C 5.6532115,13.139678 5.5595565,13.110544 5.4965519,13.099497 C 5.4522566,13.09275 5.3866323,13.095044 5.345928,13.094065 C 5.2819657,13.094361 5.199957,13.107567 5.1454736,13.122935 C 5.1321545,13.127254 5.0913681,13.127281 5.0786559,13.132558 C 5.066248,13.138315 5.0406177,13.160138 5.0288244,13.166859 C 5.0230824,13.170461 5.0094966,13.180163 5.0039092,13.184009 C 4.9983218,13.187855 4.9844084,13.197083 4.978994,13.20116 C 4.9685044,13.209777 4.938969,13.225926 4.9291626,13.235461 C 4.9196944,13.245451 4.9051074,13.283541 4.8963176,13.29444 C 4.862511,13.339845 4.8208964,13.411735 4.7977844,13.471375 C 4.7841667,13.509747 4.7585944,13.570227 4.7490817,13.614012 C 4.7369067,13.676808 4.7306844,13.774693 4.7264248,13.847831 C 4.6255057,16.245493 8.5695477,23.912132 14.371389,32.340834 C 14.732392,32.865287 15.081868,33.387547 15.441557,33.895535 z "
       id="path9898"
       inkscape:r_cx="true"
       inkscape:r_cy="true" />
    <path
       style="color:black;fill:url(#linearGradient5183);fill-opacity:1;fill-rule:evenodd;stroke:#3465a4;stroke-width:0.96634269;stroke-linecap:butt;stroke-linejoin:miter;marker:none;marker-start:none;marker-mid:none;marker-end:none;stroke-miterlimit:4;stroke-dasharray:none;stroke-dashoffset:0;stroke-opacity:1;visibility:visible;display:inline;overflow:visible"
       d="M 11.029507,27.912645 C 11.751411,28.924956 12.49927,29.89762 13.209487,30.812907 L 18.441772,27.211299 C 17.586327,25.802842 16.636329,24.321682 15.610647,22.831608 C 10.715343,15.719891 5.6641814,10.438575 3.4898507,9.9708471 C 3.47075,9.9670697 3.4246902,9.9588037 3.4060456,9.9557926 C 3.387631,9.9531651 3.3401932,9.9425943 3.3222415,9.9407379 C 3.2779395,9.9370629 3.2129703,9.934102 3.1716176,9.9353061 C 3.1553154,9.9361816 3.1206207,9.9432639 3.1047998,9.9449299 C 3.0580636,9.9511145 2.9885574,9.9679375 2.946248,9.9813261 C 2.9323936,9.9861936 2.8927812,9.9852717 2.8794302,9.99095 C 2.8597825,10.000077 2.8231842,10.031433 2.8046836,10.042401 C 2.7986449,10.046263 2.7856766,10.055484 2.7797674,10.059552 C 2.7738582,10.06362 2.7606145,10.072441 2.7548522,10.076702 C 2.7380011,10.090069 2.6956453,10.113059 2.6801046,10.128154 C 2.6700343,10.138598 2.6567529,10.175929 2.6472605,10.187133 C 2.6196482,10.221874 2.5791189,10.280793 2.5566552,10.322241 C 2.5494521,10.336424 2.530449,10.366304 2.5238112,10.38122 C 2.5079226,10.419417 2.4874931,10.481161 2.4751094,10.523855 C 2.4704333,10.541288 2.4633713,10.589372 2.4592517,10.607513 C 2.4554076,10.626003 2.4466854,10.671978 2.443394,10.691169 C 2.1040163,12.889191 5.2339027,19.493004 10.129207,26.604722 C 10.433803,27.047228 10.724564,27.48503 11.029507,27.912645 z "
       id="path9893"
       inkscape:r_cx="true"
       inkscape:r_cy="true" />
    <path
       style="color:black;fill:url(#linearGradient5180);fill-opacity:1;fill-rule:evenodd;stroke:#3465a4;stroke-width:0.96634269;stroke-linecap:butt;stroke-linejoin:miter;marker:none;marker-start:none;marker-mid:none;marker-end:none;stroke-miterlimit:4;stroke-dasharray:none;stroke-dashoffset:0;stroke-opacity:1;visibility:visible;display:inline;overflow:visible"
       d="M 3.7399635,15.508864 L 7.4274772,12.970588 C 5.4707592,10.78204 3.7045857,9.4303041 2.7513212,9.484757 C 2.745239,9.4852247 2.7220516,9.4862591 2.7160371,9.4868445 C 2.7100912,9.4875466 2.6866313,9.4881123 2.680753,9.4889314 C 2.6749434,9.4898685 2.651209,9.4899632 2.645468,9.4910182 C 2.611445,9.498057 2.556547,9.5181574 2.5250674,9.5294929 C 2.5198927,9.5315024 2.5052545,9.5445128 2.5001522,9.5466431 C 2.4951224,9.5488939 2.4698245,9.5463583 2.4648681,9.5487308 C 2.4599852,9.551225 2.4447624,9.5632656 2.4399529,9.5658816 C 2.4352159,9.5686193 2.4196983,9.5801714 2.4150377,9.5830318 C 2.4104485,9.5860147 2.3946343,9.5970764 2.3901215,9.6001826 C 2.3856087,9.6032888 2.3696292,9.6141123 2.3652063,9.6173329 C 2.3608693,9.6206662 2.3445381,9.6310367 2.3402901,9.6344836 C 2.336129,9.6380428 2.319448,9.6479628 2.3153749,9.6516339 C 2.3113887,9.6554169 2.3047258,9.6799524 2.3008275,9.6838472 C 2.2970153,9.6878529 2.2796366,9.6968813 2.2759113,9.7009975 C 2.2540846,9.7263555 2.2157091,9.7704591 2.1969862,9.7997273 C 2.1939519,9.8047126 2.1853901,9.8268493 2.1824408,9.8319415 C 2.1795766,9.8371402 2.1706727,9.8588517 2.1678935,9.8641552 C 2.1651994,9.8695648 2.1559553,9.8908543 2.1533462,9.8963692 C 1.7621474,10.767369 2.3942371,12.899743 3.7399635,15.508864 z "
       id="path9888"
       inkscape:r_cx="true"
       inkscape:r_cy="true" />
    <path
       inkscape:r_cy="true"
       inkscape:r_cx="true"
       style="opacity:0.35714285;color:black;fill:none;fill-opacity:1;fill-rule:evenodd;stroke:url(#linearGradient5177);stroke-width:0.96634299;stroke-linecap:round;stroke-linejoin:round;marker:none;marker-start:none;marker-mid:none;marker-end:none;stroke-miterlimit:4;stroke-dasharray:none;stroke-dashoffset:0;stroke-opacity:1;visibility:visible;display:inline;overflow:visible"
       d="M 12.647113,28.289017 C 12.829584,28.547335 13.012519,28.78801 13.193783,29.040979 L 16.817176,26.543921 C 16.321294,25.791776 15.622101,24.564914 15.100714,23.782926 C 9.0979808,14.779876 3.2147638,10.281242 2.9694934,10.449224 C 2.6996943,10.634005 5.0611351,17.67466 11.180821,26.179608 C 11.540127,26.678959 12.301379,27.799573 12.647113,28.289017 z "
       id="path9930"
       sodipodi:nodetypes="cccszsc" />
    <polygon
       i:knockout="Off"
       points="21.878,14.552 10.037,14.552 10.818,13.552 22.66,13.552 21.878,14.552 "
       id="polygon21"
       style="fill:url(#linearGradient3398);fill-opacity:1.0;stroke:none;stroke-width:0.21162699;stroke-linejoin:round;stroke-miterlimit:4;stroke-dasharray:none;stroke-opacity:1"
       transform="matrix(3.339512,0,0,4.389844,-6.078494,-10.18609)" />
  </g>
</svg>
