<?xml version="1.0" encoding="UTF-8" standalone="no"?>
<!-- Created with Inkscape (http://www.inkscape.org/) -->
<svg
   xmlns:i="http://ns.adobe.com/AdobeIllustrator/10.0/"
   xmlns:dc="http://purl.org/dc/elements/1.1/"
   xmlns:cc="http://web.resource.org/cc/"
   xmlns:rdf="http://www.w3.org/1999/02/22-rdf-syntax-ns#"
   xmlns:svg="http://www.w3.org/2000/svg"
   xmlns="http://www.w3.org/2000/svg"
   xmlns:xlink="http://www.w3.org/1999/xlink"
   xmlns:sodipodi="http://sodipodi.sourceforge.net/DTD/sodipodi-0.dtd"
   xmlns:inkscape="http://www.inkscape.org/namespaces/inkscape"
   width="64px"
   height="64px"
   id="svg2384"
   sodipodi:version="0.32"
   inkscape:version="0.45"
   sodipodi:docbase="/Users/izo/Sites/spip-zone/_graphismes_/logos/spip_tango/spip_plugins/svg"
   sodipodi:docname="FpipR.svg"
   inkscape:output_extension="org.inkscape.output.svg.inkscape"
   inkscape:export-filename="/Users/izo/Sites/spip-zone/_graphismes_/logos/spip_tango/spip_plugins/png/FpipR-64.png"
   inkscape:export-xdpi="90"
   inkscape:export-ydpi="90"
   sodipodi:modified="TRUE">
  <defs
     id="defs2386"><linearGradient
   id="linearGradient2667">
  <stop
     id="stop2669"
     offset="0.0000000"
     style="stop-color:#ffffff;stop-opacity:1.0000000;" />
  <stop
     id="stop2671"
     offset="1.0000000"
     style="stop-color:#fcfcff;stop-opacity:0.0000000;" />
</linearGradient>
<linearGradient
   inkscape:collect="always"
   xlink:href="#linearGradient8493"
   id="linearGradient8698"
   gradientUnits="userSpaceOnUse"
   x1="30.664335"
   y1="6.5000005"
   x2="31.134615"
   y2="16.93182" />
<linearGradient
   id="linearGradient8493">
  <stop
     style="stop-color:#d3d7cf;stop-opacity:1;"
     offset="0"
     id="stop8495" />
  <stop
     id="stop8501"
     offset="1"
     style="stop-color:#555753;stop-opacity:1;" />
</linearGradient>
<linearGradient
   inkscape:collect="always"
   xlink:href="#linearGradient8493"
   id="linearGradient8680"
   gradientUnits="userSpaceOnUse"
   x1="30.452797"
   y1="10.863636"
   x2="30.076923"
   y2="1.0664344" />
<linearGradient
   id="linearGradient5853">
  <stop
     style="stop-color:#000000;stop-opacity:1;"
     offset="0"
     id="stop5855" />
  <stop
     id="stop8449"
     offset="1"
     style="stop-color:#555753;stop-opacity:1;" />
</linearGradient>
<linearGradient
   inkscape:collect="always"
   id="linearGradient4542">
  <stop
     style="stop-color:#000000;stop-opacity:1;"
     offset="0"
     id="stop4544" />
  <stop
     style="stop-color:#000000;stop-opacity:0;"
     offset="1"
     id="stop4546" />
</linearGradient>
<linearGradient
   id="XMLID_8_"
   gradientUnits="userSpaceOnUse"
   x1="20.7178"
   y1="30.1685"
   x2="56.8711"
   y2="30.1685">
			<stop
   offset="0"
   style="stop-color:#FFFFFF"
   id="stop2373" />

			<stop
   offset="1"
   style="stop-color:#000000"
   id="stop2375" />

		</linearGradient>
<linearGradient
   id="XMLID_7_"
   gradientUnits="userSpaceOnUse"
   x1="1.6299"
   y1="10.2397"
   x2="37.7842"
   y2="10.2397">
			<stop
   offset="0"
   style="stop-color:#FFFFFF"
   id="stop2366" />

			<stop
   offset="1"
   style="stop-color:#000000"
   id="stop2368" />

		</linearGradient>
<radialGradient
   id="XMLID_6_"
   cx="38.6323"
   cy="39.4634"
   r="19.5713"
   gradientUnits="userSpaceOnUse">
			<stop
   offset="0"
   style="stop-color:#0063DC"
   id="stop2343" />

			<stop
   offset="0.4139"
   style="stop-color:#0061DA"
   id="stop2345" />

			<stop
   offset="0.6077"
   style="stop-color:#005CD2"
   id="stop2347" />

			<stop
   offset="0.7557"
   style="stop-color:#0053C6"
   id="stop2349" />

			<stop
   offset="0.8796"
   style="stop-color:#0046B3"
   id="stop2351" />

			<stop
   offset="0.9887"
   style="stop-color:#00359C"
   id="stop2353" />

			<stop
   offset="1"
   style="stop-color:#003399"
   id="stop2355" />

		</radialGradient>
<radialGradient
   id="XMLID_5_"
   cx="19.5718"
   cy="19.5708"
   r="19.5713"
   gradientUnits="userSpaceOnUse">
			<stop
   offset="0"
   style="stop-color:#FF0084"
   id="stop2298" />

			<stop
   offset="0.3349"
   style="stop-color:#FD0083"
   id="stop2300" />

			<stop
   offset="0.4917"
   style="stop-color:#F5007F"
   id="stop2302" />

			<stop
   offset="0.6114"
   style="stop-color:#E90078"
   id="stop2304" />

			<stop
   offset="0.7124"
   style="stop-color:#D6006E"
   id="stop2306" />

			<stop
   offset="0.8015"
   style="stop-color:#BE0062"
   id="stop2308" />

			<stop
   offset="0.8823"
   style="stop-color:#A10052"
   id="stop2310" />

			<stop
   offset="0.9552"
   style="stop-color:#7F0040"
   id="stop2312" />

			<stop
   offset="1"
   style="stop-color:#660033"
   id="stop2314" />

		</radialGradient>

	<foreignObject
   id="foreignObject2293"
   height="1"
   width="1"
   y="0"
   x="0"
   requiredExtensions="http://ns.adobe.com/AdobeIllustrator/10.0/">
		<i:pgfRef
   xlink:href="#adobe_illustrator_pgf">
		</i:pgfRef>

	</foreignObject>

	
<radialGradient
   inkscape:collect="always"
   xlink:href="#XMLID_5_"
   id="radialGradient3227"
   gradientUnits="userSpaceOnUse"
   cx="19.5718"
   cy="19.5708"
   r="19.5713" />
<radialGradient
   inkscape:collect="always"
   xlink:href="#XMLID_6_"
   id="radialGradient3229"
   gradientUnits="userSpaceOnUse"
   cx="38.6323"
   cy="39.4634"
   r="19.5713" />

		<radialGradient
   id="radialGradient2419"
   cx="19.5718"
   cy="19.570801"
   r="19.571301"
   gradientUnits="userSpaceOnUse">
			<stop
   offset="0"
   style="stop-color:#FF0084"
   id="stop2421" />

			<stop
   offset="0.3349"
   style="stop-color:#FD0083"
   id="stop2423" />

			<stop
   offset="0.4917"
   style="stop-color:#F5007F"
   id="stop2425" />

			<stop
   offset="0.6114"
   style="stop-color:#E90078"
   id="stop2427" />

			<stop
   offset="0.7124"
   style="stop-color:#D6006E"
   id="stop2429" />

			<stop
   offset="0.8015"
   style="stop-color:#BE0062"
   id="stop2431" />

			<stop
   offset="0.8823"
   style="stop-color:#A10052"
   id="stop2433" />

			<stop
   offset="0.9552"
   style="stop-color:#7F0040"
   id="stop2435" />

			<stop
   offset="1"
   style="stop-color:#660033"
   id="stop2437" />

		</radialGradient>

		
		
		
		<radialGradient
   id="radialGradient2452"
   cx="38.632301"
   cy="39.463402"
   r="19.571301"
   gradientUnits="userSpaceOnUse">
			<stop
   offset="0"
   style="stop-color:#0063DC"
   id="stop2454" />

			<stop
   offset="0.4139"
   style="stop-color:#0061DA"
   id="stop2456" />

			<stop
   offset="0.6077"
   style="stop-color:#005CD2"
   id="stop2458" />

			<stop
   offset="0.7557"
   style="stop-color:#0053C6"
   id="stop2460" />

			<stop
   offset="0.8796"
   style="stop-color:#0046B3"
   id="stop2462" />

			<stop
   offset="0.9887"
   style="stop-color:#00359C"
   id="stop2464" />

			<stop
   offset="1"
   style="stop-color:#003399"
   id="stop2466" />

		</radialGradient>

		
		
		
		<linearGradient
   id="linearGradient2472"
   gradientUnits="userSpaceOnUse"
   x1="1.6299"
   y1="10.2397"
   x2="37.784199"
   y2="10.2397">
			<stop
   offset="0"
   style="stop-color:#FFFFFF"
   id="stop2474" />

			<stop
   offset="1"
   style="stop-color:#000000"
   id="stop2476" />

		</linearGradient>

		
		<linearGradient
   id="linearGradient2479"
   gradientUnits="userSpaceOnUse"
   x1="20.7178"
   y1="30.168501"
   x2="56.871101"
   y2="30.168501">
			<stop
   offset="0"
   style="stop-color:#FFFFFF"
   id="stop2481" />

			<stop
   offset="1"
   style="stop-color:#000000"
   id="stop2483" />

		</linearGradient>

		
	<linearGradient
   inkscape:collect="always"
   xlink:href="#linearGradient2667"
   id="linearGradient3263"
   gradientUnits="userSpaceOnUse"
   x1="18.53899"
   y1="1.455"
   x2="18.693289"
   y2="22.057882"
   gradientTransform="matrix(0.994971,0,0,1,2.9061976,2.545)" />
<linearGradient
   inkscape:collect="always"
   xlink:href="#linearGradient2667"
   id="linearGradient4305"
   gradientUnits="userSpaceOnUse"
   gradientTransform="matrix(0.994971,0,0,1,21.846651,22.545)"
   x1="18.53899"
   y1="1.455"
   x2="18.693289"
   y2="22.057882" />
<radialGradient
   inkscape:collect="always"
   xlink:href="#linearGradient4542"
   id="radialGradient4345"
   gradientUnits="userSpaceOnUse"
   gradientTransform="matrix(1,0,0,0.284916,0,30.08928)"
   cx="24.306795"
   cy="42.07798"
   fx="24.306795"
   fy="42.07798"
   r="15.821514" />
</defs>
  <sodipodi:namedview
     id="base"
     pagecolor="#ffffff"
     bordercolor="#666666"
     borderopacity="1.0"
     inkscape:pageopacity="0.0"
     inkscape:pageshadow="2"
     inkscape:zoom="5.5"
     inkscape:cx="32"
     inkscape:cy="32"
     inkscape:current-layer="layer1"
     showgrid="true"
     inkscape:document-units="px"
     inkscape:grid-bbox="true"
     showguides="true"
     inkscape:guide-bbox="true"
     inkscape:window-width="1680"
     inkscape:window-height="941"
     inkscape:window-x="0"
     inkscape:window-y="22" />
  <metadata
     id="metadata2389">
    <rdf:RDF>
      <cc:Work
         rdf:about="">
        <dc:format>image/svg+xml</dc:format>
        <dc:type
           rdf:resource="http://purl.org/dc/dcmitype/StillImage" />
        <cc:license
           rdf:resource="http://creativecommons.org/licenses/by-nc/2.5/" />
      </cc:Work>
      <cc:License
         rdf:about="http://creativecommons.org/licenses/by-nc/2.5/">
        <cc:permits
           rdf:resource="http://web.resource.org/cc/Reproduction" />
        <cc:permits
           rdf:resource="http://web.resource.org/cc/Distribution" />
        <cc:requires
           rdf:resource="http://web.resource.org/cc/Notice" />
        <cc:requires
           rdf:resource="http://web.resource.org/cc/Attribution" />
        <cc:prohibits
           rdf:resource="http://web.resource.org/cc/CommercialUse" />
        <cc:permits
           rdf:resource="http://web.resource.org/cc/DerivativeWorks" />
      </cc:License>
    </rdf:RDF>
  </metadata>
  <g
     id="layer1"
     inkscape:label="Layer 1"
     inkscape:groupmode="layer">
    <path
       sodipodi:type="arc"
       style="opacity:0.7836257;color:#000000;fill:url(#radialGradient4345);fill-opacity:1;fill-rule:evenodd;stroke:none;stroke-width:2;stroke-linecap:round;stroke-linejoin:round;marker:none;marker-start:none;marker-mid:none;marker-end:none;stroke-miterlimit:4;stroke-dasharray:none;stroke-dashoffset:0;stroke-opacity:1;visibility:visible;display:inline;overflow:visible"
       id="path3667"
       sodipodi:cx="24.306795"
       sodipodi:cy="42.07798"
       sodipodi:rx="15.821514"
       sodipodi:ry="4.5078058"
       d="M 40.128309 42.07798 A 15.821514 4.5078058 0 1 1  8.485281,42.07798 A 15.821514 4.5078058 0 1 1  40.128309 42.07798 z"
       transform="matrix(1.7219964,0,0,1.7219964,-8.0380319,-16.766011)" />
    <circle
       cx="19.572001"
       cy="19.570999"
       r="19.572001"
       id="circle2316"
       style="fill:url(#radialGradient3227)"
       sodipodi:cx="19.572001"
       sodipodi:cy="19.570999"
       sodipodi:rx="19.572001"
       sodipodi:ry="19.572001"
       transform="translate(2.8980007,2.4840002)" />
    <circle
       cx="19.572001"
       cy="19.570999"
       r="18.447001"
       id="circle2318"
       sodipodi:cx="19.572001"
       sodipodi:cy="19.570999"
       sodipodi:rx="18.447001"
       sodipodi:ry="18.447001"
       style="opacity:0.34591195;fill:none;stroke:#ffffff;stroke-width:1;stroke-miterlimit:4;stroke-dasharray:none"
       transform="translate(2.8980007,2.4840002)" />
    <g
       id="g2320"
       transform="translate(2.8980007,2.4840002)">
			<path
   d="M 10.868,16.802 C 10.68,17.13 9.475,16.562 9.265,16.432 C 8.577,16.005 8.159,15.319 8.263,14.498 C 8.474,12.826 10.227,11.639 11.827,11.765 C 13.595,11.905 15.053,13.511 15.502,15.137 C 15.983,16.878 15.124,18.691 13.886,19.888 C 13.673,20.094 13.473,20.422 13.561,20.733 C 13.641,21.02 13.97,20.966 14.143,20.798 C 15.863,19.135 16.972,16.771 16.41,14.357 C 15.875,12.061 13.537,10.232 11.168,10.621 C 9.034,10.971 7.062,13.495 7.328,15.657 C 7.544,17.402 10.425,19.151 11.548,17.195 C 11.944,16.503 11.265,16.11 10.868,16.802 L 10.868,16.802 z "
   id="path2322"
   style="fill:#ffffff;stroke:#ffffff;stroke-width:1.16600001" />

			<path
   d="M 23.027,19.877 C 23.083,19.222 24.118,18.847 24.632,18.654 C 25.276,18.412 25.967,18.298 26.652,18.262 C 27.877,18.199 29.187,18.486 30.187,19.218 C 30.945,19.774 31.791,21.193 30.902,21.974 C 29.817,22.93 27.87,22.522 26.637,22.158 C 26.357,22.075 26.025,22.766 26.37,22.868 C 27.966,23.339 30.258,23.615 31.43,22.123 C 32.262,21.063 31.715,19.556 30.807,18.744 C 29.502,17.576 27.54,17.393 25.881,17.662 C 24.531,17.881 22.604,18.608 22.469,20.188 C 22.429,20.637 23.002,20.162 23.027,19.877 L 23.027,19.877 z "
   id="path2324"
   style="fill:#ffffff;stroke:#ffffff;stroke-width:1.16600001" />

			<g
   id="g2326">
				<g
   id="g2328">
					<path
   d="M 23.301,21.509 C 20.792,19.548 16.258,19.816 13.947,21.978 C 13.731,22.18 13.535,22.516 13.621,22.823 C 13.703,23.113 14.028,23.052 14.204,22.888 C 16.291,20.935 20.43,20.908 22.648,22.641 C 23.052,22.958 23.736,21.849 23.301,21.509 L 23.301,21.509 z "
   id="path2330"
   style="fill:#ffffff;stroke:#ffffff;stroke-width:1.16600001" />

				</g>

			</g>

			<path
   d="M 21.799,24.819 C 21.31,27.181 24.108,27.354 25.671,26.616 C 26.125,26.402 26.359,25.204 25.653,25.537 C 24.791,25.944 22.397,26.128 22.716,24.586 C 22.764,24.353 22.665,24.039 22.368,24.115 C 22.064,24.193 21.858,24.532 21.799,24.819 L 21.799,24.819 z "
   id="path2332"
   style="fill:#ffffff;stroke:#ffffff;stroke-width:1.16600001" />

			<path
   d="M 13.128,25.888 C 13.482,25.833 13.821,25.824 14.146,25.99 C 14.321,26.08 14.391,26.268 14.45,26.441 C 14.523,26.655 14.634,26.451 14.448,26.556 C 14.036,26.788 13.409,26.827 12.945,26.86 C 11.963,26.93 10.349,26.751 10.438,28.251 C 10.484,29.028 11.411,28.227 11.381,27.728 C 11.026,28.078 10.958,28.206 11.18,28.111 C 11.259,28.091 11.34,28.077 11.421,28.069 C 11.608,28.042 11.807,28.056 11.995,28.058 C 12.307,28.06 12.608,28.052 12.918,28.013 C 13.545,27.933 14.272,27.864 14.773,27.434 C 15.352,26.939 15.551,26.227 15.305,25.509 C 15.014,24.655 14.113,24.593 13.35,24.714 C 12.866,24.788 12.457,25.994 13.128,25.888 L 13.128,25.888 z "
   id="path2334"
   style="fill:#ffffff;stroke:#ffffff;stroke-width:1.16600001" />

			<g
   id="g2336">
				<path
   d="M 27.014,19.397 C 27.115,18.953 27.692,18.703 28.305,18.839 C 28.917,18.976 29.333,19.448 29.234,19.893 C 29.134,20.338 28.558,20.587 27.944,20.451 C 27.331,20.313 26.915,19.842 27.014,19.397 z "
   id="path2338"
   style="fill:#ffffff;stroke:#ffffff;stroke-width:1.16600001" />

			</g>

			<path
   d="M 26.02,17.775 C 26.02,17.775 23.929,16.521 23.631,17.058 C 23.333,17.595 23.512,18.432 23.929,18.432"
   id="path2340"
   style="fill:#ffffff;stroke:#ffffff;stroke-width:1.16600001" />

		</g>
    <circle
       cx="38.632999"
       cy="39.462002"
       r="19.570999"
       id="circle2357"
       style="fill:url(#radialGradient3229)"
       sodipodi:cx="38.632999"
       sodipodi:cy="39.462002"
       sodipodi:rx="19.570999"
       sodipodi:ry="19.570999"
       transform="translate(2.8980007,2.4840002)" />
    <circle
       cx="38.632999"
       cy="39.462002"
       r="18.445999"
       id="circle2359"
       sodipodi:cx="38.632999"
       sodipodi:cy="39.462002"
       sodipodi:rx="18.445999"
       sodipodi:ry="18.445999"
       style="opacity:0.39622642;fill:none;stroke:#ffffff;stroke-width:1;stroke-miterlimit:4;stroke-dasharray:none"
       transform="translate(2.8980007,2.4840002)" />
    <g
       id="g2361"
       transform="translate(2.8980007,2.4840002)">
			<path
   d="M 34.909,51.289 L 34.909,39.478 L 32.843,39.478 L 32.843,35.148 L 34.909,35.148 L 34.909,34.593 C 34.909,32.82 35.534,30.622 37.007,29.309 C 38.353,28.062 40.189,27.637 41.7,27.637 C 42.815,27.637 43.667,27.735 44.423,27.932 L 44.29,32.459 C 43.866,32.328 43.372,32.264 42.784,32.264 C 41.503,32.264 40.782,33.182 40.782,34.364 L 40.782,35.149 L 43.735,35.149 L 43.735,39.479 L 40.846,39.479 L 40.846,51.29 L 34.909,51.29 L 34.909,51.289 z "
   id="path2363"
   style="fill:#ffffff" />

		</g>
    <path
       d="M 40.500183,21.569 C 40.216616,11.821 32.281722,4 22.514092,4 C 12.746462,4 4.812562,11.821 4.5280003,21.569 L 40.500183,21.569 L 40.500183,21.569 z "
       id="path2370"
       style="opacity:0.68553461;fill:url(#linearGradient3263);fill-opacity:1" />
    <path
       d="M 59.440637,41.569 C 59.15707,31.821 51.222176,24 41.454546,24 C 31.686916,24 23.753016,31.821 23.468454,41.569 L 59.440637,41.569 L 59.440637,41.569 z "
       id="path4303"
       style="opacity:0.68553461;fill:url(#linearGradient4305);fill-opacity:1" />
  </g>
</svg>
