<?xml version="1.0" encoding="UTF-8" standalone="no"?>
<!-- Created with Inkscape (http://www.inkscape.org/) -->
<svg
   xmlns:ns="http://creativecommons.org/ns#"
   xmlns:dc="http://purl.org/dc/elements/1.1/"
   xmlns:cc="http://web.resource.org/cc/"
   xmlns:rdf="http://www.w3.org/1999/02/22-rdf-syntax-ns#"
   xmlns:svg="http://www.w3.org/2000/svg"
   xmlns="http://www.w3.org/2000/svg"
   xmlns:xlink="http://www.w3.org/1999/xlink"
   xmlns:sodipodi="http://sodipodi.sourceforge.net/DTD/sodipodi-0.dtd"
   xmlns:inkscape="http://www.inkscape.org/namespaces/inkscape"
   width="64px"
   height="64px"
   id="svg2397"
   sodipodi:version="0.32"
   inkscape:version="0.45.1"
   sodipodi:docname="honeypot.svg"
   inkscape:output_extension="org.inkscape.output.svg.inkscape"
   sodipodi:docbase="/Users/izo/Desktop/SPIP en cours/spip-zone/_graphismes_/logos/spip_tango/spip_plugins/svg">
  <defs
     id="defs2399">
    <linearGradient
       inkscape:collect="always"
       xlink:href="#linearGradient4545"
       id="linearGradient4551"
       x1="27.0625"
       y1="21.3125"
       x2="27.0625"
       y2="37.770069"
       gradientUnits="userSpaceOnUse"
       gradientTransform="translate(0,-4)" />
    <linearGradient
       inkscape:collect="always"
       id="linearGradient4483">
      <stop
         style="stop-color:#555753;stop-opacity:1"
         offset="0"
         id="stop4485" />
      <stop
         style="stop-color:#555753;stop-opacity:0"
         offset="1"
         id="stop4487" />
    </linearGradient>
    <linearGradient
       inkscape:collect="always"
       xlink:href="#linearGradient4483"
       id="linearGradient4489"
       x1="14.470914"
       y1="44.242531"
       x2="15.025847"
       y2="38.546875"
       gradientUnits="userSpaceOnUse" />
    <linearGradient
       inkscape:collect="always"
       id="linearGradient3376">
      <stop
         style="stop-color:#ffffff;stop-opacity:1;"
         offset="0"
         id="stop3378" />
      <stop
         style="stop-color:#ffffff;stop-opacity:0;"
         offset="1"
         id="stop3380" />
    </linearGradient>
    <linearGradient
       inkscape:collect="always"
       xlink:href="#linearGradient3376"
       id="linearGradient3382"
       x1="21.487648"
       y1="39.649643"
       x2="20.30304"
       y2="38.546875"
       gradientUnits="userSpaceOnUse"
       gradientTransform="matrix(1.7161243,0,0,0.580864,5.241573,-11.386391)" />
    <linearGradient
       inkscape:collect="always"
       xlink:href="#linearGradient4524"
       id="linearGradient4514"
       x1="16.760378"
       y1="35.750408"
       x2="16.175068"
       y2="41.719719"
       gradientUnits="userSpaceOnUse" />
    <linearGradient
       id="linearGradient4524">
      <stop
         style="stop-color:#c4a000;stop-opacity:1;"
         offset="0"
         id="stop4526" />
      <stop
         style="stop-color:#fce94f;stop-opacity:1;"
         offset="1"
         id="stop4528" />
    </linearGradient>
    <linearGradient
       inkscape:collect="always"
       xlink:href="#linearGradient4524"
       id="linearGradient3096"
       x1="15.550382"
       y1="42.363541"
       x2="16.175068"
       y2="31.409735"
       gradientUnits="userSpaceOnUse" />
    <linearGradient
       id="linearGradient4532">
      <stop
         style="stop-color:#c4a000;stop-opacity:1;"
         offset="0"
         id="stop4534" />
      <stop
         id="stop4540"
         offset="0.5"
         style="stop-color:#fce94f;stop-opacity:1;" />
      <stop
         style="stop-color:#c4a000;stop-opacity:1;"
         offset="1"
         id="stop4536" />
    </linearGradient>
    <linearGradient
       inkscape:collect="always"
       xlink:href="#linearGradient4532"
       id="linearGradient3086"
       x1="22"
       y1="28.46875"
       x2="44"
       y2="28.46875"
       gradientUnits="userSpaceOnUse" />
    <linearGradient
       inkscape:collect="always"
       id="linearGradient4473">
      <stop
         style="stop-color:#000000;stop-opacity:1;"
         offset="0"
         id="stop4475" />
      <stop
         style="stop-color:#000000;stop-opacity:0;"
         offset="1"
         id="stop4477" />
    </linearGradient>
    <linearGradient
       inkscape:collect="always"
       xlink:href="#linearGradient4473"
       id="linearGradient4479"
       x1="14.299476"
       y1="43.572605"
       x2="14.335895"
       y2="40.669292"
       gradientUnits="userSpaceOnUse" />
    <linearGradient
       inkscape:collect="always"
       id="linearGradient4447">
      <stop
         style="stop-color:#ffffff;stop-opacity:1;"
         offset="0"
         id="stop4449" />
      <stop
         style="stop-color:#ffffff;stop-opacity:0;"
         offset="1"
         id="stop4451" />
    </linearGradient>
    <linearGradient
       inkscape:collect="always"
       xlink:href="#linearGradient4447"
       id="linearGradient4453"
       x1="34.648232"
       y1="7.8655415"
       x2="34.648232"
       y2="30.738459"
       gradientUnits="userSpaceOnUse"
       gradientTransform="translate(0,-4)" />
    <linearGradient
       inkscape:collect="always"
       id="linearGradient4545">
      <stop
         style="stop-color:#ffffff;stop-opacity:1;"
         offset="0"
         id="stop4547" />
      <stop
         style="stop-color:#ffffff;stop-opacity:0;"
         offset="1"
         id="stop4549" />
    </linearGradient>
    <linearGradient
       inkscape:collect="always"
       xlink:href="#linearGradient4545"
       id="linearGradient4559"
       gradientUnits="userSpaceOnUse"
       x1="27.0625"
       y1="19.184877"
       x2="27.0625"
       y2="34.681152"
       gradientTransform="translate(12,-12.140625)" />
    <linearGradient
       inkscape:collect="always"
       id="linearGradient4579">
      <stop
         style="stop-color:#ffffff;stop-opacity:1;"
         offset="0"
         id="stop4581" />
      <stop
         style="stop-color:#ffffff;stop-opacity:0;"
         offset="1"
         id="stop4583" />
    </linearGradient>
    <linearGradient
       inkscape:collect="always"
       xlink:href="#linearGradient4579"
       id="linearGradient4585"
       x1="21.38998"
       y1="19.980894"
       x2="27.488775"
       y2="64.086678"
       gradientUnits="userSpaceOnUse"
       gradientTransform="translate(0,-4)" />
    <linearGradient
       id="linearGradient4134">
      <stop
         style="stop-color:#d6d7d5;stop-opacity:1;"
         offset="0"
         id="stop4136" />
      <stop
         id="stop4148"
         offset="0.25"
         style="stop-color:#d1d2d0;stop-opacity:1;" />
      <stop
         id="stop4142"
         offset="0.50000000"
         style="stop-color:#a5a6a3;stop-opacity:1.0000000;" />
      <stop
         style="stop-color:#dddedc;stop-opacity:1;"
         offset="1"
         id="stop4138" />
    </linearGradient>
    <linearGradient
       inkscape:collect="always"
       xlink:href="#linearGradient4134"
       id="linearGradient3650"
       x1="20.875"
       y1="26.5"
       x2="45.515541"
       y2="26.5"
       gradientUnits="userSpaceOnUse"
       gradientTransform="translate(0,-4)" />
    <linearGradient
       inkscape:collect="always"
       id="linearGradient4563">
      <stop
         style="stop-color:#000000;stop-opacity:1;"
         offset="0"
         id="stop4565" />
      <stop
         style="stop-color:#000000;stop-opacity:0;"
         offset="1"
         id="stop4567" />
    </linearGradient>
    <radialGradient
       inkscape:collect="always"
       xlink:href="#linearGradient4563"
       id="radialGradient4589"
       gradientUnits="userSpaceOnUse"
       gradientTransform="matrix(1,0,0,0.6179775,0,14.72408)"
       cx="16.175068"
       cy="38.542446"
       fx="16.175068"
       fy="38.542446"
       r="7.8665628" />
  </defs>
  <sodipodi:namedview
     id="base"
     pagecolor="#ffffff"
     bordercolor="#666666"
     borderopacity="1.0"
     inkscape:pageopacity="0.0"
     inkscape:pageshadow="2"
     inkscape:zoom="5.5"
     inkscape:cx="7.0909091"
     inkscape:cy="32"
     inkscape:current-layer="layer1"
     showgrid="true"
     inkscape:document-units="px"
     inkscape:grid-bbox="true"
     inkscape:window-width="1110"
     inkscape:window-height="750"
     inkscape:window-x="220"
     inkscape:window-y="46" />
  <metadata
     id="metadata2402">
    <rdf:RDF>
      <ns:Work
         rdf:about="">
        <dc:format>image/svg+xml</dc:format>
        <dc:type
           rdf:resource="http://purl.org/dc/dcmitype/StillImage" />
      </ns:Work>
      <cc:Work
         rdf:about="">
        <dc:format>image/svg+xml</dc:format>
        <dc:type
           rdf:resource="http://purl.org/dc/dcmitype/StillImage" />
        <dc:title>Honeypot</dc:title>
        <dc:creator>
          <cc:Agent>
            <dc:title>Mathieu Drouet</dc:title>
          </cc:Agent>
        </dc:creator>
        <dc:description>icone pour le plugin spip</dc:description>
        <cc:license
           rdf:resource="http://creativecommons.org/licenses/by-sa/2.5/" />
      </cc:Work>
      <cc:License
         rdf:about="http://creativecommons.org/licenses/by-sa/2.5/">
        <cc:permits
           rdf:resource="http://web.resource.org/cc/Reproduction" />
        <cc:permits
           rdf:resource="http://web.resource.org/cc/Distribution" />
        <cc:requires
           rdf:resource="http://web.resource.org/cc/Notice" />
        <cc:requires
           rdf:resource="http://web.resource.org/cc/Attribution" />
        <cc:permits
           rdf:resource="http://web.resource.org/cc/DerivativeWorks" />
        <cc:requires
           rdf:resource="http://web.resource.org/cc/ShareAlike" />
      </cc:License>
    </rdf:RDF>
  </metadata>
  <g
     id="layer1"
     inkscape:label="Layer 1"
     inkscape:groupmode="layer">
    <g
       id="g3609"
       transform="matrix(1.2708595,0,0,1.2708595,-11.011546,8.9733318)">
      <path
         transform="matrix(1.9327229,0,0,1.4929424,2.0341897,-23.85744)"
         d="M 24.041631 38.542446 A 7.8665628 4.8613591 0 1 1  8.3085051,38.542446 A 7.8665628 4.8613591 0 1 1  24.041631 38.542446 z"
         sodipodi:ry="4.8613591"
         sodipodi:rx="7.8665628"
         sodipodi:cy="38.542446"
         sodipodi:cx="16.175068"
         id="path4587"
         style="opacity:0.9;color:#000000;fill:url(#radialGradient4589);fill-opacity:1;fill-rule:nonzero;stroke:none;stroke-width:1.47826481;stroke-linecap:round;stroke-linejoin:round;marker:none;marker-start:none;marker-mid:none;marker-end:none;stroke-miterlimit:4;stroke-dasharray:none;stroke-dashoffset:0;stroke-opacity:1;visibility:visible;display:inline;overflow:visible;enable-background:accumulate"
         sodipodi:type="arc" />
      <path
         sodipodi:nodetypes="cccccscccccc"
         id="path4435"
         d="M 33,7.5 C 25.548,7.5 19.5,8.516001 19.5,11 L 19.5,12 C 19.5,12.598934 19.86187,13.164682 20.5,13.6875 L 20.5,34 C 20.5,36.484 26.1,38.5 33,38.5 C 39.9,38.5 45.499999,36.483999 45.5,34 L 45.5,21.109375 L 45.5,13.6875 C 46.13813,13.164682 46.5,12.598934 46.5,12 L 46.5,11 C 46.5,8.516 40.452,7.5 33,7.5 z "
         style="opacity:1;color:#000000;fill:url(#linearGradient3650);fill-opacity:1;fill-rule:nonzero;stroke:#767973;stroke-width:1;stroke-linecap:round;stroke-linejoin:round;marker:none;marker-start:none;marker-mid:none;marker-end:none;stroke-miterlimit:4;stroke-dasharray:none;stroke-dashoffset:0;stroke-opacity:1;visibility:visible;display:inline;overflow:visible;enable-background:accumulate" />
      <path
         transform="matrix(1.7161243,0,0,0.580864,5.241573,-11.386391)"
         d="M 16.1875,34.25 C 14.107496,34.25 12.225837,34.752305 10.90625,35.5625 C 9.586663,36.372695 8.875,37.43076 8.875,38.53125 C 8.875,39.63174 9.5863544,40.682384 10.90625,41.5 C 12.226146,42.317616 14.108815,42.84375 16.1875,42.84375 C 18.266185,42.84375 20.125806,42.317012 21.4375,41.5 C 22.749194,40.682988 23.46875,39.633874 23.46875,38.53125 C 23.46875,37.428626 22.74888,36.372091 21.4375,35.5625 C 20.12612,34.752909 18.267504,34.25 16.1875,34.25 z "
         id="path3369"
         style="opacity:0.66283504;color:#000000;fill:none;fill-opacity:1;fill-rule:nonzero;stroke:#ffffff;stroke-width:1.00158632;stroke-linecap:round;stroke-linejoin:round;marker:none;marker-start:none;marker-mid:none;marker-end:none;stroke-miterlimit:4;stroke-dasharray:none;stroke-dashoffset:0;stroke-opacity:1;visibility:visible;display:inline;overflow:visible;enable-background:accumulate"
         inkscape:original="M 16.1875 33.6875 C 11.845157 33.6875 8.3125 35.84778 8.3125 38.53125 C 8.3125 41.21472 11.845157 43.40625 16.1875 43.40625 C 20.529843 43.40625 24.031251 41.21472 24.03125 38.53125 C 24.03125 35.84778 20.529843 33.6875 16.1875 33.6875 z "
         inkscape:radius="-0.54976141"
         sodipodi:type="inkscape:offset" />
      <path
         sodipodi:nodetypes="cccsccsssssccsccz"
         id="path3276"
         d="M 33,8.5 C 27.5,8.5 20.5,9.5 20.5,11 L 20.5,12 C 20.5,12.190383 20.650185,12.491633 21.15625,12.90625 C 21.380149,13.103443 21.505883,13.389203 21.5,13.6875 L 21.5,34 C 21.5,34.239891 21.631023,34.548541 22.125,34.96875 C 22.618977,35.388959 23.446046,35.839327 24.5,36.21875 C 26.607907,36.977597 29.648783,37.5 33,37.5 C 36.351217,37.5 39.392093,36.977597 41.5,36.21875 C 42.553954,35.839327 43.381023,35.388959 43.875,34.96875 C 44.368977,34.548541 44.5,34.239891 44.5,34 L 44.5,13.6875 C 44.494117,13.389203 44.619851,13.103443 44.84375,12.90625 C 45.349815,12.491633 45.5,12.190383 45.5,12 L 45.5,11 C 45.5,9.5 38.5,8.5 33,8.5 z "
         style="opacity:0.66283504;color:#000000;fill:none;fill-opacity:1;fill-rule:nonzero;stroke:url(#linearGradient4585);stroke-width:1;stroke-linecap:round;stroke-linejoin:round;marker:none;marker-start:none;marker-mid:none;marker-end:none;stroke-miterlimit:4;stroke-dashoffset:0;stroke-opacity:1;visibility:visible;display:inline;overflow:visible;enable-background:accumulate" />
      <path
         sodipodi:nodetypes="ccccc"
         id="path4557"
         d="M 37,8.192402 C 38.901083,8.392634 41.279492,8.944072 42,9.24862 L 42,27.361977 L 37,27.361977 L 37,8.192402 z "
         style="opacity:0.4;color:#000000;fill:url(#linearGradient4559);fill-opacity:1;fill-rule:nonzero;stroke:none;stroke-width:1;stroke-linecap:round;stroke-linejoin:round;marker:none;marker-start:none;marker-mid:none;marker-end:none;stroke-miterlimit:4;stroke-dashoffset:0;stroke-opacity:1;visibility:visible;display:inline;overflow:visible;enable-background:accumulate" />
      <path
         sodipodi:nodetypes="cccsccsssssccsccz"
         id="path4443"
         d="M 33,8 C 29,8 20,8.5 20,11 L 20,12 C 20,12.39524 20.240215,12.812378 20.8125,13.28125 C 20.934759,13.380153 21.004057,13.530298 21,13.6875 L 21,34 C 21,34.430988 21.248908,34.895571 21.8125,35.375 C 22.376092,35.854429 23.251038,36.325374 24.34375,36.71875 C 26.529174,37.505503 29.599251,38 33,38 C 36.400749,38 39.470826,37.505503 41.65625,36.71875 C 42.748962,36.325374 43.623908,35.854429 44.1875,35.375 C 44.751092,34.895571 45,34.430988 45,34 L 45,13.6875 C 44.995943,13.530298 45.065241,13.380153 45.1875,13.28125 C 45.759785,12.812378 46,12.39524 46,12 L 46,11 C 46,8.5 37,8 33,8 z "
         style="opacity:0.57854411;color:#000000;fill:url(#linearGradient4453);fill-opacity:1;fill-rule:nonzero;stroke:none;stroke-width:1;stroke-linecap:round;stroke-linejoin:round;marker:none;marker-start:none;marker-mid:none;marker-end:none;stroke-miterlimit:4;stroke-dashoffset:0;stroke-opacity:1;visibility:visible;display:inline;overflow:visible;enable-background:accumulate" />
      <path
         transform="matrix(1.7161243,0,0,0.7199634,5.241573,-15.749151)"
         d="M 24.041631 38.542446 A 7.8665628 4.8613591 0 1 1  8.3085051,38.542446 A 7.8665628 4.8613591 0 1 1  24.041631 38.542446 z"
         sodipodi:ry="4.8613591"
         sodipodi:rx="7.8665628"
         sodipodi:cy="38.542446"
         sodipodi:cx="16.175068"
         id="path4463"
         style="opacity:0.11111109;color:#000000;fill:none;fill-opacity:1;fill-rule:nonzero;stroke:url(#linearGradient4479);stroke-width:0.89964348;stroke-linecap:round;stroke-linejoin:round;marker:none;marker-start:none;marker-mid:none;marker-end:none;stroke-miterlimit:4;stroke-dasharray:none;stroke-dashoffset:0;stroke-opacity:1;visibility:visible;display:inline;overflow:visible;enable-background:accumulate"
         sodipodi:type="arc" />
      <path
         sodipodi:nodetypes="ccsccc"
         id="path4499"
         d="M 22.5,20.5 L 22.5,33 C 22.5,34.892193 27.204,36.4375 33,36.4375 C 38.796,36.4375 43.5,34.892193 43.5,33 L 43.5,20.5 L 22.5,20.5 z "
         style="opacity:1;color:#000000;fill:url(#linearGradient3086);fill-opacity:1;fill-rule:nonzero;stroke:#c4a000;stroke-width:0.99999994;stroke-linecap:round;stroke-linejoin:round;marker:none;marker-start:none;marker-mid:none;marker-end:none;stroke-miterlimit:4;stroke-dasharray:none;stroke-dashoffset:0;stroke-opacity:1;visibility:visible;display:inline;overflow:visible;enable-background:accumulate" />
      <path
         transform="matrix(1.7161243,0,0,0.580864,5.241573,-11.386391)"
         d="M 16.1875,34.25 C 14.107496,34.25 12.225837,34.752305 10.90625,35.5625 C 9.586663,36.372695 8.875,37.43076 8.875,38.53125 C 8.875,39.63174 9.5863544,40.682384 10.90625,41.5 C 12.226146,42.317616 14.108815,42.84375 16.1875,42.84375 C 18.266185,42.84375 20.125806,42.317012 21.4375,41.5 C 22.749194,40.682988 23.46875,39.633874 23.46875,38.53125 C 23.46875,37.428626 22.74888,36.372091 21.4375,35.5625 C 20.12612,34.752909 18.267504,34.25 16.1875,34.25 z "
         id="path4461"
         style="opacity:0.66283504;color:#000000;fill:none;fill-opacity:1;fill-rule:nonzero;stroke:#ffffff;stroke-width:1.00158632;stroke-linecap:round;stroke-linejoin:round;marker:none;marker-start:none;marker-mid:none;marker-end:none;stroke-miterlimit:4;stroke-dasharray:none;stroke-dashoffset:0;stroke-opacity:1;visibility:visible;display:inline;overflow:visible;enable-background:accumulate"
         inkscape:original="M 16.1875 33.6875 C 11.845157 33.6875 8.3125 35.84778 8.3125 38.53125 C 8.3125 41.21472 11.845157 43.40625 16.1875 43.40625 C 20.529843 43.40625 24.031251 41.21472 24.03125 38.53125 C 24.03125 35.84778 20.529843 33.6875 16.1875 33.6875 z "
         inkscape:radius="-0.54976141"
         sodipodi:type="inkscape:offset" />
      <path
         transform="matrix(1.3347634,0,0,0.6096944,11.410111,-2.9630563)"
         d="M 24.041631 38.542446 A 7.8665628 4.8613591 0 1 1  8.3085051,38.542446 A 7.8665628 4.8613591 0 1 1  24.041631 38.542446 z"
         sodipodi:ry="4.8613591"
         sodipodi:rx="7.8665628"
         sodipodi:cy="38.542446"
         sodipodi:cx="16.175068"
         id="path4501"
         style="opacity:1;color:#000000;fill:url(#linearGradient3096);fill-opacity:1;fill-rule:nonzero;stroke:url(#linearGradient4514);stroke-width:1.10851538;stroke-linecap:round;stroke-linejoin:round;marker:none;marker-start:none;marker-mid:none;marker-end:none;stroke-miterlimit:4;stroke-dasharray:none;stroke-dashoffset:0;stroke-opacity:1;visibility:visible;display:inline;overflow:visible;enable-background:accumulate"
         sodipodi:type="arc" />
      <path
         id="path3373"
         d="M 33.021335,8.508201 C 29.45179,8.508201 26.222629,8.7999719 23.958054,9.270585 C 21.693478,9.741198 20.472176,10.35579 20.472176,10.995025 C 20.472176,11.63426 21.692949,12.244541 23.958054,12.719465 C 26.223159,13.194389 29.454053,13.500001 33.021335,13.500001 C 36.588617,13.500001 39.779958,13.194038 42.030988,12.719465 C 44.282018,12.244892 45.516865,11.6355 45.516865,10.995025 C 45.516865,10.35455 44.281479,9.740847 42.030988,9.270585 C 39.780497,8.8003227 36.590881,8.508201 33.021335,8.508201 z "
         style="opacity:0.66283504;color:#000000;fill:none;fill-opacity:1;fill-rule:nonzero;stroke:url(#linearGradient3382);stroke-width:0.99999994;stroke-linecap:round;stroke-linejoin:round;marker:none;marker-start:none;marker-mid:none;marker-end:none;stroke-miterlimit:4;stroke-dashoffset:0;stroke-opacity:1;visibility:visible;display:inline;overflow:visible;enable-background:accumulate" />
      <path
         transform="matrix(1.576768,0,0,0.4654543,7.4952249,-7.4418108)"
         d="M 16.1875,34.25 C 14.107496,34.25 12.225837,34.752305 10.90625,35.5625 C 9.586663,36.372695 8.875,37.43076 8.875,38.53125 C 8.875,39.63174 9.5863544,40.682384 10.90625,41.5 C 12.226146,42.317616 14.108815,42.84375 16.1875,42.84375 C 18.266185,42.84375 20.125806,42.317012 21.4375,41.5 C 22.749194,40.682988 23.46875,39.633874 23.46875,38.53125 C 23.46875,37.428626 22.74888,36.372091 21.4375,35.5625 C 20.12612,34.752909 18.267504,34.25 16.1875,34.25 z "
         id="path4481"
         style="opacity:0.36015326;color:#000000;fill:none;fill-opacity:1;fill-rule:nonzero;stroke:url(#linearGradient4489);stroke-width:1.16728663;stroke-linecap:round;stroke-linejoin:round;marker:none;marker-start:none;marker-mid:none;marker-end:none;stroke-miterlimit:4;stroke-dasharray:none;stroke-dashoffset:0;stroke-opacity:1;visibility:visible;display:inline;overflow:visible;enable-background:accumulate"
         inkscape:original="M 16.1875 33.6875 C 11.845157 33.6875 8.3125 35.84778 8.3125 38.53125 C 8.3125 41.21472 11.845157 43.40625 16.1875 43.40625 C 20.529843 43.40625 24.031251 41.21472 24.03125 38.53125 C 24.03125 35.84778 20.529843 33.6875 16.1875 33.6875 z "
         inkscape:radius="-0.54976141"
         sodipodi:type="inkscape:offset" />
      <path
         sodipodi:nodetypes="ccccc"
         id="rect4542"
         d="M 25,16.176777 C 26.602879,16.537042 28.7993,16.758796 30,16.889245 L 30,35.502602 L 25,35.502602 L 25,16.176777 z "
         style="opacity:0.6;color:#000000;fill:url(#linearGradient4551);fill-opacity:1;fill-rule:nonzero;stroke:none;stroke-width:1;stroke-linecap:round;stroke-linejoin:round;marker:none;marker-start:none;marker-mid:none;marker-end:none;stroke-miterlimit:4;stroke-dashoffset:0;stroke-opacity:1;visibility:visible;display:inline;overflow:visible;enable-background:accumulate" />
      <g
         inkscape:transform-center-y="2.3586946"
         inkscape:transform-center-x="2.358694"
         transform="matrix(0.2537314,0.1779842,-0.1779842,0.2537314,23.153229,5.5431523)"
         id="g3545">
        <g
           id="g3106"
           transform="translate(-0.4119493,0)"
           style="fill:#555753;fill-opacity:1;stroke:#555753;stroke-opacity:1">
          <path
             transform="translate(2,-3.8828447e-2)"
             d="M -25.00545 -6.1267028 A 1.4754769 1.4754769 0 1 1  -27.956403,-6.1267028 A 1.4754769 1.4754769 0 1 1  -25.00545 -6.1267028 z"
             sodipodi:ry="1.4754769"
             sodipodi:rx="1.4754769"
             sodipodi:cy="-6.1267028"
             sodipodi:cx="-26.480927"
             id="path3098"
             style="fill:#555753;fill-opacity:1;stroke:#555753;stroke-opacity:1"
             sodipodi:type="arc" />
          <path
             transform="translate(4.2711172,-3.8828447e-2)"
             d="M -25.00545 -6.1267028 A 1.4754769 1.4754769 0 1 1  -27.956403,-6.1267028 A 1.4754769 1.4754769 0 1 1  -25.00545 -6.1267028 z"
             sodipodi:ry="1.4754769"
             sodipodi:rx="1.4754769"
             sodipodi:cy="-6.1267028"
             sodipodi:cx="-26.480927"
             id="path3102"
             style="fill:#555753;fill-opacity:1;stroke:#555753;stroke-opacity:1"
             sodipodi:type="arc" />
        </g>
        <path
           sodipodi:type="arc"
           style="fill:#555753;fill-opacity:1;stroke:#555753;stroke-opacity:1"
           id="path3104"
           sodipodi:cx="-23.219347"
           sodipodi:cy="0.085831061"
           sodipodi:rx="2.873297"
           sodipodi:ry="2.873297"
           d="M -20.34605 0.085831061 A 2.873297 2.873297 0 1 1  -26.092644,0.085831061 A 2.873297 2.873297 0 1 1  -20.34605 0.085831061 z"
           transform="matrix(0.792811,0,0,0.792811,-5.3487635,-3.0108271)" />
        <path
           sodipodi:type="arc"
           style="fill:#555753;fill-opacity:1;stroke:#555753;stroke-opacity:1"
           id="path3110"
           sodipodi:cx="-21.74387"
           sodipodi:cy="3.0367846"
           sodipodi:rx="3.8828337"
           sodipodi:ry="6.4455037"
           d="M -17.861036,3.0367846 A 3.8828337,6.4455037 0 1 1 -17.867716,2.6588599 L -21.74387,3.0367846 z"
           transform="matrix(0.843468,0,0,0.843468,-5.4170588,-1.2330934)"
           sodipodi:start="0"
           sodipodi:end="6.2245178" />
        <g
           id="g3116"
           style="fill:#555753;fill-opacity:1;stroke:#555753;stroke-opacity:1">
          <path
             transform="matrix(0.7006511,-0.53247,0.53247,0.7006511,-6.5614374,-19.346057)"
             d="M -29.198911 1.8719347 A 6.2901907 3.4168937 0 1 1  -41.779292,1.8719347 A 6.2901907 3.4168937 0 1 1  -29.198911 1.8719347 z"
             sodipodi:ry="3.4168937"
             sodipodi:rx="6.2901907"
             sodipodi:cy="1.8719347"
             sodipodi:cx="-35.489101"
             id="path3112"
             style="fill:#555753;fill-opacity:1;stroke:#555753;stroke-opacity:1"
             sodipodi:type="arc" />
          <path
             transform="matrix(-0.7006511,-0.53247,-0.53247,0.7006511,-40.953197,-19.346057)"
             d="M -29.198911 1.8719347 A 6.2901907 3.4168937 0 1 1  -41.779292,1.8719347 A 6.2901907 3.4168937 0 1 1  -29.198911 1.8719347 z"
             sodipodi:ry="3.4168937"
             sodipodi:rx="6.2901907"
             sodipodi:cy="1.8719347"
             sodipodi:cx="-35.489101"
             id="path3114"
             style="fill:#555753;fill-opacity:1;stroke:#555753;stroke-opacity:1"
             sodipodi:type="arc" />
        </g>
      </g>
      <g
         inkscape:transform-center-y="-1.5693022"
         inkscape:transform-center-x="-1.586203"
         transform="matrix(-0.1681148,-0.1200719,0.1200719,-0.1681148,32.895093,-5.4116735)"
         id="g3573">
        <g
           id="g3575"
           transform="translate(-0.4119493,0)"
           style="fill:#555753;fill-opacity:1;stroke:#555753;stroke-opacity:1">
          <path
             transform="translate(2,-3.8828447e-2)"
             d="M -25.00545 -6.1267028 A 1.4754769 1.4754769 0 1 1  -27.956403,-6.1267028 A 1.4754769 1.4754769 0 1 1  -25.00545 -6.1267028 z"
             sodipodi:ry="1.4754769"
             sodipodi:rx="1.4754769"
             sodipodi:cy="-6.1267028"
             sodipodi:cx="-26.480927"
             id="path3577"
             style="fill:#555753;fill-opacity:1;stroke:#555753;stroke-opacity:1"
             sodipodi:type="arc" />
          <path
             transform="translate(4.2711172,-3.8828447e-2)"
             d="M -25.00545 -6.1267028 A 1.4754769 1.4754769 0 1 1  -27.956403,-6.1267028 A 1.4754769 1.4754769 0 1 1  -25.00545 -6.1267028 z"
             sodipodi:ry="1.4754769"
             sodipodi:rx="1.4754769"
             sodipodi:cy="-6.1267028"
             sodipodi:cx="-26.480927"
             id="path3579"
             style="fill:#555753;fill-opacity:1;stroke:#555753;stroke-opacity:1"
             sodipodi:type="arc" />
        </g>
        <path
           sodipodi:type="arc"
           style="fill:#555753;fill-opacity:1;stroke:#555753;stroke-opacity:1"
           id="path3581"
           sodipodi:cx="-23.219347"
           sodipodi:cy="0.085831061"
           sodipodi:rx="2.873297"
           sodipodi:ry="2.873297"
           d="M -20.34605 0.085831061 A 2.873297 2.873297 0 1 1  -26.092644,0.085831061 A 2.873297 2.873297 0 1 1  -20.34605 0.085831061 z"
           transform="matrix(0.792811,0,0,0.792811,-5.3487635,-3.0108271)" />
        <path
           sodipodi:type="arc"
           style="fill:#555753;fill-opacity:1;stroke:#555753;stroke-opacity:1"
           id="path3583"
           sodipodi:cx="-21.74387"
           sodipodi:cy="3.0367846"
           sodipodi:rx="3.8828337"
           sodipodi:ry="6.4455037"
           d="M -17.861036,3.0367846 A 3.8828337,6.4455037 0 1 1 -17.867716,2.6588599 L -21.74387,3.0367846 z"
           transform="matrix(0.843468,0,0,0.843468,-5.4170588,-1.2330934)"
           sodipodi:start="0"
           sodipodi:end="6.2245178" />
        <g
           id="g3585"
           style="fill:#555753;fill-opacity:1;stroke:#555753;stroke-opacity:1">
          <path
             transform="matrix(0.7006511,-0.53247,0.53247,0.7006511,-6.5614374,-19.346057)"
             d="M -29.198911 1.8719347 A 6.2901907 3.4168937 0 1 1  -41.779292,1.8719347 A 6.2901907 3.4168937 0 1 1  -29.198911 1.8719347 z"
             sodipodi:ry="3.4168937"
             sodipodi:rx="6.2901907"
             sodipodi:cy="1.8719347"
             sodipodi:cx="-35.489101"
             id="path3587"
             style="fill:#555753;fill-opacity:1;stroke:#555753;stroke-opacity:1"
             sodipodi:type="arc" />
          <path
             transform="matrix(-0.7006511,-0.53247,-0.53247,0.7006511,-40.953197,-19.346057)"
             d="M -29.198911 1.8719347 A 6.2901907 3.4168937 0 1 1  -41.779292,1.8719347 A 6.2901907 3.4168937 0 1 1  -29.198911 1.8719347 z"
             sodipodi:ry="3.4168937"
             sodipodi:rx="6.2901907"
             sodipodi:cy="1.8719347"
             sodipodi:cx="-35.489101"
             id="path3589"
             style="fill:#555753;fill-opacity:1;stroke:#555753;stroke-opacity:1"
             sodipodi:type="arc" />
        </g>
      </g>
      <g
         inkscape:transform-center-y="1.6371638"
         inkscape:transform-center-x="-2.4124413"
         transform="matrix(0.1086493,-0.2902642,0.2902642,0.1086493,54.196724,4.0275264)"
         id="g3591">
        <g
           id="g3593"
           transform="translate(-0.4119493,0)"
           style="fill:#555753;fill-opacity:1;stroke:#555753;stroke-opacity:1">
          <path
             transform="translate(2,-3.8828447e-2)"
             d="M -25.00545 -6.1267028 A 1.4754769 1.4754769 0 1 1  -27.956403,-6.1267028 A 1.4754769 1.4754769 0 1 1  -25.00545 -6.1267028 z"
             sodipodi:ry="1.4754769"
             sodipodi:rx="1.4754769"
             sodipodi:cy="-6.1267028"
             sodipodi:cx="-26.480927"
             id="path3595"
             style="fill:#555753;fill-opacity:1;stroke:#555753;stroke-opacity:1"
             sodipodi:type="arc" />
          <path
             transform="translate(4.2711172,-3.8828447e-2)"
             d="M -25.00545 -6.1267028 A 1.4754769 1.4754769 0 1 1  -27.956403,-6.1267028 A 1.4754769 1.4754769 0 1 1  -25.00545 -6.1267028 z"
             sodipodi:ry="1.4754769"
             sodipodi:rx="1.4754769"
             sodipodi:cy="-6.1267028"
             sodipodi:cx="-26.480927"
             id="path3597"
             style="fill:#555753;fill-opacity:1;stroke:#555753;stroke-opacity:1"
             sodipodi:type="arc" />
        </g>
        <path
           sodipodi:type="arc"
           style="fill:#555753;fill-opacity:1;stroke:#555753;stroke-opacity:1"
           id="path3599"
           sodipodi:cx="-23.219347"
           sodipodi:cy="0.085831061"
           sodipodi:rx="2.873297"
           sodipodi:ry="2.873297"
           d="M -20.34605 0.085831061 A 2.873297 2.873297 0 1 1  -26.092644,0.085831061 A 2.873297 2.873297 0 1 1  -20.34605 0.085831061 z"
           transform="matrix(0.792811,0,0,0.792811,-5.3487635,-3.0108271)" />
        <path
           sodipodi:type="arc"
           style="fill:#555753;fill-opacity:1;stroke:#555753;stroke-opacity:1"
           id="path3601"
           sodipodi:cx="-21.74387"
           sodipodi:cy="3.0367846"
           sodipodi:rx="3.8828337"
           sodipodi:ry="6.4455037"
           d="M -17.861036,3.0367846 A 3.8828337,6.4455037 0 1 1 -17.867716,2.6588599 L -21.74387,3.0367846 z"
           transform="matrix(0.843468,0,0,0.843468,-5.4170588,-1.2330934)"
           sodipodi:start="0"
           sodipodi:end="6.2245178" />
        <g
           id="g3603"
           style="fill:#555753;fill-opacity:1;stroke:#555753;stroke-opacity:1">
          <path
             transform="matrix(0.7006511,-0.53247,0.53247,0.7006511,-6.5614374,-19.346057)"
             d="M -29.198911 1.8719347 A 6.2901907 3.4168937 0 1 1  -41.779292,1.8719347 A 6.2901907 3.4168937 0 1 1  -29.198911 1.8719347 z"
             sodipodi:ry="3.4168937"
             sodipodi:rx="6.2901907"
             sodipodi:cy="1.8719347"
             sodipodi:cx="-35.489101"
             id="path3605"
             style="fill:#555753;fill-opacity:1;stroke:#555753;stroke-opacity:1"
             sodipodi:type="arc" />
          <path
             transform="matrix(-0.7006511,-0.53247,-0.53247,0.7006511,-40.953197,-19.346057)"
             d="M -29.198911 1.8719347 A 6.2901907 3.4168937 0 1 1  -41.779292,1.8719347 A 6.2901907 3.4168937 0 1 1  -29.198911 1.8719347 z"
             sodipodi:ry="3.4168937"
             sodipodi:rx="6.2901907"
             sodipodi:cy="1.8719347"
             sodipodi:cx="-35.489101"
             id="path3607"
             style="fill:#555753;fill-opacity:1;stroke:#555753;stroke-opacity:1"
             sodipodi:type="arc" />
        </g>
      </g>
    </g>
  </g>
</svg>
