<?xml version="1.0" encoding="UTF-8" standalone="no"?>
<!-- Created with Inkscape (http://www.inkscape.org/) -->
<svg
   xmlns:a="http://ns.adobe.com/AdobeSVGViewerExtensions/3.0/"
   xmlns:i="http://ns.adobe.com/AdobeIllustrator/10.0/"
   xmlns:dc="http://purl.org/dc/elements/1.1/"
   xmlns:cc="http://web.resource.org/cc/"
   xmlns:rdf="http://www.w3.org/1999/02/22-rdf-syntax-ns#"
   xmlns:svg="http://www.w3.org/2000/svg"
   xmlns="http://www.w3.org/2000/svg"
   xmlns:xlink="http://www.w3.org/1999/xlink"
   xmlns:sodipodi="http://sodipodi.sourceforge.net/DTD/sodipodi-0.dtd"
   xmlns:inkscape="http://www.inkscape.org/namespaces/inkscape"
   width="64px"
   height="64px"
   id="svg3774"
   sodipodi:version="0.32"
   inkscape:version="0.44.1"
   sodipodi:docbase="/Users/izo/Sites/spip-zone/_graphismes_/logos/spip_tango/svg"
   sodipodi:docname="agenda_mois.svg"
   inkscape:export-filename="/Users/izo/Sites/spip-zone/_graphismes_/logos/spip_tango/png/agenda_mois.png"
   inkscape:export-xdpi="180"
   inkscape:export-ydpi="180">
  <defs
     id="defs3776">
    <linearGradient
       inkscape:collect="always"
       id="linearGradient5225">
      <stop
         style="stop-color:black;stop-opacity:1;"
         offset="0"
         id="stop5227" />
      <stop
         style="stop-color:black;stop-opacity:0;"
         offset="1"
         id="stop5229" />
    </linearGradient>
    <radialGradient
       inkscape:collect="always"
       xlink:href="#linearGradient5225"
       id="radialGradient5231"
       cx="23.9375"
       cy="42.6875"
       fx="23.9375"
       fy="42.6875"
       r="23.75956"
       gradientTransform="matrix(1,0,0,0.24763,0,32.1168)"
       gradientUnits="userSpaceOnUse" />
    <linearGradient
       id="XMLID_6_"
       gradientUnits="userSpaceOnUse"
       x1="9.147"
       y1="43.4268"
       x2="44.3454"
       y2="8.2283">
      <stop
         offset="0"
         style="stop-color:#2E3436"
         id="stop174" />
      <stop
         offset="0.0257"
         style="stop-color:#3F4446"
         id="stop176" />
      <stop
         offset="0.1209"
         style="stop-color:#797D7E"
         id="stop178" />
      <stop
         offset="0.213"
         style="stop-color:#A9ABAC"
         id="stop180" />
      <stop
         offset="0.2998"
         style="stop-color:#CED0D0"
         id="stop182" />
      <stop
         offset="0.3799"
         style="stop-color:#E9EAEA"
         id="stop184" />
      <stop
         offset="0.4509"
         style="stop-color:#F9F9FA"
         id="stop186" />
      <stop
         offset="0.5056"
         style="stop-color:#FFFFFF"
         id="stop188" />
      <stop
         offset="0.5833"
         style="stop-color:#FBFCFC"
         id="stop190" />
      <stop
         offset="0.6525"
         style="stop-color:#F1F1F1"
         id="stop192" />
      <stop
         offset="0.7186"
         style="stop-color:#DEDFE0"
         id="stop194" />
      <stop
         offset="0.7826"
         style="stop-color:#C5C6C7"
         id="stop196" />
      <stop
         offset="0.8453"
         style="stop-color:#A4A6A7"
         id="stop198" />
      <stop
         offset="0.9069"
         style="stop-color:#7B7F80"
         id="stop200" />
      <stop
         offset="0.9664"
         style="stop-color:#4C5153"
         id="stop202" />
      <stop
         offset="1"
         style="stop-color:#2E3436"
         id="stop204" />
      <a:midPointStop
         offset="0"
         style="stop-color:#2E3436" />
      <a:midPointStop
         offset="0.3483"
         style="stop-color:#2E3436" />
      <a:midPointStop
         offset="0.5056"
         style="stop-color:#FFFFFF" />
      <a:midPointStop
         offset="0.7303"
         style="stop-color:#FFFFFF" />
      <a:midPointStop
         offset="1"
         style="stop-color:#2E3436" />
    </linearGradient>
    <linearGradient
       id="XMLID_5_"
       gradientUnits="userSpaceOnUse"
       x1="12.2412"
       y1="22.0874"
       x2="40.8646"
       y2="-6.536">
      <stop
         offset="0"
         style="stop-color:#2E3436"
         id="stop91" />
      <stop
         offset="0.0257"
         style="stop-color:#3F4446"
         id="stop93" />
      <stop
         offset="0.1209"
         style="stop-color:#797D7E"
         id="stop95" />
      <stop
         offset="0.213"
         style="stop-color:#A9ABAC"
         id="stop97" />
      <stop
         offset="0.2998"
         style="stop-color:#CED0D0"
         id="stop99" />
      <stop
         offset="0.3799"
         style="stop-color:#E9EAEA"
         id="stop101" />
      <stop
         offset="0.4509"
         style="stop-color:#F9F9FA"
         id="stop103" />
      <stop
         offset="0.5056"
         style="stop-color:#FFFFFF"
         id="stop105" />
      <stop
         offset="0.5833"
         style="stop-color:#FBFCFC"
         id="stop107" />
      <stop
         offset="0.6525"
         style="stop-color:#F1F1F1"
         id="stop109" />
      <stop
         offset="0.7186"
         style="stop-color:#DEDFE0"
         id="stop111" />
      <stop
         offset="0.7826"
         style="stop-color:#C5C6C7"
         id="stop113" />
      <stop
         offset="0.8453"
         style="stop-color:#A4A6A7"
         id="stop115" />
      <stop
         offset="0.9069"
         style="stop-color:#7B7F80"
         id="stop117" />
      <stop
         offset="0.9664"
         style="stop-color:#4C5153"
         id="stop119" />
      <stop
         offset="1"
         style="stop-color:#2E3436"
         id="stop121" />
      <a:midPointStop
         offset="0"
         style="stop-color:#2E3436" />
      <a:midPointStop
         offset="0.3483"
         style="stop-color:#2E3436" />
      <a:midPointStop
         offset="0.5056"
         style="stop-color:#FFFFFF" />
      <a:midPointStop
         offset="0.7303"
         style="stop-color:#FFFFFF" />
      <a:midPointStop
         offset="1"
         style="stop-color:#2E3436" />
    </linearGradient>
    <linearGradient
       id="XMLID_4_"
       gradientUnits="userSpaceOnUse"
       x1="10.7554"
       y1="26.2744"
       x2="42.7378"
       y2="-5.708">
      <stop
         offset="0"
         style="stop-color:#EF2929"
         id="stop84" />
      <stop
         offset="1"
         style="stop-color:#CC0000"
         id="stop86" />
      <a:midPointStop
         offset="0"
         style="stop-color:#EF2929" />
      <a:midPointStop
         offset="0.5"
         style="stop-color:#EF2929" />
      <a:midPointStop
         offset="1"
         style="stop-color:#CC0000" />
    </linearGradient>
    <foreignObject
       id="foreignObject76"
       height="1"
       width="1"
       y="0"
       x="0"
       requiredExtensions="http://ns.adobe.com/AdobeIllustrator/10.0/">
      <i:pgfRef
         xlink:href="#adobe_illustrator_pgf" />
    </foreignObject>
    <linearGradient
       inkscape:collect="always"
       xlink:href="#XMLID_4_"
       id="linearGradient3993"
       gradientUnits="userSpaceOnUse"
       x1="10.7554"
       y1="26.2744"
       x2="42.7378"
       y2="-5.708" />
    <linearGradient
       inkscape:collect="always"
       xlink:href="#XMLID_5_"
       id="linearGradient3995"
       gradientUnits="userSpaceOnUse"
       x1="12.2412"
       y1="22.0874"
       x2="40.8646"
       y2="-6.536" />
    <linearGradient
       inkscape:collect="always"
       xlink:href="#XMLID_6_"
       id="linearGradient3997"
       gradientUnits="userSpaceOnUse"
       x1="9.147"
       y1="43.4268"
       x2="44.3454"
       y2="8.2283" />
    <linearGradient
       inkscape:collect="always"
       xlink:href="#XMLID_4_"
       id="linearGradient4065"
       gradientUnits="userSpaceOnUse"
       x1="10.7554"
       y1="26.2744"
       x2="42.7378"
       y2="-5.708" />
    <linearGradient
       inkscape:collect="always"
       xlink:href="#XMLID_5_"
       id="linearGradient4067"
       gradientUnits="userSpaceOnUse"
       x1="12.2412"
       y1="22.0874"
       x2="40.8646"
       y2="-6.536" />
    <linearGradient
       inkscape:collect="always"
       xlink:href="#XMLID_6_"
       id="linearGradient4069"
       gradientUnits="userSpaceOnUse"
       x1="9.147"
       y1="43.4268"
       x2="44.3454"
       y2="8.2283" />
    <linearGradient
       y2="-5.7080002"
       x2="42.737801"
       y1="26.274401"
       x1="10.7554"
       gradientUnits="userSpaceOnUse"
       id="linearGradient3824">
      <stop
         id="stop3826"
         style="stop-color:#EF2929"
         offset="0" />
      <stop
         id="stop3828"
         style="stop-color:#CC0000"
         offset="1" />
      <a:midPointStop
         style="stop-color:#EF2929"
         offset="0" />
      <a:midPointStop
         style="stop-color:#EF2929"
         offset="0.5" />
      <a:midPointStop
         style="stop-color:#CC0000"
         offset="1" />
    </linearGradient>
    <linearGradient
       y2="-6.5359998"
       x2="40.864601"
       y1="22.0874"
       x1="12.2412"
       gradientUnits="userSpaceOnUse"
       id="linearGradient3831">
      <stop
         id="stop3833"
         style="stop-color:#2E3436"
         offset="0" />
      <stop
         id="stop3835"
         style="stop-color:#3F4446"
         offset="0.0257" />
      <stop
         id="stop3837"
         style="stop-color:#797D7E"
         offset="0.1209" />
      <stop
         id="stop3839"
         style="stop-color:#A9ABAC"
         offset="0.213" />
      <stop
         id="stop3841"
         style="stop-color:#CED0D0"
         offset="0.2998" />
      <stop
         id="stop3843"
         style="stop-color:#E9EAEA"
         offset="0.3799" />
      <stop
         id="stop3845"
         style="stop-color:#F9F9FA"
         offset="0.4509" />
      <stop
         id="stop3847"
         style="stop-color:#FFFFFF"
         offset="0.5056" />
      <stop
         id="stop3849"
         style="stop-color:#FBFCFC"
         offset="0.5833" />
      <stop
         id="stop3851"
         style="stop-color:#F1F1F1"
         offset="0.6525" />
      <stop
         id="stop3853"
         style="stop-color:#DEDFE0"
         offset="0.7186" />
      <stop
         id="stop3855"
         style="stop-color:#C5C6C7"
         offset="0.7826" />
      <stop
         id="stop3857"
         style="stop-color:#A4A6A7"
         offset="0.8453" />
      <stop
         id="stop3859"
         style="stop-color:#7B7F80"
         offset="0.9069" />
      <stop
         id="stop3861"
         style="stop-color:#4C5153"
         offset="0.9664" />
      <stop
         id="stop3863"
         style="stop-color:#2E3436"
         offset="1" />
      <a:midPointStop
         style="stop-color:#2E3436"
         offset="0" />
      <a:midPointStop
         style="stop-color:#2E3436"
         offset="0.3483" />
      <a:midPointStop
         style="stop-color:#FFFFFF"
         offset="0.5056" />
      <a:midPointStop
         style="stop-color:#FFFFFF"
         offset="0.7303" />
      <a:midPointStop
         style="stop-color:#2E3436"
         offset="1" />
    </linearGradient>
    <linearGradient
       y2="8.2283001"
       x2="44.345402"
       y1="43.4268"
       x1="9.1470003"
       gradientUnits="userSpaceOnUse"
       id="linearGradient3890">
      <stop
         id="stop3892"
         style="stop-color:#2E3436"
         offset="0" />
      <stop
         id="stop3894"
         style="stop-color:#3F4446"
         offset="0.0257" />
      <stop
         id="stop3896"
         style="stop-color:#797D7E"
         offset="0.1209" />
      <stop
         id="stop3898"
         style="stop-color:#A9ABAC"
         offset="0.213" />
      <stop
         id="stop3900"
         style="stop-color:#CED0D0"
         offset="0.2998" />
      <stop
         id="stop3902"
         style="stop-color:#E9EAEA"
         offset="0.3799" />
      <stop
         id="stop3904"
         style="stop-color:#F9F9FA"
         offset="0.4509" />
      <stop
         id="stop3906"
         style="stop-color:#FFFFFF"
         offset="0.5056" />
      <stop
         id="stop3908"
         style="stop-color:#FBFCFC"
         offset="0.5833" />
      <stop
         id="stop3910"
         style="stop-color:#F1F1F1"
         offset="0.6525" />
      <stop
         id="stop3912"
         style="stop-color:#DEDFE0"
         offset="0.7186" />
      <stop
         id="stop3914"
         style="stop-color:#C5C6C7"
         offset="0.7826" />
      <stop
         id="stop3916"
         style="stop-color:#A4A6A7"
         offset="0.8453" />
      <stop
         id="stop3918"
         style="stop-color:#7B7F80"
         offset="0.9069" />
      <stop
         id="stop3920"
         style="stop-color:#4C5153"
         offset="0.9664" />
      <stop
         id="stop3922"
         style="stop-color:#2E3436"
         offset="1" />
      <a:midPointStop
         style="stop-color:#2E3436"
         offset="0" />
      <a:midPointStop
         style="stop-color:#2E3436"
         offset="0.3483" />
      <a:midPointStop
         style="stop-color:#FFFFFF"
         offset="0.5056" />
      <a:midPointStop
         style="stop-color:#FFFFFF"
         offset="0.7303" />
      <a:midPointStop
         style="stop-color:#2E3436"
         offset="1" />
    </linearGradient>
    <linearGradient
       inkscape:collect="always"
       xlink:href="#XMLID_6_"
       id="linearGradient4109"
       gradientUnits="userSpaceOnUse"
       x1="9.1470003"
       y1="43.4268"
       x2="44.345402"
       y2="8.2283001"
       gradientTransform="translate(6.500999,4)" />
    <linearGradient
       inkscape:collect="always"
       xlink:href="#XMLID_5_"
       id="linearGradient4136"
       gradientUnits="userSpaceOnUse"
       x1="12.2412"
       y1="22.0874"
       x2="40.8646"
       y2="-6.536"
       gradientTransform="translate(6.500999,4)" />
    <linearGradient
       inkscape:collect="always"
       xlink:href="#XMLID_4_"
       id="linearGradient4139"
       gradientUnits="userSpaceOnUse"
       x1="10.7554"
       y1="26.2744"
       x2="42.7378"
       y2="-5.708"
       gradientTransform="translate(6.500999,4)" />
  </defs>
  <sodipodi:namedview
     id="base"
     pagecolor="#ffffff"
     bordercolor="#666666"
     borderopacity="1.0"
     inkscape:pageopacity="0.0"
     inkscape:pageshadow="2"
     inkscape:zoom="5.5"
     inkscape:cx="32"
     inkscape:cy="32"
     inkscape:current-layer="layer1"
     showgrid="true"
     inkscape:document-units="px"
     inkscape:grid-bbox="true"
     inkscape:window-width="823"
     inkscape:window-height="577"
     inkscape:window-x="104"
     inkscape:window-y="72" />
  <metadata
     id="metadata3779">
    <rdf:RDF>
      <cc:Work
         rdf:about="">
        <dc:format>image/svg+xml</dc:format>
        <dc:type
           rdf:resource="http://purl.org/dc/dcmitype/StillImage" />
      </cc:Work>
    </rdf:RDF>
  </metadata>
  <g
     id="layer1"
     inkscape:label="Layer 1"
     inkscape:groupmode="layer">
    <path
       sodipodi:type="arc"
       style="opacity:0.4;fill:url(#radialGradient5231);fill-opacity:1;fill-rule:evenodd;stroke:none;stroke-width:1px;stroke-linecap:butt;stroke-linejoin:miter;stroke-opacity:1"
       id="path13582"
       sodipodi:cx="23.9375"
       sodipodi:cy="42.6875"
       sodipodi:rx="23.75956"
       sodipodi:ry="5.8835783"
       d="M 47.69706 42.6875 A 23.75956 5.8835783 0 1 1  0.17794037,42.6875 A 23.75956 5.8835783 0 1 1  47.69706 42.6875 z"
       transform="matrix(1.266689,0,0,1.04372,1.678632,12.75994)" />
    <rect
       style="fill:#eeeeec;stroke:#555753;stroke-linecap:round;stroke-linejoin:round"
       id="rect81"
       height="42.380001"
       width="52.499001"
       i:knockout="Off"
       y="17.658001"
       x="7.000999" />
    <rect
       style="fill:url(#linearGradient4139);stroke:#a40000;stroke-linecap:round;stroke-linejoin:round"
       id="rect88"
       height="11.466"
       width="52.499001"
       i:knockout="Off"
       y="8.552"
       x="7.000999" />
    <rect
       style="opacity:0.25786164;fill:url(#linearGradient4136)"
       id="rect123"
       height="5.4489999"
       width="51.798"
       a:adobe-blending-mode="overlay"
       i:knockout="Off"
       y="9.0529995"
       x="7.157999" />
    <rect
       style="opacity:0.8;fill:none;stroke:white;stroke-linecap:round;stroke-linejoin:round"
       id="rect125"
       height="48.544998"
       width="49.216"
       a:adobe-blending-mode="screen"
       i:knockout="Off"
       y="9.9969997"
       x="8.6419992" />
    <g
       id="g127"
       transform="translate(6.500999,4)">
      <rect
         style="fill:#babdb6;stroke:#555753;stroke-linecap:round;stroke-linejoin:round"
         id="rect129"
         height="8.3950005"
         width="5.5970001"
         i:knockout="Off"
         y="0.5"
         x="6.6690001" />
      <rect
         style="fill:#babdb6;stroke:#555753;stroke-linecap:round;stroke-linejoin:round"
         id="rect131"
         height="8.3950005"
         width="5.5970001"
         i:knockout="Off"
         y="0.5"
         x="41.233002" />
    </g>
    <g
       id="g133"
       transform="translate(6.500999,4)">
      <rect
         style="fill:#2e3436"
         id="rect135"
         height="6.8189998"
         width="6.8200002"
         i:knockout="Off"
         y="19.438"
         x="6.5830002" />
      <rect
         style="fill:#2e3436"
         id="rect137"
         height="6.8189998"
         width="6.8189998"
         i:knockout="Off"
         y="19.438"
         x="39.763" />
      <rect
         style="fill:#2e3436"
         id="rect139"
         height="6.8189998"
         width="6.8200002"
         i:knockout="Off"
         y="19.438"
         x="28.702999" />
      <rect
         style="fill:#2e3436"
         id="rect141"
         height="6.8189998"
         width="6.8200002"
         i:knockout="Off"
         y="19.438"
         x="17.643999" />
    </g>
    <g
       id="g143"
       transform="translate(6.500999,4)">
      <rect
         style="fill:#2e3436"
         id="rect145"
         height="6.8200002"
         width="6.8200002"
         i:knockout="Off"
         y="27.917"
         x="6.5830002" />
      <rect
         style="fill:#2e3436"
         id="rect147"
         height="6.8200002"
         width="6.8189998"
         i:knockout="Off"
         y="27.917"
         x="39.763" />
      <rect
         style="fill:#2e3436"
         id="rect149"
         height="6.8200002"
         width="6.8200002"
         i:knockout="Off"
         y="27.917"
         x="28.702999" />
      <rect
         style="fill:#2e3436"
         id="rect151"
         height="6.8200002"
         width="6.8200002"
         i:knockout="Off"
         y="27.917"
         x="17.643999" />
    </g>
    <g
       id="g153"
       transform="translate(6.500999,4)">
      <rect
         style="fill:#2e3436"
         id="rect155"
         height="6.8200002"
         width="6.8200002"
         i:knockout="Off"
         y="36.949001"
         x="6.5830002" />
      <rect
         style="fill:#2e3436"
         id="rect157"
         height="6.8200002"
         width="6.8189998"
         i:knockout="Off"
         y="36.949001"
         x="39.763" />
      <rect
         style="fill:#2e3436"
         id="rect159"
         height="6.8200002"
         width="6.8200002"
         i:knockout="Off"
         y="36.949001"
         x="28.702999" />
      <rect
         style="fill:#2e3436"
         id="rect161"
         height="6.8200002"
         width="6.8200002"
         i:knockout="Off"
         y="36.949001"
         x="17.643999" />
    </g>
    <g
       id="g163"
       transform="translate(6.500999,4)">
      <rect
         style="fill:#2e3436"
         id="rect165"
         height="6.8200002"
         width="6.8200002"
         i:knockout="Off"
         y="45.243999"
         x="6.5830002" />
      <rect
         style="fill:#2e3436"
         id="rect167"
         height="6.8200002"
         width="6.8189998"
         i:knockout="Off"
         y="45.243999"
         x="39.763" />
      <rect
         style="fill:#2e3436"
         id="rect169"
         height="6.8200002"
         width="6.8200002"
         i:knockout="Off"
         y="45.243999"
         x="28.702999" />
      <rect
         style="fill:#2e3436"
         id="rect171"
         height="6.8200002"
         width="6.8200002"
         i:knockout="Off"
         y="45.243999"
         x="17.643999" />
    </g>
    <path
       style="opacity:0.1;fill:white;fill-opacity:1;fill-rule:evenodd;stroke:none;stroke-width:1px;stroke-linecap:butt;stroke-linejoin:miter;stroke-opacity:1"
       d="M 8.7415988,48.267755 C 8.7415988,48.267755 10.962385,38.852937 34.44087,38.499605 C 57.916514,38.146317 57.803846,20.459517 57.803846,20.459517 L 8.7415988,20.459517 L 8.7415988,48.267755 z "
       id="path7685"
       sodipodi:nodetypes="czccc" />
  </g>
</svg>
