<?xml version="1.0" encoding="UTF-8" standalone="no"?>
<!-- Created with Inkscape (http://www.inkscape.org/) -->
<svg
   xmlns:i="http://ns.adobe.com/AdobeIllustrator/10.0/"
   xmlns:dc="http://purl.org/dc/elements/1.1/"
   xmlns:cc="http://web.resource.org/cc/"
   xmlns:rdf="http://www.w3.org/1999/02/22-rdf-syntax-ns#"
   xmlns:svg="http://www.w3.org/2000/svg"
   xmlns="http://www.w3.org/2000/svg"
   xmlns:xlink="http://www.w3.org/1999/xlink"
   xmlns:sodipodi="http://sodipodi.sourceforge.net/DTD/sodipodi-0.dtd"
   xmlns:inkscape="http://www.inkscape.org/namespaces/inkscape"
   width="64px"
   height="64px"
   id="svg3492"
   sodipodi:version="0.32"
   inkscape:version="0.44.1"
   sodipodi:docbase="/Users/izo/Sites/spip-zone/_graphismes_/logos/spip_tango/svg"
   sodipodi:docname="backup.svg"
   inkscape:export-filename="/Users/izo/Sites/spip-zone/_graphismes_/logos/spip_tango/png/backup-64.png"
   inkscape:export-xdpi="180"
   inkscape:export-ydpi="180">
  <defs
     id="defs3494">
    <linearGradient
       id="linearGradient2300">
      <stop
         id="stop2302"
         offset="0"
         style="stop-color:#ffffff;stop-opacity:0.89320385;" />
      <stop
         id="stop2304"
         offset="1"
         style="stop-color:#ffffff;stop-opacity:0;" />
    </linearGradient>
    <linearGradient
       inkscape:collect="always"
       xlink:href="#linearGradient2300"
       id="linearGradient6286"
       x1="10.240788"
       y1="-0.025390867"
       x2="13.990788"
       y2="26.097536"
       gradientUnits="userSpaceOnUse"
       gradientTransform="matrix(1.798061,0,0,1.830752,4.136583,3.119665)" />
    <linearGradient
       id="linearGradient4467">
      <stop
         id="stop4469"
         offset="0"
         style="stop-color:#ffffff;stop-opacity:1;" />
      <stop
         id="stop4471"
         offset="1.0000000"
         style="stop-color:#ffffff;stop-opacity:0.24761905;" />
    </linearGradient>
    <linearGradient
       id="linearGradient4454">
      <stop
         id="stop4456"
         offset="0.0000000"
         style="stop-color:#729fcf;stop-opacity:0.20784314;" />
      <stop
         id="stop4458"
         offset="1.0000000"
         style="stop-color:#729fcf;stop-opacity:0.67619050;" />
    </linearGradient>
    <linearGradient
       id="linearGradient2810">
      <stop
         style="stop-color:#ffffff;stop-opacity:1"
         offset="0"
         id="stop2812" />
      <stop
         id="stop2818"
         offset="0.5"
         style="stop-color:#ffffff;stop-opacity:0.05487805;" />
      <stop
         style="stop-color:#ffffff;stop-opacity:1"
         offset="1"
         id="stop2814" />
    </linearGradient>
    <linearGradient
       id="linearGradient4440">
      <stop
         id="stop4442"
         offset="0"
         style="stop-color:#7d7d7d;stop-opacity:1;" />
      <stop
         style="stop-color:#b1b1b1;stop-opacity:1.0000000;"
         offset="0.50000000"
         id="stop4448" />
      <stop
         id="stop4444"
         offset="1.0000000"
         style="stop-color:#686868;stop-opacity:1.0000000;" />
    </linearGradient>
    <linearGradient
       id="linearGradient2846">
      <stop
         style="stop-color:#8a8a8a;stop-opacity:1.0000000;"
         offset="0.0000000"
         id="stop2848" />
      <stop
         style="stop-color:#484848;stop-opacity:1.0000000;"
         offset="1.0000000"
         id="stop2850" />
    </linearGradient>
    <linearGradient
       inkscape:collect="always"
       id="linearGradient5225">
      <stop
         style="stop-color:black;stop-opacity:1;"
         offset="0"
         id="stop5227" />
      <stop
         style="stop-color:black;stop-opacity:0;"
         offset="1"
         id="stop5229" />
    </linearGradient>
    <radialGradient
       inkscape:collect="always"
       xlink:href="#linearGradient5225"
       id="radialGradient5231"
       cx="23.9375"
       cy="42.6875"
       fx="23.9375"
       fy="42.6875"
       r="23.75956"
       gradientTransform="matrix(1,0,0,0.24763,0,32.1168)"
       gradientUnits="userSpaceOnUse" />
    <linearGradient
       inkscape:collect="always"
       xlink:href="#linearGradient3519"
       id="linearGradient3525"
       gradientTransform="matrix(0.668545,0,0,1.495785,-20.39347,17.03001)"
       x1="57.643562"
       y1="8.6012535"
       x2="34.242393"
       y2="21.033955"
       gradientUnits="userSpaceOnUse" />
    <linearGradient
       id="XMLID_1_"
       gradientUnits="userSpaceOnUse"
       x1="18.0879"
       y1="36.5825"
       x2="43.9486"
       y2="10.7218">
      <stop
         offset="0"
         style="stop-color:#FFFFFF"
         id="stop57" />
      <stop
         offset="0.4888"
         style="stop-color:#555753"
         id="stop59" />
      <stop
         offset="1"
         style="stop-color:#EEEEEC"
         id="stop61" />
    </linearGradient>
    <radialGradient
       id="path35549_1_"
       cx="6.4575"
       cy="142.2524"
       r="37.1971"
       gradientTransform="matrix(0.8352,0.8106,-0.8106,0.8352,143.3902,-108.1941)"
       gradientUnits="userSpaceOnUse">
      <stop
         offset="0"
         style="stop-color:#EF2929"
         id="stop25" />
      <stop
         offset="0.216"
         style="stop-color:#E52424"
         id="stop27" />
      <stop
         offset="0.5838"
         style="stop-color:#CA1515"
         id="stop29" />
      <stop
         offset="1"
         style="stop-color:#A40000"
         id="stop31" />
    </radialGradient>
    <radialGradient
       id="path27786_1_"
       cx="-130.7666"
       cy="107.4575"
       r="37.9541"
       gradientTransform="matrix(1.0273,0.997,-0.997,1.0273,275.4647,24.9362)"
       gradientUnits="userSpaceOnUse">
      <stop
         offset="0"
         style="stop-color:#D3D7CF"
         id="stop19" />
      <stop
         offset="1"
         style="stop-color:#555753"
         id="stop21" />
    </radialGradient>
    <linearGradient
       id="XMLID_2_"
       gradientUnits="userSpaceOnUse"
       x1="31.0161"
       y1="34.5063"
       x2="31.0161"
       y2="20.1943">
      <stop
         offset="0"
         style="stop-color:#D3D7CF"
         id="stop12" />
      <stop
         offset="1"
         style="stop-color:#BABDB6"
         id="stop14" />
    </linearGradient>
    <foreignObject
       id="foreignObject6"
       height="1"
       width="1"
       y="0"
       x="0"
       requiredExtensions="http://ns.adobe.com/AdobeIllustrator/10.0/">
      <i:pgfRef
         xlink:href="#adobe_illustrator_pgf" />
    </foreignObject>
    <linearGradient
       inkscape:collect="always"
       xlink:href="#XMLID_2_"
       id="linearGradient3601"
       gradientUnits="userSpaceOnUse"
       x1="31.0161"
       y1="34.5063"
       x2="31.0161"
       y2="20.1943" />
    <radialGradient
       inkscape:collect="always"
       xlink:href="#path27786_1_"
       id="radialGradient3603"
       gradientUnits="userSpaceOnUse"
       gradientTransform="matrix(1.0273,0.997,-0.997,1.0273,275.4647,24.9362)"
       cx="-130.7666"
       cy="107.4575"
       r="37.9541" />
    <radialGradient
       inkscape:collect="always"
       xlink:href="#path35549_1_"
       id="radialGradient3605"
       gradientUnits="userSpaceOnUse"
       gradientTransform="matrix(0.8352,0.8106,-0.8106,0.8352,143.3902,-108.1941)"
       cx="6.4575"
       cy="142.2524"
       r="37.1971" />
    <linearGradient
       inkscape:collect="always"
       xlink:href="#XMLID_1_"
       id="linearGradient3607"
       gradientUnits="userSpaceOnUse"
       x1="18.0879"
       y1="36.5825"
       x2="43.9486"
       y2="10.7218" />
    <linearGradient
       inkscape:collect="always"
       xlink:href="#XMLID_2_"
       id="linearGradient3652"
       gradientUnits="userSpaceOnUse"
       x1="31.0161"
       y1="34.5063"
       x2="31.0161"
       y2="20.1943" />
    <radialGradient
       inkscape:collect="always"
       xlink:href="#path27786_1_"
       id="radialGradient3654"
       gradientUnits="userSpaceOnUse"
       gradientTransform="matrix(1.0273,0.997,-0.997,1.0273,275.4647,24.9362)"
       cx="-130.7666"
       cy="107.4575"
       r="37.9541" />
    <radialGradient
       inkscape:collect="always"
       xlink:href="#path35549_1_"
       id="radialGradient3656"
       gradientUnits="userSpaceOnUse"
       gradientTransform="matrix(0.8352,0.8106,-0.8106,0.8352,143.3902,-108.1941)"
       cx="6.4575"
       cy="142.2524"
       r="37.1971" />
    <linearGradient
       y2="20.1943"
       x2="31.0161"
       y1="34.506302"
       x1="31.0161"
       gradientUnits="userSpaceOnUse"
       id="linearGradient3519">
      <stop
         id="stop3521"
         style="stop-color:#D3D7CF"
         offset="0" />
      <stop
         id="stop3523"
         style="stop-color:#BABDB6"
         offset="1" />
    </linearGradient>
    <radialGradient
       gradientUnits="userSpaceOnUse"
       gradientTransform="matrix(1.0273,0.997,-0.997,1.0273,275.4647,24.9362)"
       r="37.954102"
       cy="107.4575"
       cx="-130.7666"
       id="radialGradient3526">
      <stop
         id="stop3528"
         style="stop-color:#D3D7CF"
         offset="0" />
      <stop
         id="stop3530"
         style="stop-color:#555753"
         offset="1" />
    </radialGradient>
    <radialGradient
       gradientUnits="userSpaceOnUse"
       gradientTransform="matrix(0.8352,0.8106,-0.8106,0.8352,143.3902,-108.1941)"
       r="37.197102"
       cy="142.2524"
       cx="6.4575"
       id="radialGradient3533">
      <stop
         id="stop3535"
         style="stop-color:#EF2929"
         offset="0" />
      <stop
         id="stop3537"
         style="stop-color:#E52424"
         offset="0.216" />
      <stop
         id="stop3539"
         style="stop-color:#CA1515"
         offset="0.5838" />
      <stop
         id="stop3541"
         style="stop-color:#A40000"
         offset="1" />
    </radialGradient>
    <radialGradient
       inkscape:collect="always"
       xlink:href="#path27786_1_"
       id="radialGradient3674"
       gradientUnits="userSpaceOnUse"
       gradientTransform="matrix(1.0273,0.997,-0.997,1.0273,276.5556,28.72019)"
       cx="-130.7666"
       cy="107.4575"
       r="37.9541" />
    <linearGradient
       inkscape:collect="always"
       xlink:href="#XMLID_2_"
       id="linearGradient3677"
       gradientUnits="userSpaceOnUse"
       x1="31.0161"
       y1="34.5063"
       x2="31.0161"
       y2="20.1943"
       gradientTransform="translate(1.090909,3.783993)" />
    <radialGradient
       inkscape:collect="always"
       xlink:href="#linearGradient4467"
       id="radialGradient250788"
       gradientUnits="userSpaceOnUse"
       gradientTransform="matrix(5.692628,0,0,4.918832,-62.73314,-46.66225)"
       cx="15.414371"
       cy="13.078408"
       fx="15.414371"
       fy="13.078408"
       r="6.6562500" />
    <radialGradient
       inkscape:collect="always"
       xlink:href="#radialGradient3533"
       id="radialGradient252840"
       cx="32.106518"
       cy="31.392677"
       fx="32.106518"
       fy="31.392677"
       r="22.538292"
       gradientTransform="matrix(0.510087,-0.456277,0.469577,0.524956,0.988117,29.56236)"
       gradientUnits="userSpaceOnUse" />
  </defs>
  <sodipodi:namedview
     id="base"
     pagecolor="#ffffff"
     bordercolor="#666666"
     borderopacity="1.0"
     inkscape:pageopacity="0.0"
     inkscape:pageshadow="2"
     inkscape:zoom="5.5"
     inkscape:cx="32"
     inkscape:cy="32"
     inkscape:current-layer="layer1"
     showgrid="true"
     inkscape:document-units="px"
     inkscape:grid-bbox="true"
     inkscape:window-width="823"
     inkscape:window-height="577"
     inkscape:window-x="244"
     inkscape:window-y="247"
     showguides="true"
     inkscape:guide-bbox="true" />
  <metadata
     id="metadata3497">
    <rdf:RDF>
      <cc:Work
         rdf:about="">
        <dc:format>image/svg+xml</dc:format>
        <dc:type
           rdf:resource="http://purl.org/dc/dcmitype/StillImage" />
      </cc:Work>
    </rdf:RDF>
  </metadata>
  <g
     id="layer1"
     inkscape:label="Layer 1"
     inkscape:groupmode="layer">
    <path
       sodipodi:type="arc"
       style="opacity:0.4;fill:url(#radialGradient5231);fill-opacity:1;fill-rule:evenodd;stroke:none;stroke-width:1px;stroke-linecap:butt;stroke-linejoin:miter;stroke-opacity:1"
       id="path13582"
       sodipodi:cx="23.9375"
       sodipodi:cy="42.6875"
       sodipodi:rx="23.75956"
       sodipodi:ry="5.8835783"
       d="M 47.69706 42.6875 A 23.75956 5.8835783 0 1 1  0.17794037,42.6875 A 23.75956 5.8835783 0 1 1  47.69706 42.6875 z"
       transform="matrix(1.266689,0,0,1.04372,1.678632,11.80984)" />
    <rect
       style="fill:url(#linearGradient3677);stroke:#2e3436;stroke-width:1;stroke-linecap:round;stroke-linejoin:round;stroke-miterlimit:4;stroke-dasharray:none"
       id="rect16"
       height="14.312"
       width="61.066002"
       y="23.977993"
       x="1.572909" />
    <path
       style="fill:url(#radialGradient3674);stroke:#2e3436;stroke-linecap:round;stroke-linejoin:round"
       d="M 51.555909,50.267993 C 41.132909,61.012993 23.973909,61.272993 13.229909,50.848993 C 2.486909,40.424993 2.226909,23.265993 12.649909,12.522993 C 12.651909,12.519993 12.654909,12.516993 12.657909,12.513993 C 23.079909,1.771993 40.238909,1.510993 50.983909,11.933993 C 61.726909,22.356993 61.985909,39.515993 51.562909,50.259993 C 51.560909,50.262993 51.558909,50.265993 51.555909,50.267993 z "
       id="path27786" />
    <path
       style="fill:url(#radialGradient252840);stroke:#2e3436;stroke-linecap:round;stroke-linejoin:round;fill-opacity:1.0"
       d="M 47.917909,46.739993 C 39.443909,55.473993 25.494909,55.683993 16.759909,47.212993 C 8.025909,38.737993 7.813909,24.786993 16.286909,16.052993 C 16.288909,16.050993 16.290909,16.048993 16.292909,16.045993 C 24.767909,7.311993 38.716909,7.099993 47.452909,15.573993 C 56.188909,24.047993 56.397909,37.997993 47.924909,46.731993 C 47.921909,46.735993 47.919909,46.737993 47.917909,46.739993 z "
       id="path35549" />
    <path
       style="opacity:0.55345912;fill:none;stroke:#eeeeec;stroke-width:1.05050004;stroke-linecap:round;stroke-linejoin:round"
       d="M 50.552909,49.293993 C 40.666909,59.483993 24.394909,59.729993 14.204909,49.844993 C 4.014909,39.960993 3.769909,23.685993 13.654909,13.496993 C 13.656909,13.494993 13.659909,13.491993 13.661909,13.489993 C 23.546909,3.300993 39.819909,3.053993 50.008909,12.937993 C 60.196909,22.823993 60.444909,39.097993 50.559909,49.286993 C 50.556909,49.288993 50.554909,49.291993 50.552909,49.293993 z "
       enable-background="new    "
       id="path10651" />
    <g
       id="Calque_2"
       transform="translate(1.090909,3.783993)" />
    <g
       id="Calque_4"
       transform="translate(1.090909,3.783993)">
      <g
         id="g37">
        <path
           d="M 31.163,24.141 C 31.188,24.523 30.971,24.833 30.678,24.833 L 29.827,24.833 C 29.534,24.833 29.315,24.523 29.342,24.141 L 29.886,16.144 C 29.911,15.764 30.076,15.452 30.253,15.452 C 30.428,15.452 30.592,15.764 30.618,16.144 L 31.163,24.141 z "
           id="path39"
           style="fill:white;stroke:white;stroke-width:0.82069999" />
        <path
           d="M 31.163,24.141 C 31.188,24.523 30.971,24.833 30.678,24.833 L 29.827,24.833 C 29.534,24.833 29.315,24.523 29.342,24.141 L 29.886,16.144 C 29.911,15.764 30.076,15.452 30.253,15.452 C 30.428,15.452 30.592,15.764 30.618,16.144 L 31.163,24.141 z "
           id="path41"
           style="fill:white;stroke:white;stroke-width:0.82069999" />
      </g>
      <path
         d="M 31.317,28.501 C 31.317,29.087 30.841,29.562 30.253,29.562 C 29.666,29.562 29.189,29.087 29.189,28.501 C 29.189,27.912 29.667,27.437 30.253,27.437 C 30.842,27.437 31.317,27.913 31.317,28.501 z "
         id="path43"
         style="fill:white;stroke:white;stroke-width:1.23720002" />
      <g
         id="g45">
        <path
           d="M 34.192,29.41 C 33.901,29.435 33.663,29.219 33.663,28.926 L 33.663,28.074 C 33.663,27.781 33.901,27.562 34.192,27.59 L 40.313,28.133 C 40.604,28.158 40.842,28.324 40.842,28.5 C 40.842,28.676 40.604,28.84 40.313,28.865 L 34.192,29.41 z "
           id="path47"
           style="fill:white;stroke:white;stroke-width:0.71789998" />
        <path
           d="M 34.192,29.41 C 33.901,29.435 33.663,29.219 33.663,28.926 L 33.663,28.074 C 33.663,27.781 33.901,27.562 34.192,27.59 L 40.313,28.133 C 40.604,28.158 40.842,28.324 40.842,28.5 C 40.842,28.676 40.604,28.84 40.313,28.865 L 34.192,29.41 z "
           id="path49"
           style="fill:white;stroke:white;stroke-width:0.71789998" />
      </g>
      <path
         d="M 31.002,11.09 C 22.067,11.09 14.811,18.184 14.512,27.044 L 15.786,27.044 L 15.886,27.044 C 16.186,18.943 22.828,12.464 31.002,12.464 C 39.365,12.464 46.145,19.243 46.145,27.607 C 46.145,35.971 39.365,42.75 31.002,42.75 C 27.572,42.75 24.42,41.598 21.882,39.678 L 21.191,40.875 C 23.936,42.908 27.323,44.125 31.003,44.125 C 40.124,44.125 47.521,36.729 47.521,27.607 C 47.52,18.485 40.123,11.09 31.002,11.09 z "
         id="path51"
         style="fill:#eeeeec;stroke:#eeeeec;stroke-width:1.23720002;stroke-linecap:round;stroke-linejoin:round" />
      <polygon
         points="15.456,30.254 16.824,28.631 18.192,27.009 15.456,27.009 12.721,27.009 14.089,28.631 15.456,30.254 "
         id="polygon53"
         style="fill:#eeeeec;stroke:#eeeeec;stroke-width:0.97719997;stroke-linecap:round;stroke-linejoin:round" />
    </g>
    <path
       sodipodi:nodetypes="cccssscc"
       id="path2287"
       d="M 32.03733,10.396181 C 20.637066,10.396181 11.364613,19.837226 11.364613,31.444766 C 11.364613,35.300525 12.470221,38.861057 14.251665,41.969064 C 23.409535,41.312178 28.741711,36.46774 34.423082,31.731829 C 35.456151,30.870679 36.500762,30.013118 37.582019,29.184973 C 38.578574,28.421702 39.60626,27.683421 40.684726,26.990351 C 43.572404,25.134593 46.824153,23.602968 50.817205,22.783666 C 47.714217,16.287722 40.769927,10.28176 32.03733,10.396181 z "
       style="color:black;fill:url(#linearGradient6286);fill-opacity:1;fill-rule:evenodd;stroke:none;stroke-width:1;stroke-linecap:round;stroke-linejoin:miter;marker:none;marker-start:none;marker-mid:none;marker-end:none;stroke-miterlimit:4;stroke-dashoffset:0;stroke-opacity:1;visibility:visible;display:inline;overflow:visible;opacity:0.42767296" />
  </g>
</svg>
