<?xml version="1.0" encoding="UTF-8" standalone="no"?>
<!-- Created with Inkscape (http://www.inkscape.org/) -->
<svg
   xmlns:i="http://ns.adobe.com/AdobeIllustrator/10.0/"
   xmlns:dc="http://purl.org/dc/elements/1.1/"
   xmlns:cc="http://creativecommons.org/ns#"
   xmlns:rdf="http://www.w3.org/1999/02/22-rdf-syntax-ns#"
   xmlns:svg="http://www.w3.org/2000/svg"
   xmlns="http://www.w3.org/2000/svg"
   xmlns:xlink="http://www.w3.org/1999/xlink"
   xmlns:sodipodi="http://sodipodi.sourceforge.net/DTD/sodipodi-0.dtd"
   xmlns:inkscape="http://www.inkscape.org/namespaces/inkscape"
   width="64px"
   height="64px"
   id="svg2483"
   sodipodi:version="0.32"
   inkscape:version="0.46+devel"
   inkscape:export-filename="/Users/izo/Desktop/test.png"
   inkscape:export-xdpi="70.3125"
   inkscape:export-ydpi="70.3125"
   sodipodi:docname="lovespip.svg"
   inkscape:output_extension="org.inkscape.output.svg.inkscape">
  <defs
     id="defs2485">
    <linearGradient
       inkscape:collect="always"
       id="linearGradient3719">
      <stop
         style="stop-color:#2e3436;stop-opacity:1;"
         offset="0"
         id="stop3721" />
      <stop
         style="stop-color:#2e3436;stop-opacity:0"
         offset="1"
         id="stop3723" />
    </linearGradient>
    <linearGradient
       id="linearGradient3499">
      <stop
         style="stop-color:#5c3566;stop-opacity:1;"
         offset="0"
         id="stop3501" />
      <stop
         style="stop-color:#ad7fa8;stop-opacity:1;"
         offset="1"
         id="stop3503" />
    </linearGradient>
    <linearGradient
       inkscape:collect="always"
       id="linearGradient3328">
      <stop
         style="stop-color:#cccccf;stop-opacity:1"
         offset="0"
         id="stop3330" />
      <stop
         style="stop-color:#eeeeee;stop-opacity:0;"
         offset="1"
         id="stop3332" />
    </linearGradient>
    <inkscape:perspective
       sodipodi:type="inkscape:persp3d"
       inkscape:vp_x="0 : 32 : 1"
       inkscape:vp_y="0 : 1000 : 0"
       inkscape:vp_z="64 : 32 : 1"
       inkscape:persp3d-origin="32 : 21.333333 : 1"
       id="perspective2491" />
    <inkscape:perspective
       id="perspective3272"
       inkscape:persp3d-origin="0.5 : 0.33333333 : 1"
       inkscape:vp_z="1 : 0.5 : 1"
       inkscape:vp_y="0 : 1000 : 0"
       inkscape:vp_x="0 : 0.5 : 1"
       sodipodi:type="inkscape:persp3d" />
    <inkscape:perspective
       id="perspective3300"
       inkscape:persp3d-origin="0.5 : 0.33333333 : 1"
       inkscape:vp_z="1 : 0.5 : 1"
       inkscape:vp_y="0 : 1000 : 0"
       inkscape:vp_x="0 : 0.5 : 1"
       sodipodi:type="inkscape:persp3d" />
    <linearGradient
       inkscape:collect="always"
       xlink:href="#linearGradient3328"
       id="linearGradient3334"
       x1="-7.4985795"
       y1="14.363636"
       x2="39.498577"
       y2="28.181816"
       gradientUnits="userSpaceOnUse" />
    <inkscape:perspective
       id="perspective3454"
       inkscape:persp3d-origin="0.5 : 0.33333333 : 1"
       inkscape:vp_z="1 : 0.5 : 1"
       inkscape:vp_y="0 : 1000 : 0"
       inkscape:vp_x="0 : 0.5 : 1"
       sodipodi:type="inkscape:persp3d" />
    <inkscape:perspective
       id="perspective3484"
       inkscape:persp3d-origin="0.5 : 0.33333333 : 1"
       inkscape:vp_z="1 : 0.5 : 1"
       inkscape:vp_y="0 : 1000 : 0"
       inkscape:vp_x="0 : 0.5 : 1"
       sodipodi:type="inkscape:persp3d" />
    <linearGradient
       inkscape:collect="always"
       xlink:href="#linearGradient3499"
       id="linearGradient3515"
       x1="45.636364"
       y1="40.363636"
       x2="51.81818"
       y2="11.409091"
       gradientUnits="userSpaceOnUse" />
    <linearGradient
       inkscape:collect="always"
       xlink:href="#linearGradient3328"
       id="linearGradient3526"
       x1="-3.4289773"
       y1="14"
       x2="39.610794"
       y2="28.181818"
       gradientUnits="userSpaceOnUse"
       gradientTransform="translate(-0.3636364,-0.3636364)" />
    <inkscape:perspective
       id="perspective3649"
       inkscape:persp3d-origin="0.5 : 0.33333333 : 1"
       inkscape:vp_z="1 : 0.5 : 1"
       inkscape:vp_y="0 : 1000 : 0"
       inkscape:vp_x="0 : 0.5 : 1"
       sodipodi:type="inkscape:persp3d" />
    <radialGradient
       inkscape:collect="always"
       xlink:href="#linearGradient3719"
       id="radialGradient3725"
       cx="27.09091"
       cy="50"
       fx="27.09091"
       fy="50"
       r="28.181818"
       gradientTransform="matrix(1.116129,0,0,0.1483871,-3.1460397,42.580645)"
       gradientUnits="userSpaceOnUse" />
  </defs>
  <sodipodi:namedview
     id="base"
     pagecolor="#ffffff"
     bordercolor="#666666"
     borderopacity="1.0"
     inkscape:pageopacity="0.0"
     inkscape:pageshadow="2"
     inkscape:zoom="5.5"
     inkscape:cx="3.6363636"
     inkscape:cy="6.6363636"
     inkscape:current-layer="layer1"
     showgrid="true"
     inkscape:document-units="px"
     inkscape:grid-bbox="true"
     inkscape:snap-guide="false"
     inkscape:window-width="1440"
     inkscape:window-height="852"
     inkscape:window-x="0"
     inkscape:window-y="22">
    <inkscape:grid
       type="xygrid"
       id="grid3287"
       empspacing="5"
       visible="true"
       enabled="true" />
  </sodipodi:namedview>
  <metadata
     id="metadata2488">
    <rdf:RDF>
      <cc:Work
         rdf:about="">
        <dc:format>image/svg+xml</dc:format>
        <dc:type
           rdf:resource="http://purl.org/dc/dcmitype/StillImage" />
      </cc:Work>
    </rdf:RDF>
  </metadata>
  <g
     id="layer1"
     inkscape:label="Layer 1"
     inkscape:groupmode="layer">
    <path
       sodipodi:type="arc"
       style="opacity:0.4863388;fill:url(#radialGradient3725);fill-opacity:1;stroke:none"
       id="path3707"
       sodipodi:cx="27.09091"
       sodipodi:cy="50"
       sodipodi:rx="28.181818"
       sodipodi:ry="4.181818"
       d="M 55.272728,50 A 28.181818,4.181818 0 1 1 -1.0909081,50 28.181818,4.181818 0 1 1 55.272728,50 z"
       transform="matrix(1.1032258,0,0,1,2.1126092,0)" />
    <rect
       style="fill:url(#linearGradient3515);fill-rule:evenodd;stroke:#5c3566;stroke-width:2;stroke-linecap:round;stroke-linejoin:round;stroke-opacity:1;fill-opacity:1;stroke-miterlimit:4;stroke-dasharray:none"
       id="rect2493"
       width="61.272724"
       height="30.545456"
       x="1.3636379"
       y="16.727272"
       ry="1.6363636" />
    <rect
       style="fill:none;stroke:#eeeeec;stroke-width:1;stroke-linecap:round;stroke-linejoin:round;stroke-opacity:1;stroke-miterlimit:4;stroke-dasharray:none;opacity:0.5136612"
       id="rect3285"
       width="58.665897"
       height="28.240959"
       x="2.6670513"
       y="17.87952"
       ry="1.5129083" />
    <switch
       id="switch7463"
       transform="matrix(0.9677537,0,0,0.9677537,6.7308243,23.920263)"
       style="fill:#a40000;stroke:#ef2929">
      <foreignObject
         requiredExtensions="http://ns.adobe.com/AdobeIllustrator/10.0/"
         x="0"
         y="0"
         width="1"
         height="1"
         id="foreignObject7465">
        <i:pgfRef
           xlink:href="#adobe_illustrator_pgf" />
      </foreignObject>
      <g
         i:extraneous="self"
         id="g7467"
         style="fill:#a40000;stroke:#ef2929">
        <path
           d="m 17.634,5.473 c -0.229,2.444 -1.989,4.796 -5.288,7.055 -2.295,1.568 -5.09,2.958 -8.383,4.17 0.17,-0.594 0.282,-1.164 0.332,-1.715 C 4.427,13.562 4.096,12.23 3.304,10.987 2.55,9.977 1.793,8.97 1.032,7.968 0.237,6.753 -0.098,5.475 0.025,4.13 0.148,2.81 0.693,1.764 1.662,0.996 2.631,0.226 3.778,-0.097 5.108,0.025 6.017,0.11 6.838,0.425 7.574,0.972 8.372,1.571 8.847,2.297 9,3.152 10.1,1.41 11.56,0.623 13.377,0.791 c 1.22,0.113 2.253,0.609 3.097,1.489 0.884,0.921 1.272,1.985 1.16,3.193 l 0,0 z"
           id="path7469"
           style="fill:#a40000;stroke:#ef2929" />
      </g>
    </switch>
    <path
       style="fill:url(#linearGradient3526);fill-opacity:1;fill-rule:evenodd;stroke:none;opacity:0.73770491999999999"
       d="m 2.6960227,16.271307 c -0.906545,0 -1.625,0.749704 -1.625,1.65625 l 0,21.4375 c 5.1854169,-4.316613 11.6750023,-8.555209 18.0937503,-9.625 10.078372,-1.67973 26.004042,-8.034933 33.21875,-13.46875 l -49.6875002,0 z"
       id="rect3497" />
    <g
       transform="translate(26.551968,16.91947)"
       id="g3628"
       style="fill:#eeeeec;stroke:#eeeeec;opacity:0.75409835999999986;">
      <g
         transform="matrix(1.509072,0,0,1.509072,1.349868,3.999853)"
         id="g7487"
         style="fill:#eeeeec;stroke:#eeeeec;stroke-opacity:1">
        <path
           style="fill:#eeeeec;stroke:#eeeeec;stroke-linecap:round;stroke-linejoin:round;stroke-opacity:1"
           id="path7489"
           d="M 3.209,5.238 C 3.066,5.488 2.15,5.056 1.991,4.958 1.469,4.632 1.15,4.111 1.229,3.487 1.39,2.216 2.723,1.314 3.938,1.41 5.283,1.517 6.39,2.738 6.732,3.973 7.098,5.296 6.445,6.674 5.504,7.584 5.342,7.741 5.19,7.99 5.256,8.226 5.318,8.444 5.567,8.403 5.699,8.276 7.007,7.011 7.849,5.214 7.422,3.38 7.016,1.635 5.238,0.244 3.438,0.54 1.815,0.807 0.316,2.724 0.519,4.368 0.683,5.695 2.873,7.024 3.726,5.537 4.027,5.012 3.511,4.712 3.209,5.238 l 0,0 z" />
      </g>
      <g
         style="stroke:#eeeeec;fill:#eeeeec"
         transform="matrix(1.509072,0,0,1.509072,1.349868,3.999853)"
         id="g7493">
        <path
           style="fill:#eeeeec;stroke:#eeeeec;stroke-linecap:round;stroke-linejoin:round"
           id="path7495"
           d="m 12.45,7.576 c 0.043,-0.498 0.829,-0.783 1.22,-0.931 0.489,-0.183 1.015,-0.271 1.535,-0.297 0.932,-0.048 1.927,0.17 2.686,0.726 0.576,0.422 1.22,1.5 0.544,2.095 -0.826,0.726 -2.306,0.416 -3.241,0.14 -0.213,-0.063 -0.466,0.461 -0.203,0.54 1.212,0.357 2.954,0.567 3.845,-0.566 C 19.468,8.477 19.053,7.332 18.362,6.715 17.371,5.826 15.88,5.688 14.619,5.892 c -1.026,0.167 -2.491,0.72 -2.594,1.92 -0.03,0.341 0.407,-0.02 0.425,-0.236 l 0,0 z" />
      </g>
      <g
         style="stroke:#eeeeec;fill:#eeeeec"
         transform="matrix(1.509072,0,0,1.509072,1.349868,3.999853)"
         id="g7499">
        <path
           style="fill:#eeeeec;stroke:#eeeeec;stroke-linecap:round;stroke-linejoin:round"
           id="path7501"
           d="M 12.659,8.816 C 10.751,7.325 7.306,7.529 5.549,9.172 5.385,9.325 5.236,9.581 5.302,9.815 c 0.062,0.221 0.309,0.174 0.442,0.05 1.587,-1.484 4.732,-1.506 6.417,-0.188 0.309,0.24 0.828,-0.603 0.498,-0.861 l 0,0 z" />
      </g>
      <g
         style="stroke:#eeeeec;fill:#eeeeec"
         transform="matrix(1.509072,0,0,1.509072,1.349868,3.999853)"
         id="g7505">
        <path
           style="fill:#eeeeec;stroke:#eeeeec;stroke-linecap:round;stroke-linejoin:round"
           id="path7507"
           d="m 11.517,11.332 c -0.372,1.796 1.756,1.926 2.943,1.365 0.345,-0.163 0.522,-1.073 -0.015,-0.82 -0.654,0.311 -2.475,0.45 -2.231,-0.722 0.036,-0.178 -0.039,-0.417 -0.265,-0.358 -0.23,0.058 -0.387,0.316 -0.432,0.535 l 0,0 z" />
      </g>
      <g
         style="stroke:#eeeeec;fill:#eeeeec"
         transform="matrix(1.509072,0,0,1.509072,1.349868,3.999853)"
         id="g7511">
        <path
           style="fill:#eeeeec;stroke:#eeeeec;stroke-linecap:round;stroke-linejoin:round"
           id="path7513"
           d="m 4.927,12.145 c 0.27,-0.042 0.527,-0.05 0.774,0.077 0.134,0.068 0.187,0.211 0.231,0.343 0.056,0.162 0.14,0.007 -0.001,0.087 -0.312,0.177 -0.79,0.206 -1.142,0.23 C 4.042,12.935 2.815,12.8 2.883,13.939 2.918,14.53 3.622,13.92 3.6,13.542 3.329,13.809 3.278,13.905 3.447,13.834 3.507,13.818 3.568,13.809 3.63,13.801 3.772,13.781 3.923,13.791 4.066,13.792 4.303,13.795 4.532,13.788 4.768,13.758 5.244,13.699 5.797,13.646 6.179,13.32 6.618,12.944 6.77,12.403 6.584,11.857 6.362,11.208 5.678,11.161 5.097,11.252 c -0.37,0.056 -0.68,0.973 -0.17,0.893 l 0,0 z" />
      </g>
      <path
         style="fill:#eeeeec;stroke:#eeeeec;stroke-width:1.50907195000000005;stroke-linecap:round;stroke-linejoin:round"
         id="path7517"
         d="m 24.711812,14.881771 c 0.111671,-0.511575 0.775663,-0.79679 1.477381,-0.639846 0.70021,0.156943 1.178585,0.6987 1.065405,1.207257 -0.11469,0.510067 -0.775663,0.79679 -1.478891,0.639847 -0.700209,-0.156944 -1.178585,-0.697191 -1.063895,-1.207258 z" />
      <path
         d="m 23.572462,13.021085 c 0,0 -2.397915,-1.439654 -2.740474,-0.822444 -0.34256,0.615702 -0.137326,1.575471 0.344068,1.575471"
         id="path7519"
         style="fill:#eeeeec;stroke:#eeeeec;stroke-width:1.50907195000000005;stroke-linecap:round;stroke-linejoin:round" />
    </g>
  </g>
</svg>
