<?xml version="1.0" encoding="UTF-8" standalone="no"?>
<!-- Created with Inkscape (http://www.inkscape.org/) -->
<svg:svg
   xmlns:i="http://ns.adobe.com/AdobeIllustrator/10.0/"
   xmlns:dc="http://purl.org/dc/elements/1.1/"
   xmlns:cc="http://web.resource.org/cc/"
   xmlns:rdf="http://www.w3.org/1999/02/22-rdf-syntax-ns#"
   xmlns:svg="http://www.w3.org/2000/svg"
   xmlns:xlink="http://www.w3.org/1999/xlink"
   xmlns:sodipodi="http://sodipodi.sourceforge.net/DTD/sodipodi-0.dtd"
   xmlns:inkscape="http://www.inkscape.org/namespaces/inkscape"
   width="64px"
   height="64px"
   id="svg9991"
   sodipodi:version="0.32"
   inkscape:version="0.44.1"
   sodipodi:docbase="/Users/izo/Sites/spip-zone/_graphismes_/logos/spip_tango/svg"
   sodipodi:docname="spip_lang.svg"
   inkscape:export-filename="/Users/izo/Sites/spip-zone/_graphismes_/logos/spip_tango/png/spip_lang-64.png"
   inkscape:export-xdpi="90"
   inkscape:export-ydpi="90">
  <svg:defs
     id="defs9993">
    <svg:linearGradient
       inkscape:collect="always"
       id="linearGradient9806">
      <svg:stop
         style="stop-color:#000000;stop-opacity:1;"
         offset="0"
         id="stop9808" />
      <svg:stop
         style="stop-color:#000000;stop-opacity:0;"
         offset="1"
         id="stop9810" />
    </svg:linearGradient>
    <svg:radialGradient
       inkscape:collect="always"
       xlink:href="#linearGradient9806"
       id="radialGradient9812"
       cx="24.35099"
       cy="41.591846"
       fx="24.35099"
       fy="41.591846"
       r="19.136078"
       gradientTransform="matrix(1,0,0,0.242494,0,31.50606)"
       gradientUnits="userSpaceOnUse" />
    <svg:linearGradient
       id="XMLID_3_"
       gradientUnits="userSpaceOnUse"
       x1="26.2524"
       y1="34.8477"
       x2="26.2524"
       y2="32.5825">
      <svg:stop
         offset="0"
         style="stop-color:#EF2929"
         id="stop227" />
      <svg:stop
         offset="1"
         style="stop-color:#A40000"
         id="stop229" />
    </svg:linearGradient>
    <svg:linearGradient
       id="path2756_1_"
       gradientUnits="userSpaceOnUse"
       x1="-4.2974"
       y1="72.0352"
       x2="-4.2974"
       y2="69.3176"
       gradientTransform="matrix(1.1501,0,0,-1.1501,31.1956,114.7217)">
      <svg:stop
         offset="0"
         style="stop-color:#555753"
         id="stop215" />
      <svg:stop
         offset="0.1275"
         style="stop-color:#484C4A"
         id="stop217" />
      <svg:stop
         offset="0.3459"
         style="stop-color:#393E3F"
         id="stop219" />
      <svg:stop
         offset="0.6043"
         style="stop-color:#313638"
         id="stop221" />
      <svg:stop
         offset="1"
         style="stop-color:#2E3436"
         id="stop223" />
    </svg:linearGradient>
    <svg:radialGradient
       id="path2327_1_"
       cx="169.5005"
       cy="-40.2339"
       r="9.5353"
       gradientTransform="matrix(0.788,0,0,-0.788,-109.0825,-6.0314)"
       gradientUnits="userSpaceOnUse">
      <svg:stop
         offset="0"
         style="stop-color:#E9B96E"
         id="stop199" />
      <svg:stop
         offset="1"
         style="stop-color:#C17D11"
         id="stop201" />
    </svg:radialGradient>
    <svg:linearGradient
       id="XMLID_2_"
       gradientUnits="userSpaceOnUse"
       x1="-25.979"
       y1="-10.6646"
       x2="-18.7339"
       y2="-10.6646"
       gradientTransform="matrix(0.4034,-0.1906,0.427,0.9042,34.7974,24.8318)">
      <svg:stop
         offset="0"
         style="stop-color:#C17D11"
         id="stop186" />
      <svg:stop
         offset="0.2735"
         style="stop-color:#BD7A10"
         id="stop188" />
      <svg:stop
         offset="0.5694"
         style="stop-color:#B0700C"
         id="stop190" />
      <svg:stop
         offset="0.8747"
         style="stop-color:#9A6105"
         id="stop192" />
      <svg:stop
         offset="1"
         style="stop-color:#8F5902"
         id="stop194" />
    </svg:linearGradient>
    <svg:linearGradient
       id="XMLID_1_"
       gradientUnits="userSpaceOnUse"
       x1="-25.4316"
       y1="-10.5493"
       x2="-18.1875"
       y2="-10.5493"
       gradientTransform="matrix(-0.4034,-0.1906,-0.427,0.9042,17.9775,24.8318)">
      <svg:stop
         offset="0"
         style="stop-color:#C17D11"
         id="stop173" />
      <svg:stop
         offset="0.2735"
         style="stop-color:#BD7A10"
         id="stop175" />
      <svg:stop
         offset="0.5694"
         style="stop-color:#B0700C"
         id="stop177" />
      <svg:stop
         offset="0.8747"
         style="stop-color:#9A6105"
         id="stop179" />
      <svg:stop
         offset="1"
         style="stop-color:#8F5902"
         id="stop181" />
    </svg:linearGradient>
    <svg:linearGradient
       id="path4173_1_"
       gradientUnits="userSpaceOnUse"
       x1="65.4673"
       y1="21.7046"
       x2="65.4673"
       y2="15.4519"
       gradientTransform="matrix(1,0,0,-1,-34.4082,61.0186)">
      <svg:stop
         offset="0"
         style="stop-color:#FFFFFF"
         id="stop163" />
      <svg:stop
         offset="1"
         style="stop-color:#C9C9C9"
         id="stop165" />
    </svg:linearGradient>
    <svg:linearGradient
       id="path29441_5_"
       gradientUnits="userSpaceOnUse"
       x1="-764.8428"
       y1="70.6904"
       x2="-768.0942"
       y2="65.1441"
       gradientTransform="matrix(-0.9772,0,0,-0.9959,-719.1876,75.5817)">
      <svg:stop
         offset="0"
         style="stop-color:#F5F5F5"
         id="stop80" />
      <svg:stop
         offset="1"
         style="stop-color:#E9E9E9"
         id="stop82" />
    </svg:linearGradient>
    <svg:linearGradient
       id="path29441_4_"
       gradientUnits="userSpaceOnUse"
       x1="-776.0811"
       y1="62.5264"
       x2="-779.3325"
       y2="56.9801"
       gradientTransform="matrix(-0.9772,0,0,-0.9959,-719.1876,75.5817)">
      <svg:stop
         offset="0"
         style="stop-color:#F5F5F5"
         id="stop71" />
      <svg:stop
         offset="1"
         style="stop-color:#E9E9E9"
         id="stop73" />
    </svg:linearGradient>
    <svg:linearGradient
       id="rect29408_3_"
       gradientUnits="userSpaceOnUse"
       x1="35.4419"
       y1="63.6533"
       x2="40.9202"
       y2="57.2008"
       gradientTransform="matrix(1.0076,0,0,-0.9876,-21.8209,64.5593)">
      <svg:stop
         offset="0"
         style="stop-color:#F5F5F5"
         id="stop62" />
      <svg:stop
         offset="1"
         style="stop-color:#E9E9E9"
         id="stop64" />
    </svg:linearGradient>
    <svg:linearGradient
       id="path29441_3_"
       gradientUnits="userSpaceOnUse"
       x1="-777.9102"
       y1="48.9697"
       x2="-781.1614"
       y2="43.4239"
       gradientTransform="matrix(-0.9772,0,0,-0.9959,-719.1876,75.5817)">
      <svg:stop
         offset="0"
         style="stop-color:#F5F5F5"
         id="stop53" />
      <svg:stop
         offset="1"
         style="stop-color:#E9E9E9"
         id="stop55" />
    </svg:linearGradient>
    <svg:linearGradient
       id="rect29408_2_"
       gradientUnits="userSpaceOnUse"
       x1="29.3257"
       y1="53.0791"
       x2="34.8039"
       y2="46.6266"
       gradientTransform="matrix(1.0076,0,0,-0.9876,-21.8209,64.5593)">
      <svg:stop
         offset="0"
         style="stop-color:#F5F5F5"
         id="stop44" />
      <svg:stop
         offset="1"
         style="stop-color:#E9E9E9"
         id="stop46" />
    </svg:linearGradient>
    <svg:linearGradient
       id="path4370_1_"
       gradientUnits="userSpaceOnUse"
       x1="-695.4531"
       y1="-64.7212"
       x2="-696.7315"
       y2="-64.0704"
       gradientTransform="matrix(-0.9777,0.2101,-0.2101,-0.9777,-658.7002,129.0211)">
      <svg:stop
         offset="0"
         style="stop-color:#000000"
         id="stop36" />
      <svg:stop
         offset="1"
         style="stop-color:#000000"
         id="stop38" />
    </svg:linearGradient>
    <svg:linearGradient
       id="path4368_1_"
       gradientUnits="userSpaceOnUse"
       x1="95.3657"
       y1="95.0371"
       x2="97.3309"
       y2="94.6373"
       gradientTransform="matrix(0.9834,0.1816,0.1816,-0.9834,-95.5652,121.2474)">
      <svg:stop
         offset="0"
         style="stop-color:#000000"
         id="stop30" />
      <svg:stop
         offset="1"
         style="stop-color:#000000"
         id="stop32" />
    </svg:linearGradient>
    <svg:radialGradient
       id="path2329_1_"
       cx="46.8472"
       cy="-100.144"
       r="13.5656"
       gradientTransform="matrix(1,0,0,-0.6819,-21.9902,-29.6113)"
       gradientUnits="userSpaceOnUse">
      <svg:stop
         offset="0"
         style="stop-color:#729FCF"
         id="stop23" />
      <svg:stop
         offset="1"
         style="stop-color:#3465A4"
         id="stop25" />
    </svg:radialGradient>
    <svg:radialGradient
       id="XMLID_5_"
       cx="23.436"
       cy="33.9185"
       r="19.7892"
       gradientTransform="matrix(0.5861,1.37e-2,1.37e-2,0.6642,-2.6747,12.0504)"
       gradientUnits="userSpaceOnUse">
      <svg:stop
         offset="0"
         style="stop-color:#E9B96E"
         id="stop14" />
      <svg:stop
         offset="1"
         style="stop-color:#C17D11"
         id="stop16" />
    </svg:radialGradient>
    <svg:foreignObject
       id="foreignObject7"
       height="1"
       width="1"
       y="0"
       x="0"
       requiredExtensions="http://ns.adobe.com/AdobeIllustrator/10.0/">
      <i:pgfRef
         xlink:href="#adobe_illustrator_pgf" />
    </svg:foreignObject>
    <svg:radialGradient
       inkscape:collect="always"
       xlink:href="#XMLID_5_"
       id="radialGradient266885"
       gradientUnits="userSpaceOnUse"
       gradientTransform="matrix(0.5861,1.37e-2,1.37e-2,0.6642,-2.6747,12.0504)"
       cx="23.436"
       cy="33.9185"
       r="19.7892" />
    <svg:radialGradient
       inkscape:collect="always"
       xlink:href="#path2329_1_"
       id="radialGradient266887"
       gradientUnits="userSpaceOnUse"
       gradientTransform="matrix(1,0,0,-0.6819,-21.9902,-29.6113)"
       cx="46.8472"
       cy="-100.144"
       r="13.5656" />
    <svg:linearGradient
       inkscape:collect="always"
       xlink:href="#path4368_1_"
       id="linearGradient266889"
       gradientUnits="userSpaceOnUse"
       gradientTransform="matrix(0.9834,0.1816,0.1816,-0.9834,-95.5652,121.2474)"
       x1="95.3657"
       y1="95.0371"
       x2="97.3309"
       y2="94.6373" />
    <svg:linearGradient
       inkscape:collect="always"
       xlink:href="#path4370_1_"
       id="linearGradient266891"
       gradientUnits="userSpaceOnUse"
       gradientTransform="matrix(-0.9777,0.2101,-0.2101,-0.9777,-658.7002,129.0211)"
       x1="-695.4531"
       y1="-64.7212"
       x2="-696.7315"
       y2="-64.0704" />
    <svg:linearGradient
       inkscape:collect="always"
       xlink:href="#rect29408_2_"
       id="linearGradient266893"
       gradientUnits="userSpaceOnUse"
       gradientTransform="matrix(1.0076,0,0,-0.9876,-21.8209,64.5593)"
       x1="29.3257"
       y1="53.0791"
       x2="34.8039"
       y2="46.6266" />
    <svg:linearGradient
       inkscape:collect="always"
       xlink:href="#path29441_3_"
       id="linearGradient266895"
       gradientUnits="userSpaceOnUse"
       gradientTransform="matrix(-0.9772,0,0,-0.9959,-719.1876,75.5817)"
       x1="-777.9102"
       y1="48.9697"
       x2="-781.1614"
       y2="43.4239" />
    <svg:linearGradient
       inkscape:collect="always"
       xlink:href="#rect29408_3_"
       id="linearGradient266897"
       gradientUnits="userSpaceOnUse"
       gradientTransform="matrix(1.0076,0,0,-0.9876,-21.8209,64.5593)"
       x1="35.4419"
       y1="63.6533"
       x2="40.9202"
       y2="57.2008" />
    <svg:linearGradient
       inkscape:collect="always"
       xlink:href="#path29441_4_"
       id="linearGradient266899"
       gradientUnits="userSpaceOnUse"
       gradientTransform="matrix(-0.9772,0,0,-0.9959,-719.1876,75.5817)"
       x1="-776.0811"
       y1="62.5264"
       x2="-779.3325"
       y2="56.9801" />
    <svg:linearGradient
       inkscape:collect="always"
       xlink:href="#path29441_5_"
       id="linearGradient266901"
       gradientUnits="userSpaceOnUse"
       gradientTransform="matrix(-0.9772,0,0,-0.9959,-719.1876,75.5817)"
       x1="-764.8428"
       y1="70.6904"
       x2="-768.0942"
       y2="65.1441" />
    <svg:linearGradient
       inkscape:collect="always"
       xlink:href="#path4173_1_"
       id="linearGradient266903"
       gradientUnits="userSpaceOnUse"
       gradientTransform="matrix(1,0,0,-1,-34.4082,61.0186)"
       x1="65.4673"
       y1="21.7046"
       x2="65.4673"
       y2="15.4519" />
    <svg:linearGradient
       inkscape:collect="always"
       xlink:href="#XMLID_1_"
       id="linearGradient266905"
       gradientUnits="userSpaceOnUse"
       gradientTransform="matrix(-0.4034,-0.1906,-0.427,0.9042,17.9775,24.8318)"
       x1="-25.4316"
       y1="-10.5493"
       x2="-18.1875"
       y2="-10.5493" />
    <svg:linearGradient
       inkscape:collect="always"
       xlink:href="#XMLID_2_"
       id="linearGradient266907"
       gradientUnits="userSpaceOnUse"
       gradientTransform="matrix(0.4034,-0.1906,0.427,0.9042,34.7974,24.8318)"
       x1="-25.979"
       y1="-10.6646"
       x2="-18.7339"
       y2="-10.6646" />
    <svg:radialGradient
       inkscape:collect="always"
       xlink:href="#path2327_1_"
       id="radialGradient266909"
       gradientUnits="userSpaceOnUse"
       gradientTransform="matrix(0.788,0,0,-0.788,-109.0825,-6.0314)"
       cx="169.5005"
       cy="-40.2339"
       r="9.5353" />
    <svg:linearGradient
       inkscape:collect="always"
       xlink:href="#path2756_1_"
       id="linearGradient266911"
       gradientUnits="userSpaceOnUse"
       gradientTransform="matrix(1.1501,0,0,-1.1501,31.1956,114.7217)"
       x1="-4.2974"
       y1="72.0352"
       x2="-4.2974"
       y2="69.3176" />
    <svg:linearGradient
       inkscape:collect="always"
       xlink:href="#XMLID_3_"
       id="linearGradient266913"
       gradientUnits="userSpaceOnUse"
       x1="26.2524"
       y1="34.8477"
       x2="26.2524"
       y2="32.5825" />
    <svg:radialGradient
       id="radialGradient2174"
       cx="46.847198"
       cy="-100.144"
       r="13.5656"
       gradientTransform="matrix(1,0,0,-0.6819,-21.9902,-29.6113)"
       gradientUnits="userSpaceOnUse">
      <svg:stop
         offset="0"
         style="stop-color:#729FCF"
         id="stop2176" />
      <svg:stop
         offset="1"
         style="stop-color:#3465A4"
         id="stop2178" />
    </svg:radialGradient>
    <svg:linearGradient
       id="linearGradient2182"
       gradientUnits="userSpaceOnUse"
       x1="95.3657"
       y1="95.037102"
       x2="97.330902"
       y2="94.637299"
       gradientTransform="matrix(0.9834,0.1816,0.1816,-0.9834,-95.5652,121.2474)">
      <svg:stop
         offset="0"
         style="stop-color:#000000"
         id="stop2184" />
      <svg:stop
         offset="1"
         style="stop-color:#000000"
         id="stop2186" />
    </svg:linearGradient>
    <svg:linearGradient
       id="linearGradient2189"
       gradientUnits="userSpaceOnUse"
       x1="-695.45312"
       y1="-64.721199"
       x2="-696.73151"
       y2="-64.070396"
       gradientTransform="matrix(-0.9777,0.2101,-0.2101,-0.9777,-658.7002,129.0211)">
      <svg:stop
         offset="0"
         style="stop-color:#000000"
         id="stop2191" />
      <svg:stop
         offset="1"
         style="stop-color:#000000"
         id="stop2193" />
    </svg:linearGradient>
    <namedview
       zoom="9.8994949"
       pageopacity="0.0"
       pageshadow="2"
       showpageshadow="false"
       borderopacity="0.17254902"
       pagecolor="#ffffff"
       bordercolor="#666666"
       cy="24.622653"
       showgrid="false"
       current-layer="layer1"
       cx="25.799661"
       window-y="167"
       document-units="px"
       window-width="770"
       grid-bbox="true"
       window-height="695"
       window-x="472" />
    <svg:linearGradient
       id="linearGradient2280"
       gradientUnits="userSpaceOnUse"
       x1="65.4673"
       y1="21.704599"
       x2="65.4673"
       y2="15.4519"
       gradientTransform="matrix(1,0,0,-1,-34.4082,61.0186)">
      <svg:stop
         offset="0"
         style="stop-color:#FFFFFF"
         id="stop2282" />
      <svg:stop
         offset="1"
         style="stop-color:#C9C9C9"
         id="stop2284" />
    </svg:linearGradient>
    <svg:linearGradient
       inkscape:collect="always"
       xlink:href="#path4173_1_"
       id="linearGradient266966"
       gradientUnits="userSpaceOnUse"
       gradientTransform="matrix(1.146708,0,0,-1.146708,-34.89219,71.60692)"
       x1="65.4673"
       y1="21.7046"
       x2="65.4673"
       y2="15.4519" />
    <svg:linearGradient
       inkscape:collect="always"
       xlink:href="#path4370_1_"
       id="linearGradient267038"
       gradientUnits="userSpaceOnUse"
       gradientTransform="matrix(-1.121136,0.240923,-0.240923,-1.121136,-750.7728,149.5859)"
       x1="-695.4531"
       y1="-64.7212"
       x2="-696.7315"
       y2="-64.0704" />
    <svg:linearGradient
       inkscape:collect="always"
       xlink:href="#path4368_1_"
       id="linearGradient267041"
       gradientUnits="userSpaceOnUse"
       gradientTransform="matrix(1.127673,0.208242,0.208242,-1.127673,-105.0214,140.6718)"
       x1="95.3657"
       y1="95.0371"
       x2="97.3309"
       y2="94.6373" />
    <svg:radialGradient
       inkscape:collect="always"
       xlink:href="#path2329_1_"
       id="radialGradient267045"
       gradientUnits="userSpaceOnUse"
       gradientTransform="matrix(1.146708,0,0,-0.78194,-20.65237,-32.31911)"
       cx="46.8472"
       cy="-100.144"
       r="13.5656" />
    <svg:radialGradient
       inkscape:collect="always"
       xlink:href="#XMLID_5_"
       id="radialGradient267053"
       gradientUnits="userSpaceOnUse"
       gradientTransform="matrix(0.5861,1.37e-2,1.37e-2,0.6642,-2.6747,12.0504)"
       cx="23.436"
       cy="33.9185"
       r="19.7892" />
    <svg:radialGradient
       gradientUnits="userSpaceOnUse"
       gradientTransform="matrix(0.5861,1.37e-2,1.37e-2,0.6642,-2.6747,12.0504)"
       r="19.7892"
       cy="33.918499"
       cx="23.436001"
       id="radialGradient2166">
      <svg:stop
         id="stop2168"
         style="stop-color:#E9B96E"
         offset="0" />
      <svg:stop
         id="stop2170"
         style="stop-color:#C17D11"
         offset="1" />
    </svg:radialGradient>
    <svg:radialGradient
       inkscape:collect="always"
       xlink:href="#XMLID_5_"
       id="radialGradient267059"
       gradientUnits="userSpaceOnUse"
       gradientTransform="matrix(0.672086,1.57099e-2,1.57099e-2,0.761643,1.496865,15.4547)"
       cx="23.436"
       cy="33.9185"
       r="19.7892" />
    <svg:linearGradient
       inkscape:collect="always"
       xlink:href="#XMLID_1_"
       id="linearGradient267061"
       gradientUnits="userSpaceOnUse"
       gradientTransform="matrix(-0.4034,-0.1906,-0.427,0.9042,17.9775,24.8318)"
       x1="-25.4316"
       y1="-10.5493"
       x2="-18.1875"
       y2="-10.5493" />
    <svg:linearGradient
       inkscape:collect="always"
       xlink:href="#XMLID_2_"
       id="linearGradient267063"
       gradientUnits="userSpaceOnUse"
       gradientTransform="matrix(0.4034,-0.1906,0.427,0.9042,34.7974,24.8318)"
       x1="-25.979"
       y1="-10.6646"
       x2="-18.7339"
       y2="-10.6646" />
    <svg:radialGradient
       inkscape:collect="always"
       xlink:href="#path2327_1_"
       id="radialGradient267065"
       gradientUnits="userSpaceOnUse"
       gradientTransform="matrix(0.788,0,0,-0.788,-109.0825,-6.0314)"
       cx="169.5005"
       cy="-40.2339"
       r="9.5353" />
    <svg:linearGradient
       inkscape:collect="always"
       xlink:href="#path2756_1_"
       id="linearGradient267067"
       gradientUnits="userSpaceOnUse"
       gradientTransform="matrix(1.1501,0,0,-1.1501,31.1956,114.7217)"
       x1="-4.2974"
       y1="72.0352"
       x2="-4.2974"
       y2="69.3176" />
    <svg:linearGradient
       inkscape:collect="always"
       xlink:href="#XMLID_3_"
       id="linearGradient267069"
       gradientUnits="userSpaceOnUse"
       x1="26.2524"
       y1="34.8477"
       x2="26.2524"
       y2="32.5825" />
    <svg:radialGradient
       gradientUnits="userSpaceOnUse"
       gradientTransform="matrix(0.788,0,0,-0.788,-109.0825,-6.0314)"
       r="9.5353003"
       cy="-40.233898"
       cx="169.5005"
       id="radialGradient2315">
      <svg:stop
         id="stop2317"
         style="stop-color:#E9B96E"
         offset="0" />
      <svg:stop
         id="stop2319"
         style="stop-color:#C17D11"
         offset="1" />
    </svg:radialGradient>
    <svg:linearGradient
       gradientTransform="matrix(1.1501,0,0,-1.1501,31.1956,114.7217)"
       y2="69.317596"
       x2="-4.2974"
       y1="72.035202"
       x1="-4.2974"
       gradientUnits="userSpaceOnUse"
       id="linearGradient2329">
      <svg:stop
         id="stop2331"
         style="stop-color:#555753"
         offset="0" />
      <svg:stop
         id="stop2333"
         style="stop-color:#484C4A"
         offset="0.1275" />
      <svg:stop
         id="stop2335"
         style="stop-color:#393E3F"
         offset="0.3459" />
      <svg:stop
         id="stop2337"
         style="stop-color:#313638"
         offset="0.6043" />
      <svg:stop
         id="stop2339"
         style="stop-color:#2E3436"
         offset="1" />
    </svg:linearGradient>
    <svg:linearGradient
       y2="32.5825"
       x2="26.252399"
       y1="34.847698"
       x1="26.252399"
       gradientUnits="userSpaceOnUse"
       id="linearGradient2342">
      <svg:stop
         id="stop2344"
         style="stop-color:#EF2929"
         offset="0" />
      <svg:stop
         id="stop2346"
         style="stop-color:#A40000"
         offset="1" />
    </svg:linearGradient>
    <svg:linearGradient
       inkscape:collect="always"
       xlink:href="#XMLID_3_"
       id="linearGradient267084"
       gradientUnits="userSpaceOnUse"
       x1="26.2524"
       y1="34.8477"
       x2="26.2524"
       y2="32.5825"
       gradientTransform="matrix(1.146708,0,0,1.146708,4.563965,1.636408)" />
    <svg:linearGradient
       inkscape:collect="always"
       xlink:href="#path2756_1_"
       id="linearGradient267087"
       gradientUnits="userSpaceOnUse"
       gradientTransform="matrix(1.318829,0,0,-1.318829,40.33621,133.1887)"
       x1="-4.2974"
       y1="72.0352"
       x2="-4.2974"
       y2="69.3176" />
    <svg:radialGradient
       inkscape:collect="always"
       xlink:href="#path2327_1_"
       id="radialGradient267097"
       gradientUnits="userSpaceOnUse"
       gradientTransform="matrix(0.903606,0,0,-0.903606,-120.5218,-5.279847)"
       cx="169.5005"
       cy="-40.2339"
       r="9.5353" />
    <svg:linearGradient
       inkscape:collect="always"
       xlink:href="#XMLID_1_"
       id="linearGradient267114"
       gradientUnits="userSpaceOnUse"
       gradientTransform="matrix(-0.4034,-0.1906,-0.427,0.9042,17.9775,24.8318)"
       x1="-25.4316"
       y1="-10.5493"
       x2="-18.1875"
       y2="-10.5493" />
    <svg:linearGradient
       inkscape:collect="always"
       xlink:href="#XMLID_2_"
       id="linearGradient267116"
       gradientUnits="userSpaceOnUse"
       gradientTransform="matrix(0.4034,-0.1906,0.427,0.9042,34.7974,24.8318)"
       x1="-25.979"
       y1="-10.6646"
       x2="-18.7339"
       y2="-10.6646" />
    <svg:linearGradient
       id="linearGradient2289"
       gradientUnits="userSpaceOnUse"
       x1="-25.431601"
       y1="-10.5493"
       x2="-18.1875"
       y2="-10.5493"
       gradientTransform="matrix(-0.4034,-0.1906,-0.427,0.9042,17.9775,24.8318)">
      <svg:stop
         offset="0"
         style="stop-color:#C17D11"
         id="stop2291" />
      <svg:stop
         offset="0.2735"
         style="stop-color:#BD7A10"
         id="stop2293" />
      <svg:stop
         offset="0.5694"
         style="stop-color:#B0700C"
         id="stop2295" />
      <svg:stop
         offset="0.8747"
         style="stop-color:#9A6105"
         id="stop2297" />
      <svg:stop
         offset="1"
         style="stop-color:#8F5902"
         id="stop2299" />
    </svg:linearGradient>
    <svg:linearGradient
       id="linearGradient2302"
       gradientUnits="userSpaceOnUse"
       x1="-25.979"
       y1="-10.6646"
       x2="-18.7339"
       y2="-10.6646"
       gradientTransform="matrix(0.4034,-0.1906,0.427,0.9042,34.7974,24.8318)">
      <svg:stop
         offset="0"
         style="stop-color:#C17D11"
         id="stop2304" />
      <svg:stop
         offset="0.2735"
         style="stop-color:#BD7A10"
         id="stop2306" />
      <svg:stop
         offset="0.5694"
         style="stop-color:#B0700C"
         id="stop2308" />
      <svg:stop
         offset="0.8747"
         style="stop-color:#9A6105"
         id="stop2310" />
      <svg:stop
         offset="1"
         style="stop-color:#8F5902"
         id="stop2312" />
    </svg:linearGradient>
    <svg:linearGradient
       inkscape:collect="always"
       xlink:href="#XMLID_2_"
       id="linearGradient267131"
       gradientUnits="userSpaceOnUse"
       gradientTransform="matrix(0.462582,-0.218563,0.489644,1.036853,44.46642,30.11123)"
       x1="-25.979"
       y1="-10.6646"
       x2="-18.7339"
       y2="-10.6646" />
    <svg:linearGradient
       inkscape:collect="always"
       xlink:href="#XMLID_1_"
       id="linearGradient267134"
       gradientUnits="userSpaceOnUse"
       gradientTransform="matrix(-0.462582,-0.218563,-0.489644,1.036853,25.17891,30.11123)"
       x1="-25.4316"
       y1="-10.5493"
       x2="-18.1875"
       y2="-10.5493" />
  </svg:defs>
  <sodipodi:namedview
     id="base"
     pagecolor="#ffffff"
     bordercolor="#666666"
     borderopacity="1.0"
     inkscape:pageopacity="0.0"
     inkscape:pageshadow="2"
     inkscape:zoom="5.5"
     inkscape:cx="32"
     inkscape:cy="32"
     inkscape:current-layer="layer1"
     showgrid="true"
     inkscape:document-units="px"
     inkscape:grid-bbox="true"
     inkscape:window-width="823"
     inkscape:window-height="577"
     inkscape:window-x="230"
     inkscape:window-y="240" />
  <svg:metadata
     id="metadata9996">
    <rdf:RDF>
      <cc:Work
         rdf:about="">
        <dc:format>image/svg+xml</dc:format>
        <dc:type
           rdf:resource="http://purl.org/dc/dcmitype/StillImage" />
      </cc:Work>
    </rdf:RDF>
  </svg:metadata>
  <svg:g
     id="layer1"
     inkscape:label="Layer 1"
     inkscape:groupmode="layer">
    <svg:path
       sodipodi:type="arc"
       style="opacity:0.55681817;color:black;fill:url(#radialGradient9812);fill-opacity:1;fill-rule:nonzero;stroke:none;stroke-width:1;stroke-linecap:round;stroke-linejoin:round;marker:none;marker-start:none;marker-mid:none;marker-end:none;stroke-miterlimit:4;stroke-dasharray:none;stroke-dashoffset:0;stroke-opacity:1;visibility:visible;display:inline;overflow:visible"
       id="path9804"
       sodipodi:cx="24.35099"
       sodipodi:cy="41.591846"
       sodipodi:rx="19.136078"
       sodipodi:ry="4.6403885"
       d="M 43.487068 41.591846 A 19.136078 4.6403885 0 1 1  5.2149124,41.591846 A 19.136078 4.6403885 0 1 1  43.487068 41.591846 z"
       transform="matrix(1.10743,0,0,1.010469,6.841116,16.6617)" />
    <svg:path
       style="fill:url(#radialGradient267059);stroke:#8f5902;stroke-width:1;stroke-linecap:round;stroke-linejoin:round;stroke-miterlimit:4;stroke-dasharray:none"
       id="path18"
       d="M 29.009486,55.14295 C 29.268642,55.456001 29.428035,55.624567 29.428035,55.624567 C 23.205997,53.302484 24.439855,44.540488 23.722016,37.223344 C 22.583335,25.577378 10.437403,21.413681 6.0512453,30.809806 C 1.4403324,40.665761 15.774182,42.548656 15.774182,42.548656 C 13.941743,40.697869 13.514021,40.859555 13.430311,38.107456 C 13.316787,36.569721 14.712331,36.763514 15.492092,37.75771 C 16.34639,38.819562 17.065376,40.34927 17.112391,41.975302 C 17.089456,55.122309 23.348189,57.836567 30.612584,57.867528 C 30.540341,56.677245 30.038083,55.633741 29.009486,55.14295 z " />
    <svg:path
       enable-background="new    "
       d="M 23.433045,47.402671 C 22.785155,44.262984 22.93308,40.402019 22.587921,36.906853 C 21.576525,26.616295 10.91214,22.926189 7.0718154,31.222621 C 3.0354032,39.926135 15.61823,41.602622 15.61823,41.602622 C 14.007105,39.967416 13.633279,40.109608 13.555302,37.678587 C 13.455539,36.318591 14.680223,36.492891 15.364808,37.370123 C 16.117048,38.309277 16.750031,39.662392 16.792459,41.09807 C 16.790166,45.608073 17.624969,48.716798 19.011339,50.850822 C 20.311706,49.456425 21.796693,48.281049 23.433045,47.402671 z "
       id="path20"
       style="opacity:0.12660002;fill:none;stroke:white;stroke-width:1;stroke-linecap:round;stroke-linejoin:round;stroke-miterlimit:4;stroke-dasharray:none" />
    <svg:path
       id="path2329"
       nodetypes="cczcczc"
       d="M 29.221627,60.750352 L 41.384759,60.750352 C 44.831763,60.750352 48.242073,59.48668 49.491984,55.886017 C 50.681121,52.466534 49.696098,45.953232 41.991367,40.681815 L 27.600182,40.681815 C 19.897744,45.547297 18.93451,52.200497 20.708467,56.087837 C 22.514532,60.04742 25.572802,60.750352 29.221627,60.750352 z "
       style="fill:url(#radialGradient267045);stroke:#204a87;stroke-width:1;stroke-linecap:round;stroke-linejoin:round;stroke-miterlimit:4;stroke-dasharray:none" />
    <svg:path
       id="path3838"
       nodetypes="cczcczc"
       enable-background="new    "
       d="M 29.003753,59.529108 L 40.833192,59.529108 C 43.861648,59.529108 46.857996,58.419095 47.957689,55.255327 C 48.9989,52.252099 47.847605,46.530026 41.082028,41.900766 L 27.866218,41.900766 C 21.100641,46.174547 19.967694,52.019317 21.52607,55.434214 C 23.113114,58.913326 25.79985,59.529108 29.003753,59.529108 z "
       style="opacity:0.21520003;fill:none;stroke:white;stroke-width:1;stroke-linecap:round;stroke-linejoin:round;stroke-miterlimit:4;stroke-dasharray:none" />
    <svg:path
       id="path4368"
       nodetypes="cccc"
       enable-background="new    "
       d="M 23.937597,59.563509 C 22.506505,58.938553 21.866642,57.434073 21.866642,57.434073 C 22.831023,52.768118 26.132396,49.353221 26.132396,49.353221 C 26.132396,49.353221 23.519048,56.704766 23.937597,59.563509 z "
       style="opacity:0.22780002;fill:url(#linearGradient267041)" />
    <svg:path
       id="path4370"
       nodetypes="cccc"
       enable-background="new    "
       d="M 45.617258,59.726342 C 47.027709,59.060105 47.684773,57.430632 47.684773,57.430632 C 46.58508,52.794492 43.126608,49.582563 43.126608,49.582563 C 43.126608,49.582563 45.953244,56.856132 45.617258,59.726342 z "
       style="opacity:0.22780002;fill:url(#linearGradient267038)" />
    <svg:g
       id="g41"
       transform="matrix(1.146708,0,0,1.146708,4.563965,1.636408)">
      <svg:linearGradient
         id="linearGradient2197"
         gradientUnits="userSpaceOnUse"
         x1="29.325701"
         y1="53.079102"
         x2="34.803902"
         y2="46.626598"
         gradientTransform="matrix(1.0076,0,0,-0.9876,-21.8209,64.5593)">
        <svg:stop
           offset="0"
           style="stop-color:#F5F5F5"
           id="stop2199" />
        <svg:stop
           offset="1"
           style="stop-color:#E9E9E9"
           id="stop2201" />
      </svg:linearGradient>
      <svg:path
         id="rect29408"
         d="M 5.254,10.653 C 4.803,10.653 4.446,11.016 4.446,11.458 L 4.446,17.792 C 4.446,18.234 4.802,18.584 5.254,18.584 L 11.2,18.584 C 11.56,19.048 12.262,19.801 13.941,20.428 C 13.193,19.566 13.195,18.981 13.279,18.584 L 14.498,18.584 C 14.948,18.584 15.318,18.234 15.318,17.792 L 15.318,11.458 C 15.318,11.017 14.948,10.653 14.498,10.653 L 5.254,10.653 L 5.254,10.653 z "
         style="fill:url(#linearGradient266893);stroke:#787878;stroke-width:0.4206" />
      <svg:path
         id="path29445"
         nodetypes="cccccccccccc"
         d="M 5.427,11.076 C 5.041,11.076 4.883,11.26 4.883,11.638 L 4.883,17.471 C 4.883,17.849 5.19,18.15 5.575,18.15 L 11.415,18.15 C 11.724,18.547 11.963,18.98 12.893,19.453 C 12.719,19.076 12.866,18.549 12.985,18.15 L 14.454,18.15 C 14.84,18.15 14.881,17.999 14.881,17.62 L 14.881,11.639 C 14.881,11.261 14.777,11.098 14.39,11.098 L 5.427,11.076 z "
         style="fill:none;stroke:white;stroke-width:0.4206" />
    </svg:g>
    <svg:g
       id="g50"
       transform="matrix(1.146708,0,0,1.146708,4.563965,1.636408)">
      <svg:linearGradient
         id="linearGradient2206"
         gradientUnits="userSpaceOnUse"
         x1="-777.91022"
         y1="48.9697"
         x2="-781.16138"
         y2="43.423901"
         gradientTransform="matrix(-0.9772,0,0,-0.9959,-719.1876,75.5817)">
        <svg:stop
           offset="0"
           style="stop-color:#F5F5F5"
           id="stop2208" />
        <svg:stop
           offset="1"
           style="stop-color:#E9E9E9"
           id="stop2210" />
      </svg:linearGradient>
      <svg:path
         id="path29441"
         d="M 46.682,24.851 C 47.12,24.851 47.465,25.217 47.465,25.663 L 47.465,32.05 C 47.465,32.495 47.119,32.849 46.682,32.849 L 40.914,32.849 C 40.565,33.317 39.886,34.076 38.256,34.707 C 38.983,33.838 38.981,33.249 38.899,32.849 L 37.717,32.849 C 37.279,32.849 36.92,32.495 36.92,32.05 L 36.92,25.663 C 36.92,25.218 37.279,24.851 37.717,24.851 L 46.682,24.851 z "
         style="fill:url(#linearGradient266895);stroke:#787878;stroke-width:0.4206" />
      <svg:path
         id="path29449"
         nodetypes="cccccccccccc"
         d="M 46.52,25.267 C 46.916,25.267 47.04,25.46 47.04,25.865 L 47.04,31.839 C 47.04,32.243 46.938,32.414 46.542,32.414 L 40.694,32.414 C 40.378,32.839 39.825,33.506 39.217,33.781 C 39.387,33.291 39.321,32.883 39.289,32.414 L 37.857,32.414 C 37.461,32.414 37.347,32.243 37.347,31.839 L 37.347,25.918 C 37.347,25.515 37.46,25.268 37.857,25.268 L 46.52,25.268 L 46.52,25.267 z "
         style="fill:none;stroke:white;stroke-width:0.4206" />
    </svg:g>
    <svg:g
       id="g59"
       transform="matrix(1.146708,0,0,1.146708,4.563965,1.636408)">
      <svg:linearGradient
         id="linearGradient2215"
         gradientUnits="userSpaceOnUse"
         x1="35.441898"
         y1="63.653301"
         x2="40.9202"
         y2="57.200802"
         gradientTransform="matrix(1.0076,0,0,-0.9876,-21.8209,64.5593)">
        <svg:stop
           offset="0"
           style="stop-color:#F5F5F5"
           id="stop2217" />
        <svg:stop
           offset="1"
           style="stop-color:#E9E9E9"
           id="stop2219" />
      </svg:linearGradient>
      <svg:path
         id="rect29408_1_"
         d="M 11.416,0.21 C 10.965,0.21 10.608,0.573 10.608,1.015 L 10.608,7.35 C 10.608,7.792 10.965,8.142 11.416,8.142 L 17.361,8.142 C 17.722,8.606 18.423,9.359 20.103,9.986 C 19.355,9.124 19.357,8.539 19.441,8.142 L 20.66,8.142 C 21.109,8.142 21.48,7.792 21.48,7.35 L 21.48,1.015 C 21.48,0.574 21.109,0.21 20.66,0.21 L 11.416,0.21 L 11.416,0.21 z "
         style="fill:url(#linearGradient266897);stroke:#787878;stroke-width:0.4206" />
      <svg:path
         id="path29445_1_"
         nodetypes="cccccccccccc"
         d="M 11.589,0.633 C 11.203,0.633 11.046,0.817 11.046,1.195 L 11.046,7.028 C 11.046,7.406 11.352,7.706 11.738,7.706 L 17.578,7.706 C 17.887,8.104 18.125,8.536 19.055,9.01 C 18.881,8.632 19.028,8.105 19.147,7.706 L 20.616,7.706 C 21.003,7.706 21.044,7.556 21.044,7.177 L 21.044,1.195 C 21.044,0.817 20.939,0.654 20.552,0.654 L 11.589,0.633 z "
         style="fill:none;stroke:white;stroke-width:0.4206" />
    </svg:g>
    <svg:g
       id="g68"
       transform="matrix(1.146708,0,0,1.146708,4.563965,1.636408)">
      <svg:linearGradient
         id="linearGradient2224"
         gradientUnits="userSpaceOnUse"
         x1="-776.08112"
         y1="62.526402"
         x2="-779.33252"
         y2="56.980099"
         gradientTransform="matrix(-0.9772,0,0,-0.9959,-719.1876,75.5817)">
        <svg:stop
           offset="0"
           style="stop-color:#F5F5F5"
           id="stop2226" />
        <svg:stop
           offset="1"
           style="stop-color:#E9E9E9"
           id="stop2228" />
      </svg:linearGradient>
      <svg:path
         id="path29441_1_"
         d="M 44.895,11.351 C 45.333,11.351 45.678,11.717 45.678,12.163 L 45.678,18.55 C 45.678,18.995 45.332,19.349 44.895,19.349 L 39.127,19.349 C 38.778,19.816 38.099,20.576 36.469,21.206 C 37.196,20.337 37.194,19.747 37.112,19.349 L 35.93,19.349 C 35.492,19.349 35.133,18.995 35.133,18.55 L 35.133,12.163 C 35.133,11.718 35.492,11.351 35.93,11.351 L 44.895,11.351 z "
         style="fill:url(#linearGradient266899);stroke:#787878;stroke-width:0.4206" />
      <svg:path
         id="path29449_1_"
         nodetypes="cccccccccccc"
         d="M 44.733,11.767 C 45.129,11.767 45.253,11.96 45.253,12.365 L 45.253,18.339 C 45.253,18.743 45.151,18.913 44.755,18.913 L 38.907,18.913 C 38.591,19.339 38.038,20.005 37.43,20.28 C 37.6,19.79 37.534,19.382 37.502,18.913 L 36.07,18.913 C 35.674,18.913 35.56,18.743 35.56,18.339 L 35.56,12.418 C 35.56,12.015 35.673,11.768 36.07,11.768 L 44.733,11.768 L 44.733,11.767 z "
         style="fill:none;stroke:white;stroke-width:0.4206" />
    </svg:g>
    <svg:g
       id="g77"
       transform="matrix(1.146708,0,0,1.146708,4.563965,1.636408)">
      <svg:linearGradient
         id="linearGradient2233"
         gradientUnits="userSpaceOnUse"
         x1="-764.84277"
         y1="70.690399"
         x2="-768.09418"
         y2="65.144096"
         gradientTransform="matrix(-0.9772,0,0,-0.9959,-719.1876,75.5817)">
        <svg:stop
           offset="0"
           style="stop-color:#F5F5F5"
           id="stop2235" />
        <svg:stop
           offset="1"
           style="stop-color:#E9E9E9"
           id="stop2237" />
      </svg:linearGradient>
      <svg:path
         id="path29441_2_"
         d="M 33.913,3.22 C 34.351,3.22 34.696,3.586 34.696,4.032 L 34.696,10.419 C 34.696,10.864 34.35,11.218 33.913,11.218 L 28.145,11.218 C 27.796,11.685 27.117,12.445 25.487,13.075 C 26.214,12.206 26.212,11.616 26.13,11.218 L 24.948,11.218 C 24.51,11.218 24.151,10.864 24.151,10.419 L 24.151,4.031 C 24.151,3.586 24.51,3.219 24.948,3.219 L 33.913,3.219 L 33.913,3.22 z "
         style="fill:url(#linearGradient266901);stroke:#787878;stroke-width:0.4206" />
      <svg:path
         id="path29449_2_"
         nodetypes="cccccccccccc"
         d="M 33.75,3.636 C 34.146,3.636 34.27,3.829 34.27,4.234 L 34.27,10.208 C 34.27,10.612 34.168,10.782 33.772,10.782 L 27.924,10.782 C 27.608,11.208 27.055,11.874 26.447,12.149 C 26.617,11.659 26.551,11.251 26.519,10.782 L 25.087,10.782 C 24.691,10.782 24.577,10.612 24.577,10.208 L 24.577,4.286 C 24.577,3.883 24.69,3.636 25.087,3.636 L 33.75,3.636 L 33.75,3.636 z "
         style="fill:none;stroke:white;stroke-width:0.4206" />
    </svg:g>
    <svg:g
       id="g86"
       transform="matrix(1.146708,0,0,1.146708,4.563965,1.636408)">
      <svg:path
         d="M 5.92,14.261 C 5.92,14.141 5.917,14.054 5.905,13.968 C 6.001,13.98 6.088,13.983 6.225,13.983 L 7.571,13.983 C 7.709,13.983 7.792,13.98 7.879,13.968 C 7.867,14.055 7.864,14.13 7.864,14.243 L 7.864,16.16 C 7.864,16.304 7.87,16.388 7.882,16.48 L 7.664,16.48 L 7.664,16.285 L 6.121,16.285 L 6.121,16.48 L 5.902,16.48 C 5.914,16.39 5.92,16.297 5.92,16.163 L 5.92,14.261 z M 6.121,15.003 L 7.664,15.003 L 7.664,14.166 L 6.121,14.166 L 6.121,15.003 z M 6.121,16.104 L 7.664,16.104 L 7.664,15.186 L 6.121,15.186 L 6.121,16.104 z "
         id="path88" />
      <svg:path
         d="M 8.785,14.521 C 8.669,14.521 8.567,14.527 8.456,14.539 L 8.456,14.321 C 8.566,14.336 8.653,14.342 8.785,14.342 L 9.623,14.342 L 9.623,14.088 C 9.623,13.989 9.617,13.918 9.602,13.816 L 9.838,13.816 C 9.823,13.906 9.817,13.992 9.817,14.085 L 9.817,14.342 L 10.7,14.342 C 10.849,14.342 10.948,14.336 11.035,14.321 L 11.035,14.539 C 10.909,14.527 10.82,14.521 10.7,14.521 L 9.892,14.521 C 10.227,15.125 10.628,15.543 11.124,15.813 C 11.062,15.882 11.028,15.926 10.987,16.007 C 10.745,15.845 10.559,15.69 10.365,15.484 C 10.116,15.221 9.949,14.966 9.805,14.644 C 9.814,14.823 9.817,14.934 9.817,15.033 L 9.817,15.712 L 10.143,15.712 C 10.289,15.712 10.355,15.709 10.433,15.697 L 10.433,15.906 C 10.344,15.891 10.272,15.888 10.137,15.888 L 9.817,15.888 L 9.817,16.172 C 9.817,16.313 9.823,16.42 9.838,16.516 L 9.602,16.516 C 9.617,16.412 9.623,16.307 9.623,16.169 L 9.623,15.888 L 9.335,15.888 C 9.195,15.888 9.123,15.891 9.033,15.906 L 9.033,15.697 C 9.111,15.709 9.177,15.712 9.329,15.712 L 9.622,15.712 L 9.622,15.033 C 9.622,14.922 9.625,14.809 9.634,14.647 C 9.496,14.973 9.338,15.218 9.069,15.511 C 8.881,15.718 8.719,15.861 8.501,16.013 C 8.456,15.932 8.432,15.902 8.36,15.837 C 8.617,15.681 8.832,15.499 9.06,15.23 C 9.284,14.973 9.413,14.781 9.547,14.522 L 8.785,14.522 L 8.785,14.521 z "
         id="path90" />
      <svg:path
         d="M 11.411,14.309 C 11.48,14.321 11.536,14.324 11.65,14.324 L 12.162,14.324 C 12.296,14.324 12.362,14.321 12.425,14.309 L 12.425,14.503 C 12.353,14.494 12.302,14.491 12.186,14.491 L 11.65,14.491 C 11.546,14.491 11.483,14.494 11.411,14.503 L 11.411,14.309 z M 11.528,15.811 C 11.528,15.709 11.525,15.64 11.513,15.562 C 11.591,15.571 11.666,15.574 11.752,15.574 L 12.147,15.574 C 12.275,15.574 12.312,15.574 12.365,15.565 C 12.359,15.628 12.356,15.691 12.356,15.798 L 12.356,16.223 C 12.356,16.322 12.359,16.39 12.371,16.471 L 12.186,16.471 L 12.186,16.348 L 11.698,16.348 L 11.698,16.51 L 11.51,16.51 C 11.522,16.426 11.528,16.337 11.528,16.217 L 11.528,15.811 L 11.528,15.811 z M 11.513,13.893 C 11.582,13.905 11.633,13.908 11.741,13.908 L 12.133,13.908 C 12.238,13.908 12.292,13.905 12.361,13.893 L 12.361,14.081 C 12.283,14.072 12.241,14.069 12.133,14.069 L 11.74,14.069 C 11.644,14.069 11.578,14.072 11.512,14.081 L 11.512,13.893 L 11.513,13.893 z M 11.525,14.728 C 11.591,14.737 11.636,14.74 11.74,14.74 L 12.147,14.74 C 12.249,14.74 12.296,14.737 12.359,14.728 L 12.359,14.914 C 12.284,14.905 12.245,14.902 12.147,14.902 L 11.74,14.902 C 11.644,14.902 11.588,14.905 11.525,14.914 L 11.525,14.728 L 11.525,14.728 z M 11.525,15.14 C 11.588,15.149 11.636,15.152 11.74,15.152 L 12.147,15.152 C 12.251,15.152 12.296,15.149 12.359,15.14 L 12.359,15.326 C 12.284,15.317 12.245,15.314 12.144,15.314 L 11.74,15.314 C 11.641,15.314 11.594,15.317 11.525,15.326 L 11.525,15.14 L 11.525,15.14 z M 11.698,16.19 L 12.186,16.19 L 12.186,15.73 L 11.698,15.73 L 11.698,16.19 z M 12.799,15.048 C 12.895,14.791 12.901,14.778 12.955,14.596 L 12.841,14.596 C 12.751,14.596 12.655,14.602 12.584,14.611 L 12.584,14.42 C 12.665,14.432 12.743,14.435 12.841,14.435 L 13,14.435 C 13.033,14.31 13.045,14.258 13.075,14.091 L 12.818,14.091 C 12.683,14.091 12.615,14.094 12.525,14.106 L 12.525,13.912 C 12.615,13.924 12.69,13.927 12.824,13.927 L 13.763,13.927 C 13.897,13.927 13.981,13.924 14.059,13.912 L 14.059,14.106 C 13.969,14.094 13.904,14.091 13.769,14.091 L 13.257,14.091 C 13.215,14.3 13.213,14.313 13.179,14.435 L 13.55,14.435 C 13.67,14.435 13.738,14.432 13.807,14.423 C 13.798,14.486 13.795,14.552 13.795,14.677 L 13.795,15.048 L 13.822,15.048 C 13.966,15.048 14.023,15.045 14.109,15.03 L 14.109,15.23 C 14.007,15.215 13.936,15.212 13.822,15.212 L 12.724,15.212 C 12.59,15.212 12.521,15.215 12.431,15.227 L 12.431,15.033 C 12.514,15.045 12.583,15.048 12.724,15.048 L 12.799,15.048 L 12.799,15.048 z M 12.623,15.711 C 12.623,15.609 12.62,15.538 12.611,15.463 C 12.686,15.472 12.749,15.475 12.874,15.475 L 13.667,15.475 C 13.798,15.475 13.861,15.472 13.924,15.463 C 13.915,15.526 13.912,15.607 13.912,15.726 L 13.912,16.226 C 13.912,16.349 13.918,16.45 13.927,16.516 L 13.729,16.516 L 13.729,16.367 L 12.805,16.367 L 12.805,16.516 L 12.607,16.516 C 12.616,16.447 12.622,16.354 12.622,16.223 L 12.622,15.711 L 12.623,15.711 z M 12.805,16.196 L 13.729,16.196 L 13.729,15.64 L 12.805,15.64 L 12.805,16.196 z M 13.612,15.048 L 13.612,14.596 L 13.133,14.596 C 13.079,14.793 13.073,14.805 12.987,15.048 L 13.612,15.048 z "
         id="path92" />
    </svg:g>
    <svg:g
       id="g94"
       transform="matrix(1.146708,0,0,1.146708,4.563965,1.636408)">
      <svg:path
         d="M 13.338,5.06 C 13.419,5.119 13.46,5.203 13.46,5.313 C 13.46,5.425 13.415,5.504 13.323,5.549 C 13.278,5.57 13.209,5.582 13.114,5.582 L 12.8,5.582 L 12.8,4.794 L 12.553,4.794 L 12.553,4.667 L 12.952,4.667 L 12.952,4.981 L 13.054,4.981 C 13.171,4.981 13.266,5.007 13.338,5.06 L 13.338,5.06 z "
         id="path96" />
      <svg:path
         d="M 12.472,5.14 C 12.472,5.272 12.434,5.381 12.361,5.468 C 12.282,5.561 12.178,5.606 12.049,5.606 C 11.895,5.606 11.783,5.545 11.711,5.423 C 11.654,5.325 11.625,5.196 11.625,5.034 C 11.625,4.887 11.64,4.752 11.668,4.63 C 11.712,4.445 11.852,4.345 12.086,4.33 C 12.19,4.324 12.251,4.319 12.265,4.317 C 12.333,4.307 12.388,4.288 12.429,4.261 L 12.429,4.414 C 12.381,4.437 12.325,4.453 12.261,4.46 C 12.204,4.464 12.148,4.468 12.093,4.472 C 11.974,4.482 11.891,4.516 11.842,4.576 C 11.792,4.635 11.761,4.742 11.747,4.894 L 11.753,4.894 C 11.823,4.747 11.931,4.673 12.074,4.673 C 12.191,4.673 12.287,4.717 12.362,4.804 C 12.434,4.893 12.472,5.005 12.472,5.14 z "
         id="path98" />
      <svg:path
         d="M 12.248,5.37 C 12.288,5.308 12.306,5.232 12.306,5.14 C 12.306,5.049 12.287,4.973 12.248,4.911 C 12.202,4.837 12.136,4.801 12.049,4.801 C 11.962,4.801 11.895,4.837 11.848,4.911 C 11.81,4.972 11.79,5.049 11.79,5.14 C 11.79,5.232 11.81,5.308 11.848,5.37 C 11.895,5.444 11.962,5.48 12.049,5.48 C 12.135,5.479 12.202,5.443 12.248,5.37 L 12.248,5.37 z "
         id="path100"
         style="fill:white" />
      <svg:path
         d="M 14.41,5.581 L 14.258,5.581 L 14.258,4.794 L 13.983,4.794 L 13.98,4.892 C 13.974,5.145 13.959,5.309 13.937,5.386 C 13.895,5.533 13.801,5.606 13.657,5.606 C 13.626,5.606 13.593,5.602 13.556,5.594 L 13.556,5.456 C 13.582,5.466 13.616,5.471 13.656,5.471 C 13.728,5.471 13.776,5.42 13.8,5.318 C 13.813,5.26 13.821,5.149 13.826,4.985 L 13.834,4.667 L 14.409,4.667 L 14.409,5.581 L 14.41,5.581 z "
         id="path102" />
      <svg:polygon
         points="14.965,5.581 14.8,5.581 14.8,4.667 15.474,4.667 15.474,4.794 14.965,4.794 14.965,5.581 "
         id="polygon104" />
      <svg:path
         d="M 16.317,5.581 C 16.306,5.534 16.297,5.466 16.289,5.375 C 16.25,5.438 16.202,5.491 16.143,5.534 C 16.076,5.582 16.009,5.606 15.941,5.606 C 15.842,5.606 15.766,5.562 15.712,5.475 C 15.667,5.401 15.645,5.312 15.645,5.207 C 15.645,5.054 15.686,4.925 15.767,4.822 C 15.854,4.71 15.972,4.654 16.119,4.654 C 16.139,4.654 16.196,4.658 16.289,4.667 L 16.442,4.667 L 16.442,5.313 C 16.442,5.423 16.454,5.513 16.476,5.582 L 16.317,5.582 L 16.317,5.581 z "
         id="path106" />
      <svg:path
         d="M 16.161,5.365 C 16.21,5.316 16.253,5.26 16.289,5.195 L 16.289,4.803 C 16.235,4.789 16.185,4.782 16.138,4.782 C 16.032,4.782 15.948,4.824 15.889,4.909 C 15.836,4.984 15.809,5.077 15.809,5.187 C 15.809,5.253 15.821,5.312 15.843,5.362 C 15.874,5.428 15.918,5.462 15.976,5.462 C 16.035,5.461 16.096,5.429 16.161,5.365 L 16.161,5.365 z "
         id="path108"
         style="fill:white" />
      <svg:path
         d="M 17.413,4.772 C 17.458,4.846 17.481,4.935 17.481,5.04 C 17.481,5.191 17.441,5.318 17.361,5.421 C 17.273,5.535 17.154,5.592 17.007,5.592 C 16.986,5.592 16.93,5.588 16.836,5.579 L 16.836,5.934 L 16.685,5.934 L 16.685,4.664 L 16.836,4.664 L 16.836,4.87 C 16.876,4.807 16.925,4.754 16.983,4.711 C 17.049,4.664 17.116,4.639 17.184,4.639 C 17.282,4.64 17.359,4.684 17.413,4.772 L 17.413,4.772 z "
         id="path110" />
      <svg:path
         d="M 17.236,5.338 C 17.289,5.262 17.316,5.17 17.316,5.06 C 17.316,4.994 17.304,4.935 17.281,4.885 C 17.251,4.819 17.206,4.786 17.148,4.786 C 17.091,4.786 17.029,4.817 16.965,4.882 C 16.917,4.929 16.874,4.987 16.836,5.052 L 16.836,5.444 C 16.891,5.458 16.942,5.465 16.988,5.465 C 17.093,5.465 17.176,5.422 17.236,5.338 L 17.236,5.338 z "
         id="path112"
         style="fill:white" />
      <svg:path
         d="M 18.47,5.553 C 18.368,5.588 18.271,5.605 18.178,5.605 C 18.039,5.605 17.925,5.559 17.837,5.466 C 17.751,5.375 17.708,5.261 17.708,5.123 C 17.708,4.989 17.751,4.875 17.838,4.783 C 17.926,4.688 18.037,4.64 18.17,4.64 C 18.264,4.64 18.364,4.658 18.47,4.693 L 18.47,4.84 C 18.363,4.792 18.268,4.767 18.184,4.767 C 18.088,4.767 18.011,4.802 17.954,4.873 C 17.901,4.938 17.873,5.02 17.873,5.117 C 17.873,5.216 17.902,5.298 17.958,5.362 C 18.017,5.431 18.095,5.464 18.193,5.464 C 18.264,5.464 18.355,5.445 18.47,5.406 L 18.47,5.553 L 18.47,5.553 z "
         id="path114" />
      <svg:polygon
         points="18.747,5.581 18.747,4.667 18.898,4.667 18.898,5.098 19.338,4.667 19.541,4.667 19.103,5.098 19.553,5.581 19.343,5.581 18.898,5.098 18.898,5.581 18.747,5.581 "
         id="polygon116" />
      <svg:polyline
         points="20.464,5.581 20.312,5.581 20.315,4.884 19.863,5.581 19.711,5.581 19.711,4.667 19.863,4.667 19.863,5.228      19.857,5.355 20.312,4.667 20.464,4.667    "
         id="polyline118" />
    </svg:g>
    <svg:g
       id="g120"
       transform="matrix(1.146708,0,0,1.146708,4.563965,1.636408)">
      <svg:path
         d="M 26.644,5.302 C 26.772,5.331 26.876,5.345 26.958,5.345 C 27.04,5.345 27.081,5.358 27.081,5.382 C 27.081,5.407 27.061,5.431 27.02,5.453 C 26.986,5.482 26.968,5.538 26.968,5.622 L 26.968,6.21 C 27.697,6.208 28.18,6.192 28.413,6.163 C 28.398,6.368 28.391,6.545 28.391,6.696 L 28.391,7.574 C 28.391,7.692 28.399,7.898 28.413,8.193 L 28.114,8.193 L 28.114,7.851 L 26.968,7.851 L 26.968,8.535 C 26.968,8.878 26.982,9.149 27.007,9.348 L 26.643,9.348 C 26.669,9.149 26.683,8.878 26.683,8.535 L 26.683,7.851 L 25.51,7.851 L 25.51,8.227 L 25.208,8.227 C 25.228,8.011 25.238,7.817 25.238,7.648 L 25.238,6.609 C 25.238,6.445 25.227,6.296 25.208,6.163 C 25.445,6.193 25.936,6.208 26.684,6.21 L 26.684,5.899 C 26.684,5.646 26.67,5.446 26.644,5.302"
         id="path122" />
      <svg:rect
         x="25.51"
         y="6.427"
         width="1.174"
         height="1.199"
         id="rect124"
         style="fill:white" />
      <svg:rect
         x="26.969"
         y="6.427"
         width="1.146"
         height="1.199"
         id="rect126"
         style="fill:white" />
      <svg:path
         d="M 31.093,7.886 C 31.427,7.476 31.668,6.974 31.816,6.38 L 30.544,6.38 C 30.1,6.38 29.685,6.392 29.299,6.415 L 29.299,6.128 C 29.68,6.151 30.286,6.163 31.122,6.163 C 31.956,6.163 32.565,6.152 32.949,6.128 L 32.949,6.414 C 32.72,6.393 32.429,6.383 32.079,6.383 C 31.858,7.131 31.589,7.686 31.275,8.049 C 31.774,8.465 32.387,8.753 33.114,8.915 C 33.002,8.987 32.926,9.082 32.888,9.201 C 32.102,8.895 31.507,8.568 31.106,8.218 C 30.74,8.564 30.153,8.911 29.345,9.257 C 29.307,9.153 29.232,9.066 29.116,8.993 C 29.865,8.785 30.47,8.475 30.929,8.063 C 30.485,7.627 30.169,7.173 29.981,6.7 L 30.21,6.592 C 30.372,7.039 30.667,7.47 31.093,7.886 L 31.093,7.886 z "
         id="path128" />
      <svg:path
         d="M 30.708,5.302 C 30.942,5.464 31.176,5.665 31.41,5.908 L 31.206,6.09 C 30.981,5.83 30.758,5.629 30.536,5.484 L 30.708,5.302"
         id="path130" />
    </svg:g>
    <svg:polygon
       points="46.13,29.388 45.875,29.744 45.875,27.59 46.13,27.285 46.13,29.388 "
       id="polygon132"
       transform="matrix(1.146708,0,0,1.146708,4.563965,1.636408)" />
    <svg:polygon
       points="45.369,27.792 45.231,28.067 45.231,29.693 45.147,29.744 44.496,29.744 44.496,29.423 44.981,29.423 44.981,27.919 44.893,27.578 45.186,27.285 45.211,27.627 45.369,27.792 "
       id="polygon134"
       transform="matrix(1.146708,0,0,1.146708,4.563965,1.636408)" />
    <svg:path
       d="M 55.996112,35.744091 L 55.617699,35.744091 C 55.337902,35.744091 55.132641,35.653501 55.00077,35.473468 L 54.606302,35.661528 C 54.469844,35.71657 54.326505,35.744091 54.17858,35.744091 L 53.867822,35.744091 L 53.867822,35.377144 C 53.935478,35.377144 54.011161,35.373704 54.096017,35.365677 C 54.180873,35.358797 54.27605,35.34733 54.380401,35.332423 C 54.670518,35.288848 54.815003,35.236099 54.815003,35.170737 C 54.815003,35.143216 54.802389,35.114548 54.779455,35.084734 C 54.756521,35.054919 54.726706,35.029692 54.693452,35.006758 C 54.660197,34.983823 54.624649,34.964329 54.586808,34.949422 C 54.550113,34.934515 54.516859,34.927635 54.490485,34.927635 C 54.421682,34.927635 54.3632,34.943689 54.316185,34.97465 C 54.316185,34.920754 54.345999,34.832458 54.407922,34.70976 C 54.470991,34.588209 54.524886,34.505646 54.569607,34.465511 C 54.64529,34.399002 54.7462,34.364601 54.873485,34.364601 C 54.942288,34.364601 55.008797,34.378362 55.075306,34.403589 C 55.142961,34.429963 55.201444,34.465511 55.255339,34.509086 C 55.308087,34.553808 55.350516,34.604263 55.382623,34.662745 C 55.414731,34.720081 55.430785,34.780856 55.430785,34.843925 C 55.430785,34.908141 55.368863,35.049186 55.248459,35.268207 C 55.295474,35.332423 55.415878,35.369117 55.607378,35.378291 C 55.605085,35.378291 55.734663,35.378291 55.997259,35.378291 L 55.997259,35.744091 L 55.996112,35.744091 z "
       id="path136" />
    <svg:path
       d="M 54.201514,35.744091 L 53.881583,35.744091 C 53.881583,35.987193 53.772645,36.219975 53.557064,36.442436 C 53.340336,36.667191 53.110995,36.779568 52.870186,36.779568 C 52.70506,36.779568 52.555988,36.722233 52.417237,36.605268 C 52.377102,36.570867 52.32894,36.523852 52.273898,36.46537 C 52.218856,36.404595 52.158081,36.332352 52.092718,36.246349 C 52.114506,36.269283 52.14776,36.29107 52.192482,36.314005 C 52.242937,36.338085 52.303712,36.359873 52.373662,36.379367 C 52.442464,36.397714 52.502093,36.410328 52.557135,36.418355 C 52.612177,36.425235 52.661485,36.429822 52.706207,36.430969 C 53.116728,36.430969 53.4401,36.209654 53.674029,35.764731 C 53.691229,35.731477 53.698109,35.699369 53.698109,35.668408 C 53.698109,35.495255 53.570825,35.318662 53.313962,35.138629 L 53.479088,34.777416 C 53.670588,34.925341 53.79558,35.126015 53.856355,35.378291 L 54.201514,35.378291 L 54.201514,35.744091 z "
       id="path138" />
    <svg:path
       d="M 52.175281,34.916168 C 52.237203,35.131749 52.267018,35.298021 52.267018,35.414986 C 52.267018,35.634007 52.237203,35.744091 52.175281,35.744091 L 50.997612,35.744091 L 50.997612,35.377144 L 51.975754,35.377144 C 51.996395,35.377144 52.004422,35.359944 52.004422,35.326689 C 52.004422,35.301461 51.997541,35.264767 51.980341,35.216605 C 51.965434,35.168443 51.947086,35.121428 51.923005,35.074413 C 51.898925,35.027398 51.87599,34.987263 51.850763,34.952862 C 51.826682,34.917314 51.804894,34.900114 51.787694,34.900114 L 51.955113,34.503353 C 52.033089,34.536607 52.106479,34.675359 52.175281,34.916168 L 52.175281,34.916168 z M 51.974607,36.593801 L 51.798014,36.909146 L 51.370292,36.669484 L 51.535418,36.36446 L 51.974607,36.593801 z "
       id="path140" />
    <svg:path
       d="M 51.443681,35.744091 L 49.849757,35.744091 L 49.849757,35.377144 L 50.827899,35.377144 C 50.84854,35.377144 50.856567,35.359944 50.856567,35.325542 C 50.856567,35.301461 50.84854,35.264767 50.832486,35.216605 C 50.816432,35.168443 50.798085,35.121428 50.774004,35.074413 C 50.749923,35.027398 50.726989,34.986117 50.702908,34.951716 C 50.678827,34.916168 50.655893,34.898967 50.638692,34.898967 L 50.812992,34.494179 C 50.896702,34.590503 50.967798,34.729254 51.028573,34.911581 C 51.089349,35.087027 51.118016,35.241833 51.118016,35.378291 L 51.442535,35.378291 L 51.442535,35.744091 L 51.443681,35.744091 z M 49.931174,36.685538 L 50.092859,36.404595 L 50.477007,36.645403 L 50.324494,36.91832 L 49.931174,36.685538 z M 50.85542,36.885065 L 50.477007,36.645403 L 50.619198,36.389687 L 51.003346,36.617882 L 50.85542,36.885065 z "
       id="path142" />
    <svg:path
       d="M 49.971308,35.744091 L 49.670871,35.744091 C 49.536706,35.744091 49.447263,35.71313 49.402541,35.648914 C 49.331445,35.54227 49.293604,35.384024 49.293604,35.17303 C 49.293604,35.126015 49.298191,35.091614 49.302778,35.067533 L 49.066556,35.307195 L 49.048208,35.308342 C 48.971379,35.308342 48.861295,35.26362 48.721397,35.171883 C 48.568884,35.07556 48.494348,34.99185 48.494348,34.923048 C 48.494348,34.88062 48.518429,34.812964 48.566591,34.721227 C 48.676675,34.505646 48.839508,34.361161 49.057382,34.287772 C 49.144532,34.25681 49.209894,34.240757 49.250029,34.240757 L 49.250029,34.04811 L 49.46905,33.762579 L 49.46905,35.150096 C 49.46905,35.2705 49.520652,35.341596 49.626149,35.365677 C 49.661697,35.372557 49.701832,35.377144 49.7477,35.377144 L 49.970162,35.377144 L 49.970162,35.744091 L 49.971308,35.744091 z M 48.611313,33.298163 L 48.774145,33.022953 L 49.1732,33.278669 L 49.00578,33.542411 L 48.611313,33.298163 z M 49.198427,34.950569 C 49.251176,34.950569 49.276403,34.871446 49.276403,34.7132 C 49.276403,34.504499 49.268376,34.395562 49.253469,34.385242 C 49.126185,34.5217 48.965645,34.616877 48.768412,34.670772 C 48.769558,34.697146 48.787906,34.726961 48.820014,34.759069 C 48.853268,34.791176 48.892256,34.820991 48.938124,34.850805 C 48.983993,34.878326 49.031008,34.902407 49.07917,34.921901 C 49.127331,34.940248 49.167466,34.950569 49.198427,34.950569 L 49.198427,34.950569 z M 49.572254,33.534384 L 49.170906,33.278669 L 49.340619,33.010339 L 49.73738,33.243121 L 49.572254,33.534384 z "
       id="path144" />
    <svg:g
       id="g146"
       transform="matrix(1.146708,0,0,1.146708,4.563965,1.636408)">
      <svg:path
         d="M 36.539,13.896 L 36.884,13.896 L 36.884,15.182 L 36.896,15.182 C 36.967,15.079 37.039,14.984 37.106,14.897 L 37.92,13.896 L 38.348,13.896 L 37.382,15.028 L 38.423,16.564 L 38.016,16.564 L 37.141,15.254 L 36.884,15.547 L 36.884,16.564 L 36.539,16.564 L 36.539,13.896 L 36.539,13.896 z "
         id="path148" />
      <svg:path
         d="M 38.714,15.245 C 38.714,15.019 38.71,14.826 38.698,14.647 L 39.003,14.647 L 39.019,15.023 L 39.031,15.023 C 39.118,14.766 39.332,14.604 39.565,14.604 C 39.601,14.604 39.628,14.608 39.66,14.616 L 39.66,14.941 C 39.621,14.937 39.585,14.933 39.538,14.933 C 39.293,14.933 39.118,15.119 39.071,15.376 C 39.063,15.428 39.058,15.483 39.058,15.543 L 39.058,16.564 L 38.71,16.564 L 38.714,15.245 z "
         id="path150" />
      <svg:path
         d="M 40.202,15.665 C 40.211,16.136 40.508,16.33 40.855,16.33 C 41.104,16.33 41.259,16.287 41.385,16.235 L 41.448,16.481 C 41.325,16.536 41.112,16.604 40.807,16.604 C 40.221,16.604 39.865,16.212 39.865,15.638 C 39.865,15.056 40.21,14.601 40.767,14.601 C 41.392,14.601 41.554,15.151 41.554,15.503 C 41.554,15.574 41.55,15.629 41.542,15.669 L 40.202,15.665 z M 41.219,15.415 C 41.223,15.198 41.128,14.849 40.74,14.849 C 40.384,14.849 40.233,15.174 40.206,15.415 L 41.219,15.415 z M 41.302,13.848 L 40.82,14.414 L 40.574,14.414 L 40.923,13.848 L 41.302,13.848 z "
         id="path152" />
      <svg:path
         d="M 42.766,16.606 C 42.251,16.606 41.848,16.226 41.848,15.621 C 41.848,14.98 42.272,14.604 42.798,14.604 C 43.348,14.604 43.72,15.004 43.72,15.585 C 43.72,16.297 43.225,16.606 42.77,16.606 L 42.766,16.606 z M 42.778,16.345 C 43.111,16.345 43.36,16.033 43.36,15.597 C 43.36,15.273 43.198,14.865 42.786,14.865 C 42.379,14.865 42.201,15.245 42.201,15.609 C 42.201,16.028 42.438,16.345 42.774,16.345 L 42.778,16.345 z "
         id="path154" />
      <svg:path
         d="M 44.16,13.753 L 44.508,13.753 L 44.508,16.563 L 44.16,16.563 L 44.16,13.753 z "
         id="path156" />
    </svg:g>
    <svg:g
       id="g158"
       transform="matrix(1.146708,0,0,1.146708,4.563965,1.636408)">
      <svg:path
         id="path3812"
         nodetypes="cccc"
         d="M 25.992,37.641 C 25.992,37.641 23.842,39.301 24.026,41.301 C 21.985,39.5 21.927,36.05 21.927,36.05 L 25.992,37.641 z "
         style="opacity:0.3;fill:white" />
      <svg:path
         id="path3810"
         nodetypes="cccc"
         d="M 26.97,37.641 C 26.97,37.641 29.122,39.301 28.937,41.301 C 30.978,39.5 31.037,36.05 31.037,36.05 L 26.97,37.641 z "
         style="opacity:0.3;fill:white" />
    </svg:g>
    <svg:path
       id="path4173"
       d="M 37.748548,51.857632 L 42.612883,51.857632 L 39.774781,49.22135 L 39.167026,50.034366 L 38.55927,49.425464 L 37.748548,51.857632 z "
       style="opacity:0.88050314;fill:url(#linearGradient266966)" />
    <svg:path
       d="M 38.757651,23.14865 C 37.967569,24.82399 38.07536,26.536026 39.000753,26.974068 C 39.926146,27.410964 41.31825,26.406448 42.109478,24.731107 C 42.89956,23.055767 42.79177,21.344878 41.866376,20.906836 C 40.939836,20.46994 39.547733,21.47331 38.757651,23.14865 z "
       id="path183"
       style="fill:url(#linearGradient267134);stroke:#8f5902;stroke-width:1;stroke-miterlimit:4;stroke-dasharray:none" />
    <svg:path
       d="M 30.579329,23.147503 C 31.369411,24.821697 31.261621,26.534879 30.336227,26.971775 C 29.410834,27.40867 28.01873,26.404154 27.227502,24.728814 C 26.43742,23.053473 26.545211,21.342585 27.470604,20.905689 C 28.395997,20.468793 29.786954,21.472163 30.579329,23.147503 z "
       id="path196"
       style="fill:url(#linearGradient267131);stroke:#8f5902;stroke-width:1;stroke-miterlimit:4;stroke-dasharray:none" />
    <svg:path
       style="fill:url(#radialGradient267097);stroke:#8f5902;stroke-width:1;stroke-linecap:round;stroke-linejoin:round;stroke-miterlimit:4;stroke-dasharray:none"
       d="M 44.600128,32.279886 C 44.602422,37.765737 40.158928,44.858126 34.674224,44.860419 C 29.190666,44.862713 24.740292,37.774911 24.737999,32.290206 C 24.737999,32.286766 24.737999,32.283326 24.737999,32.279886 C 24.734559,26.794035 29.179199,22.344808 34.66505,22.341368 C 40.147461,22.339074 44.597835,26.783714 44.600128,32.268419 C 44.600128,32.273006 44.600128,32.276446 44.600128,32.279886 z "
       cx="31.112698"
       type="arc"
       rx="8.6620579"
       cy="19.008621"
       ry="8.6620579"
       id="path2327" />
    <svg:path
       style="opacity:0.12660002;fill:none;stroke:white;stroke-width:1;stroke-linecap:round;stroke-linejoin:round;stroke-miterlimit:4;stroke-dasharray:none"
       d="M 43.378884,32.279886 C 43.381178,37.091473 39.48237,43.638029 34.673077,43.640322 C 29.863784,43.642615 25.959243,37.100646 25.956949,32.28906 C 25.956949,32.285619 25.956949,32.283326 25.956949,32.279886 C 25.954656,27.468299 29.853463,23.564905 34.663903,23.562612 C 39.47205,23.560318 43.376591,27.457979 43.378884,32.270712 C 43.378884,32.274152 43.378884,32.276446 43.378884,32.279886 z "
       enable-background="new    "
       cx="31.112698"
       type="arc"
       rx="8.6620579"
       cy="19.008621"
       ry="8.6620579"
       id="path3834" />
    <svg:g
       id="g205"
       transform="matrix(1.146708,0,0,1.146708,4.563965,1.636408)">
      <svg:ellipse
         style="fill:#8f5902"
         sodipodi:ry="0.54100001"
         sodipodi:rx="1.041"
         sodipodi:cy="29.219"
         sodipodi:cx="24.940001"
         id="ellipse207"
         ry="0.54100001"
         rx="1.041"
         cy="29.219"
         cx="24.940001"
         transform="matrix(0.8505,0.526,-0.526,0.8505,19.0996,-8.7499)" />
      <svg:ellipse
         style="fill:#8f5902"
         sodipodi:ry="0.54100001"
         sodipodi:rx="1.0420001"
         sodipodi:cy="29.219"
         sodipodi:cx="27.565001"
         id="ellipse209"
         ry="0.54100001"
         rx="1.0420001"
         cy="29.219"
         cx="27.565001"
         transform="matrix(-0.8506,0.5258,-0.5258,-0.8506,66.3766,39.5785)" />
    </svg:g>
    <svg:g
       transform="matrix(1.146708,0,0,0.830129,7.814476,7.334772)"
       id="g4243">
      <svg:path
         style="fill:#8f5902"
         d="M 21.969,28.165 C 21.969,28.784 21.063,29.286 19.947,29.286 C 18.831,29.286 17.926,28.784 17.926,28.165 L 17.926,28.165 C 17.926,27.547 18.831,27.045 19.947,27.045 C 21.063,27.045 21.969,27.547 21.969,28.165 L 21.969,28.165 z "
         cx="18.812500"
         type="arc"
         rx="1.5625000"
         cy="16.625000"
         ry="1.5625000"
         id="path3060" />
      <svg:path
         style="fill:#8f5902"
         d="M 28.912,28.165 C 28.912,28.784 28.006,29.286 26.891,29.286 C 25.774,29.286 24.869,28.784 24.869,28.165 L 24.869,28.165 C 24.869,27.547 25.774,27.045 26.891,27.045 C 28.006,27.045 28.912,27.547 28.912,28.165 L 28.912,28.165 z "
         cx="18.812500"
         type="arc"
         rx="1.5625000"
         cy="16.625000"
         ry="1.5625000"
         id="path3062" />
    </svg:g>
    <svg:path
       style="fill:url(#linearGradient267087);stroke:#2e3436;stroke-width:0.286677;stroke-linecap:round;stroke-linejoin:round"
       d="M 30.738722,37.842566 C 30.778857,39.981177 32.519559,41.845724 34.669637,41.845724 C 36.817421,41.845724 38.558124,39.981177 38.598258,37.842566 L 30.738722,37.842566 L 30.738722,37.842566 z "
       nodetypes="cscc"
       id="path2756" />
    <svg:path
       style="fill:url(#linearGradient267084);stroke:#a40000;stroke-width:0.286677;stroke-linecap:round;stroke-linejoin:round"
       id="path231"
       d="M 35.096212,38.943406 L 34.489604,39.78509 L 34.120364,38.954873 C 33.063099,39.121146 32.221415,39.773623 31.958819,40.61416 C 32.668631,41.364107 33.652507,41.844577 34.743026,41.844577 C 35.757863,41.844577 36.679816,41.424882 37.377014,40.759792 C 37.163727,39.828665 36.2498,39.097065 35.096212,38.943406 z " />
  </svg:g>
</svg:svg>
