<?xml version="1.0" encoding="UTF-8" standalone="no"?>
<!-- Created with Inkscape (http://www.inkscape.org/) -->
<svg
   xmlns:i="http://ns.adobe.com/AdobeIllustrator/10.0/"
   xmlns:dc="http://purl.org/dc/elements/1.1/"
   xmlns:cc="http://web.resource.org/cc/"
   xmlns:rdf="http://www.w3.org/1999/02/22-rdf-syntax-ns#"
   xmlns:svg="http://www.w3.org/2000/svg"
   xmlns="http://www.w3.org/2000/svg"
   xmlns:xlink="http://www.w3.org/1999/xlink"
   xmlns:sodipodi="http://sodipodi.sourceforge.net/DTD/sodipodi-0.dtd"
   xmlns:inkscape="http://www.inkscape.org/namespaces/inkscape"
   width="160"
   height="50"
   id="svg1872"
   sodipodi:version="0.32"
   inkscape:version="0.44.1"
   version="1.0"
   inkscape:export-filename="/Users/izoo/Desktop/spip_contrib.png"
   inkscape:export-xdpi="90"
   inkscape:export-ydpi="90"
   sodipodi:docbase="/Users/izoo/Desktop"
   sodipodi:docname="spip_contrib.svg">
  <defs
     id="defs1874">
    <linearGradient
       id="XMLID_4_"
       gradientUnits="userSpaceOnUse"
       x1="21.3223"
       y1="31.1147"
       x2="21.325001"
       y2="2.7808666"
       xlink:href="#XMLID_3_"
       gradientTransform="matrix(1,0,0,0.968489,0,0.980478)">
      <stop
         offset="0"
         style="stop-color:#FFFFFF"
         id="stop43" />
      <stop
         offset="1"
         style="stop-color:#000000"
         id="stop45" />
    </linearGradient>
    <linearGradient
       id="XMLID_3_"
       gradientUnits="userSpaceOnUse"
       x1="1.0962"
       y1="54.559101"
       x2="41.483898"
       y2="14.1714">
      <stop
         offset="0"
         style="stop-color:#CEE14B"
         id="stop10" />
      <stop
         offset="0.0409"
         style="stop-color:#C7DA46"
         id="stop12" />
      <stop
         offset="0.1868"
         style="stop-color:#B4C739"
         id="stop14" />
      <stop
         offset="0.358"
         style="stop-color:#A7BA30"
         id="stop16" />
      <stop
         offset="0.5761"
         style="stop-color:#9FB22B"
         id="stop18" />
      <stop
         offset="1"
         style="stop-color:#9DB029"
         id="stop20" />
    </linearGradient>
    <linearGradient
       inkscape:collect="always"
       xlink:href="#XMLID_3_"
       id="linearGradient3744"
       gradientUnits="userSpaceOnUse"
       x1="1.0962"
       y1="54.559101"
       x2="41.483898"
       y2="14.1714" />
    <linearGradient
       inkscape:collect="always"
       id="linearGradient2794">
      <stop
         style="stop-color:#555753;stop-opacity:1;"
         offset="0"
         id="stop2796" />
      <stop
         style="stop-color:#555753;stop-opacity:0;"
         offset="1"
         id="stop2798" />
    </linearGradient>
    <linearGradient
       inkscape:collect="always"
       xlink:href="#linearGradient2794"
       id="linearGradient2800"
       x1="70.33094"
       y1="17.723547"
       x2="69.398666"
       y2="50.413372"
       gradientUnits="userSpaceOnUse"
       gradientTransform="matrix(1,0,0,0.459707,1.611328e-7,-4.566223)" />
    <linearGradient
       inkscape:collect="always"
       xlink:href="#linearGradient2794"
       id="linearGradient3515"
       gradientUnits="userSpaceOnUse"
       gradientTransform="matrix(1,0,0,0.459707,1.611328e-7,-4.566223)"
       x1="70.33094"
       y1="17.723547"
       x2="69.398666"
       y2="50.413372" />
    <linearGradient
       inkscape:collect="always"
       xlink:href="#linearGradient2794"
       id="linearGradient3524"
       gradientUnits="userSpaceOnUse"
       gradientTransform="matrix(1,0,0,0.459707,1.611328e-7,-4.566223)"
       x1="70.33094"
       y1="17.723547"
       x2="69.398666"
       y2="50.413372" />
  </defs>
  <sodipodi:namedview
     id="base"
     pagecolor="#ffffff"
     bordercolor="#666666"
     borderopacity="1.0"
     inkscape:pageopacity="0.0"
     inkscape:pageshadow="2"
     inkscape:zoom="2.1213203"
     inkscape:cx="147.97701"
     inkscape:cy="41.684506"
     inkscape:document-units="px"
     inkscape:current-layer="layer1"
     showgrid="true"
     width="160px"
     height="50px"
     inkscape:window-width="1178"
     inkscape:window-height="667"
     inkscape:window-x="20"
     inkscape:window-y="42" />
  <metadata
     id="metadata1877">
    <rdf:RDF>
      <cc:Work
         rdf:about="">
        <dc:format>image/svg+xml</dc:format>
        <dc:type
           rdf:resource="http://purl.org/dc/dcmitype/StillImage" />
      </cc:Work>
    </rdf:RDF>
  </metadata>
  <g
     id="layer1"
     inkscape:label="Layer 1"
     inkscape:groupmode="layer">
    <g
       id="g3517"
       transform="translate(0,-1.90033)">
      <rect
         ry="0.14904843"
         rx="0.14904843"
         y="16.064974"
         x="4.7840695"
         height="21.870052"
         width="150.43185"
         id="rect1880"
         style="opacity:1;fill:#2e3436;fill-opacity:1;stroke:#2e3436;stroke-width:0.66022593;stroke-linecap:round;stroke-linejoin:round;stroke-miterlimit:4;stroke-dasharray:none;stroke-opacity:1" />
      <g
         transform="translate(0,11.95411)"
         id="g3510">
        <rect
           style="opacity:1;fill:url(#linearGradient3524);fill-opacity:1;stroke:none;stroke-width:0.70351118;stroke-linecap:round;stroke-linejoin:round;stroke-miterlimit:4;stroke-dasharray:none;stroke-opacity:1"
           id="rect2784"
           width="150.38858"
           height="11.418589"
           x="4.8057098"
           y="3.5814114"
           rx="0.14904843"
           ry="0.14904843" />
        <text
           xml:space="preserve"
           style="font-size:15.5838356px;font-style:normal;font-weight:normal;fill:white;fill-opacity:1;stroke:none;stroke-width:1px;stroke-linecap:butt;stroke-linejoin:miter;stroke-opacity:1;font-family:Bitstream Vera Sans"
           x="18.80534"
           y="19.504702"
           id="text3488"><tspan
             sodipodi:role="line"
             id="tspan3490"
             x="18.80534"
             y="19.504702"
             style="font-weight:bold;font-family:Lucida Grande">spip contrib</tspan></text>
      </g>
    </g>
    <g
       transform="matrix(0.690512,0,0,0.690512,121.0433,4.037534)"
       i:extraneous="self"
       id="g7">
      <linearGradient
         id="linearGradient3711"
         gradientUnits="userSpaceOnUse"
         x1="1.0962"
         y1="54.559101"
         x2="41.483898"
         y2="14.1714">
        <stop
           offset="0"
           style="stop-color:#CEE14B"
           id="stop3713" />
        <stop
           offset="0.0409"
           style="stop-color:#C7DA46"
           id="stop3715" />
        <stop
           offset="0.1868"
           style="stop-color:#B4C739"
           id="stop3717" />
        <stop
           offset="0.358"
           style="stop-color:#A7BA30"
           id="stop3719" />
        <stop
           offset="0.5761"
           style="stop-color:#9FB22B"
           id="stop3721" />
        <stop
           offset="1"
           style="stop-color:#9DB029"
           id="stop3723" />
      </linearGradient>
      <path
         d="M 29.706,33.075 C 34.889,30.121 38.369,24.554 38.369,18.167 C 38.369,8.688 30.687,1 21.205,1 C 11.726,1 4.035,8.688 4.035,18.167 C 4.035,24.554 7.525,30.121 12.694,33.075 C 12.694,33.075 11.686,34.066 10.369,35.346 C 10.181,35.534 9.988,35.723 9.791,35.912 C 7.433,38.608 4.103,39.644 1,41.139 C 4.219,41.483 7.433,41.712 10.608,42.028 C 10.994,41.939 11.454,42.289 11.795,42.169 C 11.316,43.136 10.769,44.035 10.198,44.914 C 10.001,45.205 9.808,45.493 9.61,45.781 C 7.666,48.143 5.939,50.783 5.021,53.746 C 4.95,54.061 4.9,54.382 4.88,54.703 C 4.79,55.981 5.08,57.268 5.938,58.475 C 6.169,58.826 5.938,59.51 6.169,59.62 C 6.627,59.972 7.665,59.282 7.551,58.705 C 6.515,52.277 13.979,50.093 17.883,46.532 C 17.883,46.532 17.999,47.219 18.332,47.5 C 18.689,48.257 19.146,49.063 19.26,49.973 C 19.378,51.928 18.572,53.887 19.378,55.722 C 20.067,53.657 21.783,52.278 22.818,50.323 C 23.281,49.403 23.628,48.374 24.071,47.501 C 24.437,47.22 24.437,46.423 24.547,46.533 C 29.604,49.177 32.928,53.084 35.678,58.017 C 35.91,58.596 36.833,58.476 37.523,58.705 C 36.834,58.137 36.368,57.446 36.484,56.641 C 37.239,51.311 34.125,47.167 31.374,43.11 C 31.158,42.798 30.949,42.489 30.746,42.17 C 34.419,41.824 37.986,41.141 41.649,41.605 C 38.666,39.526 35.108,38.61 32.618,35.915 C 32.417,35.726 32.224,35.537 32.047,35.349 C 30.732,34.066 29.706,33.075 29.706,33.075 z "
         id="path22"
         style="fill:url(#linearGradient3744);stroke:#9db029;stroke-width:2;stroke-linecap:round;stroke-linejoin:round" />
      <path
         d="M 29.706,33.075 C 34.889,30.121 38.369,24.554 38.369,18.167 C 38.369,8.688 30.687,1 21.204,1 C 11.725,1 4.034,8.688 4.034,18.167 C 4.034,24.554 7.524,30.121 12.692,33.075 C 12.692,33.075 11.684,34.066 10.367,35.346 C 10.179,35.534 9.986,35.723 9.789,35.912 C 7.433,38.608 4.103,39.644 1,41.139 C 4.219,41.483 7.433,41.712 10.607,42.028 C 10.993,41.939 11.453,42.289 11.795,42.169 C 11.316,43.136 10.769,44.035 10.197,44.914 C 10,45.205 9.807,45.493 9.609,45.781 C 7.665,48.143 5.937,50.783 5.02,53.746 C 4.95,54.061 4.899,54.383 4.879,54.703 C 4.789,55.981 5.079,57.268 5.937,58.475 C 6.168,58.826 5.937,59.51 6.168,59.62 C 6.626,59.972 7.664,59.282 7.55,58.705 C 6.515,52.277 13.979,50.093 17.882,46.532 C 17.882,46.532 17.998,47.219 18.331,47.5 C 18.687,48.257 19.145,49.063 19.259,49.973 C 19.377,51.928 18.571,53.887 19.377,55.722 C 20.066,53.657 21.782,52.278 22.817,50.323 C 23.28,49.403 23.627,48.374 24.07,47.501 C 24.436,47.22 24.436,46.423 24.546,46.533 C 29.603,49.177 32.927,53.084 35.677,58.017 C 35.909,58.596 36.832,58.476 37.522,58.705 C 36.833,58.137 36.367,57.446 36.483,56.641 C 37.238,51.311 34.124,47.167 31.373,43.11 C 31.157,42.798 30.948,42.489 30.745,42.17 C 34.418,41.824 37.985,41.141 41.648,41.605 C 38.665,39.526 35.107,38.61 32.617,35.915 C 32.416,35.726 32.223,35.537 32.046,35.349 C 30.732,34.066 29.706,33.075 29.706,33.075 z "
         id="path24"
         style="opacity:0.69811318;fill:none;stroke:#eeeeec;stroke-linecap:round;stroke-linejoin:round" />
      <circle
         cx="28.729"
         cy="9.6669998"
         r="2.9400001"
         id="circle26"
         sodipodi:cx="28.729"
         sodipodi:cy="9.6669998"
         sodipodi:rx="2.9400001"
         sodipodi:ry="2.9400001"
         style="opacity:0.5;fill:#727e0a;stroke:#727e0a;stroke-linecap:round;stroke-linejoin:round" />
      <circle
         cx="19.011"
         cy="23.472"
         r="2.6949999"
         id="circle28"
         sodipodi:cx="19.011"
         sodipodi:cy="23.472"
         sodipodi:rx="2.6949999"
         sodipodi:ry="2.6949999"
         style="opacity:0.5;fill:#727e0a;stroke:#727e0a;stroke-linecap:round;stroke-linejoin:round" />
      <circle
         cx="15.497"
         cy="9.1759996"
         r="2.2869999"
         id="circle30"
         sodipodi:cx="15.497"
         sodipodi:cy="9.1759996"
         sodipodi:rx="2.2869999"
         sodipodi:ry="2.2869999"
         style="opacity:0.5;fill:#727e0a;stroke:#727e0a;stroke-width:0.75669998;stroke-linecap:round;stroke-linejoin:round" />
      <g
         id="g32">
        <path
           d="M 30.221,30.357 C 30.221,31.336 29.429,32.139 28.448,32.139 C 27.467,32.139 26.665,31.336 26.665,30.357 C 26.665,29.373 27.467,28.583 28.448,28.583 C 29.429,28.583 30.221,29.373 30.221,30.357 z "
           id="path34"
           style="fill:#888a85;stroke:#cee14b" />
        <path
           d="M 15.988,30.363 C 15.988,31.343 15.196,32.139 14.21,32.139 C 13.229,32.139 12.431,31.343 12.431,30.363 C 12.431,29.377 13.228,28.583 14.21,28.583 C 15.195,28.583 15.988,29.376 15.988,30.363 z "
           id="path36"
           style="fill:#888a85;stroke:#cee14b" />
      </g>
      <circle
         cx="16.233999"
         cy="41.035"
         r="1.8789999"
         id="circle38"
         sodipodi:cx="16.233999"
         sodipodi:cy="41.035"
         sodipodi:rx="1.8789999"
         sodipodi:ry="1.8789999"
         style="opacity:0.5;fill:#727e0a;stroke:#727e0a;stroke-width:0.5898;stroke-linecap:round;stroke-linejoin:round" />
      <circle
         cx="28.733"
         cy="38.910999"
         r="0.81699997"
         id="circle40"
         sodipodi:cx="28.733"
         sodipodi:cy="38.910999"
         sodipodi:rx="0.81699997"
         sodipodi:ry="0.81699997"
         style="opacity:0.5;fill:#727e0a;stroke:#727e0a;stroke-linecap:round;stroke-linejoin:round" />
      <linearGradient
         id="linearGradient3735"
         gradientUnits="userSpaceOnUse"
         x1="21.3223"
         y1="31.1147"
         x2="21.325001"
         y2="2.7808666"
         xlink:href="#XMLID_3_"
         gradientTransform="matrix(1,0,0,0.968489,0,0.980478)">
        <stop
           offset="0"
           style="stop-color:#FFFFFF"
           id="stop3737" />
        <stop
           offset="1"
           style="stop-color:#000000"
           id="stop3739" />
      </linearGradient>
      <path
         d="M 10.632,31.115 C 13.864,29.64774 17.542,28.81484 21.447,28.81484 C 25.288,28.81484 28.91,29.622559 32.105,31.046237 C 36.001,28.000341 38.492,23.34869 38.492,18.121757 C 38.492,8.9414544 30.809,1.4957143 21.328,1.4957143 C 11.849,1.4957143 4.158,8.9414544 4.158,18.121757 C 4.157,23.38743 6.691,28.07104 10.632,31.115 z "
         id="path47"
         style="opacity:0.16981135;fill:url(#XMLID_4_);fill-opacity:1" />
      <path
         d="M 17.341,34.45 C 17.341,32.168 19.192,34.053 21.474,34.053 C 23.754,34.053 25.605,32.168 25.605,34.45 C 25.605,36.732 23.754,38.584 21.474,38.584 C 19.191,38.583 17.341,36.732 17.341,34.45 z "
         id="path49"
         style="fill:#888a85;stroke:#cee14b" />
      <polygon
         points="20.507,34.191 21.378,35.294 22.539,34.231 20.507,34.191 "
         id="polygon51"
         style="fill:#eeeeec;stroke:#cee14b;stroke-linecap:round;stroke-linejoin:round" />
    </g>
  </g>
</svg>
