<?xml version="1.0" encoding="UTF-8" standalone="no"?>
<!-- Created with Inkscape (http://www.inkscape.org/) -->
<svg
   xmlns:i="http://ns.adobe.com/AdobeIllustrator/10.0/"
   xmlns:a="http://ns.adobe.com/AdobeSVGViewerExtensions/3.0/"
   xmlns:dc="http://purl.org/dc/elements/1.1/"
   xmlns:cc="http://web.resource.org/cc/"
   xmlns:rdf="http://www.w3.org/1999/02/22-rdf-syntax-ns#"
   xmlns:svg="http://www.w3.org/2000/svg"
   xmlns="http://www.w3.org/2000/svg"
   xmlns:xlink="http://www.w3.org/1999/xlink"
   xmlns:sodipodi="http://sodipodi.sourceforge.net/DTD/sodipodi-0.dtd"
   xmlns:inkscape="http://www.inkscape.org/namespaces/inkscape"
   width="64px"
   height="64px"
   id="svg2549"
   sodipodi:version="0.32"
   inkscape:version="0.44.1"
   sodipodi:docbase="/Users/izo/Sites/spip-zone/_graphismes_/logos/spip_tango/svg"
   sodipodi:docname="tag-star.svg"
   inkscape:export-filename="/Users/izo/Sites/spip-zone/_graphismes_/logos/spip_tango/png/tag-star-64.png"
   inkscape:export-xdpi="90"
   inkscape:export-ydpi="90">
  <defs
     id="defs2551">
    <linearGradient
       inkscape:collect="always"
       id="linearGradient2295">
      <stop
         style="stop-color:#ffffff;stop-opacity:1;"
         offset="0"
         id="stop2297" />
      <stop
         style="stop-color:#ffffff;stop-opacity:0;"
         offset="1"
         id="stop2299" />
    </linearGradient>
    <radialGradient
       inkscape:collect="always"
       xlink:href="#linearGradient2295"
       id="radialGradient2303"
       cx="197.48041"
       cy="16.234577"
       fx="197.48041"
       fy="16.234577"
       r="20"
       gradientTransform="matrix(-0.629789,2.401888,-0.956879,-0.128325,203.2782,-456.5717)"
       gradientUnits="userSpaceOnUse" />
    <linearGradient
       id="linearGradient8662"
       inkscape:collect="always">
      <stop
         id="stop8664"
         offset="0"
         style="stop-color:#000000;stop-opacity:1;" />
      <stop
         id="stop8666"
         offset="1"
         style="stop-color:#000000;stop-opacity:0;" />
    </linearGradient>
    <radialGradient
       gradientUnits="userSpaceOnUse"
       gradientTransform="matrix(1,0,0,0.536723,0,16.87306)"
       r="15.644737"
       fy="36.421127"
       fx="24.837126"
       cy="36.421127"
       cx="24.837126"
       id="radialGradient8668"
       xlink:href="#linearGradient8662"
       inkscape:collect="always" />
    <radialGradient
       id="path1344_1_"
       cx="50.1289"
       cy="-415.7656"
       r="28.1431"
       gradientTransform="matrix(1,0,0,-0.3986,-21.9902,-127.1689)"
       gradientUnits="userSpaceOnUse">
      <stop
         offset="0"
         style="stop-color:#1A171B"
         id="stop2309" />
      <stop
         offset="0.1036"
         style="stop-color:#1F1C20"
         id="stop2311" />
      <stop
         offset="0.2349"
         style="stop-color:#2F2C30"
         id="stop2313" />
      <stop
         offset="0.3811"
         style="stop-color:#494649"
         id="stop2315" />
      <stop
         offset="0.5381"
         style="stop-color:#6C6A6D"
         id="stop2317" />
      <stop
         offset="0.7039"
         style="stop-color:#9A999B"
         id="stop2319" />
      <stop
         offset="0.8743"
         style="stop-color:#D1D1D2"
         id="stop2321" />
      <stop
         offset="1"
         style="stop-color:#FFFFFF"
         id="stop2323" />
      <a:midPointStop
         offset="0"
         style="stop-color:#1A171B" />
      <a:midPointStop
         offset="0.6573"
         style="stop-color:#1A171B" />
      <a:midPointStop
         offset="1"
         style="stop-color:#FFFFFF" />
    </radialGradient>
    <linearGradient
       id="path54_1_"
       gradientUnits="userSpaceOnUse"
       x1="-262.4175"
       y1="727.3721"
       x2="-237.5474"
       y2="727.3721"
       gradientTransform="matrix(0.9999,-3.2e-3,-3.2e-3,-0.9999,280.9144,760.5791)">
      <stop
         offset="0"
         style="stop-color:#B2B2B2"
         id="stop2534" />
      <stop
         offset="0.2958"
         style="stop-color:#C4C3C1"
         id="stop2536" />
      <stop
         offset="0.888"
         style="stop-color:#F3F0E9"
         id="stop2538" />
      <stop
         offset="1"
         style="stop-color:#FDF9F1"
         id="stop2540" />
    </linearGradient>
    <clipPath
       id="XMLID_3_">
      <rect
         height="44"
         width="28"
         y="12.505"
         x="15.19"
         id="use2527" />
    </clipPath>
    <linearGradient
       id="XMLID_1_"
       gradientUnits="userSpaceOnUse"
       x1="10.8228"
       y1="47.3462"
       x2="32.9217"
       y2="25.2472">
      <stop
         offset="0"
         style="stop-color:#729FCF"
         id="stop2514" />
      <stop
         offset="1"
         style="stop-color:#3465A4"
         id="stop2516" />
    </linearGradient>
    <linearGradient
       id="path18_1_"
       gradientUnits="userSpaceOnUse"
       x1="13.7817"
       y1="555.8066"
       x2="56.9837"
       y2="599.0085"
       gradientTransform="matrix(1,0,0,-1,-19.354,611.5039)">
      <stop
         offset="0"
         style="stop-color:#D3D7CF"
         id="stop2503" />
      <stop
         offset="1"
         style="stop-color:#BABDB6"
         id="stop2505" />
    </linearGradient>
    <foreignObject
       id="foreignObject2495"
       height="1"
       width="1"
       y="0"
       x="0"
       requiredExtensions="http://ns.adobe.com/AdobeIllustrator/10.0/">
      <i:pgfRef
         xlink:href="#adobe_illustrator_pgf" />
    </foreignObject>
    <sodipodi:namedview
       inkscape:window-y="148"
       inkscape:window-x="273"
       inkscape:window-height="577"
       inkscape:window-width="823"
       inkscape:document-units="px"
       inkscape:grid-bbox="true"
       showgrid="true"
       inkscape:current-layer="layer1"
       inkscape:cy="32"
       inkscape:cx="32"
       inkscape:zoom="5.5"
       inkscape:pageshadow="2"
       inkscape:pageopacity="0.0"
       borderopacity="1.0"
       bordercolor="#666666"
       pagecolor="#ffffff"
       id="namedview2573" />
    <linearGradient
       id="linearGradient2589"
       gradientUnits="userSpaceOnUse"
       x1="10.8228"
       y1="47.346199"
       x2="32.9217"
       y2="25.2472">
      <stop
         offset="0"
         style="stop-color:#729FCF"
         id="stop2591" />
      <stop
         offset="1"
         style="stop-color:#3465A4"
         id="stop2593" />
    </linearGradient>
    <linearGradient
       inkscape:collect="always"
       xlink:href="#path18_1_"
       id="linearGradient3662"
       gradientUnits="userSpaceOnUse"
       gradientTransform="matrix(1,0,0,-1,-19.354,611.5039)"
       x1="13.7817"
       y1="555.8066"
       x2="56.9837"
       y2="599.0085" />
    <linearGradient
       inkscape:collect="always"
       xlink:href="#linearGradient2589"
       id="linearGradient3691"
       x1="21.818182"
       y1="19.454546"
       x2="21.872"
       y2="35.090908"
       gradientUnits="userSpaceOnUse" />
  </defs>
  <sodipodi:namedview
     id="base"
     pagecolor="#ffffff"
     bordercolor="#666666"
     borderopacity="1.0"
     inkscape:pageopacity="0.0"
     inkscape:pageshadow="2"
     inkscape:zoom="5.5"
     inkscape:cx="32"
     inkscape:cy="32"
     inkscape:current-layer="layer1"
     showgrid="true"
     inkscape:document-units="px"
     inkscape:grid-bbox="true"
     inkscape:window-width="823"
     inkscape:window-height="577"
     inkscape:window-x="273"
     inkscape:window-y="311" />
  <metadata
     id="metadata2554">
    <rdf:RDF>
      <cc:Work
         rdf:about="">
        <dc:format>image/svg+xml</dc:format>
        <dc:type
           rdf:resource="http://purl.org/dc/dcmitype/StillImage" />
        <dc:title>tag star</dc:title>
        <dc:creator>
          <cc:Agent>
            <dc:title>izo</dc:title>
          </cc:Agent>
        </dc:creator>
        <dc:subject />
        <dc:description>hreview</dc:description>
        <cc:license
           rdf:resource="http://creativecommons.org/licenses/by-nc/2.5/" />
      </cc:Work>
      <cc:License
         rdf:about="http://creativecommons.org/licenses/by-nc/2.5/">
        <cc:permits
           rdf:resource="http://web.resource.org/cc/Reproduction" />
        <cc:permits
           rdf:resource="http://web.resource.org/cc/Distribution" />
        <cc:requires
           rdf:resource="http://web.resource.org/cc/Notice" />
        <cc:requires
           rdf:resource="http://web.resource.org/cc/Attribution" />
        <cc:prohibits
           rdf:resource="http://web.resource.org/cc/CommercialUse" />
        <cc:permits
           rdf:resource="http://web.resource.org/cc/DerivativeWorks" />
      </cc:License>
    </rdf:RDF>
  </metadata>
  <g
     id="layer1"
     inkscape:label="Layer 1"
     inkscape:groupmode="layer">
    <path
       transform="matrix(1.776959,0,0,1.507127,-9.252318,-6.728261)"
       d="M 40.481863 36.421127 A 15.644737 8.3968935 0 1 1  9.1923885,36.421127 A 15.644737 8.3968935 0 1 1  40.481863 36.421127 z"
       sodipodi:ry="8.3968935"
       sodipodi:rx="15.644737"
       sodipodi:cy="36.421127"
       sodipodi:cx="24.837126"
       id="path8660"
       style="opacity:0.29946522;color:black;fill:url(#radialGradient8668);fill-opacity:1;fill-rule:evenodd;stroke:none;stroke-width:1;stroke-linecap:butt;stroke-linejoin:miter;marker:none;marker-start:none;marker-mid:none;marker-end:none;stroke-miterlimit:10;stroke-dasharray:none;stroke-dashoffset:0;stroke-opacity:1;visibility:visible;display:inline;overflow:visible"
       sodipodi:type="arc" />
    <g
       id="g11"
       transform="translate(20.90909,-1.090909)">
      <linearGradient
         gradientTransform="matrix(1,0,0,-1,-19.354,611.5039)"
         y2="599.00848"
         x2="56.9837"
         y1="555.80658"
         x1="13.7817"
         gradientUnits="userSpaceOnUse"
         id="linearGradient2577">
        <stop
           id="stop2579"
           style="stop-color:#D3D7CF"
           offset="0" />
        <stop
           id="stop2581"
           style="stop-color:#BABDB6"
           offset="1" />
      </linearGradient>
      <path
         style="fill:url(#linearGradient3662)"
         d="M 40.62,16.766 C 40.614,15.048 39.218,13.662 37.501,13.666 L -6.825,13.81 L -18.706,25.767 L -18.65,42.621 L -6.692,54.502 L 37.632,54.356 C 39.35,54.35 40.738,52.954 40.732,51.236 L 40.62,16.766 z M -10.501,37.925 C -12.576,37.932 -14.264,36.255 -14.271,34.179 C -14.278,32.104 -12.601,30.416 -10.525,30.409 C -8.449,30.402 -6.762,32.08 -6.755,34.155 C -6.748,36.231 -8.425,37.919 -10.501,37.925 z "
         id="path18" />
    </g>
    <g
       id="g20"
       transform="translate(20.90909,-1.090909)">
      <path
         style="fill:none;stroke:#555753;stroke-linecap:round;stroke-linejoin:round"
         d="M 40.62,16.766 C 40.614,15.048 39.218,13.662 37.501,13.666 L -6.825,13.81 L -18.706,25.767 L -18.65,42.621 L -6.692,54.502 L 37.632,54.356 C 39.35,54.35 40.738,52.954 40.732,51.236 L 40.62,16.766 z M -10.501,37.925 C -12.576,37.932 -14.264,36.255 -14.271,34.179 C -14.278,32.104 -12.601,30.416 -10.525,30.409 C -8.449,30.402 -6.762,32.08 -6.755,34.155 C -6.748,36.231 -8.425,37.919 -10.501,37.925 z "
         id="path22" />
    </g>
    <path
       id="line33_3_"
       style="fill:none;stroke:#eeeeec;stroke-linecap:round;stroke-linejoin:round"
       d="" />
    <path
       id="line33_2_"
       style="fill:none;stroke:#eeeeec;stroke-linecap:round;stroke-linejoin:round"
       d="" />
    <path
       id="path37"
       d="M 60.72609,16.662091 C 60.72109,15.042091 59.36809,13.733091 57.70309,13.739091 L 14.75809,13.879091 L 3.24609,25.154091 L 3.29809,41.046091 L 14.88209,52.247091 L 57.82809,52.107091 C 59.49209,52.103091 60.83709,50.784091 60.83009,49.165091 L 60.72609,16.662091 z "
       style="fill:none;stroke:#eeeeec;stroke-linecap:round;stroke-linejoin:round" />
    <polygon
       points="21.872,18.524 26.761,28.431 37.693,30.019 29.783,37.73 31.65,48.618 21.872,43.478 12.094,48.618 13.962,37.73 6.051,30.019 16.983,28.431 21.872,18.524 "
       id="polygon2518"
       style="fill:url(#linearGradient3691);stroke:#204a87;stroke-width:1;stroke-linecap:round;stroke-linejoin:round;stroke-miterlimit:4;stroke-dasharray:none;fill-opacity:1.0"
       transform="translate(20.90909,-1.090909)" />
    <path
       style="opacity:0.55974843;color:black;fill:url(#radialGradient2303);fill-opacity:1;fill-rule:nonzero;stroke:none;stroke-width:1;stroke-linecap:round;stroke-linejoin:miter;marker:none;marker-start:none;marker-mid:none;marker-end:none;stroke-miterlimit:4;stroke-dashoffset:0;stroke-opacity:1;visibility:visible;display:inline;overflow:visible"
       d="M 60.196359,14.109077 L 60.698626,51.699515 L 46.851174,51.593284 C 43.893335,37.475623 44.485254,29.962847 45.977969,14 L 60.196359,14.109077 z "
       id="rect2292"
       sodipodi:nodetypes="ccccc" />
  </g>
</svg>
