<?xml version="1.0" encoding="UTF-8" standalone="no"?>
<!-- Created with Inkscape (http://www.inkscape.org/) -->
<svg
   xmlns:i="http://ns.adobe.com/AdobeIllustrator/10.0/"
   xmlns:a="http://ns.adobe.com/AdobeSVGViewerExtensions/3.0/"
   xmlns:dc="http://purl.org/dc/elements/1.1/"
   xmlns:cc="http://web.resource.org/cc/"
   xmlns:rdf="http://www.w3.org/1999/02/22-rdf-syntax-ns#"
   xmlns:svg="http://www.w3.org/2000/svg"
   xmlns="http://www.w3.org/2000/svg"
   xmlns:xlink="http://www.w3.org/1999/xlink"
   xmlns:sodipodi="http://sodipodi.sourceforge.net/DTD/sodipodi-0.dtd"
   xmlns:inkscape="http://www.inkscape.org/namespaces/inkscape"
   width="64px"
   height="64px"
   id="svg2367"
   sodipodi:version="0.32"
   inkscape:version="0.44.1"
   sodipodi:docbase="/Users/izo/Sites/spip-zone/_graphismes_/logos/spip_tango/svg"
   sodipodi:docname="tag3-blue.svg"
   inkscape:export-filename="/Users/izo/Sites/spip-zone/_graphismes_/logos/spip_tango/png/tag3.png"
   inkscape:export-xdpi="180"
   inkscape:export-ydpi="180">
  <defs
     id="defs2369">
    <linearGradient
       inkscape:collect="always"
       id="linearGradient2295">
      <stop
         style="stop-color:#ffffff;stop-opacity:1;"
         offset="0"
         id="stop2297" />
      <stop
         style="stop-color:#ffffff;stop-opacity:0;"
         offset="1"
         id="stop2299" />
    </linearGradient>
    <radialGradient
       inkscape:collect="always"
       xlink:href="#linearGradient2295"
       id="radialGradient2303"
       cx="197.48041"
       cy="16.234577"
       fx="197.48041"
       fy="16.234577"
       r="20"
       gradientTransform="matrix(-0.629789,2.147042,-0.956879,-0.114709,197.768,-418.0421)"
       gradientUnits="userSpaceOnUse" />
    <linearGradient
       id="linearGradient8662"
       inkscape:collect="always">
      <stop
         id="stop8664"
         offset="0"
         style="stop-color:#000000;stop-opacity:1;" />
      <stop
         id="stop8666"
         offset="1"
         style="stop-color:#000000;stop-opacity:0;" />
    </linearGradient>
    <radialGradient
       gradientUnits="userSpaceOnUse"
       gradientTransform="matrix(1,0,0,0.536723,0,16.87306)"
       r="15.644737"
       fy="36.421127"
       fx="24.837126"
       cy="36.421127"
       cx="24.837126"
       id="radialGradient8668"
       xlink:href="#linearGradient8662"
       inkscape:collect="always" />
    <linearGradient
       id="linearGradient2885">
      <stop
         style="stop-color:#3465a4;stop-opacity:1;"
         offset="0"
         id="stop2887" />
      <stop
         style="stop-color:#3465a4;stop-opacity:0;"
         offset="1"
         id="stop2889" />
    </linearGradient>
    <linearGradient
       id="XMLID_2_"
       gradientUnits="userSpaceOnUse"
       x1="12.5361"
       y1="30.5"
       x2="48.4262"
       y2="-5.39">
      <stop
         offset="0"
         style="stop-color:#000000"
         id="stop2354" />
      <stop
         offset="0.5"
         style="stop-color:#FFFFFF"
         id="stop2356" />
      <stop
         offset="1"
         style="stop-color:#000000"
         id="stop2358" />
      <a:midPointStop
         offset="0"
         style="stop-color:#000000" />
      <a:midPointStop
         offset="0.5"
         style="stop-color:#000000" />
      <a:midPointStop
         offset="0.5"
         style="stop-color:#FFFFFF" />
      <a:midPointStop
         offset="0.5"
         style="stop-color:#FFFFFF" />
      <a:midPointStop
         offset="1"
         style="stop-color:#000000" />
    </linearGradient>
    <linearGradient
       id="XMLID_1_"
       gradientUnits="userSpaceOnUse"
       x1="394.3467"
       y1="610.3027"
       x2="449.3125"
       y2="610.3027"
       gradientTransform="matrix(0.9999,-1.1e-3,1.1e-3,0.9999,-393.8866,-590.3135)">
      <stop
         offset="0"
         style="stop-color:#CEE14B"
         id="stop2331" />
      <stop
         offset="0.233"
         style="stop-color:#BDCF3F"
         id="stop2333" />
      <stop
         offset="0.6992"
         style="stop-color:#91A020"
         id="stop2335" />
      <stop
         offset="1"
         style="stop-color:#727E0A"
         id="stop2337" />
      <a:midPointStop
         offset="0"
         style="stop-color:#CEE14B" />
      <a:midPointStop
         offset="0.5506"
         style="stop-color:#CEE14B" />
      <a:midPointStop
         offset="1"
         style="stop-color:#727E0A" />
    </linearGradient>
    <radialGradient
       id="path1344_1_"
       cx="50.1289"
       cy="-415.7656"
       r="28.1431"
       gradientTransform="matrix(1,0,0,-0.3986,-21.9902,-127.1689)"
       gradientUnits="userSpaceOnUse">
      <stop
         offset="0"
         style="stop-color:#1A171B"
         id="stop2309" />
      <stop
         offset="0.1036"
         style="stop-color:#1F1C20"
         id="stop2311" />
      <stop
         offset="0.2349"
         style="stop-color:#2F2C30"
         id="stop2313" />
      <stop
         offset="0.3811"
         style="stop-color:#494649"
         id="stop2315" />
      <stop
         offset="0.5381"
         style="stop-color:#6C6A6D"
         id="stop2317" />
      <stop
         offset="0.7039"
         style="stop-color:#9A999B"
         id="stop2319" />
      <stop
         offset="0.8743"
         style="stop-color:#D1D1D2"
         id="stop2321" />
      <stop
         offset="1"
         style="stop-color:#FFFFFF"
         id="stop2323" />
      <a:midPointStop
         offset="0"
         style="stop-color:#1A171B" />
      <a:midPointStop
         offset="0.6573"
         style="stop-color:#1A171B" />
      <a:midPointStop
         offset="1"
         style="stop-color:#FFFFFF" />
    </radialGradient>
    <foreignObject
       id="foreignObject2303"
       height="1"
       width="1"
       y="0"
       x="0"
       requiredExtensions="http://ns.adobe.com/AdobeIllustrator/10.0/">
      <i:pgfRef
         xlink:href="#adobe_illustrator_pgf" />
    </foreignObject>
    <radialGradient
       inkscape:collect="always"
       xlink:href="#path1344_1_"
       id="radialGradient1952"
       gradientUnits="userSpaceOnUse"
       gradientTransform="matrix(1,0,0,-0.3986,-19.80838,-129.4049)"
       cx="50.1289"
       cy="-415.7656"
       r="28.1431" />
    <linearGradient
       inkscape:collect="always"
       xlink:href="#XMLID_2_"
       id="linearGradient1956"
       gradientUnits="userSpaceOnUse"
       x1="12.5361"
       y1="30.5"
       x2="48.4262"
       y2="-5.39" />
  </defs>
  <sodipodi:namedview
     id="base"
     pagecolor="#ffffff"
     bordercolor="#666666"
     borderopacity="1.0"
     inkscape:pageopacity="0.0"
     inkscape:pageshadow="2"
     inkscape:zoom="5.5"
     inkscape:cx="32"
     inkscape:cy="32"
     inkscape:current-layer="Calque_1"
     showgrid="true"
     inkscape:document-units="px"
     inkscape:grid-bbox="true"
     inkscape:window-width="1059"
     inkscape:window-height="737"
     inkscape:window-x="60"
     inkscape:window-y="82" />
  <metadata
     id="metadata2372">
    <rdf:RDF>
      <cc:Work
         rdf:about="">
        <dc:format>image/svg+xml</dc:format>
        <dc:type
           rdf:resource="http://purl.org/dc/dcmitype/StillImage" />
      </cc:Work>
    </rdf:RDF>
  </metadata>
  <g
     id="layer1"
     inkscape:label="Layer 1"
     inkscape:groupmode="layer">
    <g
       id="Calque_1"
       i:layer="yes"
       i:dimmedPercent="50"
       i:rgbTrio="#4F008000FFFF"
       transform="translate(3.427998,8.899002)">
      <radialGradient
         id="radialGradient2397"
         cx="50.128899"
         cy="-415.76559"
         r="28.143101"
         gradientTransform="matrix(1,0,0,-0.3986,-21.9902,-127.1689)"
         gradientUnits="userSpaceOnUse">
        <stop
           offset="0"
           style="stop-color:#1A171B"
           id="stop2399" />
        <stop
           offset="0.1036"
           style="stop-color:#1F1C20"
           id="stop2401" />
        <stop
           offset="0.2349"
           style="stop-color:#2F2C30"
           id="stop2403" />
        <stop
           offset="0.3811"
           style="stop-color:#494649"
           id="stop2405" />
        <stop
           offset="0.5381"
           style="stop-color:#6C6A6D"
           id="stop2407" />
        <stop
           offset="0.7039"
           style="stop-color:#9A999B"
           id="stop2409" />
        <stop
           offset="0.8743"
           style="stop-color:#D1D1D2"
           id="stop2411" />
        <stop
           offset="1"
           style="stop-color:#FFFFFF"
           id="stop2413" />
        <a:midPointStop
           offset="0"
           style="stop-color:#1A171B" />
        <a:midPointStop
           offset="0.6573"
           style="stop-color:#1A171B" />
        <a:midPointStop
           offset="1"
           style="stop-color:#FFFFFF" />
      </radialGradient>
      <path
         transform="matrix(1.776959,0,0,1.507127,-14.7625,-18.85454)"
         d="M 40.481863 36.421127 A 15.644737 8.3968935 0 1 1  9.1923885,36.421127 A 15.644737 8.3968935 0 1 1  40.481863 36.421127 z"
         sodipodi:ry="8.3968935"
         sodipodi:rx="15.644737"
         sodipodi:cy="36.421127"
         sodipodi:cx="24.837126"
         id="path8660"
         style="opacity:0.29946522;color:black;fill:url(#radialGradient8668);fill-opacity:1;fill-rule:evenodd;stroke:none;stroke-width:1;stroke-linecap:butt;stroke-linejoin:miter;marker:none;marker-start:none;marker-mid:none;marker-end:none;stroke-miterlimit:10;stroke-dasharray:none;stroke-dashoffset:0;stroke-opacity:1;visibility:visible;display:inline;overflow:visible"
         sodipodi:type="arc" />
      <g
         i:knockout="Off"
         id="g2326"
         style="fill:#3465a4;fill-opacity:1;stroke:#204a87;stroke-opacity:1">
        <g
           id="g2328"
           style="fill:#3465a4;fill-opacity:1;stroke:#204a87;stroke-opacity:1">
          <linearGradient
             id="linearGradient2418"
             gradientUnits="userSpaceOnUse"
             x1="394.34671"
             y1="610.30267"
             x2="449.3125"
             y2="610.30267"
             gradientTransform="matrix(0.9999,-1.1e-3,1.1e-3,0.9999,-393.8866,-590.3135)"
             style="fill-opacity:1.0;fill:url(#linearGradient2915);stroke:url(#radialGradient2903)">
            <stop
               offset="0"
               style="stop-color:#CEE14B;fill-opacity:1.0;fill:url(#linearGradient2915);stroke:url(#radialGradient2903)"
               id="stop2420" />
            <stop
               offset="0.233"
               style="stop-color:#BDCF3F;fill-opacity:1.0;fill:url(#linearGradient2915);stroke:url(#radialGradient2903)"
               id="stop2422" />
            <stop
               offset="0.6992"
               style="stop-color:#91A020;fill-opacity:1.0;fill:url(#linearGradient2915);stroke:url(#radialGradient2903)"
               id="stop2424" />
            <stop
               offset="1"
               style="stop-color:#727E0A;fill-opacity:1.0;fill:url(#linearGradient2915);stroke:url(#radialGradient2903)"
               id="stop2426" />
            <a:midPointStop
               offset="0"
               style="stop-color:#CEE14B;fill-opacity:1.0;fill:url(#linearGradient2915);stroke:url(#radialGradient2903)" />
            <a:midPointStop
               offset="0.5506"
               style="stop-color:#CEE14B;fill-opacity:1.0;fill:url(#linearGradient2915);stroke:url(#radialGradient2903)" />
            <a:midPointStop
               offset="1"
               style="stop-color:#727E0A;fill-opacity:1.0;fill:url(#linearGradient2915);stroke:url(#radialGradient2903)" />
          </linearGradient>
          <path
             i:knockout="Off"
             d="M 56.037,3.478 C 56.035,1.887 54.745,0.599 53.154,0.601 L 12.111,0.644 L 1.087,11.692 L 1.104,27.298 L 12.152,38.322 L 53.196,38.278 C 54.786,38.277 56.074,36.986 56.072,35.395 L 56.037,3.478 z M 8.659,22.967 C 6.737,22.969 5.177,21.413 5.176,19.491 C 5.174,17.569 6.73,16.01 8.652,16.008 C 10.574,16.006 12.134,17.563 12.135,19.484 C 12.138,21.406 10.581,22.965 8.659,22.967 z "
             id="path2339"
             style="fill:#3465a4;fill-opacity:1;stroke:#204a87;stroke-opacity:1" />
        </g>
        <g
           id="g2341"
           style="fill:#3465a4;fill-opacity:1;stroke:#204a87;stroke-opacity:1">
          <path
             i:knockout="Off"
             d="M 56.037,3.478 C 56.035,1.887 54.745,0.599 53.154,0.601 L 12.111,0.644 L 1.087,11.692 L 1.104,27.298 L 12.152,38.322 L 53.196,38.278 C 54.786,38.277 56.074,36.986 56.072,35.395 L 56.037,3.478 z M 8.659,22.967 C 6.737,22.969 5.177,21.413 5.176,19.491 C 5.174,17.569 6.73,16.01 8.652,16.008 C 10.574,16.006 12.134,17.563 12.135,19.484 C 12.138,21.406 10.581,22.965 8.659,22.967 z "
             id="path2343"
             style="fill:#3465a4;fill-opacity:1;stroke:#204a87;stroke-linecap:round;stroke-linejoin:round;stroke-opacity:1" />
        </g>
      </g>
      <path
         i:knockout="Off"
         a:adobe-blending-mode="screen"
         d="M 55.295,4.389 C 55.293,2.889 54.042,1.675 52.501,1.676 L 12.735,1.719 L 2.053,12.137 L 2.069,26.853 L 12.773,37.248 L 52.54,37.205 C 54.081,37.204 55.329,35.987 55.328,34.487 L 55.295,4.389 z "
         id="path2345"
         style="opacity:0.6;fill:none;stroke:#eeeeec" />
      <g
         i:knockout="Off"
         id="g2347">
        <path
           i:knockout="Off"
           d="M 22.883,23.32 C 17.426,21.043 17.426,17.317 22.883,15.04 C 28.34,12.763 37.268,9.037 42.725,6.759 C 48.182,4.481 52.647,6.344 52.647,10.899 C 52.647,15.454 52.647,22.906 52.647,27.461 C 52.647,32.015 48.182,33.878 42.725,31.601 C 37.268,29.324 28.34,25.598 22.883,23.32 z "
           id="path2349"
           style="fill:#eeedec" />
        <path
           i:knockout="Off"
           d="M 22.883,23.32 C 17.426,21.043 17.426,17.317 22.883,15.04 C 28.34,12.763 37.268,9.037 42.725,6.759 C 48.182,4.481 52.647,6.344 52.647,10.899 C 52.647,15.454 52.647,22.906 52.647,27.461 C 52.647,32.015 48.182,33.878 42.725,31.601 C 37.268,29.324 28.34,25.598 22.883,23.32 z "
           id="path2351"
           style="fill:none;stroke:#eeedec;stroke-width:0.2823" />
      </g>
      <linearGradient
         id="linearGradient2435"
         gradientUnits="userSpaceOnUse"
         x1="12.5361"
         y1="30.5"
         x2="48.426201"
         y2="-5.3899999">
        <stop
           offset="0"
           style="stop-color:#000000"
           id="stop2437" />
        <stop
           offset="0.5"
           style="stop-color:#FFFFFF"
           id="stop2439" />
        <stop
           offset="1"
           style="stop-color:#000000"
           id="stop2441" />
        <a:midPointStop
           offset="0"
           style="stop-color:#000000" />
        <a:midPointStop
           offset="0.5"
           style="stop-color:#000000" />
        <a:midPointStop
           offset="0.5"
           style="stop-color:#FFFFFF" />
        <a:midPointStop
           offset="0.5"
           style="stop-color:#FFFFFF" />
        <a:midPointStop
           offset="1"
           style="stop-color:#000000" />
      </linearGradient>
      <path
         style="opacity:0.55974839;color:black;fill:url(#radialGradient2303);fill-opacity:1;fill-rule:nonzero;stroke:none;stroke-width:1;stroke-linecap:round;stroke-linejoin:miter;marker:none;marker-start:none;marker-mid:none;marker-end:none;stroke-miterlimit:4;stroke-dashoffset:0;stroke-opacity:1;visibility:visible;display:inline;overflow:visible"
         d="M 54.686185,2.6984966 L 55.188452,36.300508 L 41.341,36.205548 C 38.383161,23.585801 38.97508,16.870148 40.467795,2.6009929 L 54.686185,2.6984966 z "
         id="rect2292"
         sodipodi:nodetypes="ccccc" />
    </g>
  </g>
</svg>
