<?xml version="1.0" encoding="UTF-8" standalone="no"?>
<!-- Created with Inkscape (http://www.inkscape.org/) -->
<svg:svg
   xmlns:dc="http://purl.org/dc/elements/1.1/"
   xmlns:cc="http://web.resource.org/cc/"
   xmlns:rdf="http://www.w3.org/1999/02/22-rdf-syntax-ns#"
   xmlns:svg="http://www.w3.org/2000/svg"
   xmlns:xlink="http://www.w3.org/1999/xlink"
   xmlns:sodipodi="http://sodipodi.sourceforge.net/DTD/sodipodi-0.dtd"
   xmlns:inkscape="http://www.inkscape.org/namespaces/inkscape"
   width="64px"
   height="64px"
   id="svg7048"
   sodipodi:version="0.32"
   inkscape:version="0.44.1"
   sodipodi:docbase="/Users/izoo/Sites/spip-zone/_graphismes_/logos/spip_tango/svg"
   sodipodi:docname="Terminal Server Client.svg"
   inkscape:export-filename="/Users/izoo/Sites/spip-zone/_graphismes_/logos/spip_tango/png/Terminal_Server_Client.png"
   inkscape:export-xdpi="180"
   inkscape:export-ydpi="180">
  <svg:defs
     id="defs7050">
    <svg:linearGradient
       id="XMLID_2_"
       gradientUnits="userSpaceOnUse"
       x1="23.6675"
       y1="64.9155"
       x2="41.8728"
       y2="46.7102">
      <svg:stop
         offset="0"
         style="stop-color:#FFFFFF"
         id="stop3827" />
      <svg:stop
         offset="1"
         style="stop-color:#000000"
         id="stop3829" />
      <midPointStop
         offset="0"
         style="stop-color:#FFFFFF" />
      <midPointStop
         offset="0.5"
         style="stop-color:#FFFFFF" />
      <midPointStop
         offset="1"
         style="stop-color:#000000" />
    </svg:linearGradient>
    <svg:linearGradient
       id="linearGradient6457"
       inkscape:collect="always">
      <svg:stop
         id="stop6459"
         offset="0"
         style="stop-color:#ffffff;stop-opacity:1;" />
      <svg:stop
         id="stop6461"
         offset="1"
         style="stop-color:#ffffff;stop-opacity:0;" />
    </svg:linearGradient>
    <svg:linearGradient
       id="linearGradient218">
      <svg:stop
         id="stop219"
         offset="0.0000000"
         style="stop-color:#ffffff;stop-opacity:0.44910181;" />
      <svg:stop
         id="stop222"
         offset="1.0000000"
         style="stop-color:#ffffff;stop-opacity:0.0000000;" />
    </svg:linearGradient>
    <svg:linearGradient
       id="linearGradient204">
      <svg:stop
         id="stop205"
         offset="0.0000000"
         style="stop-color:#7a7a7a;stop-opacity:1.0000000;" />
      <svg:stop
         id="stop207"
         offset="0.19801980"
         style="stop-color:#c5c5c5;stop-opacity:1.0000000;" />
      <svg:stop
         id="stop208"
         offset="0.59900987"
         style="stop-color:#626262;stop-opacity:1.0000000;" />
      <svg:stop
         id="stop206"
         offset="1.0000000"
         style="stop-color:#888888;stop-opacity:1.0000000;" />
    </svg:linearGradient>
    <svg:linearGradient
       id="linearGradient178">
      <svg:stop
         id="stop179"
         offset="0.0000000"
         style="stop-color:#ffffff;stop-opacity:0.0000000;" />
      <svg:stop
         id="stop180"
         offset="0.10827128"
         style="stop-color:#ffffff;stop-opacity:0.70658684;" />
      <svg:stop
         id="stop181"
         offset="0.92053902"
         style="stop-color:#ffffff;stop-opacity:0.70658684;" />
      <svg:stop
         id="stop182"
         offset="1.0000000"
         style="stop-color:#ffffff;stop-opacity:0.0000000;" />
    </svg:linearGradient>
    <svg:linearGradient
       id="linearGradient272">
      <svg:stop
         id="stop273"
         offset="0.0000000"
         style="stop-color:#474747;stop-opacity:0.0000000;" />
      <svg:stop
         id="stop275"
         offset="0.10000000"
         style="stop-color:#474747;stop-opacity:1.0000000;" />
      <svg:stop
         id="stop276"
         offset="0.89999998"
         style="stop-color:#474747;stop-opacity:1.0000000;" />
      <svg:stop
         id="stop274"
         offset="1.0000000"
         style="stop-color:#474747;stop-opacity:0.0000000;" />
    </svg:linearGradient>
    <svg:linearGradient
       id="linearGradient158">
      <svg:stop
         id="stop159"
         offset="0.0000000"
         style="stop-color:#686868;stop-opacity:0.0000000;" />
      <svg:stop
         id="stop162"
         offset="0.23762377"
         style="stop-color:#686868;stop-opacity:1.0000000;" />
      <svg:stop
         id="stop163"
         offset="0.78109992"
         style="stop-color:#686868;stop-opacity:1.0000000;" />
      <svg:stop
         id="stop160"
         offset="1.0000000"
         style="stop-color:#686868;stop-opacity:0.0000000;" />
    </svg:linearGradient>
    <svg:linearGradient
       inkscape:collect="always"
       id="linearGradient7761">
      <svg:stop
         style="stop-color:#3465a4;stop-opacity:1;"
         offset="0"
         id="stop7763" />
      <svg:stop
         style="stop-color:#3465a4;stop-opacity:0;"
         offset="1"
         id="stop7765" />
    </svg:linearGradient>
    <svg:linearGradient
       id="linearGradient2667">
      <svg:stop
         id="stop2669"
         offset="0.0000000"
         style="stop-color:#ffffff;stop-opacity:1.0000000;" />
      <svg:stop
         id="stop2671"
         offset="1.0000000"
         style="stop-color:#fcfcff;stop-opacity:0.0000000;" />
    </svg:linearGradient>
    <svg:linearGradient
       y2="43.1045"
       x2="41.2866"
       y1="43.1045"
       x1="15.708"
       gradientUnits="userSpaceOnUse"
       id="XMLID_11_">
      <svg:stop
         id="stop4918"
         style="stop-color:#FCE94F"
         offset="0" />
      <svg:stop
         id="stop4920"
         style="stop-color:#FAE645"
         offset="0.0692" />
      <svg:stop
         id="stop4922"
         style="stop-color:#F4DE27"
         offset="0.3136" />
      <svg:stop
         id="stop4924"
         style="stop-color:#F0D911"
         offset="0.5538" />
      <svg:stop
         id="stop4926"
         style="stop-color:#EED504"
         offset="0.7857" />
      <svg:stop
         id="stop4928"
         style="stop-color:#EDD400"
         offset="1" />
      <midPointStop
         style="stop-color:#FCE94F"
         offset="0" />
      <midPointStop
         style="stop-color:#FCE94F"
         offset="0.309" />
      <midPointStop
         style="stop-color:#EDD400"
         offset="1" />
    </svg:linearGradient>
    <svg:linearGradient
       y2="12.7896"
       x2="41.2856"
       y1="12.7896"
       x1="15.7075"
       gradientUnits="userSpaceOnUse"
       id="XMLID_10_">
      <svg:stop
         id="stop4905"
         style="stop-color:#FCAF3E"
         offset="0" />
      <svg:stop
         id="stop4907"
         style="stop-color:#F99B27"
         offset="0.22" />
      <svg:stop
         id="stop4909"
         style="stop-color:#F78811"
         offset="0.4922" />
      <svg:stop
         id="stop4911"
         style="stop-color:#F57D04"
         offset="0.7561" />
      <svg:stop
         id="stop4913"
         style="stop-color:#F57900"
         offset="1" />
      <midPointStop
         style="stop-color:#FCAF3E"
         offset="0" />
      <midPointStop
         style="stop-color:#FCAF3E"
         offset="0.309" />
      <midPointStop
         style="stop-color:#F57900"
         offset="1" />
    </svg:linearGradient>
    <svg:linearGradient
       y2="27.769"
       x2="25.6445"
       y1="27.769"
       x1="0.0649"
       gradientUnits="userSpaceOnUse"
       id="XMLID_9_">
      <svg:stop
         id="stop4892"
         style="stop-color:#729FCF"
         offset="0" />
      <svg:stop
         id="stop4896"
         style="stop-color:#4575B0"
         offset="0.4922" />
      <svg:stop
         id="stop4898"
         style="stop-color:#3869A7"
         offset="0.7561" />
      <svg:stop
         id="stop4900"
         style="stop-color:#3465A4"
         offset="1" />
      <midPointStop
         style="stop-color:#729FCF"
         offset="0" />
      <midPointStop
         style="stop-color:#729FCF"
         offset="0.309" />
      <midPointStop
         style="stop-color:#3465A4"
         offset="1" />
    </svg:linearGradient>
    <svg:linearGradient
       id="linearGradient6993">
      <svg:stop
         style="stop-color:#5c3566;stop-opacity:1;"
         offset="0"
         id="stop6995" />
      <svg:stop
         style="stop-color:#5c3566;stop-opacity:0;"
         offset="1"
         id="stop6997" />
    </svg:linearGradient>
    <svg:linearGradient
       id="linearGradient3832">
      <svg:stop
         style="stop-color:#ffffff;stop-opacity:1.0000000"
         offset="0.0000000"
         id="stop3834" />
      <svg:stop
         style="stop-color:black;stop-opacity:0.77477479;"
         offset="1"
         id="stop3836" />
    </svg:linearGradient>
    <svg:linearGradient
       inkscape:collect="always"
       id="linearGradient5060">
      <svg:stop
         style="stop-color:black;stop-opacity:1;"
         offset="0"
         id="stop5062" />
      <svg:stop
         style="stop-color:black;stop-opacity:0;"
         offset="1"
         id="stop5064" />
    </svg:linearGradient>
    <svg:linearGradient
       id="linearGradient5048">
      <svg:stop
         style="stop-color:black;stop-opacity:0;"
         offset="0"
         id="stop5050" />
      <svg:stop
         id="stop5056"
         offset="0.5"
         style="stop-color:black;stop-opacity:1;" />
      <svg:stop
         style="stop-color:black;stop-opacity:0;"
         offset="1"
         id="stop5052" />
    </svg:linearGradient>
    <svg:foreignObject
       id="foreignObject3801"
       height="1"
       width="1"
       y="0"
       x="0"
       requiredExtensions="http://ns.adobe.com/AdobeIllustrator/10.0/">
      <pgfRef
         xlink:href="#adobe_illustrator_pgf" />
    </svg:foreignObject>
    <svg:linearGradient
       y2="46.710201"
       x2="41.872799"
       y1="64.915497"
       x1="23.6675"
       gradientUnits="userSpaceOnUse"
       id="linearGradient3862">
      <svg:stop
         id="stop3864"
         style="stop-color:#FFFFFF"
         offset="0" />
      <svg:stop
         id="stop3866"
         style="stop-color:#000000"
         offset="1" />
      <midPointStop
         style="stop-color:#FFFFFF"
         offset="0" />
      <midPointStop
         style="stop-color:#FFFFFF"
         offset="0.5" />
      <midPointStop
         style="stop-color:#000000"
         offset="1" />
    </svg:linearGradient>
    <svg:linearGradient
       inkscape:collect="always"
       xlink:href="#linearGradient6457"
       id="linearGradient3337"
       gradientUnits="userSpaceOnUse"
       gradientTransform="matrix(1.823207,0,0,2.10907,-106.9437,-17.30255)"
       x1="36.067482"
       y1="19.061104"
       x2="38.278458"
       y2="26.435217" />
    <svg:linearGradient
       inkscape:collect="always"
       xlink:href="#linearGradient158"
       id="linearGradient3371"
       gradientUnits="userSpaceOnUse"
       gradientTransform="matrix(2.740165,0,0,0.364942,1.118717,-4.017762)"
       x1="1.6422368"
       y1="117.82710"
       x2="15.343062"
       y2="117.82710" />
    <svg:linearGradient
       inkscape:collect="always"
       xlink:href="#linearGradient272"
       id="linearGradient3373"
       gradientUnits="userSpaceOnUse"
       gradientTransform="matrix(8.168597,0,0,0.22121,1.118717,-41.93917)"
       x1="0.61210024"
       y1="372.57819"
       x2="5.0856376"
       y2="372.57819" />
    <svg:linearGradient
       inkscape:collect="always"
       xlink:href="#linearGradient272"
       id="linearGradient3375"
       gradientUnits="userSpaceOnUse"
       gradientTransform="matrix(8.168597,0,0,0.228621,1.118717,-40.55063)"
       x1="0.61210024"
       y1="372.57819"
       x2="5.0856376"
       y2="372.57819" />
    <svg:linearGradient
       inkscape:collect="always"
       xlink:href="#linearGradient178"
       id="linearGradient3377"
       gradientUnits="userSpaceOnUse"
       gradientTransform="matrix(2.740165,0,0,0.182471,1.118717,16.49994)"
       x1="1.6422368"
       y1="117.82710"
       x2="15.343062"
       y2="117.82710" />
    <svg:linearGradient
       inkscape:collect="always"
       xlink:href="#linearGradient204"
       id="linearGradient3379"
       gradientUnits="userSpaceOnUse"
       gradientTransform="matrix(0.983801,0,0,1.016466,1.118717,-3.017762)"
       x1="23.100046"
       y1="38.296745"
       x2="23.100046"
       y2="43.915466" />
    <svg:linearGradient
       inkscape:collect="always"
       xlink:href="#linearGradient218"
       id="linearGradient3381"
       gradientUnits="userSpaceOnUse"
       gradientTransform="matrix(1.138691,0,0,1.732051,-19.29901,-4.517761)"
       x1="36.373066"
       y1="22.227985"
       x2="38.105118"
       y2="22.227985" />
    <svg:linearGradient
       inkscape:collect="always"
       xlink:href="#linearGradient5048"
       id="linearGradient3383"
       gradientUnits="userSpaceOnUse"
       gradientTransform="matrix(2.774389,0,0,1.969706,-1892.179,-872.8854)"
       x1="302.85715"
       y1="366.64789"
       x2="302.85715"
       y2="609.50507" />
    <svg:radialGradient
       inkscape:collect="always"
       xlink:href="#linearGradient5060"
       id="radialGradient3385"
       gradientUnits="userSpaceOnUse"
       gradientTransform="matrix(2.774389,0,0,1.969706,-1891.633,-872.8854)"
       cx="605.71429"
       cy="486.64789"
       fx="605.71429"
       fy="486.64789"
       r="117.14286" />
    <svg:radialGradient
       inkscape:collect="always"
       xlink:href="#linearGradient5060"
       id="radialGradient3387"
       gradientUnits="userSpaceOnUse"
       gradientTransform="matrix(-2.774389,0,0,1.969706,112.7623,-872.8854)"
       cx="605.71429"
       cy="486.64789"
       fx="605.71429"
       fy="486.64789"
       r="117.14286" />
    <svg:linearGradient
       inkscape:collect="always"
       xlink:href="#linearGradient7761"
       id="linearGradient3407"
       gradientUnits="userSpaceOnUse"
       gradientTransform="matrix(0.466552,0,0,0.466552,-53.57529,17.62339)"
       x1="29.354549"
       y1="8.9888849"
       x2="29.586283"
       y2="13.887084" />
    <svg:linearGradient
       inkscape:collect="always"
       xlink:href="#linearGradient158"
       id="linearGradient3502"
       gradientUnits="userSpaceOnUse"
       gradientTransform="matrix(2.740165,0,0,0.364942,1.118717,-4.017762)"
       x1="1.6422368"
       y1="117.82710"
       x2="15.343062"
       y2="117.82710" />
    <svg:linearGradient
       inkscape:collect="always"
       xlink:href="#linearGradient272"
       id="linearGradient3504"
       gradientUnits="userSpaceOnUse"
       gradientTransform="matrix(8.168597,0,0,0.22121,1.118717,-41.93917)"
       x1="0.61210024"
       y1="372.57819"
       x2="5.0856376"
       y2="372.57819" />
    <svg:linearGradient
       inkscape:collect="always"
       xlink:href="#linearGradient272"
       id="linearGradient3506"
       gradientUnits="userSpaceOnUse"
       gradientTransform="matrix(8.168597,0,0,0.228621,1.118717,-40.55063)"
       x1="0.61210024"
       y1="372.57819"
       x2="5.0856376"
       y2="372.57819" />
    <svg:linearGradient
       inkscape:collect="always"
       xlink:href="#linearGradient178"
       id="linearGradient3508"
       gradientUnits="userSpaceOnUse"
       gradientTransform="matrix(2.740165,0,0,0.182471,1.118717,16.49994)"
       x1="1.6422368"
       y1="117.82710"
       x2="15.343062"
       y2="117.82710" />
    <svg:linearGradient
       inkscape:collect="always"
       xlink:href="#linearGradient204"
       id="linearGradient3510"
       gradientUnits="userSpaceOnUse"
       gradientTransform="matrix(0.983801,0,0,1.016466,1.118717,-3.017762)"
       x1="23.100046"
       y1="38.296745"
       x2="23.100046"
       y2="43.915466" />
    <svg:linearGradient
       inkscape:collect="always"
       xlink:href="#linearGradient218"
       id="linearGradient3512"
       gradientUnits="userSpaceOnUse"
       gradientTransform="matrix(1.138691,0,0,1.732051,-19.29901,-4.517761)"
       x1="36.373066"
       y1="22.227985"
       x2="38.105118"
       y2="22.227985" />
    <svg:linearGradient
       inkscape:collect="always"
       xlink:href="#linearGradient5048"
       id="linearGradient3514"
       gradientUnits="userSpaceOnUse"
       gradientTransform="matrix(2.774389,0,0,1.969706,-1892.179,-872.8854)"
       x1="302.85715"
       y1="366.64789"
       x2="302.85715"
       y2="609.50507" />
    <svg:radialGradient
       inkscape:collect="always"
       xlink:href="#linearGradient5060"
       id="radialGradient3516"
       gradientUnits="userSpaceOnUse"
       gradientTransform="matrix(2.774389,0,0,1.969706,-1891.633,-872.8854)"
       cx="605.71429"
       cy="486.64789"
       fx="605.71429"
       fy="486.64789"
       r="117.14286" />
    <svg:radialGradient
       inkscape:collect="always"
       xlink:href="#linearGradient5060"
       id="radialGradient3518"
       gradientUnits="userSpaceOnUse"
       gradientTransform="matrix(-2.774389,0,0,1.969706,112.7623,-872.8854)"
       cx="605.71429"
       cy="486.64789"
       fx="605.71429"
       fy="486.64789"
       r="117.14286" />
    <svg:linearGradient
       inkscape:collect="always"
       xlink:href="#linearGradient7761"
       id="linearGradient3520"
       gradientUnits="userSpaceOnUse"
       gradientTransform="matrix(0.9189,0,0,0.9189,-1.1231,0.28161)"
       x1="29.354549"
       y1="8.9888849"
       x2="29.586283"
       y2="13.887084" />
    <svg:linearGradient
       inkscape:collect="always"
       xlink:href="#linearGradient6457"
       id="linearGradient3522"
       gradientUnits="userSpaceOnUse"
       gradientTransform="matrix(3.574321,0,0,4.134743,-105.2216,-67.96429)"
       x1="36.067482"
       y1="19.061104"
       x2="38.278458"
       y2="26.435217" />
    <svg:linearGradient
       inkscape:collect="always"
       xlink:href="#linearGradient6457"
       id="linearGradient3533"
       gradientUnits="userSpaceOnUse"
       gradientTransform="matrix(3.574321,0,0,4.134743,-104.9432,-67.40756)"
       x1="36.067482"
       y1="19.061104"
       x2="38.278458"
       y2="26.435217" />
    <svg:linearGradient
       inkscape:collect="always"
       xlink:href="#linearGradient7761"
       id="linearGradient3553"
       gradientUnits="userSpaceOnUse"
       gradientTransform="matrix(0.9189,0,0,0.9189,-1.1231,0.28161)"
       x1="29.354549"
       y1="8.9888849"
       x2="29.586283"
       y2="13.887084" />
  </svg:defs>
  <sodipodi:namedview
     id="base"
     pagecolor="#ffffff"
     bordercolor="#666666"
     borderopacity="1.0"
     inkscape:pageopacity="0.0"
     inkscape:pageshadow="2"
     inkscape:zoom="3.5923567"
     inkscape:cx="-9.4314103"
     inkscape:cy="4.5"
     inkscape:current-layer="layer1"
     showgrid="true"
     inkscape:document-units="px"
     inkscape:grid-bbox="true"
     inkscape:window-width="946"
     inkscape:window-height="763"
     inkscape:window-x="310"
     inkscape:window-y="205"
     showguides="true"
     inkscape:guide-bbox="true" />
  <svg:metadata
     id="metadata7053">
    <rdf:RDF>
      <cc:Work
         rdf:about="">
        <dc:format>image/svg+xml</dc:format>
        <dc:type
           rdf:resource="http://purl.org/dc/dcmitype/StillImage" />
      </cc:Work>
    </rdf:RDF>
  </svg:metadata>
  <svg:g
     id="layer1"
     inkscape:label="Layer 1"
     inkscape:groupmode="layer">
    <svg:g
       id="g8668"
       transform="translate(-0.698863,-0.291443)" />
    <svg:g
       id="g3424"
       transform="translate(87.77178,-1.727734)">
      <svg:g
         transform="matrix(0.304168,0,0,0.270824,-45.73825,35.93333)"
         id="g1994">
        <svg:rect
           y="36.982246"
           x="6.1187172"
           height="4"
           width="36.542522"
           id="rect1996"
           style="color:black;fill:url(#linearGradient3371);fill-opacity:1;fill-rule:nonzero;stroke:none;stroke-width:1;stroke-linecap:butt;stroke-linejoin:miter;marker:none;marker-start:none;marker-mid:none;marker-end:none;stroke-miterlimit:4;stroke-dashoffset:0;stroke-opacity:1;visibility:visible;display:block;overflow:visible" />
        <svg:rect
           y="39.984222"
           x="6.1187172"
           height="0.98959237"
           width="36.542522"
           id="rect1998"
           style="color:black;fill:url(#linearGradient3373);fill-opacity:1;fill-rule:nonzero;stroke:none;stroke-width:1;stroke-linecap:butt;stroke-linejoin:miter;marker:none;marker-start:none;marker-mid:none;marker-end:none;stroke-miterlimit:4;stroke-dashoffset:0;stroke-opacity:1;visibility:visible;display:block;overflow:visible" />
        <svg:rect
           y="36.017567"
           x="6.1187172"
           height="1.022747"
           width="36.542522"
           id="rect2000"
           style="color:black;fill:url(#linearGradient3375);fill-opacity:1;fill-rule:nonzero;stroke:none;stroke-width:1;stroke-linecap:butt;stroke-linejoin:miter;marker:none;marker-start:none;marker-mid:none;marker-end:none;stroke-miterlimit:4;stroke-dashoffset:0;stroke-opacity:1;visibility:visible;display:block;overflow:visible" />
        <svg:rect
           y="37"
           x="6.1187172"
           height="2"
           width="36.542522"
           id="rect2002"
           style="color:black;fill:url(#linearGradient3377);fill-opacity:1;fill-rule:nonzero;stroke:none;stroke-width:1;stroke-linecap:butt;stroke-linejoin:miter;marker:none;marker-start:none;marker-mid:none;marker-end:none;stroke-miterlimit:4;stroke-dashoffset:0;stroke-opacity:1;visibility:visible;display:block;overflow:visible" />
        <svg:path
           id="path2004"
           d="M 22.584707,26.450993 C 21.801233,26.450993 21.178457,27.073767 21.178457,27.857243 L 21.178457,35.450993 L 18.115957,35.450993 C 17.332483,35.450993 16.709707,36.073767 16.709707,36.857243 L 16.709707,40.575993 C 16.709707,41.359467 17.332483,41.982246 18.115957,41.982243 L 30.303457,41.982243 C 31.086931,41.982243 31.709707,41.359464 31.709707,40.575993 L 31.709707,36.857243 C 31.709707,36.073769 31.086931,35.450993 30.303457,35.450993 L 27.709707,35.450993 L 27.709707,27.857243 C 27.709707,27.073769 27.086932,26.450993 26.303457,26.450993 L 22.584707,26.450993 z "
           style="color:black;fill:url(#linearGradient3379);fill-opacity:1;fill-rule:nonzero;stroke:#434343;stroke-width:1;stroke-linecap:butt;stroke-linejoin:miter;marker:none;marker-start:none;marker-mid:none;marker-end:none;stroke-miterlimit:4;stroke-dashoffset:0;stroke-opacity:1;visibility:visible;display:block;overflow:visible" />
        <svg:rect
           ry="1.1060927"
           rx="0.98483866"
           y="32.482246"
           x="22.118719"
           height="3"
           width="1.9722718"
           id="rect2006"
           style="color:black;fill:url(#linearGradient3381);fill-opacity:1;fill-rule:nonzero;stroke:none;stroke-width:1;stroke-linecap:butt;stroke-linejoin:miter;marker:none;marker-start:none;marker-mid:none;marker-end:none;stroke-miterlimit:4;stroke-dashoffset:0;stroke-opacity:1;visibility:visible;display:block;overflow:visible" />
        <svg:g
           style="fill:white;fill-opacity:0.95906432"
           id="g2008"
           transform="translate(9.098961e-2,-3.064632)">
          <svg:rect
             ry="1.8462213"
             rx="1.6438317"
             y="40"
             x="20"
             height="1"
             width="10"
             id="rect2010"
             style="color:black;fill-rule:nonzero;stroke:none;stroke-width:1.13999999;stroke-linecap:round;stroke-linejoin:round;marker:none;marker-start:none;marker-mid:none;marker-end:none;stroke-miterlimit:4;stroke-dashoffset:0;stroke-opacity:1;visibility:visible;display:block;overflow:visible" />
          <svg:path
             transform="matrix(2.058824,0,0,2.058824,-19.49265,-43.10846)"
             d="M 19 40.625 A 0.53125 0.53125 0 1 1  17.9375,40.625 A 0.53125 0.53125 0 1 1  19 40.625 z"
             sodipodi:ry="0.53125"
             sodipodi:rx="0.53125"
             sodipodi:cy="40.625"
             sodipodi:cx="18.46875"
             id="path2012"
             style="color:black;fill-rule:nonzero;stroke:none;stroke-width:1.13999999;stroke-linecap:round;stroke-linejoin:round;marker:none;marker-start:none;marker-mid:none;marker-end:none;stroke-miterlimit:4;stroke-dashoffset:0;stroke-opacity:1;visibility:visible;display:block;overflow:visible"
             sodipodi:type="arc" />
        </svg:g>
      </svg:g>
      <svg:g
         transform="matrix(1.423556e-2,0,0,8.445137e-3,-25.65799,42.82617)"
         id="g2014"
         style="display:inline">
        <svg:rect
           style="opacity:0.40206185;color:black;fill:url(#linearGradient3383);fill-opacity:1;fill-rule:nonzero;stroke:none;stroke-width:1;stroke-linecap:round;stroke-linejoin:miter;marker:none;marker-start:none;marker-mid:none;marker-end:none;stroke-miterlimit:4;stroke-dasharray:none;stroke-dashoffset:0;stroke-opacity:1;visibility:visible;display:inline;overflow:visible"
           id="rect2016"
           width="1339.6335"
           height="478.35718"
           x="-1559.2523"
           y="-150.69685" />
        <svg:path
           style="opacity:0.40206185;color:black;fill:url(#radialGradient3385);fill-opacity:1;fill-rule:nonzero;stroke:none;stroke-width:1;stroke-linecap:round;stroke-linejoin:miter;marker:none;marker-start:none;marker-mid:none;marker-end:none;stroke-miterlimit:4;stroke-dasharray:none;stroke-dashoffset:0;stroke-opacity:1;visibility:visible;display:inline;overflow:visible"
           d="M -219.61876,-150.68038 C -219.61876,-150.68038 -219.61876,327.65041 -219.61876,327.65041 C -76.744594,328.55086 125.78146,220.48075 125.78138,88.454235 C 125.78138,-43.572302 -33.655436,-150.68036 -219.61876,-150.68038 z "
           id="path2018"
           sodipodi:nodetypes="cccc" />
        <svg:path
           sodipodi:nodetypes="cccc"
           id="path2020"
           d="M -1559.2523,-150.68038 C -1559.2523,-150.68038 -1559.2523,327.65041 -1559.2523,327.65041 C -1702.1265,328.55086 -1904.6525,220.48075 -1904.6525,88.454235 C -1904.6525,-43.572302 -1745.2157,-150.68036 -1559.2523,-150.68038 z "
           style="opacity:0.40206185;color:black;fill:url(#radialGradient3387);fill-opacity:1;fill-rule:nonzero;stroke:none;stroke-width:1;stroke-linecap:round;stroke-linejoin:miter;marker:none;marker-start:none;marker-mid:none;marker-end:none;stroke-miterlimit:4;stroke-dasharray:none;stroke-dashoffset:0;stroke-opacity:1;visibility:visible;display:inline;overflow:visible" />
      </svg:g>
      <svg:rect
         width="25.58098"
         height="23.309031"
         rx="1.1061553"
         ry="1.106156"
         x="-51.110092"
         y="20.293039"
         style="color:black;fill:#729fcf;fill-opacity:1;fill-rule:evenodd;stroke:#8d8d8d;stroke-width:0.56841195;stroke-linecap:butt;stroke-linejoin:miter;marker:none;marker-start:none;marker-mid:none;marker-end:none;stroke-miterlimit:4;stroke-dasharray:none;stroke-dashoffset:0;stroke-opacity:1;visibility:visible;display:inline;overflow:visible"
         id="rect2022" />
      <svg:rect
         width="23.873293"
         height="2.9547064"
         rx="0.22227105"
         ry="0.22227101"
         x="-50.256241"
         y="21.147732"
         style="color:black;fill:url(#linearGradient3407);fill-opacity:1;fill-rule:evenodd;stroke:none;stroke-width:1;stroke-linecap:butt;stroke-linejoin:miter;marker:none;marker-start:none;marker-mid:none;marker-end:none;stroke-miterlimit:4;stroke-dasharray:none;stroke-dashoffset:0;stroke-opacity:1;visibility:visible;display:inline;overflow:visible"
         id="rect2024" />
      <svg:rect
         width="24.427179"
         height="22.15551"
         rx="0.40406948"
         ry="0.35615563"
         x="-50.535614"
         y="20.867706"
         style="color:black;fill:none;fill-opacity:1;fill-rule:evenodd;stroke:white;stroke-width:0.56826037;stroke-linecap:butt;stroke-linejoin:round;marker:none;marker-start:none;marker-mid:none;marker-end:none;stroke-miterlimit:4;stroke-dasharray:none;stroke-dashoffset:0;stroke-opacity:0.72435895;visibility:visible;display:inline;overflow:visible"
         id="rect2026" />
      <svg:rect
         ry="0"
         y="23.255705"
         x="-49.71349"
         height="2.0595384"
         width="22.560629"
         id="rect2030"
         style="opacity:0.7106918;color:black;fill:#eeeeec;fill-opacity:1;fill-rule:evenodd;stroke:none;stroke-width:1;stroke-linecap:butt;stroke-linejoin:miter;marker:none;marker-start:none;marker-mid:none;marker-end:none;stroke-miterlimit:4;stroke-dasharray:none;stroke-dashoffset:0;stroke-opacity:1;visibility:visible;display:inline;overflow:visible"
         inkscape:r_cx="true"
         inkscape:r_cy="true" />
      <svg:rect
         style="color:black;fill:#8ae234;fill-opacity:1;fill-rule:evenodd;stroke:none;stroke-width:1;stroke-linecap:butt;stroke-linejoin:miter;marker:none;marker-start:none;marker-mid:none;marker-end:none;stroke-miterlimit:4;stroke-dasharray:none;stroke-dashoffset:0;stroke-opacity:1;visibility:visible;display:inline;overflow:visible"
         id="rect2032"
         width="5.0560722"
         height="1.525661"
         x="-47.929577"
         y="23.528606"
         inkscape:r_cx="true"
         inkscape:r_cy="true" />
      <svg:rect
         style="opacity:0.6352201;color:black;fill:#eeeeec;fill-opacity:1;fill-rule:evenodd;stroke:none;stroke-width:1;stroke-linecap:butt;stroke-linejoin:miter;marker:none;marker-start:none;marker-mid:none;marker-end:none;stroke-miterlimit:4;stroke-dasharray:none;stroke-dashoffset:0;stroke-opacity:1;visibility:visible;display:inline;overflow:visible"
         id="rect2034"
         width="8.6128445"
         height="7.6073956"
         x="-48.144352"
         y="25.336151"
         ry="0"
         inkscape:r_cx="true"
         inkscape:r_cy="true" />
      <svg:rect
         style="color:black;fill:#8ae234;fill-opacity:0.75;fill-rule:evenodd;stroke:none;stroke-width:1;stroke-linecap:butt;stroke-linejoin:miter;marker:none;marker-start:none;marker-mid:none;marker-end:none;stroke-miterlimit:4;stroke-dasharray:none;stroke-dashoffset:0;stroke-opacity:1;visibility:visible;display:inline;overflow:visible"
         id="rect2036"
         width="8.5430193"
         height="1.525661"
         x="-48.137074"
         y="26.718626"
         inkscape:r_cx="true"
         inkscape:r_cy="true" />
      <svg:switch
         transform="matrix(7.807328e-2,0,0,7.807328e-2,-28.23788,21.47878)"
         id="switch2064">
        <svg:foreignObject
           id="foreignObject2066"
           height="1"
           width="1"
           y="0"
           x="0"
           requiredExtensions="http://ns.adobe.com/AdobeIllustrator/10.0/">
          <pgfRef
             xlink:href="#adobe_illustrator_pgf" />
        </svg:foreignObject>
        <svg:g
           id="g2068"
           extraneous="self">
          <svg:g
             rgbTrio="#4F008000FFFF"
             dimmedPercent="50"
             layer="yes"
             id="g2070">
            <svg:path
               style="opacity:1;fill:#a40000;fill-opacity:1;stroke:#a40000;stroke-linejoin:bevel;stroke-miterlimit:10;stroke-opacity:1"
               d="M 2.828,0.5 L 15.265,0.5 C 16.551,0.5 17.594,1.542 17.594,2.827 L 17.594,15.266 C 17.594,16.551 16.551,17.594 15.265,17.594 L 2.828,17.594 C 1.543,17.594 0.5,16.551 0.5,15.266 L 0.5,2.827 C 0.5,1.542 1.542,0.5 2.828,0.5 z "
               enable-background="new    "
               stroke-miterlimit="10"
               knockout="Off"
               isolated="yes"
               id="path2072" />
            <svg:g
               knockout="Off"
               r_cy="true"
               r_cx="true"
               transform="matrix(0.717647,0,0,0.717647,6.882353,6.6)"
               id="g2074">
              <svg:path
                 style="fill:white;stroke:white;stroke-width:3;stroke-linecap:round;stroke-linejoin:round;stroke-miterlimit:10"
                 d="M -0.45,-0.056 L 6.483,6.877"
                 stroke-miterlimit="10"
                 r_cy="true"
                 r_cx="true"
                 id="path2076" />
              <svg:path
                 style="fill:white;stroke:white;stroke-width:3;stroke-linecap:round;stroke-linejoin:round;stroke-miterlimit:10"
                 d="M 6.482,-0.056 L -0.45,6.876"
                 stroke-miterlimit="10"
                 r_cy="true"
                 r_cx="true"
                 id="path2078" />
            </svg:g>
          </svg:g>
        </svg:g>
      </svg:switch>
      <svg:rect
         style="opacity:0.7295598;color:black;fill:#eeeeec;fill-opacity:1;fill-rule:evenodd;stroke:none;stroke-width:1;stroke-linecap:butt;stroke-linejoin:miter;marker:none;marker-start:none;marker-mid:none;marker-end:none;stroke-miterlimit:4;stroke-dasharray:none;stroke-dashoffset:0;stroke-opacity:1;visibility:visible;display:inline;overflow:visible"
         id="rect2106"
         width="8.6128445"
         height="7.6073956"
         x="-36.781712"
         y="30.833147"
         ry="0"
         inkscape:r_cx="true"
         inkscape:r_cy="true" />
      <svg:rect
         style="color:black;fill:#8ae234;fill-opacity:0.75;fill-rule:evenodd;stroke:none;stroke-width:1;stroke-linecap:butt;stroke-linejoin:miter;marker:none;marker-start:none;marker-mid:none;marker-end:none;stroke-miterlimit:4;stroke-dasharray:none;stroke-dashoffset:0;stroke-opacity:1;visibility:visible;display:inline;overflow:visible"
         id="rect2108"
         width="8.5430193"
         height="1.525661"
         x="-36.774437"
         y="32.215622"
         inkscape:r_cx="true"
         inkscape:r_cy="true" />
      <svg:path
         inkscape:r_cy="true"
         inkscape:r_cx="true"
         style="opacity:0.32571423;color:black;fill:url(#linearGradient3337);fill-opacity:1;fill-rule:evenodd;stroke:none;stroke-width:0.99999982;stroke-linecap:butt;stroke-linejoin:miter;marker:none;marker-start:none;marker-mid:none;marker-end:none;stroke-miterlimit:4;stroke-dasharray:none;stroke-dashoffset:0;stroke-opacity:1;visibility:visible;display:inline;overflow:visible;font-family:Bitstream Vera Sans"
         d="M -50.578014,20.950632 L -50.578014,35.071152 C -49.376542,35.181226 -48.306382,35.499049 -47.056562,35.499049 C -38.464135,35.499049 -31.234007,32.625917 -26.656404,28.510103 L -26.656404,20.950632 L -50.578014,20.950632 z "
         id="path2062" />
    </svg:g>
    <svg:g
       id="g8618"
       transform="matrix(0.599075,0,0,0.533402,14.31247,36.34407)">
      <svg:rect
         style="color:black;fill:url(#linearGradient3502);fill-opacity:1;fill-rule:nonzero;stroke:none;stroke-width:1;stroke-linecap:butt;stroke-linejoin:miter;marker:none;marker-start:none;marker-mid:none;marker-end:none;stroke-miterlimit:4;stroke-dashoffset:0;stroke-opacity:1;visibility:visible;display:block;overflow:visible"
         id="rect69"
         width="36.542522"
         height="4"
         x="6.1187172"
         y="36.982246" />
      <svg:rect
         style="color:black;fill:url(#linearGradient3504);fill-opacity:1;fill-rule:nonzero;stroke:none;stroke-width:1;stroke-linecap:butt;stroke-linejoin:miter;marker:none;marker-start:none;marker-mid:none;marker-end:none;stroke-miterlimit:4;stroke-dashoffset:0;stroke-opacity:1;visibility:visible;display:block;overflow:visible"
         id="rect255"
         width="36.542522"
         height="0.98959237"
         x="6.1187172"
         y="39.984222" />
      <svg:rect
         style="color:black;fill:url(#linearGradient3506);fill-opacity:1;fill-rule:nonzero;stroke:none;stroke-width:1;stroke-linecap:butt;stroke-linejoin:miter;marker:none;marker-start:none;marker-mid:none;marker-end:none;stroke-miterlimit:4;stroke-dashoffset:0;stroke-opacity:1;visibility:visible;display:block;overflow:visible"
         id="rect250"
         width="36.542522"
         height="1.022747"
         x="6.1187172"
         y="36.017567" />
      <svg:rect
         style="color:black;fill:url(#linearGradient3508);fill-opacity:1;fill-rule:nonzero;stroke:none;stroke-width:1;stroke-linecap:butt;stroke-linejoin:miter;marker:none;marker-start:none;marker-mid:none;marker-end:none;stroke-miterlimit:4;stroke-dashoffset:0;stroke-opacity:1;visibility:visible;display:block;overflow:visible"
         id="rect176"
         width="36.542522"
         height="2"
         x="6.1187172"
         y="37" />
      <svg:path
         style="color:black;fill:url(#linearGradient3510);fill-opacity:1;fill-rule:nonzero;stroke:#434343;stroke-width:1;stroke-linecap:butt;stroke-linejoin:miter;marker:none;marker-start:none;marker-mid:none;marker-end:none;stroke-miterlimit:4;stroke-dashoffset:0;stroke-opacity:1;visibility:visible;display:block;overflow:visible"
         d="M 22.584707,26.450993 C 21.801233,26.450993 21.178457,27.073767 21.178457,27.857243 L 21.178457,35.450993 L 18.115957,35.450993 C 17.332483,35.450993 16.709707,36.073767 16.709707,36.857243 L 16.709707,40.575993 C 16.709707,41.359467 17.332483,41.982246 18.115957,41.982243 L 30.303457,41.982243 C 31.086931,41.982243 31.709707,41.359464 31.709707,40.575993 L 31.709707,36.857243 C 31.709707,36.073769 31.086931,35.450993 30.303457,35.450993 L 27.709707,35.450993 L 27.709707,27.857243 C 27.709707,27.073769 27.086932,26.450993 26.303457,26.450993 L 22.584707,26.450993 z "
         id="rect183" />
      <svg:rect
         style="color:black;fill:url(#linearGradient3512);fill-opacity:1;fill-rule:nonzero;stroke:none;stroke-width:1;stroke-linecap:butt;stroke-linejoin:miter;marker:none;marker-start:none;marker-mid:none;marker-end:none;stroke-miterlimit:4;stroke-dashoffset:0;stroke-opacity:1;visibility:visible;display:block;overflow:visible"
         id="rect209"
         width="1.9722718"
         height="3"
         x="22.118719"
         y="32.482246"
         rx="0.50003058"
         ry="0.56159467" />
      <svg:g
         transform="translate(9.098961e-2,-3.064632)"
         id="g236"
         style="fill:white;fill-opacity:0.95906432">
        <svg:rect
           style="color:black;fill-rule:nonzero;stroke:none;stroke-width:1.13999999;stroke-linecap:round;stroke-linejoin:round;marker:none;marker-start:none;marker-mid:none;marker-end:none;stroke-miterlimit:4;stroke-dashoffset:0;stroke-opacity:1;visibility:visible;display:block;overflow:visible"
           id="rect226"
           width="10"
           height="1"
           x="20"
           y="40"
           rx="0.83462006"
           ry="0.937379" />
        <svg:path
           sodipodi:type="arc"
           style="color:black;fill-rule:nonzero;stroke:none;stroke-width:1.13999999;stroke-linecap:round;stroke-linejoin:round;marker:none;marker-start:none;marker-mid:none;marker-end:none;stroke-miterlimit:4;stroke-dashoffset:0;stroke-opacity:1;visibility:visible;display:block;overflow:visible"
           id="path235"
           sodipodi:cx="18.46875"
           sodipodi:cy="40.625"
           sodipodi:rx="0.53125"
           sodipodi:ry="0.53125"
           d="M 19 40.625 A 0.53125 0.53125 0 1 1  17.9375,40.625 A 0.53125 0.53125 0 1 1  19 40.625 z"
           transform="matrix(2.058824,0,0,2.058824,-19.49265,-43.10846)" />
      </svg:g>
    </svg:g>
    <svg:g
       style="display:inline"
       id="g5022"
       transform="matrix(2.803772e-2,0,0,1.663317e-2,53.86164,49.91989)">
      <svg:rect
         y="-150.69685"
         x="-1559.2523"
         height="478.35718"
         width="1339.6335"
         id="rect4173"
         style="opacity:0.40206185;color:black;fill:url(#linearGradient3514);fill-opacity:1;fill-rule:nonzero;stroke:none;stroke-width:1;stroke-linecap:round;stroke-linejoin:miter;marker:none;marker-start:none;marker-mid:none;marker-end:none;stroke-miterlimit:4;stroke-dasharray:none;stroke-dashoffset:0;stroke-opacity:1;visibility:visible;display:inline;overflow:visible" />
      <svg:path
         sodipodi:nodetypes="cccc"
         id="path5058"
         d="M -219.61876,-150.68038 C -219.61876,-150.68038 -219.61876,327.65041 -219.61876,327.65041 C -76.744594,328.55086 125.78146,220.48075 125.78138,88.454235 C 125.78138,-43.572302 -33.655436,-150.68036 -219.61876,-150.68038 z "
         style="opacity:0.40206185;color:black;fill:url(#radialGradient3516);fill-opacity:1;fill-rule:nonzero;stroke:none;stroke-width:1;stroke-linecap:round;stroke-linejoin:miter;marker:none;marker-start:none;marker-mid:none;marker-end:none;stroke-miterlimit:4;stroke-dasharray:none;stroke-dashoffset:0;stroke-opacity:1;visibility:visible;display:inline;overflow:visible" />
      <svg:path
         style="opacity:0.40206185;color:black;fill:url(#radialGradient3518);fill-opacity:1;fill-rule:nonzero;stroke:none;stroke-width:1;stroke-linecap:round;stroke-linejoin:miter;marker:none;marker-start:none;marker-mid:none;marker-end:none;stroke-miterlimit:4;stroke-dasharray:none;stroke-dashoffset:0;stroke-opacity:1;visibility:visible;display:inline;overflow:visible"
         d="M -1559.2523,-150.68038 C -1559.2523,-150.68038 -1559.2523,327.65041 -1559.2523,327.65041 C -1702.1265,328.55086 -1904.6525,220.48075 -1904.6525,88.454235 C -1904.6525,-43.572302 -1745.2157,-150.68036 -1559.2523,-150.68038 z "
         id="path5018"
         sodipodi:nodetypes="cccc" />
    </svg:g>
    <svg:rect
       id="rect3818"
       style="color:black;fill:#555753;fill-opacity:0.33974358;fill-rule:evenodd;stroke:#8d8d8d;stroke-width:1.11951876;stroke-linecap:butt;stroke-linejoin:miter;marker:none;marker-start:none;marker-mid:none;marker-end:none;stroke-miterlimit:4;stroke-dasharray:none;stroke-dashoffset:0;stroke-opacity:1;visibility:visible;display:inline;overflow:visible"
       y="5.5396328"
       x="3.7323153"
       ry="1.1061552"
       rx="1.1061546"
       height="45.908424"
       width="50.38316" />
    <svg:rect
       id="rect3820"
       style="color:black;fill:url(#linearGradient3553);fill-opacity:1;fill-rule:evenodd;stroke:none;stroke-width:1;stroke-linecap:butt;stroke-linejoin:miter;marker:none;marker-start:none;marker-mid:none;marker-end:none;stroke-miterlimit:4;stroke-dasharray:none;stroke-dashoffset:0;stroke-opacity:1;visibility:visible;display:inline;overflow:visible"
       y="7.2229953"
       x="5.4140091"
       ry="0.22227086"
       rx="0.22227089"
       height="5.819458"
       width="47.019772" />
    <svg:rect
       id="rect4962"
       style="color:black;fill:none;fill-opacity:1;fill-rule:evenodd;stroke:white;stroke-width:1.11922026;stroke-linecap:butt;stroke-linejoin:round;marker:none;marker-start:none;marker-mid:none;marker-end:none;stroke-miterlimit:4;stroke-dasharray:none;stroke-dashoffset:0;stroke-opacity:0.72435895;visibility:visible;display:inline;overflow:visible"
       y="6.6714711"
       x="4.8637781"
       ry="0.35615534"
       rx="0.40406916"
       height="43.636505"
       width="48.11068" />
    <svg:g
       id="g3722"
       transform="matrix(0.985227,0,0,0.732493,-2.84523,2.707908)">
      <svg:rect
         ry="0"
         y="11.832013"
         x="8.6203909"
         height="5.5377669"
         width="47.078472"
         id="rect6224"
         style="color:black;fill:#eeeeec;fill-opacity:1;fill-rule:evenodd;stroke:none;stroke-width:1;stroke-linecap:butt;stroke-linejoin:miter;marker:none;marker-start:none;marker-mid:none;marker-end:none;stroke-miterlimit:4;stroke-dasharray:none;stroke-dashoffset:0;stroke-opacity:1;visibility:visible;display:inline;overflow:visible"
         inkscape:r_cx="true"
         inkscape:r_cy="true" />
      <svg:rect
         style="color:black;fill:#729fcf;fill-opacity:1;fill-rule:evenodd;stroke:none;stroke-width:1;stroke-linecap:butt;stroke-linejoin:miter;marker:none;marker-start:none;marker-mid:none;marker-end:none;stroke-miterlimit:4;stroke-dasharray:none;stroke-dashoffset:0;stroke-opacity:1;visibility:visible;display:inline;overflow:visible"
         id="rect6226"
         width="10.550776"
         height="4.1022568"
         x="12.342981"
         y="12.565799"
         inkscape:r_cx="true"
         inkscape:r_cy="true" />
      <svg:rect
         style="color:black;fill:#eeeeec;fill-opacity:1;fill-rule:evenodd;stroke:none;stroke-width:1;stroke-linecap:butt;stroke-linejoin:miter;marker:none;marker-start:none;marker-mid:none;marker-end:none;stroke-miterlimit:4;stroke-dasharray:none;stroke-dashoffset:0;stroke-opacity:1;visibility:visible;display:inline;overflow:visible"
         id="rect6228"
         width="17.972883"
         height="20.455063"
         x="11.894789"
         y="17.425997"
         ry="0"
         inkscape:r_cx="true"
         inkscape:r_cy="true" />
      <svg:rect
         style="color:black;fill:#729fcf;fill-opacity:0.75;fill-rule:evenodd;stroke:none;stroke-width:1;stroke-linecap:butt;stroke-linejoin:miter;marker:none;marker-start:none;marker-mid:none;marker-end:none;stroke-miterlimit:4;stroke-dasharray:none;stroke-dashoffset:0;stroke-opacity:1;visibility:visible;display:inline;overflow:visible"
         id="rect6230"
         width="17.827175"
         height="4.1022568"
         x="11.909972"
         y="21.14325"
         inkscape:r_cx="true"
         inkscape:r_cy="true" />
    </svg:g>
    <svg:g
       style="opacity:0.88050314;fill:#ef2929"
       id="g3806"
       transform="matrix(0.318813,-0.251282,0.251282,0.318813,20.30624,34.70404)">
      <svg:g
         id="g3808"
         knockout="Off"
         style="fill:#ef2929">
        <svg:path
           style="fill:#ef2929"
           id="path3810"
           d="M 42.666,32.916 C 42.666,38.292 38.292,42.666 32.916,42.666 C 27.54,42.666 23.166,38.292 23.166,32.916 C 23.166,27.54 27.54,23.166 32.916,23.166 C 38.292,23.166 42.666,27.54 42.666,32.916 z M 32.916,18.166 C 24.783,18.166 18.166,24.783 18.166,32.916 C 18.166,41.049 24.783,47.666 32.916,47.666 C 41.049,47.666 47.666,41.049 47.666,32.916 C 47.666,24.783 41.049,18.166 32.916,18.166 z "
           knockout="Off" />
      </svg:g>
      <svg:g
         id="g3812"
         knockout="Off"
         style="fill:#ef2929">
        <svg:path
           style="fill:#ef2929"
           id="path3814"
           d="M 52.666,32.916 C 52.666,43.806 43.806,52.666 32.916,52.666 C 22.025,52.666 13.166,43.806 13.166,32.916 C 13.166,22.025 22.025,13.166 32.916,13.166 C 43.806,13.166 52.666,22.025 52.666,32.916 z M 32.916,8.166 C 19.269,8.166 8.166,19.269 8.166,32.916 C 8.166,46.563 19.269,57.666 32.916,57.666 C 46.563,57.666 57.666,46.563 57.666,32.916 C 57.666,19.269 46.563,8.166 32.916,8.166 z "
           knockout="Off" />
      </svg:g>
      <svg:g
         id="g3816"
         knockout="Off"
         style="fill:#ef2929">
        <svg:path
           style="fill:#ef2929"
           id="path3818"
           d="M 60.832,32.917 C 60.832,48.309 48.309,60.832 32.916,60.832 C 17.523,60.832 5,48.309 5,32.917 C 5,17.523 17.523,5 32.916,5 C 48.309,5 60.832,17.523 60.832,32.917 z M 32.916,0 C 14.766,0 0,14.766 0,32.917 C 0,51.066 14.766,65.832 32.916,65.832 C 51.066,65.832 65.832,51.067 65.832,32.917 C 65.832,14.766 51.066,0 32.916,0 z "
           knockout="Off" />
      </svg:g>
    </svg:g>
    <svg:polygon
       knockout="Off"
       points="32.917,32.475 41.793,55.423 50.669,78.37 32.916,76.375 15.162,78.37 24.039,55.423 32.917,32.475 "
       id="polygon3822"
       style="fill:#2e3436;stroke:#2e3436;stroke-width:2.26365256;stroke-linecap:round;stroke-linejoin:round;stroke-miterlimit:4;stroke-dasharray:none"
       transform="matrix(0.318813,-0.251282,0.251282,0.318813,20.30624,34.70404)" />
    <svg:rect
       x="5.5688133"
       y="69.554062"
       knockout="Off"
       width="4.5172639"
       height="8.3399706"
       id="rect3824"
       style="fill:#2e3436;stroke:#2e3436;stroke-width:0.61154366;stroke-linecap:round;stroke-linejoin:round"
       transform="matrix(0.785376,-0.619019,0.619019,0.785376,0,0)" />
    <svg:polygon
       knockout="Off"
       adobe-blending-mode="screen"
       points="32.774,37.61 37.467,51.12 42.161,64.63 32.773,63.456 23.384,64.63 28.079,51.12 32.774,37.61 "
       id="polygon3831"
       style="opacity:0.4;fill:#7c7c7c;fill-opacity:1"
       transform="matrix(0.318813,-0.251282,0.251282,0.318813,20.30624,34.70404)" />
    <svg:polygon
       inkscape:export-ydpi="90"
       inkscape:export-xdpi="90"
       style="fill:none;stroke:#ececec;stroke-width:1.13182628;stroke-linejoin:round;stroke-miterlimit:4;stroke-dasharray:none;stroke-opacity:0.83921569"
       id="polygon3835"
       points="32.917,35.898 40.726,56.084 48.534,76.269 32.917,74.515 17.299,76.269 25.108,56.084 32.917,35.898 "
       knockout="Off"
       transform="matrix(0.318813,-0.251282,0.251282,0.318813,20.30624,34.70404)" />
    <svg:path
       id="rect6452"
       d="M 5.5594232,7.5862328 L 5.5594232,35.268923 C 7.9148572,35.484717 10.012862,36.107795 12.463082,36.107795 C 29.308168,36.107795 43.482531,30.475135 52.456726,22.406256 L 52.456726,7.5862328 L 5.5594232,7.5862328 z "
       style="opacity:0.32571423;color:black;fill:url(#linearGradient3533);fill-opacity:1;fill-rule:evenodd;stroke:none;stroke-width:0.99999982;stroke-linecap:butt;stroke-linejoin:miter;marker:none;marker-start:none;marker-mid:none;marker-end:none;stroke-miterlimit:4;stroke-dasharray:none;stroke-dashoffset:0;stroke-opacity:1;visibility:visible;display:inline;overflow:visible;font-family:Bitstream Vera Sans"
       inkscape:r_cx="true"
       inkscape:r_cy="true" />
    <svg:switch
       id="switch8802"
       transform="matrix(0.15377,0,0,0.15377,48.78041,7.875011)">
      <svg:foreignObject
         requiredExtensions="http://ns.adobe.com/AdobeIllustrator/10.0/"
         x="0"
         y="0"
         width="1"
         height="1"
         id="foreignObject8804">
        <pgfRef
           xlink:href="#adobe_illustrator_pgf" />
      </svg:foreignObject>
      <svg:g
         extraneous="self"
         id="g8806">
        <svg:g
           id="Calque_1"
           layer="yes"
           dimmedPercent="50"
           rgbTrio="#4F008000FFFF">
          <svg:path
             id="rect11518"
             isolated="yes"
             knockout="Off"
             stroke-miterlimit="10"
             enable-background="new    "
             d="M 2.828,0.5 L 15.265,0.5 C 16.551,0.5 17.594,1.542 17.594,2.827 L 17.594,15.266 C 17.594,16.551 16.551,17.594 15.265,17.594 L 2.828,17.594 C 1.543,17.594 0.5,16.551 0.5,15.266 L 0.5,2.827 C 0.5,1.542 1.542,0.5 2.828,0.5 z "
             style="opacity:1;fill:#a40000;fill-opacity:1;stroke:#a40000;stroke-linejoin:bevel;stroke-miterlimit:10;stroke-opacity:1" />
          <svg:g
             id="g2703"
             transform="matrix(0.717647,0,0,0.717647,6.882353,6.6)"
             r_cx="true"
             r_cy="true"
             knockout="Off">
            <svg:path
               id="path2698"
               r_cx="true"
               r_cy="true"
               stroke-miterlimit="10"
               d="M -0.45,-0.056 L 6.483,6.877"
               style="fill:white;stroke:white;stroke-width:3;stroke-linecap:round;stroke-linejoin:round;stroke-miterlimit:10" />
            <svg:path
               id="path2700"
               r_cx="true"
               r_cy="true"
               stroke-miterlimit="10"
               d="M 6.482,-0.056 L -0.45,6.876"
               style="fill:white;stroke:white;stroke-width:3;stroke-linecap:round;stroke-linejoin:round;stroke-miterlimit:10" />
          </svg:g>
        </svg:g>
      </svg:g>
    </svg:switch>
  </svg:g>
</svg:svg>
