<?xml version="1.0" encoding="UTF-8" standalone="no"?>
<!-- Created with Inkscape (http://www.inkscape.org/) -->
<svg
   xmlns:dc="http://purl.org/dc/elements/1.1/"
   xmlns:cc="http://web.resource.org/cc/"
   xmlns:rdf="http://www.w3.org/1999/02/22-rdf-syntax-ns#"
   xmlns:svg="http://www.w3.org/2000/svg"
   xmlns="http://www.w3.org/2000/svg"
   xmlns:xlink="http://www.w3.org/1999/xlink"
   xmlns:sodipodi="http://sodipodi.sourceforge.net/DTD/sodipodi-0.dtd"
   xmlns:inkscape="http://www.inkscape.org/namespaces/inkscape"
   sodipodi:docname="stock_mail_send.svg"
   sodipodi:docbase="/Users/izo/Desktop/spip-liste svg/svg"
   inkscape:version="0.45"
   sodipodi:version="0.32"
   id="svg5816"
   height="48px"
   width="48px"
   inkscape:output_extension="org.inkscape.output.svg.inkscape"
   inkscape:export-filename="/Users/izo/Desktop/spip-liste svg/png/stock_mail.png"
   inkscape:export-xdpi="120"
   inkscape:export-ydpi="120"
   sodipodi:modified="true">
  <defs
     id="defs3">
    <linearGradient
       id="linearGradient2304">
      <stop
         id="stop2306"
         offset="0"
         style="stop-color:#73d216" />
      <stop
         id="stop2308"
         offset="1.0000000"
         style="stop-color:#4e9a06" />
    </linearGradient>
    <linearGradient
       id="linearGradient8650"
       inkscape:collect="always">
      <stop
         id="stop8652"
         offset="0"
         style="stop-color:#ffffff;stop-opacity:1;" />
      <stop
         id="stop8654"
         offset="1"
         style="stop-color:#ffffff;stop-opacity:0;" />
    </linearGradient>
    <linearGradient
       id="linearGradient3061">
      <stop
         style="stop-color:#ffffff;stop-opacity:1;"
         offset="0"
         id="stop3063" />
      <stop
         style="stop-color:#000000;stop-opacity:1;"
         offset="1"
         id="stop3065" />
    </linearGradient>
    <linearGradient
       inkscape:collect="always"
       xlink:href="#linearGradient3061"
       id="linearGradient3067"
       x1="50.152931"
       y1="-3.6324477"
       x2="25.291086"
       y2="-4.3002653"
       gradientUnits="userSpaceOnUse"
       gradientTransform="matrix(0.87827,0,0,0.87827,5.328299,1.650243)" />
    <linearGradient
       id="linearGradient3049">
      <stop
         style="stop-color:#b6b6b6;stop-opacity:1;"
         offset="0"
         id="stop3051" />
      <stop
         id="stop2262"
         offset="0.5"
         style="stop-color:#f2f2f2;stop-opacity:1;" />
      <stop
         style="stop-color:#fafafa;stop-opacity:1;"
         offset="0.67612958"
         id="stop2264" />
      <stop
         id="stop2268"
         offset="0.84051722"
         style="stop-color:#d8d8d8;stop-opacity:1;" />
      <stop
         id="stop2266"
         offset="0.875"
         style="stop-color:#f2f2f2;stop-opacity:1;" />
      <stop
         style="stop-color:#dbdbdb;stop-opacity:1;"
         offset="1"
         id="stop3053" />
    </linearGradient>
    <linearGradient
       inkscape:collect="always"
       xlink:href="#linearGradient3049"
       id="linearGradient3055"
       x1="19.648342"
       y1="42.253601"
       x2="20.631224"
       y2="6.7758031"
       gradientUnits="userSpaceOnUse"
       gradientTransform="matrix(0.87827,0,0,0.87827,2.536988,4.967681)" />
    <linearGradient
       inkscape:collect="always"
       xlink:href="#linearGradient4356"
       id="linearGradient6958"
       gradientUnits="userSpaceOnUse"
       gradientTransform="matrix(-0.977685,0.210075,0.210075,0.977685,61.56807,-4.448329)"
       x1="22.686766"
       y1="36.390400"
       x2="21.408455"
       y2="35.739632" />
    <linearGradient
       inkscape:collect="always"
       xlink:href="#linearGradient4356"
       id="linearGradient6956"
       gradientUnits="userSpaceOnUse"
       gradientTransform="matrix(0.983375,0.181588,-0.181588,0.983375,12.69019,-3.154589)"
       x1="20.661695"
       y1="35.817974"
       x2="22.626925"
       y2="36.217758" />
    <linearGradient
       inkscape:collect="always"
       xlink:href="#linearGradient3824"
       id="linearGradient6954"
       gradientUnits="userSpaceOnUse"
       gradientTransform="translate(7.344424,-0.329669)"
       x1="30.935921"
       y1="29.553486"
       x2="30.935921"
       y2="35.803486" />
    <radialGradient
       inkscape:collect="always"
       xlink:href="#linearGradient4338"
       id="radialGradient6952"
       gradientUnits="userSpaceOnUse"
       gradientTransform="matrix(0.787998,0,0,0.787998,6.221198,3.617627)"
       cx="29.344931"
       cy="17.064077"
       fx="29.344931"
       fy="17.064077"
       r="9.1620579" />
    <radialGradient
       inkscape:collect="always"
       xlink:href="#linearGradient3816"
       id="radialGradient6950"
       gradientUnits="userSpaceOnUse"
       cx="31.112698"
       cy="19.008621"
       fx="31.112698"
       fy="19.008621"
       r="8.6620579" />
    <radialGradient
       inkscape:collect="always"
       xlink:href="#linearGradient4344"
       id="radialGradient6948"
       gradientUnits="userSpaceOnUse"
       gradientTransform="matrix(1,0,0,0.681917,19.76231,14.9041)"
       cx="16.214741"
       cy="19.836468"
       fx="16.214741"
       fy="19.836468"
       r="13.565360" />
    <linearGradient
       inkscape:collect="always"
       xlink:href="#linearGradient6925"
       id="linearGradient6931"
       x1="12.25"
       y1="18.25"
       x2="7"
       y2="21.118431"
       gradientUnits="userSpaceOnUse"
       gradientTransform="translate(-34.668926,-27.575749)" />
    <linearGradient
       inkscape:collect="always"
       xlink:href="#linearGradient6901"
       id="linearGradient6907"
       x1="14.751649"
       y1="15.868432"
       x2="8.8953285"
       y2="16.743431"
       gradientUnits="userSpaceOnUse"
       gradientTransform="translate(-34.668926,-27.575749)" />
    <linearGradient
       inkscape:collect="always"
       xlink:href="#linearGradient2187"
       id="linearGradient1764"
       gradientUnits="userSpaceOnUse"
       gradientTransform="matrix(0.914114,0,0,0.914114,-38.537624,-30.282651)"
       x1="33.059906"
       y1="27.394117"
       x2="12.624337"
       y2="12.583769" />
    <linearGradient
       inkscape:collect="always"
       id="linearGradient4991">
      <stop
         style="stop-color:#ffffff;stop-opacity:1;"
         offset="0"
         id="stop4993" />
      <stop
         style="stop-color:#ffffff;stop-opacity:0;"
         offset="1"
         id="stop4995" />
    </linearGradient>
    <radialGradient
       inkscape:collect="always"
       xlink:href="#linearGradient4991"
       id="radialGradient4997"
       cx="23.447077"
       cy="6.4576745"
       fx="23.447077"
       fy="6.4576745"
       r="19.0625"
       gradientTransform="matrix(-1.314471,-1.006312e-2,-1.022964e-2,1.336221,11.552154,-32.485636)"
       gradientUnits="userSpaceOnUse" />
    <linearGradient
       inkscape:collect="always"
       id="linearGradient5476">
      <stop
         style="stop-color:#ffffff;stop-opacity:1;"
         offset="0"
         id="stop5478" />
      <stop
         style="stop-color:#ffffff;stop-opacity:0;"
         offset="1"
         id="stop5480" />
    </linearGradient>
    <linearGradient
       id="linearGradient5464">
      <stop
         style="stop-color:#729fcf;stop-opacity:1;"
         offset="0"
         id="stop5466" />
      <stop
         style="stop-color:#afc9e4;stop-opacity:1;"
         offset="1"
         id="stop5468" />
    </linearGradient>
    <linearGradient
       id="linearGradient2624">
      <stop
         id="stop2626"
         offset="0"
         style="stop-color:#dfe0df;stop-opacity:1;" />
      <stop
         style="stop-color:#a6b0a6;stop-opacity:1;"
         offset="0.23809524"
         id="stop2630" />
      <stop
         id="stop2628"
         offset="1.0000000"
         style="stop-color:#b5beb5;stop-opacity:1.0000000;" />
    </linearGradient>
    <linearGradient
       inkscape:collect="always"
       id="linearGradient2573">
      <stop
         style="stop-color:#ffffff;stop-opacity:1;"
         offset="0"
         id="stop2575" />
      <stop
         style="stop-color:#ffffff;stop-opacity:0;"
         offset="1"
         id="stop2577" />
    </linearGradient>
    <linearGradient
       id="linearGradient2274">
      <stop
         style="stop-color:#000000;stop-opacity:0.12871288;"
         offset="0.0000000"
         id="stop2276" />
      <stop
         style="stop-color:#000000;stop-opacity:0.0000000;"
         offset="1.0000000"
         id="stop2278" />
    </linearGradient>
    <linearGradient
       id="linearGradient9749">
      <stop
         style="stop-color:#ffffff;stop-opacity:1;"
         offset="0"
         id="stop9751" />
      <stop
         style="stop-color:#ededed;stop-opacity:1.0000000;"
         offset="1.0000000"
         id="stop9753" />
    </linearGradient>
    <linearGradient
       id="linearGradient15107">
      <stop
         style="stop-color:#ffffff;stop-opacity:1.0000000;"
         offset="0.0000000"
         id="stop15109" />
      <stop
         style="stop-color:#e2e2e2;stop-opacity:1.0000000;"
         offset="1.0000000"
         id="stop15111" />
    </linearGradient>
    <linearGradient
       id="linearGradient10691"
       inkscape:collect="always">
      <stop
         id="stop10693"
         offset="0"
         style="stop-color:#000000;stop-opacity:1;" />
      <stop
         id="stop10695"
         offset="1"
         style="stop-color:#000000;stop-opacity:0;" />
    </linearGradient>
    <linearGradient
       id="linearGradient4274">
      <stop
         id="stop4276"
         offset="0.0000000"
         style="stop-color:#ffffff;stop-opacity:0.25490198;" />
      <stop
         id="stop4278"
         offset="1.0000000"
         style="stop-color:#ffffff;stop-opacity:1.0000000;" />
    </linearGradient>
    <linearGradient
       inkscape:collect="always"
       id="linearGradient2187">
      <stop
         style="stop-color:#ffffff;stop-opacity:1;"
         offset="0"
         id="stop2189" />
      <stop
         style="stop-color:#ffffff;stop-opacity:0;"
         offset="1"
         id="stop2191" />
    </linearGradient>
    <linearGradient
       id="linearGradient6901"
       inkscape:collect="always">
      <stop
         id="stop6903"
         offset="0"
         style="stop-color:#3465a4;stop-opacity:1;" />
      <stop
         id="stop6905"
         offset="1"
         style="stop-color:#3465a4;stop-opacity:0;" />
    </linearGradient>
    <linearGradient
       id="linearGradient6925"
       inkscape:collect="always">
      <stop
         id="stop6927"
         offset="0"
         style="stop-color:#204a87;stop-opacity:1;" />
      <stop
         id="stop6929"
         offset="1"
         style="stop-color:#204a87;stop-opacity:0;" />
    </linearGradient>
    <linearGradient
       inkscape:collect="always"
       xlink:href="#linearGradient6901"
       id="linearGradient2562"
       gradientUnits="userSpaceOnUse"
       gradientTransform="matrix(0,1,-1,0,37.07553,-5.879343)"
       x1="15.193591"
       y1="15.028743"
       x2="12.252101"
       y2="30.55784" />
    <linearGradient
       inkscape:collect="always"
       xlink:href="#linearGradient6925"
       id="linearGradient2564"
       gradientUnits="userSpaceOnUse"
       gradientTransform="matrix(0,1,-1,0,37.07553,-5.879343)"
       x1="10.791593"
       y1="23.332331"
       x2="10.112462"
       y2="27.145725" />
    <linearGradient
       inkscape:collect="always"
       xlink:href="#linearGradient2187"
       id="linearGradient2566"
       gradientUnits="userSpaceOnUse"
       gradientTransform="matrix(-1.412791e-16,0.914114,-0.914114,-1.412791e-16,39.78243,-9.748047)"
       x1="41.093174"
       y1="16.612858"
       x2="16.588747"
       y2="29.698416" />
    <linearGradient
       inkscape:collect="always"
       xlink:href="#linearGradient4274"
       id="linearGradient2365"
       gradientUnits="userSpaceOnUse"
       gradientTransform="matrix(0,1,-1,0,37.07553,-5.879343)"
       x1="26.577936"
       y1="7.7850504"
       x2="38.129341"
       y2="12.765438" />
    <linearGradient
       inkscape:collect="always"
       xlink:href="#linearGradient15107"
       id="linearGradient1493"
       gradientUnits="userSpaceOnUse"
       gradientTransform="matrix(1.276531,0,0,-1.406115,24.24763,33.3374)"
       x1="11.74217"
       y1="11.48487"
       x2="13.846983"
       y2="11.981981" />
    <radialGradient
       r="13.565360"
       fy="19.836468"
       fx="16.214741"
       cy="19.836468"
       cx="16.214741"
       gradientTransform="matrix(1,0,0,0.681917,-1.105561e-15,8.233773)"
       gradientUnits="userSpaceOnUse"
       id="radialGradient1381"
       xlink:href="#linearGradient4344"
       inkscape:collect="always" />
    <linearGradient
       y2="35.803486"
       x2="30.935921"
       y1="29.553486"
       x1="30.935921"
       gradientTransform="translate(-12.41789,-7)"
       gradientUnits="userSpaceOnUse"
       id="linearGradient1372"
       xlink:href="#linearGradient3824"
       inkscape:collect="always" />
    <linearGradient
       y2="36.217758"
       x2="22.626925"
       y1="35.817974"
       x1="20.661695"
       gradientTransform="matrix(0.983375,0.181588,-0.181588,0.983375,-7.07212,-9.82492)"
       gradientUnits="userSpaceOnUse"
       id="linearGradient1369"
       xlink:href="#linearGradient4356"
       inkscape:collect="always" />
    <linearGradient
       y2="35.739632"
       x2="21.408455"
       y1="36.390400"
       x1="22.686766"
       gradientTransform="matrix(-0.977685,0.210075,0.210075,0.977685,41.80576,-11.11866)"
       gradientUnits="userSpaceOnUse"
       id="linearGradient1366"
       xlink:href="#linearGradient4356"
       inkscape:collect="always" />
    <linearGradient
       y2="35.739632"
       x2="21.408455"
       y1="36.390400"
       x1="22.686766"
       gradientTransform="matrix(-0.977685,0.210075,0.210075,0.977685,41.80576,-11.11866)"
       gradientUnits="userSpaceOnUse"
       id="linearGradient4374"
       xlink:href="#linearGradient4356"
       inkscape:collect="always" />
    <linearGradient
       y2="36.217758"
       x2="22.626925"
       y1="35.817974"
       x1="20.661695"
       gradientTransform="matrix(0.983375,0.181588,-0.181588,0.983375,-7.072120,-9.824920)"
       gradientUnits="userSpaceOnUse"
       id="linearGradient4372"
       xlink:href="#linearGradient4356"
       inkscape:collect="always" />
    <linearGradient
       gradientTransform="matrix(-0.977685,0.210075,0.210075,0.977685,55.1096,-3.945209)"
       y2="35.739632"
       x2="21.408455"
       y1="36.390400"
       x1="22.686766"
       gradientUnits="userSpaceOnUse"
       id="linearGradient4366"
       xlink:href="#linearGradient4356"
       inkscape:collect="always" />
    <linearGradient
       gradientTransform="matrix(0.983375,0.181588,-0.181588,0.983375,6.231716,-2.651466)"
       gradientUnits="userSpaceOnUse"
       y2="36.217758"
       x2="22.626925"
       y1="35.817974"
       x1="20.661695"
       id="linearGradient4362"
       xlink:href="#linearGradient4356"
       inkscape:collect="always" />
    <radialGradient
       gradientUnits="userSpaceOnUse"
       gradientTransform="matrix(1.000000,0.000000,0.000000,0.681917,0.000000,8.233773)"
       r="13.565360"
       fy="19.836468"
       fx="16.214741"
       cy="19.836468"
       cx="16.214741"
       id="radialGradient4350"
       xlink:href="#linearGradient4344"
       inkscape:collect="always" />
    <radialGradient
       r="8.6620579"
       fy="19.008621"
       fx="31.112698"
       cy="19.008621"
       cx="31.112698"
       gradientUnits="userSpaceOnUse"
       id="radialGradient4336"
       xlink:href="#linearGradient3816"
       inkscape:collect="always" />
    <linearGradient
       gradientTransform="translate(-13.12500,-7.000000)"
       y2="35.803486"
       x2="30.935921"
       y1="29.553486"
       x1="30.935921"
       gradientUnits="userSpaceOnUse"
       id="linearGradient4332"
       xlink:href="#linearGradient3824"
       inkscape:collect="always" />
    <radialGradient
       r="8.6620579"
       fy="19.008621"
       fx="31.112698"
       cy="19.008621"
       cx="31.112698"
       gradientUnits="userSpaceOnUse"
       id="radialGradient4330"
       xlink:href="#linearGradient3816"
       inkscape:collect="always" />
    <radialGradient
       r="9.1620579"
       fy="17.064077"
       fx="29.344931"
       cy="17.064077"
       cx="29.344931"
       gradientTransform="matrix(0.787998,3.877637e-16,-3.877637e-16,0.787998,6.221198,3.617627)"
       gradientUnits="userSpaceOnUse"
       id="radialGradient4328"
       xlink:href="#linearGradient4338"
       inkscape:collect="always" />
    <linearGradient
       y2="35.803486"
       x2="30.935921"
       y1="29.553486"
       x1="30.935921"
       gradientTransform="translate(-12.41789,-7.000000)"
       gradientUnits="userSpaceOnUse"
       id="linearGradient4326"
       xlink:href="#linearGradient3824"
       inkscape:collect="always" />
    <radialGradient
       r="8.6620579"
       fy="19.008621"
       fx="31.112698"
       cy="19.008621"
       cx="31.112698"
       gradientUnits="userSpaceOnUse"
       id="radialGradient4179"
       xlink:href="#linearGradient3816"
       inkscape:collect="always" />
    <linearGradient
       gradientTransform="translate(0.707108,0.000000)"
       y2="35.803486"
       x2="30.935921"
       y1="29.553486"
       x1="30.935921"
       gradientUnits="userSpaceOnUse"
       id="linearGradient4175"
       xlink:href="#linearGradient3824"
       inkscape:collect="always" />
    <radialGradient
       gradientTransform="matrix(0.787998,3.877637e-16,-3.877637e-16,0.787998,6.221198,3.617627)"
       r="9.1620579"
       fy="17.064077"
       fx="29.344931"
       cy="17.064077"
       cx="29.344931"
       gradientUnits="userSpaceOnUse"
       id="radialGradient4171"
       xlink:href="#linearGradient3800"
       inkscape:collect="always" />
    <radialGradient
       gradientUnits="userSpaceOnUse"
       gradientTransform="matrix(1.297564,2.881172e-16,-1.96472e-16,0.884831,-8.358505,4.940469)"
       r="13.565360"
       fy="27.203083"
       fx="28.089741"
       cy="27.203083"
       cx="28.089741"
       id="radialGradient4169"
       xlink:href="#linearGradient4163"
       inkscape:collect="always" />
    <linearGradient
       gradientUnits="userSpaceOnUse"
       y2="35.803486"
       x2="30.935921"
       y1="29.553486"
       x1="30.935921"
       id="linearGradient3830"
       xlink:href="#linearGradient3824"
       inkscape:collect="always" />
    <radialGradient
       gradientUnits="userSpaceOnUse"
       r="8.6620579"
       fy="19.008621"
       fx="31.112698"
       cy="19.008621"
       cx="31.112698"
       id="radialGradient3822"
       xlink:href="#linearGradient3816"
       inkscape:collect="always" />
    <radialGradient
       gradientUnits="userSpaceOnUse"
       r="9.1620579"
       fy="17.064077"
       fx="29.344931"
       cy="17.064077"
       cx="29.344931"
       id="radialGradient3806"
       xlink:href="#linearGradient3800"
       inkscape:collect="always" />
    <linearGradient
       id="linearGradient3800">
      <stop
         id="stop3802"
         offset="0.0000000"
         style="stop-color:#f4d9b1;stop-opacity:1.0000000;" />
      <stop
         id="stop3804"
         offset="1.0000000"
         style="stop-color:#df9725;stop-opacity:1.0000000;" />
    </linearGradient>
    <linearGradient
       id="linearGradient3816"
       inkscape:collect="always">
      <stop
         id="stop3818"
         offset="0"
         style="stop-color:#000000;stop-opacity:1;" />
      <stop
         id="stop3820"
         offset="1"
         style="stop-color:#000000;stop-opacity:0;" />
    </linearGradient>
    <linearGradient
       id="linearGradient3824">
      <stop
         id="stop3826"
         offset="0"
         style="stop-color:#ffffff;stop-opacity:1;" />
      <stop
         id="stop3828"
         offset="1.0000000"
         style="stop-color:#c9c9c9;stop-opacity:1.0000000;" />
    </linearGradient>
    <linearGradient
       id="linearGradient4163">
      <stop
         id="stop4165"
         offset="0.0000000"
         style="stop-color:#3b74bc;stop-opacity:1.0000000;" />
      <stop
         id="stop4167"
         offset="1.0000000"
         style="stop-color:#2d5990;stop-opacity:1.0000000;" />
    </linearGradient>
    <linearGradient
       id="linearGradient4338">
      <stop
         style="stop-color:#e9b15e;stop-opacity:1.0000000;"
         offset="0.0000000"
         id="stop4340" />
      <stop
         style="stop-color:#966416;stop-opacity:1.0000000;"
         offset="1.0000000"
         id="stop4342" />
    </linearGradient>
    <linearGradient
       id="linearGradient4344">
      <stop
         id="stop4346"
         offset="0"
         style="stop-color:#727e0a;stop-opacity:1;" />
      <stop
         id="stop4348"
         offset="1.0000000"
         style="stop-color:#5b6508;stop-opacity:1.0000000;" />
    </linearGradient>
    <linearGradient
       id="linearGradient4356"
       inkscape:collect="always">
      <stop
         id="stop4358"
         offset="0"
         style="stop-color:#000000;stop-opacity:1;" />
      <stop
         id="stop4360"
         offset="1"
         style="stop-color:#000000;stop-opacity:0;" />
    </linearGradient>
    <linearGradient
       inkscape:collect="always"
       xlink:href="#linearGradient5464"
       id="linearGradient5472"
       gradientUnits="userSpaceOnUse"
       x1="21.587093"
       y1="23.499001"
       x2="21.587093"
       y2="2.8163671"
       gradientTransform="matrix(1.106909,-0.258404,0.259748,1.101665,-19.66697,12.19788)" />
    <linearGradient
       inkscape:collect="always"
       xlink:href="#linearGradient5476"
       id="linearGradient5482"
       x1="25.950134"
       y1="2.8703361"
       x2="29.477814"
       y2="46.06208"
       gradientUnits="userSpaceOnUse"
       gradientTransform="matrix(1.106909,-0.258404,0.259748,1.101665,-19.66697,12.19788)" />
    <linearGradient
       inkscape:collect="always"
       xlink:href="#linearGradient5476"
       id="linearGradient5486"
       gradientUnits="userSpaceOnUse"
       x1="25.950134"
       y1="2.8703361"
       x2="29.477814"
       y2="46.06208"
       gradientTransform="matrix(-0.901805,0.210818,-0.211618,-0.898788,63.54132,37.87423)" />
    <radialGradient
       inkscape:collect="always"
       xlink:href="#linearGradient10691"
       id="radialGradient16348"
       gradientUnits="userSpaceOnUse"
       gradientTransform="scale(1.902215,0.525703)"
       cx="6.7027131"
       cy="73.615714"
       fx="6.7027131"
       fy="73.615714"
       r="7.2284161" />
    <linearGradient
       inkscape:collect="always"
       xlink:href="#linearGradient15107"
       id="linearGradient16360"
       gradientUnits="userSpaceOnUse"
       gradientTransform="matrix(0.9847743,0,0,1.0905442,14.872802,-6.2458701)"
       x1="11.572842"
       y1="4.7461626"
       x2="18.475286"
       y2="26.022910" />
    <linearGradient
       inkscape:collect="always"
       xlink:href="#linearGradient2624"
       id="linearGradient16362"
       gradientUnits="userSpaceOnUse"
       gradientTransform="matrix(1.7805558,0,0,0.5518486,14.900974,-4.3604667)"
       x1="9.1643066"
       y1="38.070892"
       x2="9.8855038"
       y2="52.090679" />
    <radialGradient
       inkscape:collect="always"
       xlink:href="#linearGradient2274"
       id="radialGradient16364"
       gradientUnits="userSpaceOnUse"
       gradientTransform="matrix(0.456914,0.3326811,-0.1071149,0.1799741,24.791368,1.9519757)"
       cx="27.741131"
       cy="38.711506"
       fx="27.741131"
       fy="38.711506"
       r="17.977943" />
    <linearGradient
       inkscape:collect="always"
       xlink:href="#linearGradient15107"
       id="linearGradient16366"
       gradientUnits="userSpaceOnUse"
       gradientTransform="matrix(0.9400541,0,0,-1.0406275,15.528269,19.442605)"
       x1="11.74217"
       y1="11.48487"
       x2="13.846983"
       y2="11.981981" />
    <linearGradient
       inkscape:collect="always"
       xlink:href="#linearGradient15107"
       id="linearGradient16368"
       gradientUnits="userSpaceOnUse"
       gradientTransform="matrix(1.1392272,0,0,-0.8918689,14.967478,19.536528)"
       x1="10.027"
       y1="20.219761"
       x2="17.178024"
       y2="-7.5274644" />
    <linearGradient
       inkscape:collect="always"
       xlink:href="#linearGradient9749"
       id="linearGradient16370"
       gradientUnits="userSpaceOnUse"
       gradientTransform="matrix(0.9943917,0,0,-1.0606446,14.64225,19.810162)"
       x1="11.841544"
       y1="4.2507305"
       x2="40.024059"
       y2="7.4121075" />
    <linearGradient
       inkscape:collect="always"
       xlink:href="#linearGradient2573"
       id="linearGradient16372"
       gradientUnits="userSpaceOnUse"
       gradientTransform="matrix(0.725342,0,0,0.724207,12.81072,-4.604804)"
       x1="17.397203"
       y1="33.357376"
       x2="22.17771"
       y2="31.026741" />
    <linearGradient
       inkscape:collect="always"
       xlink:href="#linearGradient6901"
       id="linearGradient20148"
       gradientUnits="userSpaceOnUse"
       gradientTransform="translate(-34.668926,-27.575749)"
       x1="14.751649"
       y1="15.868432"
       x2="8.8953285"
       y2="16.743431" />
    <linearGradient
       inkscape:collect="always"
       xlink:href="#linearGradient6925"
       id="linearGradient20150"
       gradientUnits="userSpaceOnUse"
       gradientTransform="translate(-34.668926,-27.575749)"
       x1="12.25"
       y1="18.25"
       x2="7"
       y2="21.118431" />
    <linearGradient
       inkscape:collect="always"
       xlink:href="#linearGradient2187"
       id="linearGradient20152"
       gradientUnits="userSpaceOnUse"
       gradientTransform="matrix(0.914114,0,0,0.914114,-38.537624,-30.282651)"
       x1="33.059906"
       y1="27.394117"
       x2="12.624337"
       y2="12.583769" />
    <radialGradient
       inkscape:collect="always"
       xlink:href="#linearGradient4991"
       id="radialGradient20154"
       gradientUnits="userSpaceOnUse"
       gradientTransform="matrix(-1.314471,-1.006312e-2,-1.022964e-2,1.336221,11.552154,-32.485636)"
       cx="23.447077"
       cy="6.4576745"
       fx="23.447077"
       fy="6.4576745"
       r="19.0625" />
    <radialGradient
       inkscape:collect="always"
       xlink:href="#linearGradient2304"
       id="radialGradient13045"
       gradientUnits="userSpaceOnUse"
       gradientTransform="matrix(0,-0.6425519,0.7775727,0,5.9071238,29.453263)"
       cx="11.319205"
       cy="22.454971"
       fx="11.319205"
       fy="22.454971"
       r="16.956199" />
    <radialGradient
       inkscape:collect="always"
       xlink:href="#linearGradient8650"
       id="radialGradient13047"
       gradientUnits="userSpaceOnUse"
       gradientTransform="matrix(0,-1.5600181,1.1872113,0,7.5539138,48.010264)"
       cx="24.53788"
       cy="0.40010813"
       fx="24.53788"
       fy="0.40010813"
       r="17.171415" />
  </defs>
  <sodipodi:namedview
     inkscape:window-y="40"
     inkscape:window-x="46"
     inkscape:window-height="925"
     inkscape:window-width="872"
     inkscape:document-units="px"
     inkscape:grid-bbox="true"
     showgrid="false"
     inkscape:current-layer="layer1"
     inkscape:cy="9.5"
     inkscape:cx="37.5"
     inkscape:zoom="4.8235294"
     inkscape:pageshadow="2"
     inkscape:pageopacity="0.0"
     borderopacity="0.16862745"
     bordercolor="#666666"
     pagecolor="#ffffff"
     id="base"
     inkscape:grid-points="true"
     gridempspacing="2"
     gridtolerance="2"
     inkscape:object-bbox="false"
     inkscape:object-points="false"
     objecttolerance="2.8"
     guidetolerance="2"
     showguides="true"
     inkscape:guide-bbox="true"
     inkscape:showpageshadow="false"
     inkscape:object-paths="false"
     inkscape:has_abs_tolerance="false" />
  <metadata
     id="metadata4">
    <rdf:RDF>
      <cc:Work
         rdf:about="">
        <dc:format>image/svg+xml</dc:format>
        <dc:type
           rdf:resource="http://purl.org/dc/dcmitype/StillImage" />
        <dc:title>Send and Receive Mail</dc:title>
        <dc:creator>
          <cc:Agent>
            <dc:title>Jakub Steiner</dc:title>
          </cc:Agent>
        </dc:creator>
        <dc:contributor>
          <cc:Agent>
            <dc:title>Andreas Nilsson, Garrett LeSage</dc:title>
          </cc:Agent>
        </dc:contributor>
        <cc:license
           rdf:resource="http://creativecommons.org/licenses/by-sa/2.0/" />
        <dc:subject>
          <rdf:Bag>
            <rdf:li>mail</rdf:li>
            <rdf:li>e-mail</rdf:li>
            <rdf:li>send</rdf:li>
            <rdf:li>receive</rdf:li>
          </rdf:Bag>
        </dc:subject>
      </cc:Work>
      <cc:License
         rdf:about="http://creativecommons.org/licenses/by-sa/2.0/">
        <cc:permits
           rdf:resource="http://web.resource.org/cc/Reproduction" />
        <cc:permits
           rdf:resource="http://web.resource.org/cc/Distribution" />
        <cc:requires
           rdf:resource="http://web.resource.org/cc/Notice" />
        <cc:requires
           rdf:resource="http://web.resource.org/cc/Attribution" />
        <cc:permits
           rdf:resource="http://web.resource.org/cc/DerivativeWorks" />
        <cc:requires
           rdf:resource="http://web.resource.org/cc/ShareAlike" />
      </cc:License>
    </rdf:RDF>
  </metadata>
  <g
     inkscape:groupmode="layer"
     inkscape:label="Layer 1"
     id="layer1">
    <path
       sodipodi:type="arc"
       style="opacity:0.3;color:#000000;fill:url(#radialGradient16348);fill-opacity:1;fill-rule:nonzero;stroke:none;stroke-width:0.80000001;stroke-linecap:butt;stroke-linejoin:miter;marker:none;marker-start:none;marker-mid:none;marker-end:none;stroke-miterlimit:4;stroke-dashoffset:0;stroke-opacity:1;visibility:visible;display:inline;overflow:visible"
       id="path10699"
       sodipodi:cx="12.75"
       sodipodi:cy="38.700001"
       sodipodi:rx="13.75"
       sodipodi:ry="3.8"
       d="M 26.5 38.700001 A 13.75 3.8 0 1 1  -1,38.700001 A 13.75 3.8 0 1 1  26.5 38.700001 z"
       transform="matrix(1.596973,0,0,1.526064,3.6385943,-17.159427)"
       inkscape:r_cx="true"
       inkscape:r_cy="true" />
    <g
       id="g16350"
       transform="matrix(1.4353186,0,0,1.4353186,-20.439259,5.849899)">
      <path
         id="path12723"
         d="M 17.412107,6.5877276 L 17.412107,25.407898 L 44.510394,25.407898 L 44.464582,6.6598354 C 44.464572,6.6556966 44.464856,6.6402174 44.464582,6.6357997 C 44.464046,6.6311054 44.465377,6.6167313 44.464582,6.6117633 C 44.463528,6.6065236 44.442986,6.5932373 44.441675,6.5877276 L 17.412107,6.5877276 z "
         style="fill:url(#linearGradient16360);fill-opacity:1;fill-rule:evenodd;stroke:#2e3436;stroke-width:1;stroke-linecap:butt;stroke-linejoin:round;stroke-miterlimit:4;stroke-dasharray:none;stroke-opacity:1"
         inkscape:r_cx="true"
         inkscape:r_cy="true" />
      <path
         sodipodi:nodetypes="ccccccc"
         id="path1634"
         d="M 27.673466,16.439719 L 17.956811,24.385709 L 28.045478,17.430204 L 34.586727,17.430204 L 43.594784,24.297274 L 34.989743,16.439719 L 27.673466,16.439719 z "
         style="fill:url(#linearGradient16362);fill-opacity:1;fill-rule:evenodd;stroke:none;stroke-width:1;stroke-linecap:butt;stroke-linejoin:miter;stroke-miterlimit:4;stroke-opacity:1"
         inkscape:r_cx="true"
         inkscape:r_cy="true" />
      <path
         id="path15103"
         d="M 18.273312,7.5139753 C 18.268476,7.523529 18.277208,7.5280459 18.273312,7.5366053 C 18.271602,7.5406341 18.25221,7.5554607 18.250739,7.559236 C 18.249509,7.5627535 18.251726,7.5786035 18.250739,7.5818653 C 18.249997,7.5848664 18.251234,7.6017571 18.250739,7.6044954 L 18.273312,24.418524 L 43.510402,24.418524 L 43.465256,7.6950147 C 43.464759,7.6923561 43.465995,7.6753098 43.465256,7.6723847 C 43.454667,7.6379465 43.43504,7.5777214 43.397536,7.5139753 L 18.273312,7.5139753 z "
         style="fill:none;fill-opacity:0.75;fill-rule:evenodd;stroke:#ffffff;stroke-width:1.00000012;stroke-linecap:butt;stroke-linejoin:miter;stroke-miterlimit:4;stroke-dasharray:none;stroke-opacity:1"
         inkscape:r_cx="true"
         inkscape:r_cy="true" />
      <path
         id="path2563"
         d="M 29.73244,19.291652 C 27.997343,18.968405 18.541203,8.9893761 17.595515,7.2519289 C 17.584667,7.2312354 17.566041,7.1915199 17.557858,7.173409 L 42.591669,7.173409 C 42.390692,8.9859571 37.134031,19.126986 35.656472,19.291652 C 35.650543,19.291991 35.641039,19.291652 35.635239,19.291652 L 29.817373,19.291652 C 29.792983,19.291652 29.76112,19.296996 29.73244,19.291652 z "
         style="fill:url(#radialGradient16364);fill-opacity:1;fill-rule:evenodd;stroke:none;stroke-width:0.85660434;stroke-linecap:butt;stroke-linejoin:round;stroke-miterlimit:4;stroke-opacity:1"
         inkscape:r_cx="true"
         inkscape:r_cy="true" />
      <path
         id="path1613"
         d="M 27.879519,17.907456 C 26.162314,17.624192 18.573757,8.8795212 17.974128,7.3569875 C 17.967413,7.3388541 17.956787,7.3040508 17.952262,7.2881806 L 43.732517,7.2881806 C 43.135114,8.8765258 35.537277,17.763158 33.98019,17.907456 C 33.974012,17.907752 33.964297,17.907456 33.958324,17.907456 L 27.966983,17.907456 C 27.941866,17.907456 27.907902,17.912137 27.879519,17.907456 z "
         style="fill:url(#linearGradient16366);fill-opacity:1;fill-rule:evenodd;stroke:#989898;stroke-width:0.85660416;stroke-linecap:butt;stroke-linejoin:round;stroke-miterlimit:4;stroke-opacity:1"
         inkscape:r_cx="true"
         inkscape:r_cy="true" />
      <path
         id="path18153"
         d="M 27.771025,17.476614 C 26.243482,17.121354 18.412159,8.4220222 17.910907,7.3202615 C 17.909068,7.3159177 17.912487,7.3009339 17.910907,7.2968595 C 17.906953,7.2854489 17.889803,7.2589842 17.88824,7.2500561 C 17.888261,7.2476431 17.887946,7.2287818 17.88824,7.2266541 C 17.889088,7.2251043 17.90978,7.2279121 17.910907,7.2266541 L 17.978908,7.1564488 L 43.705882,7.1564488 C 43.703913,7.1740658 43.689428,7.2048787 43.683215,7.2266541 C 43.677774,7.243749 43.668294,7.2775173 43.660548,7.2968595 C 42.991712,8.8763093 35.313321,17.266618 33.981766,17.476614 C 33.970938,17.477805 33.946334,17.476614 33.936432,17.476614 L 27.861693,17.476614 C 27.839724,17.475406 27.79659,17.48256 27.771025,17.476614 z "
         style="fill:url(#linearGradient16368);fill-opacity:1;fill-rule:evenodd;stroke:none;stroke-width:0.25pt;stroke-linecap:butt;stroke-linejoin:miter;stroke-opacity:1"
         inkscape:r_cx="true"
         inkscape:r_cy="true" />
      <path
         id="path1616"
         d="M 27.95236,17.158443 C 26.176753,16.760513 19.124097,8.745154 18.273578,7.3096504 L 43.365878,7.3096504 C 42.284982,8.9993492 35.353263,17.022563 33.823097,17.158443 C 33.816756,17.158734 33.806573,17.158443 33.80043,17.158443 L 28.065695,17.158443 C 28.04655,17.158443 28.018634,17.161014 27.997694,17.158443 C 27.983343,17.156164 27.967485,17.161832 27.95236,17.158443 z "
         style="fill:none;fill-opacity:0.75;fill-rule:evenodd;stroke:url(#linearGradient16370);stroke-width:0.85660398;stroke-linecap:butt;stroke-linejoin:miter;stroke-miterlimit:4;stroke-opacity:1"
         inkscape:r_cx="true"
         inkscape:r_cy="true" />
      <path
         sodipodi:nodetypes="cccccc"
         id="path1636"
         d="M 28.013534,17.445208 L 19.351863,23.43502 L 20.961711,23.439443 L 28.213771,18.464908 L 34.612671,17.434479 L 28.013534,17.445208 z "
         style="fill:url(#linearGradient16372);fill-opacity:1;fill-rule:evenodd;stroke:none;stroke-width:1;stroke-linecap:butt;stroke-linejoin:miter;stroke-miterlimit:4;stroke-opacity:1"
         inkscape:r_cx="true"
         inkscape:r_cy="true" />
    </g>
  </g>
</svg>
