<?xml version="1.0" encoding="UTF-8" standalone="no"?>
<!-- Created with Inkscape (http://www.inkscape.org/) -->
<svg
   xmlns:dc="http://purl.org/dc/elements/1.1/"
   xmlns:cc="http://web.resource.org/cc/"
   xmlns:rdf="http://www.w3.org/1999/02/22-rdf-syntax-ns#"
   xmlns:svg="http://www.w3.org/2000/svg"
   xmlns="http://www.w3.org/2000/svg"
   xmlns:xlink="http://www.w3.org/1999/xlink"
   xmlns:sodipodi="http://sodipodi.sourceforge.net/DTD/sodipodi-0.dtd"
   xmlns:inkscape="http://www.inkscape.org/namespaces/inkscape"
   width="64px"
   height="64px"
   id="svg2252"
   sodipodi:version="0.32"
   inkscape:version="0.45"
   inkscape:export-filename="/Users/izo/Desktop/gtwitter/48x48/gtwitter-48.png"
   inkscape:export-xdpi="67.5"
   inkscape:export-ydpi="67.5"
   sodipodi:docbase="/Users/izo/Desktop/gtwitter/scalable"
   sodipodi:docname="gtwitter.svg"
   inkscape:output_extension="org.inkscape.output.svg.inkscape"
   sodipodi:modified="TRUE">
  <defs
     id="defs2254">
    <linearGradient
       inkscape:collect="always"
       id="linearGradient19080">
      <stop
         style="stop-color:#eeeeec;stop-opacity:1;"
         offset="0"
         id="stop19082" />
      <stop
         style="stop-color:#eeeeec;stop-opacity:0;"
         offset="1"
         id="stop19084" />
    </linearGradient>
    <linearGradient
       inkscape:collect="always"
       id="linearGradient19041">
      <stop
         style="stop-color:#729fcf;stop-opacity:1;"
         offset="0"
         id="stop19043" />
      <stop
         style="stop-color:#729fcf;stop-opacity:0;"
         offset="1"
         id="stop19045" />
    </linearGradient>
    <linearGradient
       id="linearGradient5919"
       inkscape:collect="always">
      <stop
         id="stop5921"
         offset="0"
         style="stop-color:#000000;stop-opacity:1;" />
      <stop
         id="stop5923"
         offset="1"
         style="stop-color:#000000;stop-opacity:0;" />
    </linearGradient>
    <linearGradient
       id="linearGradient3428">
      <stop
         style="stop-color:black;stop-opacity:0;"
         offset="0"
         id="stop3430" />
      <stop
         id="stop3436"
         offset="0.5"
         style="stop-color:black;stop-opacity:1;" />
      <stop
         style="stop-color:black;stop-opacity:0;"
         offset="1"
         id="stop3432" />
    </linearGradient>
    <linearGradient
       inkscape:collect="always"
       id="linearGradient7598">
      <stop
         style="stop-color:#3465a4;stop-opacity:1;"
         offset="0"
         id="stop7600" />
      <stop
         style="stop-color:#22436e;stop-opacity:1"
         offset="1"
         id="stop7602" />
    </linearGradient>
    <linearGradient
       id="linearGradient29418">
      <stop
         style="stop-color:#f5f5f5;stop-opacity:1.0000000;"
         offset="0.0000000"
         id="stop29420" />
      <stop
         style="stop-color:#e9e9e9;stop-opacity:1.0000000;"
         offset="1.0000000"
         id="stop29422" />
    </linearGradient>
    <linearGradient
       inkscape:collect="always"
       xlink:href="#linearGradient7598"
       id="linearGradient9136"
       x1="23.095116"
       y1="42.726166"
       x2="28.054716"
       y2="30.726166"
       gradientUnits="userSpaceOnUse" />
    <radialGradient
       inkscape:collect="always"
       xlink:href="#linearGradient7598"
       id="radialGradient9146"
       cx="36.997566"
       cy="44.399498"
       fx="36.997566"
       fy="44.399498"
       r="8.5183439"
       gradientTransform="matrix(1,6.0338842e-8,-9.1197942e-8,1.5114301,4.0491429e-6,-21.539558)"
       gradientUnits="userSpaceOnUse" />
    <linearGradient
       inkscape:collect="always"
       xlink:href="#linearGradient7598"
       id="linearGradient9154"
       x1="58.449863"
       y1="38.624859"
       x2="49.459827"
       y2="31.897587"
       gradientUnits="userSpaceOnUse" />
    <radialGradient
       inkscape:collect="always"
       xlink:href="#linearGradient7598"
       id="radialGradient9164"
       cx="59.320999"
       cy="8.0419998"
       fx="59.320999"
       fy="8.0419998"
       r="8.3409805"
       gradientUnits="userSpaceOnUse" />
    <linearGradient
       inkscape:collect="always"
       xlink:href="#linearGradient7598"
       id="linearGradient9174"
       x1="36.166084"
       y1="39.117596"
       x2="38.635696"
       y2="54.905922"
       gradientUnits="userSpaceOnUse" />
    <linearGradient
       inkscape:collect="always"
       xlink:href="#linearGradient29418"
       id="linearGradient3308"
       gradientUnits="userSpaceOnUse"
       gradientTransform="matrix(0.8305127,0,0,0.8463627,-11.328591,-0.9706304)"
       x1="35.003674"
       y1="10.957423"
       x2="27.273300"
       y2="24.143761" />
    <radialGradient
       inkscape:collect="always"
       xlink:href="#linearGradient5919"
       id="radialGradient3793"
       gradientUnits="userSpaceOnUse"
       gradientTransform="matrix(1,0,0,0.201878,0,36.03783)"
       cx="30.428225"
       cy="45.153286"
       fx="30.428225"
       fy="45.153286"
       r="13.474453" />
    <radialGradient
       inkscape:collect="always"
       xlink:href="#linearGradient7598"
       id="radialGradient19020"
       gradientUnits="userSpaceOnUse"
       gradientTransform="matrix(1,-6.0338842e-8,-9.1197942e-8,-1.5114301,-60.479219,84.981617)"
       cx="36.997566"
       cy="44.399498"
       fx="36.997566"
       fy="44.399498"
       r="8.5183439" />
    <linearGradient
       inkscape:collect="always"
       xlink:href="#linearGradient19041"
       id="linearGradient19047"
       x1="35.787827"
       y1="29.652182"
       x2="39.221123"
       y2="38.78281"
       gradientUnits="userSpaceOnUse" />
    <linearGradient
       inkscape:collect="always"
       xlink:href="#linearGradient7598"
       id="linearGradient19051"
       gradientUnits="userSpaceOnUse"
       x1="36.166084"
       y1="39.117596"
       x2="38.635696"
       y2="54.905922"
       gradientTransform="matrix(1,0,0,-1,-56.635695,60.692906)" />
    <linearGradient
       inkscape:collect="always"
       xlink:href="#linearGradient19080"
       id="linearGradient19086"
       x1="36.194729"
       y1="47.172585"
       x2="35.981197"
       y2="53.298199"
       gradientUnits="userSpaceOnUse" />
    <linearGradient
       inkscape:collect="always"
       xlink:href="#linearGradient7598"
       id="linearGradient2344"
       gradientUnits="userSpaceOnUse"
       x1="58.449863"
       y1="38.624859"
       x2="49.459827"
       y2="31.897587" />
    <linearGradient
       inkscape:collect="always"
       xlink:href="#linearGradient7598"
       id="linearGradient2346"
       gradientUnits="userSpaceOnUse"
       x1="58.449863"
       y1="38.624859"
       x2="49.459827"
       y2="31.897587" />
    <linearGradient
       inkscape:collect="always"
       xlink:href="#linearGradient29418"
       id="linearGradient4060"
       gradientUnits="userSpaceOnUse"
       gradientTransform="matrix(0.8305127,0,0,0.8463627,-12.849684,-0.1152774)"
       x1="35.003674"
       y1="10.957423"
       x2="27.273300"
       y2="24.143761" />
    <linearGradient
       inkscape:collect="always"
       xlink:href="#linearGradient7598"
       id="linearGradient4064"
       gradientUnits="userSpaceOnUse"
       x1="58.449863"
       y1="38.624859"
       x2="49.459827"
       y2="31.897587"
       gradientTransform="translate(0,0.4242871)" />
    <linearGradient
       inkscape:collect="always"
       xlink:href="#linearGradient19080"
       id="linearGradient4067"
       gradientUnits="userSpaceOnUse"
       x1="36.194729"
       y1="47.172585"
       x2="35.981197"
       y2="53.298199"
       gradientTransform="translate(-34.378162,-6)" />
    <linearGradient
       inkscape:collect="always"
       xlink:href="#linearGradient7598"
       id="linearGradient4071"
       gradientUnits="userSpaceOnUse"
       x1="36.166084"
       y1="39.117596"
       x2="38.635696"
       y2="54.905922" />
    <linearGradient
       inkscape:collect="always"
       xlink:href="#linearGradient7598"
       id="linearGradient4075"
       gradientUnits="userSpaceOnUse"
       x1="58.449863"
       y1="38.624859"
       x2="49.459827"
       y2="31.897587"
       gradientTransform="matrix(-1,0,0,1,73.904409,0.4242871)" />
    <linearGradient
       inkscape:collect="always"
       xlink:href="#linearGradient7598"
       id="linearGradient4104"
       gradientUnits="userSpaceOnUse"
       gradientTransform="matrix(-1,0,0,1,73.904409,0.4242871)"
       x1="58.449863"
       y1="38.624859"
       x2="49.459827"
       y2="31.897587" />
    <radialGradient
       inkscape:collect="always"
       xlink:href="#linearGradient5919"
       id="radialGradient4106"
       gradientUnits="userSpaceOnUse"
       gradientTransform="matrix(1,0,0,0.201878,0,36.03783)"
       cx="30.428225"
       cy="45.153286"
       fx="30.428225"
       fy="45.153286"
       r="13.474453" />
    <linearGradient
       inkscape:collect="always"
       xlink:href="#linearGradient7598"
       id="linearGradient4108"
       gradientUnits="userSpaceOnUse"
       x1="36.166084"
       y1="39.117596"
       x2="38.635696"
       y2="54.905922" />
    <linearGradient
       inkscape:collect="always"
       xlink:href="#linearGradient7598"
       id="linearGradient4110"
       gradientUnits="userSpaceOnUse"
       gradientTransform="translate(0,0.4242871)"
       x1="58.449863"
       y1="38.624859"
       x2="49.459827"
       y2="31.897587" />
    <linearGradient
       inkscape:collect="always"
       xlink:href="#linearGradient29418"
       id="linearGradient4112"
       gradientUnits="userSpaceOnUse"
       gradientTransform="matrix(0.8305127,0,0,0.8463627,-12.849684,-0.1152774)"
       x1="35.003674"
       y1="10.957423"
       x2="27.273300"
       y2="24.143761" />
    <radialGradient
       inkscape:collect="always"
       xlink:href="#linearGradient7598"
       id="radialGradient4114"
       gradientUnits="userSpaceOnUse"
       gradientTransform="matrix(1,6.0338842e-8,-9.1197942e-8,1.5114301,4.0491429e-6,-21.539558)"
       cx="36.997566"
       cy="44.399498"
       fx="36.997566"
       fy="44.399498"
       r="8.5183439" />
    <linearGradient
       inkscape:collect="always"
       xlink:href="#linearGradient19041"
       id="linearGradient4116"
       gradientUnits="userSpaceOnUse"
       x1="35.787827"
       y1="29.652182"
       x2="39.221123"
       y2="38.78281" />
    <radialGradient
       inkscape:collect="always"
       xlink:href="#linearGradient7598"
       id="radialGradient4118"
       gradientUnits="userSpaceOnUse"
       cx="59.320999"
       cy="8.0419998"
       fx="59.320999"
       fy="8.0419998"
       r="8.3409805" />
  </defs>
  <sodipodi:namedview
     id="base"
     pagecolor="#ffffff"
     bordercolor="#666666"
     borderopacity="1.0"
     inkscape:pageopacity="0.0"
     inkscape:pageshadow="2"
     inkscape:zoom="7.5321756"
     inkscape:cx="42.515716"
     inkscape:cy="48.04715"
     inkscape:current-layer="g4082"
     showgrid="true"
     inkscape:document-units="px"
     inkscape:grid-bbox="true"
     inkscape:window-width="1680"
     inkscape:window-height="974"
     inkscape:window-x="0"
     inkscape:window-y="22" />
  <metadata
     id="metadata2257">
    <rdf:RDF>
      <cc:Work
         rdf:about="">
        <dc:format>image/svg+xml</dc:format>
        <dc:type
           rdf:resource="http://purl.org/dc/dcmitype/StillImage" />
        <dc:title>Gtwitter</dc:title>
        <dc:creator>
          <cc:Agent>
            <dc:title>Mathieu Drouet</dc:title>
          </cc:Agent>
        </dc:creator>
        <dc:subject>
          <rdf:Bag>
            <rdf:li>gtwitter</rdf:li>
            <rdf:li>twitter</rdf:li>
            <rdf:li>tango</rdf:li>
            <rdf:li>bird</rdf:li>
          </rdf:Bag>
        </dc:subject>
        <cc:license
           rdf:resource="http://creativecommons.org/licenses/by-sa/2.5/" />
        <dc:description>gTwitter is a Linux client for reading and posting to twitter.com web service.</dc:description>
        <dc:source>gTwitter is a Linux client for reading and posting to twitter.com web service.
</dc:source>
      </cc:Work>
      <cc:License
         rdf:about="http://creativecommons.org/licenses/by-sa/2.5/">
        <cc:permits
           rdf:resource="http://web.resource.org/cc/Reproduction" />
        <cc:permits
           rdf:resource="http://web.resource.org/cc/Distribution" />
        <cc:requires
           rdf:resource="http://web.resource.org/cc/Notice" />
        <cc:requires
           rdf:resource="http://web.resource.org/cc/Attribution" />
        <cc:permits
           rdf:resource="http://web.resource.org/cc/DerivativeWorks" />
        <cc:requires
           rdf:resource="http://web.resource.org/cc/ShareAlike" />
      </cc:License>
    </rdf:RDF>
  </metadata>
  <g
     id="layer1"
     inkscape:label="Layer 1"
     inkscape:groupmode="layer">
    <g
       id="g4082"
       transform="matrix(1.0760637,0,0,1.0735606,-2.9879726,-2.27603)">
      <path
         style="fill:url(#linearGradient4104);fill-opacity:1;stroke:#204a87;stroke-width:1;stroke-linecap:round;stroke-linejoin:round;stroke-miterlimit:4;stroke-dasharray:none"
         id="path2340"
         d="M 31.622608,31.081193 C 31.622608,31.081193 15.433852,30.14187 13.323036,28.031056 C 11.212222,25.920239 12.150917,31.315242 15.904451,33.192008 C 19.657983,35.069401 22.238773,35.538749 23.176844,37.415515 C 24.11554,39.291657 31.857282,47.269949 33.5,44.453861" />
      <path
         sodipodi:nodetypes="csssc"
         style="opacity:0.4;fill:none;fill-opacity:1;stroke:#729fcf;stroke-width:1;stroke-linecap:butt;stroke-linejoin:miter;stroke-miterlimit:4;stroke-dasharray:none"
         id="path2342"
         d="M 30.364808,32.333016 C 30.364808,32.333016 16.255706,31.078446 14.351469,29.371781 C 12.447232,27.665118 13.479243,31.283385 16.865996,32.80087 C 20.252186,34.318355 22.766147,34.883473 23.612977,36.400452 C 24.459241,37.916925 29.586436,44.117564 31.067823,41.841842" />
      <path
         transform="matrix(1.6327193,0,0,1.8381039,-12.746499,-28.996431)"
         d="M 43.902678 45.153286 A 13.474453 2.7201946 0 1 1  16.953772,45.153286 A 13.474453 2.7201946 0 1 1  43.902678 45.153286 z"
         sodipodi:ry="2.7201946"
         sodipodi:rx="13.474453"
         sodipodi:cy="45.153286"
         sodipodi:cx="30.428225"
         id="path9966"
         style="opacity:0.44999994;fill:url(#radialGradient4106);fill-opacity:1;stroke:none;stroke-width:1.79999995;stroke-linecap:round;stroke-linejoin:round;stroke-miterlimit:4;stroke-dasharray:none;stroke-opacity:1;display:inline"
         sodipodi:type="arc" />
      <path
         style="fill:url(#linearGradient4108);fill-opacity:1;stroke:#204a87;stroke-width:1;stroke-linecap:round;stroke-linejoin:round;stroke-miterlimit:4;stroke-dasharray:none"
         id="path2225"
         d="M 45.49277,53.061084 C 44.043422,53.597392 41.562134,44.192906 41.562134,44.192906 L 37.128358,44.453865 L 32.694583,44.192906 C 32.694583,44.192906 30.212044,53.597392 28.763949,53.061084 C 27.316479,52.524149 28.763949,54.405922 28.763949,54.405922 C 28.763949,54.405922 35.38426,51.449655 36.83173,52.793242 C 36.947502,52.900254 37.041998,52.915898 37.128358,52.893369 C 37.214719,52.915898 37.309214,52.900254 37.424986,52.793242 C 38.872457,51.450281 45.493395,54.405922 45.493395,54.405922 C 45.493395,54.405922 46.938987,52.523524 45.49277,53.061084 z " />
      <path
         sodipodi:nodetypes="ccssscccc"
         id="path19076"
         d="M 32.659412,46.5 C 32.659412,46.5 31.84311,49.561742 30.878162,52.09375 C 31.772956,51.888531 33.98946,51.636768 34.975186,51.260226 C 35.674116,50.993239 35.122092,50.548577 35.858334,50.525465 C 36.123225,50.51715 36.390305,51.4375 36.659412,51.4375 C 39.105395,51.4375 41.395197,51.762788 43.378162,52.3125 C 42.376815,49.742448 41.534412,46.5 41.534412,46.5 L 37.096912,46.75 L 32.659412,46.5 z "
         style="opacity:0.4;fill:none;fill-opacity:1;stroke:#729fcf;stroke-width:1;stroke-linecap:butt;stroke-linejoin:miter;stroke-miterlimit:4;stroke-dasharray:none;stroke-opacity:1" />
      <path
         style="fill:url(#linearGradient4110);fill-opacity:1;stroke:#204a87;stroke-width:1;stroke-linecap:round;stroke-linejoin:round;stroke-miterlimit:4;stroke-dasharray:none"
         id="path2227"
         d="M 42.281801,31.081193 C 42.281801,31.081193 58.470557,30.14187 60.581373,28.031056 C 62.692187,25.920239 61.753492,31.315242 57.999958,33.192008 C 54.246426,35.069401 51.665636,35.538749 50.727565,37.415515 C 49.788869,39.291657 42.047127,47.269949 40.404409,44.453861" />
      <path
         sodipodi:nodetypes="csssc"
         style="opacity:0.4;fill:none;fill-opacity:1;stroke:#729fcf;stroke-width:1;stroke-linecap:butt;stroke-linejoin:miter;stroke-miterlimit:4;stroke-dasharray:none"
         id="path2323"
         d="M 43.539601,32.333016 C 43.539601,32.333016 57.648703,31.078446 59.55294,29.371781 C 61.457177,27.665118 60.425166,31.283385 57.038413,32.80087 C 53.652223,34.318355 51.138262,34.883473 50.291432,36.400452 C 49.445168,37.916925 44.317973,44.117564 42.836586,41.841842" />
      <path
         style="color:#000000;fill:url(#linearGradient4112);fill-opacity:1;fill-rule:nonzero;stroke:#787878;stroke-width:0.8498655;stroke-linecap:butt;stroke-linejoin:miter;marker:none;marker-start:none;marker-mid:none;marker-end:none;stroke-miterlimit:4;stroke-dashoffset:0;stroke-opacity:1;visibility:visible;display:block;overflow:visible"
         d="M 4.8506411,5.2802858 C 3.9675675,5.2802858 3.267476,6.0201873 3.267476,6.9201139 L 3.267476,19.827146 C 3.267476,20.727072 3.9675675,21.440526 4.8506411,21.440526 L 16.503772,21.440526 C 17.209624,22.386342 18.583214,23.919854 21.876151,25.196261 C 20.41006,23.440435 20.413184,22.248047 20.578475,21.440526 L 22.966199,21.440526 C 23.849271,21.440526 24.575315,20.727072 24.575317,19.827146 L 24.575317,6.9201139 C 24.575317,6.0201873 23.849271,5.2802858 22.966199,5.2802858 L 4.8506411,5.2802858 z "
         id="path29441" />
      <path
         sodipodi:nodetypes="cccccccccccc"
         id="path29449"
         d="M 5.1790005,6.1204078 C 4.3780418,6.1204078 4.1293719,6.5124968 4.1293719,7.3287421 L 4.1293719,19.400447 C 4.1293719,20.216692 4.3351176,20.563331 5.1360763,20.563331 L 16.950434,20.563331 C 17.590651,21.421199 18.707741,22.769191 19.934565,23.325961 C 19.592069,22.334351 19.723678,21.510388 19.787749,20.563331 L 22.683166,20.563331 C 23.484123,20.563331 23.713409,20.216692 23.713409,19.400447 L 23.713409,7.4360538 C 23.713409,6.6198086 23.484123,6.1204078 22.683166,6.1204078 L 5.1790005,6.1204078 z "
         style="color:#000000;fill:none;fill-opacity:1;fill-rule:nonzero;stroke:#ffffff;stroke-width:0.84986585;stroke-linecap:butt;stroke-linejoin:miter;marker:none;marker-start:none;marker-mid:none;marker-end:none;stroke-miterlimit:4;stroke-dashoffset:0;stroke-opacity:1;visibility:visible;display:block;overflow:visible" />
      <path
         style="fill:url(#radialGradient4114);fill-opacity:1;stroke:#204a87;stroke-width:1;stroke-linecap:round;stroke-linejoin:round;stroke-miterlimit:4;stroke-dasharray:none"
         id="path2231"
         d="M 28.979223,36.891101 C 28.979223,32.337798 32.568798,28.646844 36.997567,28.646844 C 41.425711,28.646844 45.015911,32.337798 45.015911,36.891101 C 45.015911,41.443778 41.425711,47.942059 36.997567,47.942059 C 32.569424,47.942059 28.979223,41.443778 28.979223,36.891101 z " />
      <path
         sodipodi:nodetypes="cscsssscsc"
         id="path19018"
         d="M 37,28.409707 C 32.571231,28.409707 28.96875,32.075153 28.96875,36.628457 C 28.96875,37.653282 29.16755,38.784023 29.5,39.909707 C 29.953239,39.482181 30.441951,39.091615 30.961255,38.743107 C 31.434388,38.425585 31.586183,35.831423 32.106414,35.587583 C 32.839106,35.244159 33.961582,37.289188 34.770067,37.110343 C 35.548587,36.938126 36.357467,36.847207 37.1875,36.847207 C 40.015957,36.847207 42.58938,37.898292 44.5625,39.628457 C 44.844249,38.597149 45,37.56823 45,36.628457 C 45,32.075154 41.428143,28.409708 37,28.409707 z "
         style="opacity:0.4;fill:url(#linearGradient4116);fill-opacity:1;stroke:none;stroke-width:1;stroke-linecap:round;stroke-linejoin:round;stroke-miterlimit:4;stroke-dasharray:none" />
      <path
         style="opacity:0.4;fill:none;fill-opacity:1;stroke:#729fcf;stroke-width:1;stroke-linecap:round;stroke-linejoin:round;stroke-miterlimit:4;stroke-dasharray:none"
         id="path9176"
         d="M 29.67578,36.991829 C 29.67578,32.854092 32.869721,29.5 36.810363,29.5 C 40.750448,29.5 43.944946,32.854092 43.944946,36.991829 C 43.944946,41.128997 40.750448,47.034198 36.810363,47.034198 C 32.870279,47.034198 29.67578,41.128997 29.67578,36.991829 z " />
      <circle
         style="fill:url(#radialGradient4118);fill-opacity:1;stroke:#204a87;stroke-width:1.59796095;stroke-miterlimit:4;stroke-dasharray:none"
         sodipodi:ry="7.5419998"
         sodipodi:rx="7.5419998"
         sodipodi:cy="8.0419998"
         sodipodi:cx="59.320999"
         id="circle2235"
         r="7.5419998"
         cy="8.0419998"
         cx="59.320999"
         transform="matrix(0.6257975,0,0,0.6257975,0.1499833,20.6673)" />
      <path
         style="fill:#eeeeec;stroke:#d3d7cf;stroke-width:1;stroke-miterlimit:4;stroke-dasharray:none"
         id="path2237"
         d="M 38.441875,24.663056 C 38.441875,25.355187 37.880534,25.915902 37.187776,25.915902 C 36.49627,25.915902 35.5,25.415891 35.5,24.723133 C 35.5,24.031002 36.49627,23.408958 37.187776,23.408958 C 37.880534,23.409584 38.441875,23.970924 38.441875,24.663056 z " />
      <circle
         style="opacity:0.4;fill:none;fill-opacity:1;stroke:#729fcf;stroke-width:1.59796095;stroke-miterlimit:4;stroke-dasharray:none"
         sodipodi:ry="7.5419998"
         sodipodi:rx="7.5419998"
         sodipodi:cy="8.0419998"
         sodipodi:cx="59.320999"
         id="circle2329"
         r="7.5419998"
         cy="8.0419998"
         cx="59.320999"
         transform="matrix(0.5271662,0,0,0.5271662,6.0008906,21.460493)" />
      <g
         id="g3795">
        <path
           d="M 27.917847,26.517504 C 27.917847,26.517504 28.262697,28.425506 31.365845,28.494979 C 34.468992,28.564453 33.60007,27.8964 33.393161,27.519834 C 33.18625,27.143268 33.46213,26.893062 33.46213,26.893062"
           id="path2233"
           style="fill:#edd400;stroke:#c4a000;stroke-width:1;stroke-linecap:round;stroke-linejoin:round;stroke-miterlimit:4;stroke-dasharray:none" />
        <path
           d="M 31.998153,25.166798 C 31.998153,25.166798 29.296745,24.3452 27.5,26.656953 C 27.5,26.656953 28.293911,26.113751 30.494406,27.060705 C 32.694399,28.007658 33.585974,27.088394 33.515997,26.671049 C 33.446524,26.253202 33.501901,25.626431 31.998153,25.166798 z "
           id="path2241"
           style="fill:#fce94f;stroke:#c4a000;stroke-width:1;stroke-linecap:round;stroke-linejoin:round;stroke-miterlimit:4;stroke-dasharray:none" />
      </g>
    </g>
  </g>
</svg>
