<?xml version="1.0" encoding="UTF-8" standalone="no"?>
<!-- Created with Inkscape (http://www.inkscape.org/) -->
<svg
   xmlns:i="http://ns.adobe.com/AdobeIllustrator/10.0/"
   xmlns:dc="http://purl.org/dc/elements/1.1/"
   xmlns:cc="http://web.resource.org/cc/"
   xmlns:rdf="http://www.w3.org/1999/02/22-rdf-syntax-ns#"
   xmlns:svg="http://www.w3.org/2000/svg"
   xmlns="http://www.w3.org/2000/svg"
   xmlns:xlink="http://www.w3.org/1999/xlink"
   xmlns:sodipodi="http://sodipodi.sourceforge.net/DTD/sodipodi-0.dtd"
   xmlns:inkscape="http://www.inkscape.org/namespaces/inkscape"
   width="64px"
   height="64px"
   id="svg4114"
   sodipodi:version="0.32"
   inkscape:version="0.45.1"
   sodipodi:docbase="/Users/izo/Desktop/SPIP en cours/spip-zone/_graphismes_/logos/spip_tango/spip_apero/svg"
   sodipodi:docname="spip_apero.svg"
   inkscape:export-filename="/Users/izo/Desktop/SPIP en cours/spip-zone/_graphismes_/logos/spip_tango/spip_apero/png/spip_apero.png"
   inkscape:export-xdpi="180"
   inkscape:export-ydpi="180"
   inkscape:output_extension="org.inkscape.output.svg.inkscape">
  <defs
     id="defs4116">
    <linearGradient
       inkscape:collect="always"
       xlink:href="#linearGradient9766"
       id="linearGradient4276"
       gradientUnits="userSpaceOnUse"
       x1="2.8471999"
       y1="2.8462"
       x2="53.7616"
       y2="53.760601"
       gradientTransform="translate(45.96259,5.679287)" />
    <linearGradient
       inkscape:collect="always"
       id="linearGradient2295">
      <stop
         style="stop-color:#ffffff;stop-opacity:1;"
         offset="0"
         id="stop2297" />
      <stop
         style="stop-color:#ffffff;stop-opacity:0;"
         offset="1"
         id="stop2299" />
    </linearGradient>
    <radialGradient
       inkscape:collect="always"
       xlink:href="#linearGradient2295"
       id="radialGradient2303"
       cx="197.48041"
       cy="16.234577"
       fx="197.48041"
       fy="16.234577"
       r="20"
       gradientTransform="matrix(3.294704,0.868656,-0.165623,1.253561,-637.7551,-187.0348)"
       gradientUnits="userSpaceOnUse" />
    <linearGradient
       id="linearGradient1789">
      <stop
         style="stop-color:#babdb6;stop-opacity:1;"
         offset="0"
         id="stop1790" />
      <stop
         style="stop-color:#ffffff;stop-opacity:1;"
         offset="1"
         id="stop1791" />
    </linearGradient>
    <linearGradient
       id="linearGradient137">
      <stop
         style="stop-color:#ffffff;stop-opacity:1;"
         offset="0"
         id="stop138" />
      <stop
         style="stop-color:#ffffff;stop-opacity:0.0000000;"
         offset="1.0000000"
         id="stop139" />
    </linearGradient>
    <linearGradient
       id="linearGradient1696">
      <stop
         id="stop1698"
         offset="0.0000000"
         style="stop-color:#d3d7cf" />
      <stop
         id="stop1700"
         offset="1.0000000"
         style="stop-color:#888a85" />
    </linearGradient>
    <linearGradient
       id="linearGradient259">
      <stop
         style="stop-color:#fafafa;stop-opacity:1.0000000;"
         offset="0.0000000"
         id="stop260" />
      <stop
         id="stop8238"
         offset="0.5"
         style="stop-color:#a8a8a8;stop-opacity:1;" />
      <stop
         style="stop-color:#cdcdcd;stop-opacity:1;"
         offset="1"
         id="stop261" />
    </linearGradient>
    <linearGradient
       id="linearGradient335">
      <stop
         style="stop-color:#ffffff;stop-opacity:1.0000000;"
         offset="0.0000000"
         id="stop336" />
      <stop
         style="stop-color:#ffffff;stop-opacity:0.0000000;"
         offset="1.0000000"
         id="stop337" />
    </linearGradient>
    <linearGradient
       id="linearGradient148">
      <stop
         style="stop-color:#ffffff;stop-opacity:1;"
         offset="0"
         id="stop149" />
      <stop
         style="stop-color:#ffffff;stop-opacity:0;"
         offset="1"
         id="stop150" />
    </linearGradient>
    <linearGradient
       id="linearGradient9766">
      <stop
         style="stop-color:#5c3566;stop-opacity:1;"
         offset="0"
         id="stop9768" />
      <stop
         style="stop-color:#ad7fa8;stop-opacity:1;"
         offset="1"
         id="stop9770" />
    </linearGradient>
    <linearGradient
       id="XMLID_4_"
       gradientUnits="userSpaceOnUse"
       x1="-284.3638"
       y1="215.6255"
       x2="-246.9983"
       y2="252.991"
       gradientTransform="matrix(1,0,0,-1,293.9873,250.5107)">
      <stop
         offset="0"
         style="stop-color:#000000"
         id="stop4077" />
      <stop
         offset="0.0564"
         style="stop-color:#050505"
         id="stop4079" />
      <stop
         offset="0.1191"
         style="stop-color:#121212"
         id="stop4081" />
      <stop
         offset="0.1848"
         style="stop-color:#282828"
         id="stop4083" />
      <stop
         offset="0.2527"
         style="stop-color:#474747"
         id="stop4085" />
      <stop
         offset="0.3222"
         style="stop-color:#707070"
         id="stop4087" />
      <stop
         offset="0.3931"
         style="stop-color:#A1A1A1"
         id="stop4089" />
      <stop
         offset="0.4638"
         style="stop-color:#DADADA"
         id="stop4091" />
      <stop
         offset="0.5056"
         style="stop-color:#FFFFFF"
         id="stop4093" />
      <stop
         offset="0.5221"
         style="stop-color:#F3F3F3"
         id="stop4095" />
      <stop
         offset="0.6266"
         style="stop-color:#AAAAAA"
         id="stop4097" />
      <stop
         offset="0.725"
         style="stop-color:#6E6E6E"
         id="stop4099" />
      <stop
         offset="0.8142"
         style="stop-color:#3E3E3E"
         id="stop4101" />
      <stop
         offset="0.8926"
         style="stop-color:#1C1C1C"
         id="stop4103" />
      <stop
         offset="0.9572"
         style="stop-color:#080808"
         id="stop4105" />
      <stop
         offset="1"
         style="stop-color:#000000"
         id="stop4107" />
    </linearGradient>
    <linearGradient
       id="XMLID_3_"
       gradientUnits="userSpaceOnUse"
       x1="2.8472"
       y1="2.8462"
       x2="53.7616"
       y2="53.7606">
      <stop
         offset="0"
         style="stop-color:#FCAF3E"
         id="stop4052" />
      <stop
         offset="0.0386"
         style="stop-color:#F7A637"
         id="stop4054" />
      <stop
         offset="0.1762"
         style="stop-color:#E88B23"
         id="stop4056" />
      <stop
         offset="0.3264"
         style="stop-color:#DD7614"
         id="stop4058" />
      <stop
         offset="0.4939"
         style="stop-color:#D46708"
         id="stop4060" />
      <stop
         offset="0.6923"
         style="stop-color:#CF5F02"
         id="stop4062" />
      <stop
         offset="1"
         style="stop-color:#CE5C00"
         id="stop4064" />
    </linearGradient>
    <foreignObject
       id="foreignObject4047"
       height="1"
       width="1"
       y="0"
       x="0"
       requiredExtensions="http://ns.adobe.com/AdobeIllustrator/10.0/">
      <i:pgfRef
         xlink:href="#adobe_illustrator_pgf" />
    </foreignObject>
    <linearGradient
       inkscape:collect="always"
       xlink:href="#XMLID_3_"
       id="linearGradient4239"
       gradientUnits="userSpaceOnUse"
       x1="2.8472"
       y1="2.8462"
       x2="53.7616"
       y2="53.7606" />
    <linearGradient
       inkscape:collect="always"
       xlink:href="#XMLID_4_"
       id="linearGradient4241"
       gradientUnits="userSpaceOnUse"
       gradientTransform="matrix(1,0,0,-1,293.9873,250.5107)"
       x1="-284.3638"
       y1="215.6255"
       x2="-246.9983"
       y2="252.991" />
    <linearGradient
       id="linearGradient4150"
       gradientUnits="userSpaceOnUse"
       x1="2.8471999"
       y1="2.8462"
       x2="53.7616"
       y2="53.760601">
      <stop
         offset="0"
         style="stop-color:#FCAF3E"
         id="stop4152" />
      <stop
         offset="0.0386"
         style="stop-color:#F7A637"
         id="stop4154" />
      <stop
         offset="0.1762"
         style="stop-color:#E88B23"
         id="stop4156" />
      <stop
         offset="0.3264"
         style="stop-color:#DD7614"
         id="stop4158" />
      <stop
         offset="0.4939"
         style="stop-color:#D46708"
         id="stop4160" />
      <stop
         offset="0.6923"
         style="stop-color:#CF5F02"
         id="stop4162" />
      <stop
         offset="1"
         style="stop-color:#CE5C00"
         id="stop4164" />
    </linearGradient>
    <linearGradient
       id="linearGradient4171"
       gradientUnits="userSpaceOnUse"
       x1="-284.3638"
       y1="215.6255"
       x2="-246.99831"
       y2="252.991"
       gradientTransform="matrix(1,0,0,-1,293.9873,250.5107)">
      <stop
         offset="0"
         style="stop-color:#000000"
         id="stop4173" />
      <stop
         offset="0.0564"
         style="stop-color:#050505"
         id="stop4175" />
      <stop
         offset="0.1191"
         style="stop-color:#121212"
         id="stop4177" />
      <stop
         offset="0.1848"
         style="stop-color:#282828"
         id="stop4179" />
      <stop
         offset="0.2527"
         style="stop-color:#474747"
         id="stop4181" />
      <stop
         offset="0.3222"
         style="stop-color:#707070"
         id="stop4183" />
      <stop
         offset="0.3931"
         style="stop-color:#A1A1A1"
         id="stop4185" />
      <stop
         offset="0.4638"
         style="stop-color:#DADADA"
         id="stop4187" />
      <stop
         offset="0.5056"
         style="stop-color:#FFFFFF"
         id="stop4189" />
      <stop
         offset="0.5221"
         style="stop-color:#F3F3F3"
         id="stop4191" />
      <stop
         offset="0.6266"
         style="stop-color:#AAAAAA"
         id="stop4193" />
      <stop
         offset="0.725"
         style="stop-color:#6E6E6E"
         id="stop4195" />
      <stop
         offset="0.8142"
         style="stop-color:#3E3E3E"
         id="stop4197" />
      <stop
         offset="0.8926"
         style="stop-color:#1C1C1C"
         id="stop4199" />
      <stop
         offset="0.9572"
         style="stop-color:#080808"
         id="stop4201" />
      <stop
         offset="1"
         style="stop-color:#000000"
         id="stop4203" />
    </linearGradient>
    <linearGradient
       inkscape:collect="always"
       xlink:href="#linearGradient335"
       id="linearGradient254095"
       x1="15.852475"
       y1="59.484016"
       x2="37.857845"
       y2="5.9715924"
       gradientUnits="userSpaceOnUse"
       gradientTransform="matrix(1.0197712,0,0,1.0180545,-0.6589898,-0.6488769)" />
    <linearGradient
       inkscape:collect="always"
       xlink:href="#linearGradient9766"
       id="linearGradient256297"
       gradientUnits="userSpaceOnUse"
       gradientTransform="translate(-41.612,-1.000003)"
       x1="2.8471999"
       y1="2.8462"
       x2="53.7616"
       y2="53.760601" />
    <linearGradient
       inkscape:collect="always"
       xlink:href="#linearGradient335"
       id="linearGradient256302"
       gradientUnits="userSpaceOnUse"
       gradientTransform="matrix(1.026149,0,0,1.026149,3.875265,3.486922)"
       x1="25.392654"
       y1="0.50000298"
       x2="28.2995"
       y2="23.396965" />
    <radialGradient
       inkscape:collect="always"
       xlink:href="#linearGradient9766"
       id="radialGradient256304"
       cx="32.727272"
       cy="32.727272"
       fx="32.727272"
       fy="32.727272"
       r="28.306"
       gradientTransform="matrix(1.863325,0.354902,-0.298393,1.566659,-18.48868,-30.16011)"
       gradientUnits="userSpaceOnUse" />
    <linearGradient
       inkscape:collect="always"
       xlink:href="#linearGradient137"
       id="linearGradient5320"
       x1="4.1363635"
       y1="13.295455"
       x2="15.397727"
       y2="43.008522"
       gradientUnits="userSpaceOnUse"
       gradientTransform="matrix(1.0130746,0,0,1.0180197,24.129954,-7.6840894)" />
    <radialGradient
       inkscape:collect="always"
       xlink:href="#linearGradient9766"
       id="radialGradient6729"
       gradientUnits="userSpaceOnUse"
       gradientTransform="matrix(1.863325,0.354902,-0.298393,1.566659,-18.48868,-30.16011)"
       cx="32.727272"
       cy="32.727272"
       fx="32.727272"
       fy="32.727272"
       r="28.306" />
    <linearGradient
       inkscape:collect="always"
       xlink:href="#linearGradient335"
       id="linearGradient6731"
       gradientUnits="userSpaceOnUse"
       gradientTransform="matrix(1.0197712,0,0,1.0180545,-0.6589898,-0.6488769)"
       x1="15.852475"
       y1="59.484016"
       x2="37.857845"
       y2="5.9715924" />
    <linearGradient
       inkscape:collect="always"
       xlink:href="#linearGradient137"
       id="linearGradient6733"
       gradientUnits="userSpaceOnUse"
       gradientTransform="matrix(1.0130746,0,0,1.0180197,24.129954,-7.6840894)"
       x1="4.1363635"
       y1="13.295455"
       x2="15.397727"
       y2="43.008522" />
    <linearGradient
       inkscape:collect="always"
       xlink:href="#linearGradient137"
       id="linearGradient6736"
       gradientUnits="userSpaceOnUse"
       gradientTransform="matrix(1.0130746,0,0,1.0180197,23.834574,-7.6840894)"
       x1="4.1363635"
       y1="13.295455"
       x2="15.397727"
       y2="43.008522" />
    <linearGradient
       inkscape:collect="always"
       xlink:href="#linearGradient335"
       id="linearGradient6739"
       gradientUnits="userSpaceOnUse"
       gradientTransform="matrix(1.0197712,0,0,1.0180545,-0.9543702,-0.6488769)"
       x1="15.852475"
       y1="59.484016"
       x2="37.857845"
       y2="5.9715924" />
    <linearGradient
       inkscape:collect="always"
       xlink:href="#linearGradient9766"
       id="linearGradient6766"
       x1="10.125893"
       y1="6.727272"
       x2="56.737892"
       y2="58.363636"
       gradientUnits="userSpaceOnUse" />
  </defs>
  <sodipodi:namedview
     id="base"
     pagecolor="#ffffff"
     bordercolor="#666666"
     borderopacity="1.0"
     inkscape:pageopacity="0.0"
     inkscape:pageshadow="2"
     inkscape:zoom="5.5"
     inkscape:cx="24.268591"
     inkscape:cy="33.470258"
     inkscape:current-layer="layer1"
     showgrid="true"
     inkscape:document-units="px"
     inkscape:grid-bbox="true"
     inkscape:window-width="1680"
     inkscape:window-height="977"
     inkscape:window-x="0"
     inkscape:window-y="22" />
  <metadata
     id="metadata4119">
    <rdf:RDF>
      <cc:Work
         rdf:about="">
        <dc:format>image/svg+xml</dc:format>
        <dc:type
           rdf:resource="http://purl.org/dc/dcmitype/StillImage" />
      </cc:Work>
    </rdf:RDF>
  </metadata>
  <g
     id="layer1"
     inkscape:label="Layer 1"
     inkscape:groupmode="layer">
    <g
       id="g2096"
       inkscape:label="Shadow"
       style="display:inline"
       transform="matrix(1.363845,0,0,0.951916,0.3909226,22.17559)">
      <g
         id="g3354"
         transform="matrix(1.014414,0,0.181179,0.920015,-7.88527,-0.346345)"
         style="opacity:0.5">
        <path
           style="opacity:0.06666703;fill:#000000;fill-opacity:1;stroke:none"
           d="M 7.125,42.875 C 5.817069,43.482054 13.621333,43.007633 15.276786,43.15625 C 22.728539,42.973662 32.710951,43.498864 38.90625,42.9375 C 28.327868,42.734036 17.711605,42.86803 7.125,42.875 z "
           id="path3371" />
        <path
           style="opacity:0.06666703;fill:#000000;fill-opacity:1;stroke:none"
           d="M 7.0625,42.46875 C 6.3400984,42.322911 4.5748491,43.092456 6.15625,43.40625 C 16.926732,43.761038 27.745751,43.49232 38.53125,43.53125 C 39.259295,43.667433 40.970679,42.899465 39.40625,42.59375 C 28.651625,42.23896 17.832877,42.507715 7.0625,42.46875 z "
           id="path3376" />
        <path
           style="opacity:0.06666703;fill:#000000;fill-opacity:1;stroke:none"
           d="M 7,41.9375 C 6.238889,42.017514 5.0528764,42.13462 4.90625,43 C 5.0554797,43.867799 6.2372349,43.981311 7,44.0625 C 13.264716,44.135404 19.533658,44.072928 25.8,44.09375 C 30.053851,44.073213 34.310272,44.13502 38.5625,44.0625 C 39.323611,43.982486 40.509624,43.86538 40.65625,43 C 40.50702,42.132201 39.325265,42.018689 38.5625,41.9375 C 32.297784,41.864596 26.028842,41.927072 19.7625,41.90625 C 15.508734,41.926787 11.252106,41.86498 7,41.9375 z "
           id="path3381" />
        <path
           style="opacity:0.06666703;fill:#000000;fill-opacity:1;stroke:none"
           d="M 6.96875,41.59375 C 5.6519933,41.323289 3.5519537,42.931351 5.21875,43.9375 C 9.0532143,45.125005 13.356235,44.092531 17.357144,44.4375 C 24.759306,44.297351 32.230079,44.708618 39.59375,44.25 C 41.358993,44.144081 41.323358,41.818942 39.5625,41.75 C 28.922174,41.29843 18.17842,41.697773 7.5,41.5625 C 7.3225477,41.561098 7.1458643,41.584324 6.96875,41.59375 z "
           id="path3386" />
        <path
           style="opacity:0.06666703;fill:#000000;fill-opacity:1;stroke:none"
           d="M 6.9375,41.1875 C 4.3166183,40.611464 3.041246,44.366005 5.96875,44.6875 C 17.331495,44.784213 28.882648,45.274303 40.1875,44.5 C 42.921998,43.395085 40.232604,40.436766 38.0625,41.15625 C 27.68793,41.178914 17.310405,41.112116 6.9375,41.1875 z "
           id="path3391" />
        <path
           style="opacity:0.06666703;fill:#000000;fill-opacity:1;stroke:none"
           d="M 6.90625,40.75 C 3.3835192,40.146457 2.6671782,45.28727 6.375,45.1875 C 17.688718,45.005018 29.256776,45.967066 40.46875,44.84375 C 43.52024,43.486131 40.646309,39.961248 38.0625,40.71875 C 27.677532,40.741908 17.289547,40.673948 6.90625,40.75 z "
           id="path3396" />
        <path
           style="opacity:0.06666703;fill:#000000;fill-opacity:1;stroke:none"
           d="M 6.90625,40.3125 C 2.8715713,39.687948 2.0833445,45.679261 6.3125,45.59375 C 17.653302,45.498337 29.282996,46.368048 40.53125,45.28125 C 44.147219,43.884667 41.225187,39.440237 38.0625,40.28125 C 27.67753,40.304368 17.289549,40.236503 6.90625,40.3125 z "
           id="path3401" />
        <path
           style="opacity:0.06666703;fill:#000000;fill-opacity:1;stroke:none"
           d="M 7.375,39.875 C 3.0249191,38.906286 1.0597142,45.351008 5.78125,45.96875 C 17.358885,46.018088 29.218515,46.792733 40.71875,45.6875 C 44.724914,44.072465 41.707772,39.013682 38.0625,39.84375 C 27.835932,39.864975 17.589222,39.80156 7.375,39.875 z "
           id="path3406" />
        <path
           style="opacity:0.06666703;fill:#000000;fill-opacity:1;stroke:none"
           d="M 6.84375,39.46875 C 1.8233552,38.854506 1.024099,46.413494 6.1875,46.46875 C 17.701887,46.270396 29.463081,47.285228 40.875,46.09375 C 45.32893,44.340109 42.166414,38.505662 38.0625,39.4375 C 27.656698,39.460656 17.24788,39.392698 6.84375,39.46875 z "
           id="path3411" />
        <path
           style="opacity:0.06666703;fill:#000000;fill-opacity:1;stroke:none"
           d="M 6.8125,39.03125 C 1.5959042,38.420912 0.27591709,46.270495 5.65625,46.8125 C 17.305315,46.895787 29.202609,47.580396 40.78125,46.5625 C 45.907832,44.98461 42.853887,37.956476 38.0625,39 C 27.646283,39.023191 17.227045,38.95515 6.8125,39.03125 z "
           id="path3416" />
      </g>
    </g>
    <path
       d="M 60.237893,52.515273 C 60.237893,56.944273 56.647893,60.532273 52.219893,60.532273 L 12.642893,60.532273 C 8.2148926,60.532273 4.6258926,56.944273 4.6258926,52.515273 L 4.6258926,12.938273 C 4.6258926,8.510273 8.2148926,4.922273 12.642893,4.922273 L 52.219893,4.922273 C 56.647893,4.922273 60.237893,8.510273 60.237893,12.938273 L 60.237893,52.515273 L 60.237893,52.515273 z "
       id="path4066"
       style="fill:url(#linearGradient6766);fill-opacity:1.0;stroke:#5c3566;stroke-linecap:round;stroke-linejoin:round;stroke-opacity:1" />
    <path
       d="M 59.139917,51.653998 C 59.139917,55.902345 55.692075,59.344389 51.436576,59.344389 L 13.404266,59.344389 C 9.1487671,59.344389 5.6988862,55.902345 5.6988862,51.653998 L 5.6988862,13.684603 C 5.6988862,9.4362593 9.1477475,5.9952328 13.404266,5.9952328 L 51.436576,5.9952328 C 55.692075,5.9952328 59.139917,9.4362593 59.139917,13.684603 L 59.139917,51.653998 L 59.139917,51.653998 z "
       id="path4074"
       style="opacity:0.62318845;fill:none;stroke:url(#linearGradient6739);stroke-width:1.12940586;stroke-miterlimit:4;stroke-dasharray:none" />
    <g
       id="g6678"
       transform="matrix(1.0270819,0,0,1.0270819,-0.2228301,0.1784017)">
      <g
         transform="matrix(0.3791813,0,0,0.3791813,-157.39018,-2.1231043)"
         id="g6474">
			
				<image
   style="opacity:0.2"
   id="image6476"
   transform="translate(517.9941,75.8223)"
   xlink:href="data:image/png;base64,iVBORw0KGgoAAAANSUhEUgAAADgAAAAXCAYAAABefIz9AAAACXBIWXMAAAsSAAALEgHS3X78AAAA BGdBTUEAANbY1E9YMgAAABl0RVh0U29mdHdhcmUAQWRvYmUgSW1hZ2VSZWFkeXHJZTwAAANTSURB VHjazJjfTxNBEMd7LRUErD9AoRRQY4xAND5QfFEfjP7daqIPRuuLGNREoqEWMP4AqVZKaeuM+awZ l+v1LLZlky8c3N52PzOzM3MNEhGjUCgkOhn5fD5xVEYQAaT3UqKkPy9iNEUNUZ3rvsMGBiwAxkEd E42KRrgOYsDtiX6IvouqgHYN1jqk1doOMADipCgjOi46IZoWTQGaavN5dcDWRR9EX0U7YbCHBfUc kiRqGmFrB0zWzY+J5kULorPAdgq4JtoUFQ3sN7SrmzkMpHGIc4YasBy2tgPUybOiu6J7oouEpoIN x4ALUJ0QVc9tAaewG6JV0RuuK6L9TrzJftM4ZE6UE22L3opKrP0HcsB7Po3nJgBs8oBuuubOUghc 2pzXDOE9gdGuiT6LXovGRctsRA2wKxuO7U0TbWr0GdEN1tfIeMI0jZqfbq8OsEF4rbGRNButEHIl 7tdDPjcFXA4p3CCwI8ZgY0jD/oVoxVk8DiRwSeD0c65rbhFdJTSTgKo3qzK/rmsO6A/9g7BaYb1V NmcByxjCH0mgHGAGqYUviCa5P+XN0+tnWDwS0oNTAy2JbgGXxfhTGHCIuXXrwSZWWGfyK7xYM2l/ LyJE9Qy/w5ODbF7D8wrn5JIBvcw8W3paQnphOU1Y3sF7WaZtsfcvLtEcKPQm9drifqBwRySZlEnb LsNNAjfPWVngfwmiQj/0gegpCaniHYMAJ7iwXDJwObOORsJ91vl9BsVQf51BVyibArrfQevlP1dl s9uUi/cAaCQsmjD1jVQyCSJJNGSYqwa6bZ63RnrI7xIebIa2al3oMuJ64Lnokeil6BNe1Pp2mlCf ixEBRb9EhJWJ/zZMRNTwXDEkzJ0nXSaexdMN4M6JzpOssnizEReuqx6MyIIzXqLIcU+z+Edqphri lGkdR0l6VZJJLLieAbaBXCTFpwnNPdN0pEyHVAZOa+hjW2KiWr+eAbaA1DN5kyw7ThkZZrrroFyf 6ZqQZdsktOtrewrYoiNxdTLLGXRJZJPzuIOKZOMN1+bFadp7DuhBDnHOVGco5D5g2XjRvTHEfu3q C2BIY5Gi5rmGPeF1UA3bcPzLG0jfAEPeym03lAjroDp5h+w7YNSXXEfpy6sjO34JMADI3GeXYJTI +QAAAABJRU5ErkJggg=="
   height="22"
   width="55">
			</image>

			<g
   id="g6478">
				<path
   style="fill:none;stroke:#ffffff;stroke-width:4"
   id="path6480"
   d="M 520.985,81.196 C 520.985,81.196 538.606,76.059 547.283,86.851 C 555.961,97.644 566.445,81.539 566.445,81.539" />

			</g>

		</g>
      <g
         transform="matrix(0.3791813,0,0,0.3791813,-157.39018,-2.1231043)"
         id="g6482">
			
				<image
   style="opacity:0.2"
   id="image6484"
   transform="translate(443.5098,27.3384)"
   xlink:href="data:image/png;base64,iVBORw0KGgoAAAANSUhEUgAAAB0AAAAXCAYAAAD3CERpAAAACXBIWXMAAAsSAAALEgHS3X78AAAA BGdBTUEAANbY1E9YMgAAABl0RVh0U29mdHdhcmUAQWRvYmUgSW1hZ2VSZWFkeXHJZTwAAALOSURB VHjajJZLb9NAFIVt12mgb0qBlgbKSxWwgE0RS/jPbJHYAEIQCmwQsECohVKgFKhK2iSOw7nSN+XK jZ1YOhnHnplz7nMcR+5qNpsxt3F0/Orbz9raWj8quQrrS+fHbkGiIRVOMCYFwq7QtlEb5QMI/fox oVc2P3YKx4XTwgXGmlOcCX+EL8IP4UAb9QoW1tz6WaElbA2anzKayknhmnBPWOV/8MQhhC+FV8Jn EbWcBTEWrgj3hSuItLnrzD8iTlGZovKGcFe4KUw5UnPtd2Ge/+a2La3tMMfcOSGcF24JtwV7t+AM 24Q4Dw/qwiJkV7kfd6Q5ltv1y5QLv/HQOITLwmWhwfoxXG6C94Hdd1I2tnFGOEs8aiyKnPsneN9g XOD5OeGMcAkvNZib4L0gwjy3Y55NB5RFWUkkeGSOZEkhXnVCGghIyYNdvLKNpbmVUFrIzpBtU7gz cS4OGWqW3WHdIkRzJFIot4x9XgtPhLeEJfPZ23bZOQ/ZkjANUeJiv4ygGu8nXHmFEmtjwDrEtvdh yPaEjtFFmaX4Q+GR8IaFByRSsHQW65a4rxN/75UMd+5g4aGv04RWlbO5+f+Z8AA0EdPFgkBcJ2vH Ci0zhKrHe/PESZvnWuT/VoeSFq4wlzwWniOkXdY+C1cP8X8RZt44hdDoGKmzuENSfXX12K3Iam9l EL7LHm1CE5WSulMhNOt9VHdGII3ZL2X+J+EdnaxTSVo4VUztN2FvRGsT4mzWvof0JydNfxhpKKNt Fm5gdW8IcSibDA8dsCYaaimqMmLzgeLeIL5tNsoHIGT4NPW8QuNIffamFapzrPsoPOWZHQgX6dO1 irBMcmLt4d4QnmpSs1bqwpH2gsUWp+u0wnpFPnRCLMtiUHnxGVKjH8/Tb2cQHFd4KRBvEqajZBpK 6j5HQjnUXa+NhoQn47TJ/HfSSKQjfi1Go35B/hNgAHbdHDUEnsdYAAAAAElFTkSuQmCC"
   height="23"
   width="29">
			</image>

			<g
   id="g6486">
				<g
   id="g6488">
					<path
   style="fill:#ffffff"
   id="path6490"
   d="M 456.613,44.554 C 456.723,44.722 456.793,44.813 456.793,44.813 C 453.676,43.229 455.133,39.22 455.414,35.734 C 455.865,30.184 449.743,27.265 446.541,31.32 C 443.177,35.572 450.677,37.597 450.677,37.597 C 449.865,36.584 449.621,36.624 449.826,35.328 C 449.905,34.598 450.635,34.8 450.961,35.328 C 451.322,35.894 451.566,36.669 451.445,37.434 C 450.236,43.594 453.338,45.366 457.222,45.958 C 457.293,45.396 457.119,44.867 456.613,44.554 z " />

					<path
   style="fill:#ffffff"
   id="path6492"
   d="M 467.572,32.776 C 466.517,31.074 465.181,31.114 465.181,30.993 C 465.181,30.347 465.058,29.618 464.737,29.573 C 464.454,29.573 464.209,30.951 464.128,30.751 C 463.804,30.102 462.67,29.618 462.67,29.779 C 462.586,31.196 463.604,31.725 463.276,31.841 C 462.425,32.208 462.507,33.708 462.14,33.708 C 461.576,33.708 459.266,33.749 458.009,34.721 C 453.157,38.579 455.853,43.397 456.613,44.554 C 457.119,44.866 457.291,45.396 457.22,45.959 C 457.374,45.982 457.53,46.005 457.687,46.025 C 458.372,46.109 466.112,46.069 466.112,46.069 C 465.667,43.471 463.197,45.012 463.276,44.85 C 463.886,43.838 464.005,43.349 464.005,42.945 C 464.127,39.704 461.575,41.57 462.063,40.475 C 462.181,40.15 462.792,38.896 463.603,38.896 C 464.047,38.896 464.411,38.934 464.693,39.178 C 465.221,39.662 464.937,40.676 465.382,40.437 C 465.71,40.272 465.787,39.746 465.787,39.38 C 465.787,37.678 464.247,37.555 464.247,36.706 C 464.247,36.259 464.776,35.937 465.058,35.449 C 465.666,34.435 465.505,34.153 466.112,34.191 C 466.723,34.232 467.816,33.182 467.572,32.776 z M 465.871,32.735 C 465.383,32.816 465.182,32.007 465.667,31.924 C 466.154,31.841 466.356,32.653 465.871,32.735 z " />

				</g>

			</g>

		</g>
      <g
         transform="matrix(0.3791813,0,0,0.3791813,-157.39018,-2.1231043)"
         id="g6494">
			
				<image
   style="opacity:0.2"
   id="image6496"
   transform="translate(521.5098,25.3384)"
   xlink:href="data:image/png;base64,iVBORw0KGgoAAAANSUhEUgAAABsAAAAXCAYAAAD6FjQuAAAACXBIWXMAAAsSAAALEgHS3X78AAAA BGdBTUEAANbY1E9YMgAAABl0RVh0U29mdHdhcmUAQWRvYmUgSW1hZ2VSZWFkeXHJZTwAAAKdSURB VHjanJZLb9NQEIX9uE5SkhIglXgXgYRohdhAVrBC/GwW7FhAgBUIIVoQlEepSmgoJKljmxnpu2iw 7DTE0ultfK/nzJx52GFQcQ0Gg5B/w4rtQv/0+/0i+M8rrCCJBE7QFCSlM0qQCqa6CmG+FJkQRRhv C3qCc4KTEIcQzQQ/BJ8Ee4KxJzRqBHWRh+ZgA5Lrgk1wlgj9NRHsCJ7oY4LPOBCD3NjNdM+SOtaI iJTogTomuCroEq2/jiDQ64tgCNkpwSoE3rjujSSQ1BM6onJEpdHcEdwSnIEoMnJnrJcgOCFoCW7i XE5ODwUvBVv8/ieyJpLdEFwRdPA4R14HacDvFquSXRTcFdzm3i/BW3L6weT7b/JV7xUeTpFoRGTn iToxkjeQrUeUKv8GTv6kWrucC21kBfKo8W02x4JvGLtHPn0bWMnV+GWi63JOnVkz1TyUVOWaN2eq TEN+JHju+wiDG0haQKYSrgvuE8UqhCso1MSZdUi/UliBU0ZhVmP76B1jWL28wEFb0j6yNorEOOBK MrdJiy+yLKIBfRWppwesR6VSDoyxhIi6rIkpoAyEELb8nqvo+IJpUiwweezU8A6Pkb1t2iNW9dwC I22RgatEvyn3j4yzbYpM72e2QOpIUuRM55B6Ih1jLxhj7wW73Bv6YeCOIRrxkK6nS9PEntuD6CHV vIucE/t2mBfZlLJ9TQv0OB+XyKbI9gyid0SqBEXVIA7Krwfa4bvgjeAVZAGJD03fTZBqx+dInp9V 2XXHJP2QRD/m3ia9l1BxTXI6NO1S+0KtJSO6FG+f0vQq6TVD0sHGFvvzCqnyG6P8PeKbuMNrZw2C mZkcB5T8PgVRLEVW8W3SMDmLzVt5wps5Xzqymq+u8vMLfXH9EWAAIQ78o9eii0oAAAAASUVORK5C YII="
   height="23"
   width="27">
			</image>

			<g
   id="g6498">
				<path
   style="fill:#ffffff"
   id="path6500"
   d="M 524.403,31.586 C 524.403,30.333 525.085,29.283 526.448,28.435 C 527.547,27.753 528.562,27.413 529.494,27.413 C 531.149,27.413 532.408,27.887 533.27,28.832 C 534.091,29.723 534.501,30.947 534.501,32.504 C 534.501,32.644 534.438,32.97 534.311,33.484 C 534.184,33.998 534.122,34.318 534.122,34.443 C 534.122,34.527 534.135,34.576 534.163,34.589 C 534.191,34.604 534.247,34.575 534.33,34.506 C 534.649,34.214 535.327,34.016 536.363,33.911 C 537.399,33.806 537.917,33.727 537.917,33.671 C 537.932,33.574 537.923,33.445 537.894,33.285 C 537.864,33.126 537.848,33.011 537.848,32.941 C 537.848,32.747 537.875,32.543 537.931,32.327 C 537.987,32.111 538.126,31.746 538.349,31.23 C 538.446,30.855 538.515,30.57 538.557,30.375 C 538.655,30.014 538.8,29.75 538.995,29.583 C 539.092,29.903 539.168,30.145 539.224,30.312 C 539.418,30.841 539.641,31.245 539.892,31.522 C 540.1,31.759 540.308,31.877 540.517,31.877 C 540.615,31.877 540.698,31.836 540.767,31.752 C 540.92,31.558 541.097,31.224 541.299,30.751 C 541.5,30.278 541.685,29.916 541.852,29.666 C 541.824,29.847 541.802,30 541.788,30.125 C 541.731,30.584 541.703,30.952 541.703,31.23 C 541.703,31.591 541.713,31.856 541.733,32.022 C 541.754,32.189 541.805,32.405 541.889,32.668 C 541.915,32.766 542.109,32.961 542.467,33.252 C 542.729,33.475 542.86,33.927 542.86,34.607 C 542.86,35.081 542.652,35.484 542.235,35.817 C 542.068,35.832 541.908,35.838 541.756,35.838 C 541.714,35.866 541.718,35.922 541.766,36.005 C 541.815,36.088 541.826,36.145 541.797,36.172 C 541.687,36.283 541.373,36.401 540.859,36.526 C 540.775,36.54 540.65,36.568 540.483,36.61 C 540.552,36.679 540.636,36.714 540.733,36.714 C 540.873,36.687 540.977,36.673 541.046,36.673 C 541.171,36.673 541.317,36.687 541.484,36.714 C 541.651,36.742 541.762,36.749 541.818,36.735 C 541.915,36.707 542.047,36.655 542.214,36.578 C 542.38,36.502 542.485,36.464 542.526,36.464 C 542.609,36.464 542.693,36.457 542.776,36.443 C 542.803,36.415 542.832,36.401 542.86,36.401 C 542.971,36.36 543.11,36.352 543.277,36.38 C 543.304,36.394 543.301,36.428 543.267,36.484 C 543.233,36.539 543.189,36.595 543.135,36.65 L 543.464,36.609 C 543.478,36.637 543.453,36.7 543.391,36.797 C 543.329,36.894 543.304,36.949 543.318,36.963 C 543.429,36.963 543.541,36.963 543.652,36.963 C 543.568,37.186 543.439,37.359 543.266,37.484 C 543.092,37.609 542.887,37.706 542.651,37.775 C 542.151,37.914 541.657,38.053 541.171,38.191 C 541.06,38.248 540.865,38.282 540.587,38.295 C 540.309,38.31 540.11,38.375 539.992,38.493 C 539.874,38.611 539.773,38.761 539.69,38.94 C 539.467,39.441 539.321,39.732 539.252,39.815 C 539.183,39.898 539.058,39.981 538.877,40.064 C 538.432,40.273 538.153,40.425 538.043,40.523 C 538.001,40.55 537.983,40.603 537.99,40.679 C 537.997,40.756 538.001,40.815 538.001,40.856 C 537.987,40.967 537.941,41.082 537.865,41.2 C 537.789,41.318 537.698,41.432 537.594,41.544 C 537.49,41.654 537.278,41.828 536.957,42.065 C 537.153,42.356 537.311,42.627 537.43,42.877 C 537.548,43.126 537.609,43.383 537.609,43.648 L 537.4,43.752 C 537.343,43.752 537.289,43.672 537.233,43.513 C 537.233,43.487 537.226,43.447 537.212,43.394 L 537.024,43.812 C 536.94,43.714 536.878,43.646 536.836,43.605 C 536.696,43.452 536.606,43.362 536.564,43.334 C 536.536,43.415 536.511,43.527 536.491,43.675 C 536.47,43.821 536.439,43.895 536.397,43.895 C 536.298,43.895 536.215,43.854 536.145,43.772 C 536.075,43.69 536.019,43.501 535.977,43.207 C 535.935,42.913 535.887,42.722 535.831,42.632 C 535.775,42.544 535.671,42.499 535.518,42.499 C 535.378,42.499 535.255,42.51 535.151,42.53 C 535.047,42.551 534.903,42.596 534.722,42.667 C 534.638,42.695 534.572,42.874 534.523,43.203 C 534.474,43.532 534.387,43.676 534.261,43.634 C 534.163,43.607 534.115,43.481 534.115,43.256 C 534.115,42.991 534.074,42.858 533.991,42.858 C 533.894,42.858 533.846,42.957 533.846,43.153 C 533.832,43.252 533.825,43.336 533.825,43.407 C 533.825,43.476 533.832,43.533 533.846,43.575 C 533.748,43.603 533.679,43.587 533.638,43.524 C 533.595,43.461 533.568,43.375 533.554,43.263 C 533.54,43.151 533.527,43.069 533.512,43.014 C 533.568,43.109 533.547,43.251 533.45,43.443 C 533.408,43.47 533.374,43.504 533.346,43.546 C 533.221,43.339 533.12,43.189 533.043,43.093 C 532.967,42.996 532.901,42.948 532.846,42.948 C 532.721,42.948 532.589,42.969 532.45,43.012 C 532.31,43.055 532.214,43.076 532.158,43.076 C 531.991,43.076 531.804,43.027 531.596,42.929 C 530.526,42.457 529.832,41.296 529.513,39.447 C 529.36,38.224 529.214,36.994 529.075,35.757 C 529.047,35.618 529.033,35.486 529.033,35.361 C 529.033,35.138 529.089,34.722 529.2,34.11 C 529.311,33.499 529.367,33.04 529.367,32.734 C 529.367,32.15 529.185,31.775 528.824,31.608 C 528.741,31.58 528.665,31.565 528.595,31.565 C 528.33,31.565 527.774,31.726 526.926,32.045 C 526.078,32.365 525.508,32.553 525.216,32.607 C 525.174,32.622 525.129,32.628 525.08,32.628 C 525.032,32.628 525.001,32.628 524.986,32.628 C 524.736,32.628 524.576,32.535 524.507,32.348 C 524.438,32.161 524.403,31.906 524.403,31.586 z " />

			</g>

		</g>
      <g
         transform="matrix(0.3791813,0,0,0.3791813,-157.39018,-2.1231043)"
         id="g6502">
			
				<image
   style="opacity:0.2"
   id="image6504"
   transform="translate(440.5098,38.3384)"
   xlink:href="data:image/png;base64,iVBORw0KGgoAAAANSUhEUgAAAG8AAAA0CAYAAACEjGZUAAAACXBIWXMAAAsSAAALEgHS3X78AAAA BGdBTUEAANbY1E9YMgAAABl0RVh0U29mdHdhcmUAQWRvYmUgSW1hZ2VSZWFkeXHJZTwAAAsXSURB VHja7JxtUxzHEcdnj+V4OAwIDEiAcCQ7eojjxJZIlEpeJP4U+aR5nUpVKlW2sBw7jkOELJWQCAQQ AYkzcMfdZib5jdQ37OzO3pNwFVPVPgu4nZ7+d/f0w8xGqsOxsrIS8b9Ryq8T85/l5eVEXYyuj6gD wCwNairzGTnA1TXV+EzyAM1RhCIjWGkKztny3LfBb9vgwWxJU6xpGJrUNKtpnJ9HMHOq6aWmbT7r AtATft80DDvPHUpRhKKCcJUm8SiLXEsMD77RhOdjPqN+89sWeEK4hsmKpilNVzTNaJrX9IGmORZi hwHo35q+4/ME5gyQW5r2NFURxICmMZ572VGEooKQSrOPsI+lsog1mfVMa1pi7nKG+6/B83OeX+4x v3XNa7Mj8NDOQYRrF/pjTbc0LWp6F+DG+Ts76imWZwFd1bSmaV3TK0D/Ec+8naIIRYad45Gmf2na 0bSJ4A+tUADvHeb7VNNPWKMPPPPdf2j6M880oN3ke93idwN5bTDHkVS4QuDpBRqLGMEtXtN0Q9NH gHcVlznscR1p7sAC+kzTQ03fAKD57l1NdzRd1zThKEKRYecwAtnFUlaZ7wnCOYIfw/+vNP2ez0mP 62xiFZ9r+gPP/wX0fhf5NYA91fRA09co3SufFcYBwC0i1Hto6XtYYEUAFnkUoQSwMli5hLUuogDf otU/FVpc7nAPuYRlHCP021jNZwjmOb+zXuUdgJvKAE9hmaPwdwN+L3eR3yMMYw4Z/13TY6NwGo8j F8A4w1Va4H6JW7nLPjfGgksBDKdFY1ZgMcxuIpwxqMwe2Mko8ZwxrGLa2ZsULrUkFK8kyPfMkrP3 d5vfipDDHF7oL5ruG341LjXpQmNPcDKIq7wDcPcAcjQQtDxA7fcPAe973EfUhbDbncMKe0is9xQ6 anO+KMfjtPu8EjJeQNGm+P0e7vM/mhoS8TQtGGOPu4fFLaIVA11iNsFt7QLeAcLsRTIfwXeFddxl XddYZ+mc5d7WCicJDj/EPRuvN4JXPAseVheD+A32iivC4kJAkZSV1+yLaPC4R8C5QhllPbdZ33SH OVoviycD7MXX2bp+Rmo2aIsDccqXhlngLZDP004J1inRpUJ74hT3kojweI3PcgHwEucza3/1eZX3 iJr3CihmR9WTNviV29dHyGkdnv8XvfvAm8HvTuZopqw6HOH+9vjdFMHCsFPBsC5zB8vbJ5gIAc+t cjQFKLLaUcoRyDSFhQ2eFffI+jrlt4TsZlG4Wf592GJ5IlCZpGoywx9GOe7vBRqxiTDW+f0Sz3kX S55Cy5tsvBsFXaa17BdCA2si8JpA4WZyrKnE/reEd9nsIMHuhN9Jwe9IDr8jopplvneg8Wq6llcG XVnuyrK6KpWBP5GTbBGEKLTbWvAt8pcFGP+O/G6z4H53jCD+KPLDBCVbIBj5xImMfdY3zhqrPdz3 svi1adgyoPhyxQgc5sDlr8jtJM5Y1HjOohpUBh6T+H6FRZ3w++eicP0t4N1E65+SNL9gYy5qeTbh 3keJ7N5gXfZQgEB83ZBeWJ7LbxlvVMcjjSOngQBle41L2p4XO8GGj7EG+9xLcpBDtLghgpJD9sFd APsbLsCWyKoEEEX2kDrz7QNWEwurir32KpZf7mZXpc09L43fAVzoFAotA8NgZSt5tKWWk3fJUHaR +t48+07ZBibLy8sNQNzHfZh63QqauKta+3xFNDpBCKZoa+iURN8GQb3MG1Wn/MLbIQr8T7abk8AU QqXleYlTJH2ZI9yYmpxJIn+n6bfsN0u4gCHqowoQa2jggS22iuir24I614MSVwOF28eDNYry7rrN GlV3E4R8nFN0tVHQgthzbuEabbvH+PuqBrEuWhuJE+F2PESkPKHONobP3UCph0WRPrR6laSCR0c7 rfIxFlC1WEBwVwlM1gJA7EYdsARwtjF6nerJ5cDwvx9W6vIri/6fUD+ez+E39UhJ7Kk57pCH7QNK VjFa1uIqqrVhmwbioQExr0ucMZds4Sg0doJa5V3Amw4IuNLO1/SiJJfG7yzAfQp4MxlRr3c784Fn 8ohVIYhBld32sAGMbJekgfi6IWr6UwWFZiPhafhKRI42x89uM18lI+kturd3YnFp/JbxVHegxZyi giwnPmJbq52xPFznKSHtQ6JC64IqATXALBA/UGcboicFBTLMs4zG/pxFxOxxl9XZJnFWcWEdBT1u g49O+Q2tBilPOdF4riT2LO4QC/lMbP5XCxRx00BMO6yzocIbmVKTK6JWaIOVIVE/DSnpPYJGe5RW +PgNrWtKfvfTyolxWhhLYLGNhcgjcUUbsi6IQ87zIsLlUsE9ZNARduj5SauYtmDwFMto9sjyusWv 9RKbmeABYJM96bmYwCaXRY9CSBArWLB9XhP3XKRE1e5B1yaKson7fogFXulx1NlNfs12dmqj9Tgj kWwA4DPVer4w7RBSKIg2tVgUVYa66n1H2wrCKOMXbAdPSI6b6nyNJIPfQ8lvnFMJaAgLrKk3Zy7t 8b+lNkB0O9rbqnc9NVcQ96nwP2De4XNUkUlELdSe7fnC4beeeQDJA+D3bJgHWOIa4LULou1o257a lsruHbZTIks8grgvIt3yOQOtiit/mhKZhx398+yBNaIeO8F6BohjKqyjbRuSjQLgJRnVEXkX4lgU xM8Ioo8WF8KvK9OWnBjgGnm1zdxiqungeia0IN6gTDWrsjvE8shFQ+UfuZBBk3uswI6g09J4k36c Ggvl95mvGqUy7izEOcVeF7w8EE3eZI6p/Vr9/yh4aId4DJdbztHgtGMFUqOD7in00eJC+V1168DI NrMOnHVielAIs0blpZkD4h6TR1TLJ5gjr0M8JpLXLMvzHStQqsANoT6OUH7lrang4n3sAc4eeJlD mC+s9rpFZQfEU0BYY9O9DjADOVUIFZALZR0ryCo4J2/pZm4Rfk/aUbA4xVXa3pyp0H/Mv58AiC0q H8NE2o3OJgHBK9XaZIwyFtgMtDzfsYIzAcI5uUrdU3595zZNBGiOhP8Gy9lCez5nU90R2m1cakO9 uSC5QBF6kVbIQE6r4xXuosLfDwZYoHus4DyPnvHrA8+4y2tUUiZIqG3Vfo6cr0ret00SbEtfJvE2 d93M8YhLORGt7dxvMoct1l6MIuB5Dt1W2P/sqWd7VNzme/ba8gHfu0mqcC0gVbCWd8BzKmKfii6g KWZ5MnS3F/zsoVtb0prH+upC8DtY3ijfmQpI0u1+UEMJqilh9MUoCJ5NmudTkmZ73KEs/Pgk7s7u eSE9NQuce9yifgFeG+AVuKfgtjfkteXQ1od1l9sEPw94zocXcBQb0q0VuacgwYxU6/XgkPDZRJiP iV6/xgIvLK9N8GyzdES9uZbV7dqfPGi6ScXBXjY5j321H8yeZwVbxZ3tqjeX24s0W32guX2qFSoO jy+A607AYko0pph7Hxe6p/yv7QgpZcmemq9PJRuirxPZDHfbVN0/0t7u3G+L31bwnENHKwBnLkDI F+bYF8XkXY1K66nJlodszxzznJooISmV/SKbbt5zcMtXIXPbY4Jvg990yxOHjoz1yR6TfVXVHBYo 7wOkVUN8PbUzfSrx97Z4G6mwV0iZv+/0uJ5bOA6Ze5V1Kb6T9JHf7PKYp2NuXN03gFYBxPeV/31b WT21lpYHKYpsm3ylwl7ets73Oh3tzL3Fz4yCftlnflPztjPD8xrFvJs4hXtqnbw2sdMib5tzu2+7 6Bu/weA5IMqcLnTPC+6pdfLC0k5HO3MXkZ/qYYsq6tFiL15P3IfxXwEGAPI8kR88ZpMRAAAAAElF TkSuQmCC"
   height="52"
   width="111">
			</image>

			<g
   id="g6506">
				<g
   id="g6508">
					<path
   style="fill:none;stroke:#ffffff;stroke-width:6.2494998"
   id="path6510"
   d="M 448.319,76.514 C 450.534,77.934 453.715,79.014 457.123,79.014 C 462.178,79.014 465.131,76.401 465.131,72.482 C 465.131,68.961 463.087,66.859 457.918,64.928 C 451.671,62.657 447.809,59.362 447.809,54.024 C 447.809,48.059 452.75,43.629 460.19,43.629 C 464.053,43.629 466.95,44.537 468.596,45.503 L 467.234,49.536 C 466.041,48.798 463.485,47.718 460.02,47.718 C 454.794,47.718 452.807,50.842 452.807,53.455 C 452.807,57.032 455.135,58.793 460.417,60.838 C 466.892,63.394 470.13,66.461 470.13,72.084 C 470.13,77.99 465.813,83.159 456.782,83.159 C 453.091,83.159 449.057,82.023 447.013,80.66 L 448.319,76.514 z " />

					<path
   style="fill:none;stroke:#ffffff;stroke-width:6.2494998"
   id="path6512"
   d="M 476.945,44.765 C 479.33,44.311 482.454,43.97 486.43,43.97 C 491.314,43.97 494.892,45.106 497.164,47.151 C 499.266,48.968 500.571,51.752 500.571,55.16 C 500.571,58.624 499.55,61.35 497.561,63.339 C 494.949,66.121 490.689,67.541 485.861,67.541 C 484.384,67.541 483.021,67.484 481.885,67.2 L 481.885,82.536 L 476.944,82.536 L 476.944,44.765 L 476.945,44.765 z M 481.887,63.167 C 482.966,63.45 484.386,63.564 485.976,63.564 C 491.997,63.564 495.576,60.611 495.576,55.442 C 495.576,50.331 491.997,47.888 486.545,47.888 C 484.387,47.888 482.739,48.116 481.888,48.285 L 481.888,63.167 L 481.887,63.167 z " />

					<path
   style="fill:none;stroke:#ffffff;stroke-width:6.2494998"
   id="path6514"
   d="M 512.103,44.254 L 512.103,82.535 L 507.104,82.535 L 507.104,44.254 L 512.103,44.254 z " />

					<path
   style="fill:none;stroke:#ffffff;stroke-width:6.2494998"
   id="path6516"
   d="M 520.735,44.765 C 523.121,44.311 526.245,43.97 530.22,43.97 C 535.105,43.97 538.683,45.106 540.955,47.151 C 543.056,48.968 544.362,51.752 544.362,55.16 C 544.362,58.624 543.34,61.35 541.352,63.339 C 538.739,66.121 534.479,67.541 529.652,67.541 C 528.174,67.541 526.812,67.484 525.675,67.2 L 525.675,82.536 L 520.734,82.536 L 520.734,44.765 L 520.735,44.765 z M 525.677,63.167 C 526.756,63.45 528.176,63.564 529.767,63.564 C 535.787,63.564 539.366,60.611 539.366,55.442 C 539.366,50.331 535.787,47.888 530.336,47.888 C 528.177,47.888 526.53,48.116 525.678,48.285 L 525.678,63.167 L 525.677,63.167 z " />

				</g>

			</g>

		</g>
      <g
         transform="matrix(0.3791813,0,0,0.3791813,-157.39018,-2.1231043)"
         id="g6535">
			
				<image
   style="opacity:0.2"
   id="image6537"
   transform="translate(424.5098,72.3384)"
   xlink:href="data:image/png;base64,iVBORw0KGgoAAAANSUhEUgAAAB0AAAAQCAYAAADqDXTRAAAACXBIWXMAAAsSAAALEgHS3X78AAAA BGdBTUEAANbY1E9YMgAAABl0RVh0U29mdHdhcmUAQWRvYmUgSW1hZ2VSZWFkeXHJZTwAAAHXSURB VHjaxJVJSwNBEEYnZjHuGjDuCqK4IYjGi+DdH+xd8JyTgisiLrjhGhF1TIxfwWtphnFQRAw8JgM9 9aqqa3qC4B9+qb8IWi6XU178uv0plUr1P5NK2KBLVjSKtKiJF1GV+D1Ratn62X2jMsOEedEt+kWz qIgTcSNCi5mJebiBDNO6r/kZfiGz9RlkTaIoZsWc6BRHYt1Va5WnYtrSItoJ8CjuxbN4j8xCyltf EH1UOCLmxQwx9sSqWBPHVm3GE+bJcpQHTXwqdsWFeEKY9egQQ2JcTIpBYvSTSI32DnN/8SmlPQXa siym2I9jAuyIcyaxgMwq7EE2jryDAbIiQvbxDHHVTXLG25dWMp2gNa1UbMGmxSEPDVFNC5Je0UUr A7biiuGx1m6ILeTh5/RKnCPQolgRSySQJcgdWQcI2iJtdrJburMvNrna/TXb82ZD6dpbJfA2AXPs R5F2FRkSl2iNwQqRPbD/UdmNk9l69wr605umRYNM3wLt7Wbv2lj6SPsqBHsVl+x7oiz2RPLEJhqg QruO8T9AeIDolcAVJvM2SfblMei9r3noRNjOkkqk0rpXcTVJlnj2eseaOwByvFZu/0NPGMQd6r/6 ykS+GD8WxP0+BBgAnxC1TlGmczMAAAAASUVORK5CYII="
   height="16"
   width="29">
			</image>

			<g
   id="g6539">
				<path
   style="fill:none;stroke:#ffffff;stroke-width:4"
   id="path6541"
   d="M 448.215,76.948 C 448.215,76.948 433.425,86.725 428.523,78.999" />

			</g>

		</g>
      <g
         transform="matrix(0.3791813,0,0,0.3791813,-157.39018,-2.1231043)"
         id="g6543">
			<path
   style="fill:#ffffff"
   id="path6545"
   d="M 470.889,140.802 L 465.25,140.802 C 465.25,139.454 464.953,137.141 464.359,133.864 L 456.235,133.864 C 455.79,134.915 455.406,135.867 455.085,136.72 C 454.294,138.748 453.879,140.108 453.842,140.801 L 448.537,140.801 C 448.574,140.343 450.361,136.383 453.897,128.92 C 457.434,121.457 459.24,117.367 459.314,116.649 L 465.955,116.649 C 465.955,118.046 466.776,122.047 468.422,128.651 C 470.066,135.255 470.889,139.305 470.889,140.802 z M 463.84,130.322 C 462.554,123.978 461.911,120.528 461.911,119.971 L 461.633,119.971 C 461.583,120.405 460.18,123.854 457.422,130.322 L 463.84,130.322 z " />

			<path
   style="fill:#ffffff"
   id="path6547"
   d="M 491.516,129.765 C 491.516,132.968 490.66,135.698 488.947,137.954 C 487.234,140.21 484.968,141.339 482.149,141.339 C 480.368,141.339 479.076,140.919 478.272,140.078 L 478.049,140.078 C 477.727,143.107 477.462,146.143 477.251,149.185 L 472.429,149.278 C 473.987,137.877 474.766,130.599 474.766,127.446 C 474.766,126.271 474.667,124.892 474.469,123.309 L 479.032,122.789 C 479.143,123.741 479.199,124.966 479.199,126.462 L 479.421,126.462 C 480.88,123.877 483.02,122.585 485.839,122.585 C 487.67,122.585 489.073,123.237 490.05,124.542 C 491.027,125.847 491.516,127.588 491.516,129.765 z M 486.841,130.73 C 486.841,127.614 485.833,126.055 483.818,126.055 C 482.619,126.055 481.5,126.856 480.461,128.457 C 479.422,130.058 478.804,131.787 478.607,133.642 L 478.236,137.092 C 479.138,137.649 480.134,137.926 481.222,137.926 C 483.102,137.926 484.508,137.212 485.442,135.784 C 486.374,134.356 486.841,132.671 486.841,130.73 z " />

			<path
   style="fill:#ffffff"
   id="path6549"
   d="M 510.343,127.02 C 510.343,130.706 506.379,132.622 498.452,132.77 C 498.452,134.403 498.756,135.624 499.361,136.434 C 499.967,137.244 501.024,137.649 502.533,137.649 C 504.512,137.649 506.633,137.012 508.895,135.738 L 508.32,139.411 C 506.478,140.697 504.14,141.34 501.308,141.34 C 498.786,141.34 496.921,140.583 495.716,139.069 C 494.51,137.553 493.907,135.548 493.907,133.049 C 493.907,129.821 494.918,127.235 496.94,125.286 C 498.961,123.339 501.358,122.364 504.128,122.364 C 506.044,122.364 507.547,122.76 508.635,123.552 C 509.773,124.368 510.343,125.524 510.343,127.02 z M 506.206,127.391 C 506.206,126.191 505.285,125.591 503.442,125.591 C 502.39,125.591 501.395,125.978 500.456,126.75 C 499.516,127.523 498.903,128.634 498.619,130.08 C 503.677,129.982 506.206,129.085 506.206,127.391 z M 510.104,114.648 C 510.104,114.796 509.193,115.786 507.369,117.616 C 505.545,119.446 504.634,120.46 504.634,120.658 L 501.405,120.658 C 501.405,120.46 502.036,119.443 503.298,117.606 C 504.559,115.77 505.19,114.785 505.19,114.648 L 510.104,114.648 z " />

			<path
   style="fill:#ffffff"
   id="path6551"
   d="M 525.683,122.976 L 524.217,127.335 C 523.389,127.088 522.524,126.964 521.62,126.964 C 519.382,126.964 518.133,128.194 517.874,130.655 C 517.478,134.389 517.175,137.771 516.965,140.801 L 512.309,140.986 C 513.174,134.581 513.608,130.253 513.608,128.003 C 513.608,126.704 513.509,125.121 513.311,123.254 L 517.911,122.79 C 517.985,123.606 518.023,124.423 518.023,125.239 L 518.3,125.239 C 519.562,123.458 521.095,122.567 522.901,122.567 C 523.753,122.568 524.681,122.705 525.683,122.976 z " />

			<path
   style="fill:#ffffff"
   id="path6553"
   d="M 544.213,130.636 C 544.213,133.655 543.251,136.223 541.328,138.344 C 539.405,140.465 536.935,141.525 533.918,141.525 C 531.815,141.525 530.011,140.755 528.502,139.216 C 526.993,137.676 526.239,135.639 526.239,133.104 C 526.239,130.099 527.203,127.558 529.132,125.48 C 531.062,123.403 533.541,122.364 536.571,122.364 C 538.684,122.364 540.487,123.109 541.977,124.599 C 543.467,126.089 544.213,128.102 544.213,130.636 z M 539.521,131.044 C 539.521,129.512 539.189,128.253 538.528,127.271 C 537.867,126.288 536.966,125.795 535.83,125.795 C 534.37,125.795 533.186,126.531 532.277,128.003 C 531.368,129.474 530.914,131.094 530.914,132.862 C 530.914,134.395 531.248,135.654 531.916,136.636 C 532.583,137.619 533.492,138.111 534.643,138.111 C 536.139,138.111 537.327,137.384 538.205,135.931 C 539.081,134.48 539.521,132.851 539.521,131.044 z " />

		</g>
    </g>
    <path
       style="opacity:0.75;fill:url(#linearGradient6736);fill-opacity:1;stroke:none;stroke-linecap:round;stroke-linejoin:round;stroke-opacity:1"
       d="M 12.215875,4 C 7.7299805,4 4.0796196,7.6363662 4.0796196,12.144157 L 4.0796196,35.208665 C 6.7037887,35.500168 9.1250865,36.099432 11.899289,36.099432 C 32.196811,36.099433 49.343791,29.870703 60.431893,20.892763 L 60.431893,12.144157 C 60.431893,7.6363662 56.781532,4 52.295638,4 L 12.215875,4 z "
       id="path4337" />
  </g>
</svg>
