<?xml version="1.0" encoding="UTF-8" standalone="no"?>
<!-- Created with Inkscape (http://www.inkscape.org/) -->
<svg
   xmlns:dc="http://purl.org/dc/elements/1.1/"
   xmlns:cc="http://web.resource.org/cc/"
   xmlns:rdf="http://www.w3.org/1999/02/22-rdf-syntax-ns#"
   xmlns:svg="http://www.w3.org/2000/svg"
   xmlns="http://www.w3.org/2000/svg"
   xmlns:xlink="http://www.w3.org/1999/xlink"
   xmlns:sodipodi="http://sodipodi.sourceforge.net/DTD/sodipodi-0.dtd"
   xmlns:inkscape="http://www.inkscape.org/namespaces/inkscape"
   width="64px"
   height="64px"
   id="svg2160"
   sodipodi:version="0.32"
   inkscape:version="0.45"
   sodipodi:docbase="/Users/izo/Sites/spip-zone/_graphismes_/logos/spip_tango/spip_plugins/svg"
   sodipodi:docname="spip-phone-sms-new.svg"
   inkscape:output_extension="org.inkscape.output.svg.inkscape"
   inkscape:export-filename="/Users/izo/Sites/spip-zone/_graphismes_/logos/spip_tango/spip_plugins/svg/spip-phone-sms-receive.png"
   inkscape:export-xdpi="90"
   inkscape:export-ydpi="90"
   sodipodi:modified="TRUE">
  <defs
     id="defs2162">
    <linearGradient
       inkscape:collect="always"
       id="linearGradient35629">
      <stop
         style="stop-color:#4e9a06;stop-opacity:1;"
         offset="0"
         id="stop35631" />
      <stop
         style="stop-color:#4e9a06;stop-opacity:0;"
         offset="1"
         id="stop35633" />
    </linearGradient>
    <linearGradient
       id="linearGradient5157">
      <stop
         style="stop-color:#555753"
         offset="0"
         id="stop5159" />
      <stop
         style="stop-color:#555753;stop-opacity:0;"
         offset="1"
         id="stop5161" />
    </linearGradient>
    <linearGradient
       id="linearGradient12512">
      <stop
         style="stop-color:#ffffff;stop-opacity:1.0000000;"
         offset="0.0000000"
         id="stop12513" />
      <stop
         style="stop-color:#fff520;stop-opacity:0.89108908;"
         offset="0.50000000"
         id="stop12517" />
      <stop
         style="stop-color:#fff300;stop-opacity:0.0000000;"
         offset="1.0000000"
         id="stop12514" />
    </linearGradient>
    <linearGradient
       id="linearGradient10691"
       inkscape:collect="always">
      <stop
         id="stop10693"
         offset="0"
         style="stop-color:#000000;stop-opacity:1;" />
      <stop
         id="stop10695"
         offset="1"
         style="stop-color:#000000;stop-opacity:0;" />
    </linearGradient>
    <radialGradient
       inkscape:collect="always"
       xlink:href="#linearGradient10691"
       id="radialGradient16348"
       gradientUnits="userSpaceOnUse"
       gradientTransform="scale(1.902215,0.525703)"
       cx="6.7027131"
       cy="73.615714"
       fx="6.7027131"
       fy="73.615714"
       r="7.2284161" />
    <linearGradient
       inkscape:collect="always"
       id="linearGradient2573">
      <stop
         style="stop-color:#ffffff;stop-opacity:1;"
         offset="0"
         id="stop2575" />
      <stop
         style="stop-color:#ffffff;stop-opacity:0;"
         offset="1"
         id="stop2577" />
    </linearGradient>
    <linearGradient
       inkscape:collect="always"
       xlink:href="#linearGradient2573"
       id="linearGradient16372"
       gradientUnits="userSpaceOnUse"
       gradientTransform="matrix(0.725342,0,0,0.724207,12.81072,-4.604804)"
       x1="17.397203"
       y1="33.357376"
       x2="22.17771"
       y2="31.026741" />
    <linearGradient
       id="linearGradient9749">
      <stop
         style="stop-color:#ffffff;stop-opacity:1;"
         offset="0"
         id="stop9751" />
      <stop
         style="stop-color:#ededed;stop-opacity:1.0000000;"
         offset="1.0000000"
         id="stop9753" />
    </linearGradient>
    <linearGradient
       inkscape:collect="always"
       xlink:href="#linearGradient9749"
       id="linearGradient16370"
       gradientUnits="userSpaceOnUse"
       gradientTransform="matrix(0.9943917,0,0,-1.0606446,14.64225,19.810162)"
       x1="11.841544"
       y1="4.2507305"
       x2="40.024059"
       y2="7.4121075" />
    <linearGradient
       inkscape:collect="always"
       xlink:href="#linearGradient15107"
       id="linearGradient16368"
       gradientUnits="userSpaceOnUse"
       gradientTransform="matrix(1.1392272,0,0,-0.8918689,14.967478,19.536528)"
       x1="10.027"
       y1="20.219761"
       x2="17.178024"
       y2="-7.5274644" />
    <linearGradient
       inkscape:collect="always"
       xlink:href="#linearGradient15107"
       id="linearGradient16366"
       gradientUnits="userSpaceOnUse"
       gradientTransform="matrix(0.9400541,0,0,-1.0406275,15.528269,19.442605)"
       x1="11.74217"
       y1="11.48487"
       x2="13.846983"
       y2="11.981981" />
    <linearGradient
       id="linearGradient2274">
      <stop
         style="stop-color:#000000;stop-opacity:0.12871288;"
         offset="0.0000000"
         id="stop2276" />
      <stop
         style="stop-color:#000000;stop-opacity:0.0000000;"
         offset="1.0000000"
         id="stop2278" />
    </linearGradient>
    <radialGradient
       inkscape:collect="always"
       xlink:href="#linearGradient2274"
       id="radialGradient16364"
       gradientUnits="userSpaceOnUse"
       gradientTransform="matrix(0.456914,0.3326811,-0.1071149,0.1799741,24.791368,1.9519757)"
       cx="27.741131"
       cy="38.711506"
       fx="27.741131"
       fy="38.711506"
       r="17.977943" />
    <linearGradient
       id="linearGradient2624">
      <stop
         id="stop2626"
         offset="0"
         style="stop-color:#dfe0df;stop-opacity:1;" />
      <stop
         style="stop-color:#a6b0a6;stop-opacity:1;"
         offset="0.23809524"
         id="stop2630" />
      <stop
         id="stop2628"
         offset="1.0000000"
         style="stop-color:#b5beb5;stop-opacity:1.0000000;" />
    </linearGradient>
    <linearGradient
       inkscape:collect="always"
       xlink:href="#linearGradient2624"
       id="linearGradient16362"
       gradientUnits="userSpaceOnUse"
       gradientTransform="matrix(1.7805558,0,0,0.5518486,14.900974,-4.3604667)"
       x1="9.1643066"
       y1="38.070892"
       x2="9.8855038"
       y2="52.090679" />
    <linearGradient
       id="linearGradient15107">
      <stop
         style="stop-color:#ffffff;stop-opacity:1.0000000;"
         offset="0.0000000"
         id="stop15109" />
      <stop
         style="stop-color:#e2e2e2;stop-opacity:1.0000000;"
         offset="1.0000000"
         id="stop15111" />
    </linearGradient>
    <linearGradient
       inkscape:collect="always"
       xlink:href="#linearGradient15107"
       id="linearGradient16360"
       gradientUnits="userSpaceOnUse"
       gradientTransform="matrix(0.9847743,0,0,1.0905442,14.872802,-6.2458701)"
       x1="11.572842"
       y1="4.7461626"
       x2="18.475286"
       y2="26.022910" />
    <linearGradient
       id="linearGradient31689">
      <stop
         style="stop-color:#909090;stop-opacity:1.0000000;"
         offset="0.0000000"
         id="stop31691" />
      <stop
         style="stop-color:#bebebe;stop-opacity:0.0000000;"
         offset="1.0000000"
         id="stop31693" />
    </linearGradient>
    <linearGradient
       inkscape:collect="always"
       id="linearGradient2454">
      <stop
         style="stop-color:#000000;stop-opacity:1;"
         offset="0"
         id="stop2456" />
      <stop
         style="stop-color:#000000;stop-opacity:0;"
         offset="1"
         id="stop2458" />
    </linearGradient>
    <linearGradient
       id="linearGradient2329">
      <stop
         id="stop2331"
         offset="0.0000000"
         style="stop-color:#ffffff;stop-opacity:1.0000000;" />
      <stop
         id="stop2333"
         offset="1.0000000"
         style="stop-color:#ffffff;stop-opacity:0.0000000;" />
    </linearGradient>
    <linearGradient
       id="linearGradient2701">
      <stop
         id="stop2703"
         offset="0.0000000"
         style="stop-color:#585956;stop-opacity:1.0000000;" />
      <stop
         id="stop2705"
         offset="1.0000000"
         style="stop-color:#bbbeb8;stop-opacity:1.0000000;" />
    </linearGradient>
    <linearGradient
       id="linearGradient2253">
      <stop
         style="stop-color:#8f8f8f;stop-opacity:1.0000000;"
         offset="0.0000000"
         id="stop2255" />
      <stop
         style="stop-color:#494949;stop-opacity:1.0000000;"
         offset="1.0000000"
         id="stop2257" />
    </linearGradient>
    <linearGradient
       id="linearGradient2245">
      <stop
         style="stop-color:#dde1d9;stop-opacity:1.0000000;"
         offset="0.0000000"
         id="stop2247" />
      <stop
         style="stop-color:#cacdc6;stop-opacity:1.0000000;"
         offset="1.0000000"
         id="stop2249" />
    </linearGradient>
    <linearGradient
       id="linearGradient2675">
      <stop
         id="stop2677"
         offset="0.0000000"
         style="stop-color:#5b5b97;stop-opacity:1.0000000;" />
      <stop
         id="stop2679"
         offset="1.0000000"
         style="stop-color:#1b1b43;stop-opacity:1.0000000;" />
    </linearGradient>
    <linearGradient
       id="linearGradient2667">
      <stop
         id="stop2669"
         offset="0.0000000"
         style="stop-color:#ffffff;stop-opacity:1.0000000;" />
      <stop
         id="stop2671"
         offset="1.0000000"
         style="stop-color:#fcfcff;stop-opacity:0.0000000;" />
    </linearGradient>
    <linearGradient
       id="linearGradient2711">
      <stop
         id="stop2713"
         offset="0.0000000"
         style="stop-color:#909090;stop-opacity:1.0000000;" />
      <stop
         id="stop2715"
         offset="1.0000000"
         style="stop-color:#bebebe;stop-opacity:0.0000000;" />
    </linearGradient>
    <linearGradient
       id="linearGradient24816"
       inkscape:collect="always">
      <stop
         id="stop24818"
         offset="0"
         style="stop-color:#637072;stop-opacity:1" />
      <stop
         id="stop24820"
         offset="1"
         style="stop-color:#2e3436;stop-opacity:1" />
    </linearGradient>
    <linearGradient
       id="linearGradient2275">
      <stop
         style="stop-color:#555753"
         offset="0"
         id="stop2277" />
      <stop
         style="stop-color:#2e3436"
         offset="1"
         id="stop2279" />
    </linearGradient>
    <linearGradient
       id="linearGradient2283">
      <stop
         style="stop-color:#555753"
         offset="0"
         id="stop2285" />
      <stop
         style="stop-color:#2e3436"
         offset="1"
         id="stop2287" />
    </linearGradient>
    <linearGradient
       inkscape:collect="always"
       id="linearGradient4218">
      <stop
         style="stop-color:#ffffff;stop-opacity:1;"
         offset="0"
         id="stop4220" />
      <stop
         style="stop-color:#ffffff;stop-opacity:0;"
         offset="1"
         id="stop4222" />
    </linearGradient>
    <linearGradient
       inkscape:collect="always"
       id="linearGradient2295">
      <stop
         style="stop-color:#ffffff;stop-opacity:1;"
         offset="0"
         id="stop2297" />
      <stop
         style="stop-color:#ffffff;stop-opacity:0;"
         offset="1"
         id="stop2299" />
    </linearGradient>
    <linearGradient
       id="linearGradient4182">
      <stop
         style="stop-color:#c03b00;stop-opacity:1;"
         offset="0"
         id="stop4184" />
      <stop
         style="stop-color:#e74700;stop-opacity:1;"
         offset="1"
         id="stop4186" />
    </linearGradient>
    <linearGradient
       inkscape:collect="always"
       xlink:href="#linearGradient4182"
       id="linearGradient4188"
       x1="6.4635968"
       y1="13.196473"
       x2="6.4635968"
       y2="2.4294622"
       gradientUnits="userSpaceOnUse" />
    <linearGradient
       id="linearGradient3428">
      <stop
         style="stop-color:black;stop-opacity:0;"
         offset="0"
         id="stop3430" />
      <stop
         id="stop3436"
         offset="0.5"
         style="stop-color:black;stop-opacity:1;" />
      <stop
         style="stop-color:black;stop-opacity:0;"
         offset="1"
         id="stop3432" />
    </linearGradient>
    <linearGradient
       inkscape:collect="always"
       id="linearGradient23771">
      <stop
         style="stop-color:#2e3436;stop-opacity:1;"
         offset="0"
         id="stop23773" />
      <stop
         style="stop-color:#576367;stop-opacity:1"
         offset="1"
         id="stop23775" />
    </linearGradient>
    <linearGradient
       id="linearGradient23787"
       inkscape:collect="always">
      <stop
         id="stop23789"
         offset="0"
         style="stop-color:#2e3436;stop-opacity:1" />
      <stop
         id="stop23791"
         offset="1"
         style="stop-color:#888a85;stop-opacity:1" />
    </linearGradient>
    <linearGradient
       inkscape:collect="always"
       id="linearGradient21896">
      <stop
         style="stop-color:#5a5c59;stop-opacity:1"
         offset="0"
         id="stop21898" />
      <stop
         style="stop-color:#3f3f3f;stop-opacity:1"
         offset="1"
         id="stop21900" />
    </linearGradient>
    <linearGradient
       inkscape:collect="always"
       id="linearGradient15613">
      <stop
         style="stop-color:#637072;stop-opacity:1"
         offset="0"
         id="stop15615" />
      <stop
         style="stop-color:#1d2021;stop-opacity:1"
         offset="1"
         id="stop15617" />
    </linearGradient>
    <radialGradient
       inkscape:collect="always"
       xlink:href="#linearGradient4182"
       id="radialGradient31697"
       cx="32.916"
       cy="32.916"
       fx="32.916"
       fy="32.916"
       r="32.916"
       gradientUnits="userSpaceOnUse" />
    <radialGradient
       inkscape:collect="always"
       xlink:href="#linearGradient4182"
       id="radialGradient31822"
       gradientUnits="userSpaceOnUse"
       cx="32.916"
       cy="32.916"
       fx="32.916"
       fy="32.916"
       r="32.916" />
    <radialGradient
       inkscape:collect="always"
       xlink:href="#linearGradient4182"
       id="radialGradient31824"
       gradientUnits="userSpaceOnUse"
       cx="32.916"
       cy="32.916"
       fx="32.916"
       fy="32.916"
       r="32.916" />
    <radialGradient
       inkscape:collect="always"
       xlink:href="#linearGradient4182"
       id="radialGradient31828"
       gradientUnits="userSpaceOnUse"
       cx="32.916"
       cy="32.916"
       fx="32.916"
       fy="32.916"
       r="32.916" />
    <radialGradient
       inkscape:collect="always"
       xlink:href="#linearGradient4182"
       id="radialGradient31832"
       gradientUnits="userSpaceOnUse"
       cx="32.916"
       cy="32.916"
       fx="32.916"
       fy="32.916"
       r="32.916" />
    <radialGradient
       inkscape:collect="always"
       xlink:href="#linearGradient4182"
       id="radialGradient33203"
       gradientUnits="userSpaceOnUse"
       cx="32.916"
       cy="32.916"
       fx="32.916"
       fy="32.916"
       r="32.916" />
    <radialGradient
       inkscape:collect="always"
       xlink:href="#linearGradient4182"
       id="radialGradient33205"
       gradientUnits="userSpaceOnUse"
       cx="32.916"
       cy="32.916"
       fx="32.916"
       fy="32.916"
       r="32.916" />
    <radialGradient
       inkscape:collect="always"
       xlink:href="#linearGradient4182"
       id="radialGradient33207"
       gradientUnits="userSpaceOnUse"
       cx="32.916"
       cy="32.916"
       fx="32.916"
       fy="32.916"
       r="32.916" />
    <radialGradient
       inkscape:collect="always"
       xlink:href="#linearGradient4182"
       id="radialGradient33209"
       gradientUnits="userSpaceOnUse"
       cx="32.916"
       cy="32.916"
       fx="32.916"
       fy="32.916"
       r="32.916" />
    <radialGradient
       inkscape:collect="always"
       xlink:href="#linearGradient2454"
       id="radialGradient33286"
       gradientUnits="userSpaceOnUse"
       gradientTransform="scale(1.925808,0.519262)"
       cx="12.575710"
       cy="67.501709"
       fx="12.575710"
       fy="67.501709"
       r="8.7662794" />
    <linearGradient
       inkscape:collect="always"
       xlink:href="#linearGradient23787"
       id="linearGradient33288"
       gradientUnits="userSpaceOnUse"
       gradientTransform="matrix(0.8775501,0,0,0.8775501,17.3979,5.5620745)"
       x1="41.5625"
       y1="51.272728"
       x2="19.886364"
       y2="13.488636" />
    <linearGradient
       inkscape:collect="always"
       xlink:href="#linearGradient23771"
       id="linearGradient33290"
       gradientUnits="userSpaceOnUse"
       gradientTransform="matrix(0.5098039,0,0,0.5098039,32.686272,-14.592468)"
       x1="-89.957382"
       y1="-22.325232"
       x2="-89.957382"
       y2="-26.500002" />
    <linearGradient
       inkscape:collect="always"
       xlink:href="#linearGradient23771"
       id="linearGradient33292"
       gradientUnits="userSpaceOnUse"
       gradientTransform="matrix(0.5098039,0,0,0.5098039,26.199168,-14.592468)"
       x1="-89.957382"
       y1="-22.325232"
       x2="-89.957382"
       y2="-26.500002" />
    <radialGradient
       inkscape:collect="always"
       xlink:href="#linearGradient2675"
       id="radialGradient33294"
       gradientUnits="userSpaceOnUse"
       gradientTransform="matrix(1.3585239,-6.5069922e-3,5.1112987e-3,0.6554826,19.920143,11.8133)"
       cx="13.546165"
       cy="14.46772"
       fx="13.546165"
       fy="14.46772"
       r="14.999997" />
    <linearGradient
       inkscape:collect="always"
       xlink:href="#linearGradient21896"
       id="linearGradient33296"
       gradientUnits="userSpaceOnUse"
       gradientTransform="matrix(0.7613896,0,0,0.5967298,29.123151,7.9863884)"
       x1="36.254066"
       y1="40"
       x2="6.6550608"
       y2="13.256851" />
    <radialGradient
       inkscape:collect="always"
       xlink:href="#linearGradient2295"
       id="radialGradient33298"
       gradientUnits="userSpaceOnUse"
       gradientTransform="matrix(0.4482195,9.0707681e-2,-2.2531718e-2,0.1309006,-177.86248,-41.470545)"
       cx="197.48041"
       cy="16.234577"
       fx="197.48041"
       fy="16.234577"
       r="20" />
    <radialGradient
       inkscape:collect="always"
       xlink:href="#linearGradient2295"
       id="radialGradient33300"
       gradientUnits="userSpaceOnUse"
       gradientTransform="matrix(0.4482195,9.0707681e-2,-2.2531718e-2,0.1309006,-177.86248,-41.470545)"
       cx="197.48041"
       cy="16.234577"
       fx="197.48041"
       fy="16.234577"
       r="20" />
    <radialGradient
       inkscape:collect="always"
       xlink:href="#linearGradient2295"
       id="radialGradient33302"
       gradientUnits="userSpaceOnUse"
       gradientTransform="matrix(0.4482195,9.0707681e-2,-2.2531718e-2,0.1309006,-177.86248,-41.470545)"
       cx="197.48041"
       cy="16.234577"
       fx="197.48041"
       fy="16.234577"
       r="20" />
    <radialGradient
       inkscape:collect="always"
       xlink:href="#linearGradient2295"
       id="radialGradient33304"
       gradientUnits="userSpaceOnUse"
       gradientTransform="matrix(0.4482195,9.0707681e-2,-2.2531718e-2,0.1309006,-177.86248,-41.470545)"
       cx="197.48041"
       cy="16.234577"
       fx="197.48041"
       fy="16.234577"
       r="20" />
    <radialGradient
       inkscape:collect="always"
       xlink:href="#linearGradient2295"
       id="radialGradient33306"
       gradientUnits="userSpaceOnUse"
       gradientTransform="matrix(0.4482195,9.0707681e-2,-2.2531718e-2,0.1309006,-177.86248,-41.470545)"
       cx="197.48041"
       cy="16.234577"
       fx="197.48041"
       fy="16.234577"
       r="20" />
    <radialGradient
       inkscape:collect="always"
       xlink:href="#linearGradient2295"
       id="radialGradient33308"
       gradientUnits="userSpaceOnUse"
       gradientTransform="matrix(0.4482195,9.0707681e-2,-2.2531718e-2,0.1309006,-177.86248,-41.470545)"
       cx="197.48041"
       cy="16.234577"
       fx="197.48041"
       fy="16.234577"
       r="20" />
    <radialGradient
       inkscape:collect="always"
       xlink:href="#linearGradient2295"
       id="radialGradient33310"
       gradientUnits="userSpaceOnUse"
       gradientTransform="matrix(0.4482195,9.0707681e-2,-2.2531718e-2,0.1309006,-177.86248,-41.470545)"
       cx="197.48041"
       cy="16.234577"
       fx="197.48041"
       fy="16.234577"
       r="20" />
    <radialGradient
       inkscape:collect="always"
       xlink:href="#linearGradient2295"
       id="radialGradient33312"
       gradientUnits="userSpaceOnUse"
       gradientTransform="matrix(0.4482195,9.0707681e-2,-2.2531718e-2,0.1309006,-177.86248,-41.470545)"
       cx="197.48041"
       cy="16.234577"
       fx="197.48041"
       fy="16.234577"
       r="20" />
    <radialGradient
       inkscape:collect="always"
       xlink:href="#linearGradient2295"
       id="radialGradient33314"
       gradientUnits="userSpaceOnUse"
       gradientTransform="matrix(0.4482195,9.0707681e-2,-2.2531718e-2,0.1309006,-177.86248,-41.470545)"
       cx="197.48041"
       cy="16.234577"
       fx="197.48041"
       fy="16.234577"
       r="20" />
    <linearGradient
       inkscape:collect="always"
       xlink:href="#linearGradient15613"
       id="linearGradient33316"
       gradientUnits="userSpaceOnUse"
       x1="40.54464"
       y1="18.000002"
       x2="38.137756"
       y2="15.397958" />
    <linearGradient
       inkscape:collect="always"
       xlink:href="#linearGradient24816"
       id="linearGradient33318"
       gradientUnits="userSpaceOnUse"
       gradientTransform="matrix(0.3263688,0,0,0.3263688,78.975746,57.459308)"
       x1="-118.17633"
       y1="-74.426338"
       x2="-117.82366"
       y2="-61.875" />
    <radialGradient
       inkscape:collect="always"
       xlink:href="#linearGradient2295"
       id="radialGradient33320"
       gradientUnits="userSpaceOnUse"
       gradientTransform="matrix(0.4100394,9.0707681e-2,-2.0612425e-2,0.1309006,-42.435748,13.029455)"
       cx="197.48041"
       cy="16.234577"
       fx="197.48041"
       fy="16.234577"
       r="20" />
    <linearGradient
       inkscape:collect="always"
       xlink:href="#linearGradient24816"
       id="linearGradient33322"
       gradientUnits="userSpaceOnUse"
       gradientTransform="matrix(0.3263688,0,0,0.3263688,61.660206,57.459309)"
       x1="-118.17633"
       y1="-74.426338"
       x2="-117.82366"
       y2="-61.875" />
    <radialGradient
       inkscape:collect="always"
       xlink:href="#linearGradient2295"
       id="radialGradient33324"
       gradientUnits="userSpaceOnUse"
       gradientTransform="matrix(0.4100394,9.0707681e-2,-2.0612425e-2,0.1309006,-59.781913,12.932379)"
       cx="197.48041"
       cy="16.234577"
       fx="197.48041"
       fy="16.234577"
       r="20" />
    <linearGradient
       inkscape:collect="always"
       xlink:href="#linearGradient4218"
       id="linearGradient33326"
       gradientUnits="userSpaceOnUse"
       gradientTransform="matrix(0.8227032,0,0,0.6820668,138.80147,57.317743)"
       x1="-128.25"
       y1="-3.1875"
       x2="-111.16666"
       y2="-24.958254" />
    <linearGradient
       inkscape:collect="always"
       xlink:href="#linearGradient2667"
       id="linearGradient33328"
       gradientUnits="userSpaceOnUse"
       gradientTransform="matrix(0.8728251,0,0,0.6432544,32.523107,13.617544)"
       x1="11.492236"
       y1="1.6537577"
       x2="17.199417"
       y2="26.729263" />
    <linearGradient
       inkscape:collect="always"
       xlink:href="#linearGradient35629"
       id="linearGradient35635"
       x1="15.729334"
       y1="2"
       x2="15.729334"
       y2="27.999243"
       gradientUnits="userSpaceOnUse" />
  </defs>
  <sodipodi:namedview
     id="base"
     pagecolor="#ffffff"
     bordercolor="#666666"
     borderopacity="1.0"
     inkscape:pageopacity="0.0"
     inkscape:pageshadow="2"
     inkscape:zoom="9.1461988"
     inkscape:cx="24.539702"
     inkscape:cy="32.75"
     inkscape:current-layer="layer1"
     showgrid="true"
     inkscape:document-units="px"
     inkscape:grid-bbox="true"
     inkscape:window-width="1415"
     inkscape:window-height="969"
     inkscape:window-x="84"
     inkscape:window-y="22" />
  <metadata
     id="metadata2165">
    <rdf:RDF>
      <cc:Work
         rdf:about="">
        <dc:format>image/svg+xml</dc:format>
        <dc:type
           rdf:resource="http://purl.org/dc/dcmitype/StillImage" />
      </cc:Work>
    </rdf:RDF>
  </metadata>
  <g
     id="layer1"
     inkscape:label="Layer 1"
     inkscape:groupmode="layer">
    <path
       sodipodi:type="arc"
       style="opacity:0.3;color:#000000;fill:url(#radialGradient16348);fill-opacity:1;fill-rule:nonzero;stroke:none;stroke-width:0.80000001;stroke-linecap:butt;stroke-linejoin:miter;marker:none;marker-start:none;marker-mid:none;marker-end:none;stroke-miterlimit:4;stroke-dashoffset:0;stroke-opacity:1;visibility:visible;display:inline;overflow:visible"
       id="path10699"
       sodipodi:cx="12.75"
       sodipodi:cy="38.700001"
       sodipodi:rx="13.75"
       sodipodi:ry="3.8"
       d="M 26.5 38.700001 A 13.75 3.8 0 1 1  -1,38.700001 A 13.75 3.8 0 1 1  26.5 38.700001 z"
       transform="matrix(1.3584238,0,0,1.2981069,9.0017693,1.6960681)"
       inkscape:r_cx="true"
       inkscape:r_cy="true" />
    <g
       id="g16350"
       transform="matrix(1.1441931,0.4259808,-0.4259808,1.1441931,-6.9047394,4.3574268)">
      <path
         id="path12723"
         d="M 17.412107,6.5877276 L 17.412107,25.407898 L 44.510394,25.407898 L 44.464582,6.6598354 C 44.464572,6.6556966 44.464856,6.6402174 44.464582,6.6357997 C 44.464046,6.6311054 44.465377,6.6167313 44.464582,6.6117633 C 44.463528,6.6065236 44.442986,6.5932373 44.441675,6.5877276 L 17.412107,6.5877276 z "
         style="fill:url(#linearGradient16360);fill-opacity:1;fill-rule:evenodd;stroke:#2e3436;stroke-width:1;stroke-linecap:butt;stroke-linejoin:round;stroke-miterlimit:4;stroke-dasharray:none;stroke-opacity:1"
         inkscape:r_cx="true"
         inkscape:r_cy="true" />
      <path
         sodipodi:nodetypes="ccccccc"
         id="path1634"
         d="M 27.673466,16.439719 L 17.956811,24.385709 L 28.045478,17.430204 L 34.586727,17.430204 L 43.594784,24.297274 L 34.989743,16.439719 L 27.673466,16.439719 z "
         style="fill:url(#linearGradient16362);fill-opacity:1;fill-rule:evenodd;stroke:none;stroke-width:1;stroke-linecap:butt;stroke-linejoin:miter;stroke-miterlimit:4;stroke-opacity:1"
         inkscape:r_cx="true"
         inkscape:r_cy="true" />
      <path
         id="path15103"
         d="M 18.273312,7.5139753 C 18.268476,7.523529 18.277208,7.5280459 18.273312,7.5366053 C 18.271602,7.5406341 18.25221,7.5554607 18.250739,7.559236 C 18.249509,7.5627535 18.251726,7.5786035 18.250739,7.5818653 C 18.249997,7.5848664 18.251234,7.6017571 18.250739,7.6044954 L 18.273312,24.418524 L 43.510402,24.418524 L 43.465256,7.6950147 C 43.464759,7.6923561 43.465995,7.6753098 43.465256,7.6723847 C 43.454667,7.6379465 43.43504,7.5777214 43.397536,7.5139753 L 18.273312,7.5139753 z "
         style="fill:none;fill-opacity:0.75;fill-rule:evenodd;stroke:#ffffff;stroke-width:1.00000012;stroke-linecap:butt;stroke-linejoin:miter;stroke-miterlimit:4;stroke-dasharray:none;stroke-opacity:1"
         inkscape:r_cx="true"
         inkscape:r_cy="true" />
      <path
         id="path2563"
         d="M 29.73244,19.291652 C 27.997343,18.968405 18.541203,8.9893761 17.595515,7.2519289 C 17.584667,7.2312354 17.566041,7.1915199 17.557858,7.173409 L 42.591669,7.173409 C 42.390692,8.9859571 37.134031,19.126986 35.656472,19.291652 C 35.650543,19.291991 35.641039,19.291652 35.635239,19.291652 L 29.817373,19.291652 C 29.792983,19.291652 29.76112,19.296996 29.73244,19.291652 z "
         style="fill:url(#radialGradient16364);fill-opacity:1;fill-rule:evenodd;stroke:none;stroke-width:0.85660434;stroke-linecap:butt;stroke-linejoin:round;stroke-miterlimit:4;stroke-opacity:1"
         inkscape:r_cx="true"
         inkscape:r_cy="true" />
      <path
         id="path1613"
         d="M 27.879519,17.907456 C 26.162314,17.624192 18.573757,8.8795212 17.974128,7.3569875 C 17.967413,7.3388541 17.956787,7.3040508 17.952262,7.2881806 L 43.732517,7.2881806 C 43.135114,8.8765258 35.537277,17.763158 33.98019,17.907456 C 33.974012,17.907752 33.964297,17.907456 33.958324,17.907456 L 27.966983,17.907456 C 27.941866,17.907456 27.907902,17.912137 27.879519,17.907456 z "
         style="fill:url(#linearGradient16366);fill-opacity:1;fill-rule:evenodd;stroke:#989898;stroke-width:0.85660416;stroke-linecap:butt;stroke-linejoin:round;stroke-miterlimit:4;stroke-opacity:1"
         inkscape:r_cx="true"
         inkscape:r_cy="true" />
      <path
         id="path18153"
         d="M 27.771025,17.476614 C 26.243482,17.121354 18.412159,8.4220222 17.910907,7.3202615 C 17.909068,7.3159177 17.912487,7.3009339 17.910907,7.2968595 C 17.906953,7.2854489 17.889803,7.2589842 17.88824,7.2500561 C 17.888261,7.2476431 17.887946,7.2287818 17.88824,7.2266541 C 17.889088,7.2251043 17.90978,7.2279121 17.910907,7.2266541 L 17.978908,7.1564488 L 43.705882,7.1564488 C 43.703913,7.1740658 43.689428,7.2048787 43.683215,7.2266541 C 43.677774,7.243749 43.668294,7.2775173 43.660548,7.2968595 C 42.991712,8.8763093 35.313321,17.266618 33.981766,17.476614 C 33.970938,17.477805 33.946334,17.476614 33.936432,17.476614 L 27.861693,17.476614 C 27.839724,17.475406 27.79659,17.48256 27.771025,17.476614 z "
         style="fill:url(#linearGradient16368);fill-opacity:1;fill-rule:evenodd;stroke:none;stroke-width:0.25pt;stroke-linecap:butt;stroke-linejoin:miter;stroke-opacity:1"
         inkscape:r_cx="true"
         inkscape:r_cy="true" />
      <path
         id="path1616"
         d="M 27.95236,17.158443 C 26.176753,16.760513 19.124097,8.745154 18.273578,7.3096504 L 43.365878,7.3096504 C 42.284982,8.9993492 35.353263,17.022563 33.823097,17.158443 C 33.816756,17.158734 33.806573,17.158443 33.80043,17.158443 L 28.065695,17.158443 C 28.04655,17.158443 28.018634,17.161014 27.997694,17.158443 C 27.983343,17.156164 27.967485,17.161832 27.95236,17.158443 z "
         style="fill:none;fill-opacity:0.75;fill-rule:evenodd;stroke:url(#linearGradient16370);stroke-width:0.85660398;stroke-linecap:butt;stroke-linejoin:miter;stroke-miterlimit:4;stroke-opacity:1"
         inkscape:r_cx="true"
         inkscape:r_cy="true" />
      <path
         sodipodi:nodetypes="cccccc"
         id="path1636"
         d="M 28.013534,17.445208 L 19.351863,23.43502 L 20.961711,23.439443 L 28.213771,18.464908 L 34.612671,17.434479 L 28.013534,17.445208 z "
         style="fill:url(#linearGradient16372);fill-opacity:1;fill-rule:evenodd;stroke:none;stroke-width:1;stroke-linecap:butt;stroke-linejoin:miter;stroke-miterlimit:4;stroke-opacity:1"
         inkscape:r_cx="true"
         inkscape:r_cy="true" />
    </g>
    <g
       id="g33211"
       transform="translate(0,-1.5004246)">
      <path
         inkscape:export-ydpi="65.172417"
         inkscape:export-xdpi="65.172417"
         inkscape:export-filename="/Users/izo/Desktop/export.png"
         transform="matrix(1.050251,0,0,1.867888,18.700783,-12.974166)"
         d="M 41.10058 35.051105 A 16.882174 4.552 0 1 1  7.3362331,35.051105 A 16.882174 4.552 0 1 1  41.10058 35.051105 z"
         sodipodi:ry="4.552"
         sodipodi:rx="16.882174"
         sodipodi:cy="35.051105"
         sodipodi:cx="24.218407"
         id="path2452"
         style="opacity:0.50857143;color:#000000;fill:url(#radialGradient33286);fill-opacity:1;fill-rule:evenodd;stroke:none;stroke-width:1;stroke-linecap:round;stroke-linejoin:miter;marker:none;marker-start:none;marker-mid:none;marker-end:none;stroke-miterlimit:4;stroke-dashoffset:0;stroke-opacity:0.70063692;visibility:visible;display:inline;overflow:visible"
         sodipodi:type="arc" />
      <path
         inkscape:export-ydpi="65.172417"
         inkscape:export-xdpi="65.172417"
         inkscape:export-filename="/Users/izo/Desktop/export.png"
         id="path3753"
         d="M 35.678659,11.26615 L 36.556209,6.4396246 L 38.530697,6.6590122 L 39.18886,10.3886 L 35.678659,11.26615 z "
         style="fill:#2e3436;fill-opacity:1;fill-rule:evenodd;stroke:#2e3436;stroke-width:0.87755013px;stroke-linecap:round;stroke-linejoin:round;stroke-opacity:1" />
      <rect
         inkscape:export-ydpi="65.172417"
         inkscape:export-xdpi="65.172417"
         inkscape:export-filename="/Users/izo/Desktop/export.png"
         ry="10.725652"
         rx="3.0470917"
         y="10.827374"
         x="30.561152"
         height="45.193829"
         width="28.081604"
         id="rect2704"
         style="fill:url(#linearGradient33288);fill-opacity:1;stroke:#2e3436;stroke-width:0.87755013;stroke-linecap:round;stroke-linejoin:round;stroke-miterlimit:4;stroke-dasharray:none;stroke-opacity:1" />
      <g
         inkscape:export-ydpi="65.172417"
         inkscape:export-xdpi="65.172417"
         inkscape:export-filename="/Users/izo/Desktop/export.png"
         transform="matrix(0.8775501,0,0,0.8775501,59.009489,37.463014)"
         id="g3734">
        <rect
           style="opacity:1;fill:url(#linearGradient33290);fill-opacity:1;stroke:#2e3436;stroke-width:0.50980395;stroke-linecap:round;stroke-linejoin:round;stroke-miterlimit:4;stroke-dasharray:none;stroke-opacity:1"
           id="rect3726"
           width="5.1414886"
           height="2.592469"
           x="-15.745098"
           y="-27.84737"
           rx="0.11331458"
           ry="0.11331455" />
        <rect
           style="opacity:1;fill:url(#linearGradient33292);fill-opacity:1;stroke:#2e3436;stroke-width:0.50980395;stroke-linecap:round;stroke-linejoin:round;stroke-miterlimit:4;stroke-dasharray:none;stroke-opacity:1"
           id="rect3730"
           width="5.1414886"
           height="2.592469"
           x="-22.232203"
           y="-27.84737"
           rx="0.11331458"
           ry="0.11331455" />
      </g>
      <rect
         inkscape:export-ydpi="65.172417"
         inkscape:export-xdpi="65.172417"
         inkscape:export-filename="/Users/izo/Desktop/export.png"
         ry="0.85513514"
         rx="1.0547283"
         y="17.235699"
         x="34.072174"
         height="14.321517"
         width="22.080296"
         id="rect6709"
         style="fill:url(#radialGradient33294);fill-opacity:1;stroke:url(#linearGradient33296);stroke-width:0.66272068;stroke-linecap:round;stroke-linejoin:miter;stroke-miterlimit:4;stroke-dasharray:none;stroke-dashoffset:0;stroke-opacity:1" />
      <rect
         inkscape:export-ydpi="65.172417"
         inkscape:export-xdpi="65.172417"
         inkscape:export-filename="/Users/izo/Desktop/export.png"
         ry="0.34276548"
         rx="0.42276904"
         y="17.83243"
         x="34.808182"
         height="13.12806"
         width="20.60828"
         id="rect20122"
         style="opacity:0.19565214;fill:none;fill-opacity:1;stroke:#000000;stroke-width:0.66272104;stroke-linecap:round;stroke-linejoin:miter;stroke-miterlimit:4;stroke-dasharray:none;stroke-dashoffset:0;stroke-opacity:1" />
      <g
         inkscape:export-ydpi="65.172417"
         inkscape:export-xdpi="65.172417"
         inkscape:export-filename="/Users/izo/Desktop/export.png"
         transform="matrix(0.8775501,0,0,0.8775501,-127.83664,5.4160239)"
         style="fill:#eeeeec;display:inline"
         id="g4120">
        <path
           sodipodi:type="arc"
           style="opacity:0.80392157;color:#000000;fill:#eeeeec;fill-opacity:1;fill-rule:nonzero;stroke:none;stroke-width:1.10000002;stroke-linecap:square;stroke-linejoin:miter;marker:none;marker-start:none;marker-mid:none;marker-end:none;stroke-miterlimit:4;stroke-dasharray:none;stroke-dashoffset:0;stroke-opacity:1;visibility:visible;display:inline;overflow:visible"
           id="path4104"
           sodipodi:cx="194.25"
           sodipodi:cy="51.25"
           sodipodi:rx="0.25"
           sodipodi:ry="0.25"
           d="M 194.5 51.25 A 0.25 0.25 0 1 1  194,51.25 A 0.25 0.25 0 1 1  194.5 51.25 z"
           transform="matrix(2.000052,0,0,1.99997,-194.0101,-50.99845)" />
        <path
           sodipodi:type="arc"
           style="opacity:0.80392157;color:#000000;fill:#eeeeec;fill-opacity:1;fill-rule:nonzero;stroke:none;stroke-width:1.10000002;stroke-linecap:square;stroke-linejoin:miter;marker:none;marker-start:none;marker-mid:none;marker-end:none;stroke-miterlimit:4;stroke-dasharray:none;stroke-dashoffset:0;stroke-opacity:1;visibility:visible;display:inline;overflow:visible"
           id="path4106"
           sodipodi:cx="194.25"
           sodipodi:cy="51.25"
           sodipodi:rx="0.25"
           sodipodi:ry="0.25"
           d="M 194.5 51.25 A 0.25 0.25 0 1 1  194,51.25 A 0.25 0.25 0 1 1  194.5 51.25 z"
           transform="matrix(2.000052,0,0,1.99997,-193.0101,-49.99847)" />
        <path
           sodipodi:type="arc"
           style="opacity:0.80392157;color:#000000;fill:#eeeeec;fill-opacity:1;fill-rule:nonzero;stroke:none;stroke-width:1.10000002;stroke-linecap:square;stroke-linejoin:miter;marker:none;marker-start:none;marker-mid:none;marker-end:none;stroke-miterlimit:4;stroke-dasharray:none;stroke-dashoffset:0;stroke-opacity:1;visibility:visible;display:inline;overflow:visible"
           id="path4108"
           sodipodi:cx="194.25"
           sodipodi:cy="51.25"
           sodipodi:rx="0.25"
           sodipodi:ry="0.25"
           d="M 194.5 51.25 A 0.25 0.25 0 1 1  194,51.25 A 0.25 0.25 0 1 1  194.5 51.25 z"
           transform="matrix(2.000052,0,0,1.99997,-194.0101,-48.99847)" />
        <path
           sodipodi:type="arc"
           style="opacity:0.80392157;color:#000000;fill:#eeeeec;fill-opacity:1;fill-rule:nonzero;stroke:none;stroke-width:1.10000002;stroke-linecap:square;stroke-linejoin:miter;marker:none;marker-start:none;marker-mid:none;marker-end:none;stroke-miterlimit:4;stroke-dasharray:none;stroke-dashoffset:0;stroke-opacity:1;visibility:visible;display:inline;overflow:visible"
           id="path4110"
           sodipodi:cx="194.25"
           sodipodi:cy="51.25"
           sodipodi:rx="0.25"
           sodipodi:ry="0.25"
           d="M 194.5 51.25 A 0.25 0.25 0 1 1  194,51.25 A 0.25 0.25 0 1 1  194.5 51.25 z"
           transform="matrix(2.000052,0,0,1.99997,-192.0101,-48.99847)" />
        <path
           sodipodi:type="arc"
           style="opacity:0.80392157;color:#000000;fill:#eeeeec;fill-opacity:1;fill-rule:nonzero;stroke:none;stroke-width:1.10000002;stroke-linecap:square;stroke-linejoin:miter;marker:none;marker-start:none;marker-mid:none;marker-end:none;stroke-miterlimit:4;stroke-dasharray:none;stroke-dashoffset:0;stroke-opacity:1;visibility:visible;display:inline;overflow:visible"
           id="path4112"
           sodipodi:cx="194.25"
           sodipodi:cy="51.25"
           sodipodi:rx="0.25"
           sodipodi:ry="0.25"
           d="M 194.5 51.25 A 0.25 0.25 0 1 1  194,51.25 A 0.25 0.25 0 1 1  194.5 51.25 z"
           transform="matrix(2.000052,0,0,1.99997,-192.0101,-50.99845)" />
        <path
           sodipodi:type="arc"
           style="opacity:0.80392157;color:#000000;fill:#eeeeec;fill-opacity:1;fill-rule:nonzero;stroke:none;stroke-width:1.10000002;stroke-linecap:square;stroke-linejoin:miter;marker:none;marker-start:none;marker-mid:none;marker-end:none;stroke-miterlimit:4;stroke-dasharray:none;stroke-dashoffset:0;stroke-opacity:1;visibility:visible;display:inline;overflow:visible"
           id="path4114"
           sodipodi:cx="194.25"
           sodipodi:cy="51.25"
           sodipodi:rx="0.25"
           sodipodi:ry="0.25"
           d="M 194.5 51.25 A 0.25 0.25 0 1 1  194,51.25 A 0.25 0.25 0 1 1  194.5 51.25 z"
           transform="matrix(2.000052,0,0,1.99997,-191.0101,-49.99845)" />
        <path
           sodipodi:type="arc"
           style="opacity:0.80392157;color:#000000;fill:#eeeeec;fill-opacity:1;fill-rule:nonzero;stroke:none;stroke-width:1.10000002;stroke-linecap:square;stroke-linejoin:miter;marker:none;marker-start:none;marker-mid:none;marker-end:none;stroke-miterlimit:4;stroke-dasharray:none;stroke-dashoffset:0;stroke-opacity:1;visibility:visible;display:inline;overflow:visible"
           id="path4116"
           sodipodi:cx="194.25"
           sodipodi:cy="51.25"
           sodipodi:rx="0.25"
           sodipodi:ry="0.25"
           d="M 194.5 51.25 A 0.25 0.25 0 1 1  194,51.25 A 0.25 0.25 0 1 1  194.5 51.25 z"
           transform="matrix(2.000052,0,0,1.99997,-190.0101,-50.99847)" />
        <path
           sodipodi:type="arc"
           style="opacity:0.80392157;color:#000000;fill:#eeeeec;fill-opacity:1;fill-rule:nonzero;stroke:none;stroke-width:1.10000002;stroke-linecap:square;stroke-linejoin:miter;marker:none;marker-start:none;marker-mid:none;marker-end:none;stroke-miterlimit:4;stroke-dasharray:none;stroke-dashoffset:0;stroke-opacity:1;visibility:visible;display:inline;overflow:visible"
           id="path4118"
           sodipodi:cx="194.25"
           sodipodi:cy="51.25"
           sodipodi:rx="0.25"
           sodipodi:ry="0.25"
           d="M 194.5 51.25 A 0.25 0.25 0 1 1  194,51.25 A 0.25 0.25 0 1 1  194.5 51.25 z"
           transform="matrix(2.000052,0,0,1.99997,-190.0101,-48.99847)" />
      </g>
      <path
         inkscape:export-ydpi="65.172417"
         inkscape:export-xdpi="65.172417"
         inkscape:export-filename="/Users/izo/Desktop/export.png"
         transform="matrix(0.2586465,0,0,0.2507266,33.225128,30.850595)"
         d="M 43.714285 14.535714 A 1.6964285 1.75 0 1 1  40.321428,14.535714 A 1.6964285 1.75 0 1 1  43.714285 14.535714 z"
         sodipodi:ry="1.75"
         sodipodi:rx="1.6964285"
         sodipodi:cy="14.535714"
         sodipodi:cx="42.017857"
         id="path15623"
         style="opacity:0.3;fill:#ffffff;fill-opacity:1;stroke:none;stroke-width:1;stroke-linecap:round;stroke-linejoin:miter;stroke-miterlimit:4;stroke-dasharray:none;stroke-dashoffset:0;stroke-opacity:1"
         sodipodi:type="arc" />
      <rect
         inkscape:export-ydpi="65.172417"
         inkscape:export-xdpi="65.172417"
         inkscape:export-filename="/Users/izo/Desktop/export.png"
         ry="10.015703"
         rx="2.6954422"
         y="12.062755"
         x="32.18153"
         height="42.202377"
         width="24.840849"
         id="rect24959"
         style="opacity:0.5;fill:none;fill-opacity:1;stroke:#eeeeec;stroke-width:0.7975778;stroke-linecap:round;stroke-linejoin:round;stroke-miterlimit:4;stroke-dasharray:none;stroke-opacity:1" />
      <g
         transform="matrix(0.8775501,0,0,0.8775501,75.45078,67.868131)"
         id="g29939">
        <g
           id="g29823"
           transform="matrix(0.6080747,0,0,0.6080747,45.537436,-21.937991)">
          <g
             transform="translate(-57.630657,2.8125001)"
             id="g29726">
            <rect
               style="opacity:0.88679241;fill:#2e3436;fill-opacity:1;stroke:#888a85;stroke-width:1;stroke-linecap:butt;stroke-linejoin:miter;stroke-miterlimit:4;stroke-dasharray:none;stroke-opacity:1"
               id="rect29704"
               width="8.2726212"
               height="4.7726207"
               x="-90.761307"
               y="-21.511311"
               rx="0.41190055"
               ry="4.7726207" />
            <path
               style="opacity:0.34509804;color:#000000;fill:url(#radialGradient33298);fill-opacity:1;fill-rule:nonzero;stroke:none;stroke-width:1;stroke-linecap:round;stroke-linejoin:miter;marker:none;marker-start:none;marker-mid:none;marker-end:none;stroke-miterlimit:4;stroke-dashoffset:0;stroke-opacity:1;visibility:visible;display:inline;overflow:visible"
               d="M -90,-21 L -83,-21 L -83,-19.102469 C -85.624998,-18.722963 -87.024999,-18.817839 -90,-19.051639 L -90,-21 z "
               id="rect2292"
               sodipodi:nodetypes="ccccc"
               inkscape:export-filename="/Users/izo/Desktop/export.png"
               inkscape:export-xdpi="65.172417"
               inkscape:export-ydpi="65.172417" />
            <path
               sodipodi:type="arc"
               style="opacity:1;fill:#eeeeec;fill-opacity:1;stroke:none;stroke-width:1;stroke-linecap:butt;stroke-linejoin:miter;stroke-miterlimit:4;stroke-dasharray:none;stroke-opacity:1"
               id="path29724"
               sodipodi:cx="-98.386719"
               sodipodi:cy="-21.07645"
               sodipodi:rx="1.1422991"
               sodipodi:ry="1.1422991"
               d="M -97.24442,-21.07645 A 1.1422991,1.1422991 0 1 1 -97.401026,-21.653734"
               sodipodi:start="0"
               sodipodi:end="5.7533746"
               transform="translate(11.761723,1.9514501)"
               sodipodi:open="true" />
          </g>
          <g
             transform="translate(-57.630657,10.218747)"
             id="g29733">
            <rect
               style="opacity:0.88679241;fill:#2e3436;fill-opacity:1;stroke:#888a85;stroke-width:1;stroke-linecap:butt;stroke-linejoin:miter;stroke-miterlimit:4;stroke-dasharray:none;stroke-opacity:1"
               id="rect29735"
               width="8.2726212"
               height="4.7726207"
               x="-90.761307"
               y="-21.511311"
               rx="0.41190055"
               ry="4.7726207" />
            <path
               style="opacity:0.34509804;color:#000000;fill:url(#radialGradient33300);fill-opacity:1;fill-rule:nonzero;stroke:none;stroke-width:1;stroke-linecap:round;stroke-linejoin:miter;marker:none;marker-start:none;marker-mid:none;marker-end:none;stroke-miterlimit:4;stroke-dashoffset:0;stroke-opacity:1;visibility:visible;display:inline;overflow:visible"
               d="M -90,-21 L -83,-21 L -83,-19.102469 C -85.624998,-18.722963 -87.024999,-18.817839 -90,-19.051639 L -90,-21 z "
               id="path29737"
               sodipodi:nodetypes="ccccc"
               inkscape:export-filename="/Users/izo/Desktop/export.png"
               inkscape:export-xdpi="65.172417"
               inkscape:export-ydpi="65.172417" />
            <path
               sodipodi:type="arc"
               style="opacity:1;fill:#eeeeec;fill-opacity:1;stroke:none;stroke-width:1;stroke-linecap:butt;stroke-linejoin:miter;stroke-miterlimit:4;stroke-dasharray:none;stroke-opacity:1"
               id="path29739"
               sodipodi:cx="-98.386719"
               sodipodi:cy="-21.07645"
               sodipodi:rx="1.1422991"
               sodipodi:ry="1.1422991"
               d="M -97.24442,-21.07645 A 1.1422991,1.1422991 0 1 1 -97.401026,-21.653734"
               sodipodi:start="0"
               sodipodi:end="5.7533746"
               transform="translate(11.761723,1.9514501)"
               sodipodi:open="true" />
          </g>
          <g
             transform="translate(-57.630657,17.625)"
             id="g29803">
            <rect
               style="opacity:0.88679241;fill:#2e3436;fill-opacity:1;stroke:#888a85;stroke-width:1;stroke-linecap:butt;stroke-linejoin:miter;stroke-miterlimit:4;stroke-dasharray:none;stroke-opacity:1"
               id="rect29805"
               width="8.2726212"
               height="4.7726207"
               x="-90.761307"
               y="-21.511311"
               rx="0.41190055"
               ry="4.7726207" />
            <path
               style="opacity:0.34509804;color:#000000;fill:url(#radialGradient33302);fill-opacity:1;fill-rule:nonzero;stroke:none;stroke-width:1;stroke-linecap:round;stroke-linejoin:miter;marker:none;marker-start:none;marker-mid:none;marker-end:none;stroke-miterlimit:4;stroke-dashoffset:0;stroke-opacity:1;visibility:visible;display:inline;overflow:visible"
               d="M -90,-21 L -83,-21 L -83,-19.102469 C -85.624998,-18.722963 -87.024999,-18.817839 -90,-19.051639 L -90,-21 z "
               id="path29807"
               sodipodi:nodetypes="ccccc"
               inkscape:export-filename="/Users/izo/Desktop/export.png"
               inkscape:export-xdpi="65.172417"
               inkscape:export-ydpi="65.172417" />
            <path
               sodipodi:type="arc"
               style="opacity:1;fill:#eeeeec;fill-opacity:1;stroke:none;stroke-width:1;stroke-linecap:butt;stroke-linejoin:miter;stroke-miterlimit:4;stroke-dasharray:none;stroke-opacity:1"
               id="path29809"
               sodipodi:cx="-98.386719"
               sodipodi:cy="-21.07645"
               sodipodi:rx="1.1422991"
               sodipodi:ry="1.1422991"
               d="M -97.24442,-21.07645 A 1.1422991,1.1422991 0 1 1 -97.401026,-21.653734"
               sodipodi:start="0"
               sodipodi:end="5.7533746"
               transform="translate(11.761723,1.9514501)"
               sodipodi:open="true" />
          </g>
        </g>
        <g
           id="g29875"
           transform="matrix(0.6080747,0,0,0.6080747,59.592288,-21.84298)">
          <g
             transform="translate(-57.630657,2.8125001)"
             id="g29877">
            <rect
               style="opacity:0.88679241;fill:#2e3436;fill-opacity:1;stroke:#888a85;stroke-width:1;stroke-linecap:butt;stroke-linejoin:miter;stroke-miterlimit:4;stroke-dasharray:none;stroke-opacity:1"
               id="rect29879"
               width="8.2726212"
               height="4.7726207"
               x="-90.761307"
               y="-21.511311"
               rx="0.41190055"
               ry="4.7726207" />
            <path
               style="opacity:0.34509804;color:#000000;fill:url(#radialGradient33304);fill-opacity:1;fill-rule:nonzero;stroke:none;stroke-width:1;stroke-linecap:round;stroke-linejoin:miter;marker:none;marker-start:none;marker-mid:none;marker-end:none;stroke-miterlimit:4;stroke-dashoffset:0;stroke-opacity:1;visibility:visible;display:inline;overflow:visible"
               d="M -90,-21 L -83,-21 L -83,-19.102469 C -85.624998,-18.722963 -87.024999,-18.817839 -90,-19.051639 L -90,-21 z "
               id="path29881"
               sodipodi:nodetypes="ccccc"
               inkscape:export-filename="/Users/izo/Desktop/export.png"
               inkscape:export-xdpi="65.172417"
               inkscape:export-ydpi="65.172417" />
            <path
               sodipodi:type="arc"
               style="opacity:1;fill:#eeeeec;fill-opacity:1;stroke:none;stroke-width:1;stroke-linecap:butt;stroke-linejoin:miter;stroke-miterlimit:4;stroke-dasharray:none;stroke-opacity:1"
               id="path29883"
               sodipodi:cx="-98.386719"
               sodipodi:cy="-21.07645"
               sodipodi:rx="1.1422991"
               sodipodi:ry="1.1422991"
               d="M -97.24442,-21.07645 A 1.1422991,1.1422991 0 1 1 -97.401026,-21.653734"
               sodipodi:start="0"
               sodipodi:end="5.7533746"
               transform="translate(11.761723,1.9514501)"
               sodipodi:open="true" />
          </g>
          <g
             transform="translate(-57.630657,10.218747)"
             id="g29885">
            <rect
               style="opacity:0.88679241;fill:#2e3436;fill-opacity:1;stroke:#888a85;stroke-width:1;stroke-linecap:butt;stroke-linejoin:miter;stroke-miterlimit:4;stroke-dasharray:none;stroke-opacity:1"
               id="rect29887"
               width="8.2726212"
               height="4.7726207"
               x="-90.761307"
               y="-21.511311"
               rx="0.41190055"
               ry="4.7726207" />
            <path
               style="opacity:0.34509804;color:#000000;fill:url(#radialGradient33306);fill-opacity:1;fill-rule:nonzero;stroke:none;stroke-width:1;stroke-linecap:round;stroke-linejoin:miter;marker:none;marker-start:none;marker-mid:none;marker-end:none;stroke-miterlimit:4;stroke-dashoffset:0;stroke-opacity:1;visibility:visible;display:inline;overflow:visible"
               d="M -90,-21 L -83,-21 L -83,-19.102469 C -85.624998,-18.722963 -87.024999,-18.817839 -90,-19.051639 L -90,-21 z "
               id="path29889"
               sodipodi:nodetypes="ccccc"
               inkscape:export-filename="/Users/izo/Desktop/export.png"
               inkscape:export-xdpi="65.172417"
               inkscape:export-ydpi="65.172417" />
            <path
               sodipodi:type="arc"
               style="opacity:1;fill:#eeeeec;fill-opacity:1;stroke:none;stroke-width:1;stroke-linecap:butt;stroke-linejoin:miter;stroke-miterlimit:4;stroke-dasharray:none;stroke-opacity:1"
               id="path29891"
               sodipodi:cx="-98.386719"
               sodipodi:cy="-21.07645"
               sodipodi:rx="1.1422991"
               sodipodi:ry="1.1422991"
               d="M -97.24442,-21.07645 A 1.1422991,1.1422991 0 1 1 -97.401026,-21.653734"
               sodipodi:start="0"
               sodipodi:end="5.7533746"
               transform="translate(11.761723,1.9514501)"
               sodipodi:open="true" />
          </g>
          <g
             transform="translate(-57.630657,17.625)"
             id="g29893">
            <rect
               style="opacity:0.88679241;fill:#2e3436;fill-opacity:1;stroke:#888a85;stroke-width:1;stroke-linecap:butt;stroke-linejoin:miter;stroke-miterlimit:4;stroke-dasharray:none;stroke-opacity:1"
               id="rect29895"
               width="8.2726212"
               height="4.7726207"
               x="-90.761307"
               y="-21.511311"
               rx="0.41190055"
               ry="4.7726207" />
            <path
               style="opacity:0.34509804;color:#000000;fill:url(#radialGradient33308);fill-opacity:1;fill-rule:nonzero;stroke:none;stroke-width:1;stroke-linecap:round;stroke-linejoin:miter;marker:none;marker-start:none;marker-mid:none;marker-end:none;stroke-miterlimit:4;stroke-dashoffset:0;stroke-opacity:1;visibility:visible;display:inline;overflow:visible"
               d="M -90,-21 L -83,-21 L -83,-19.102469 C -85.624998,-18.722963 -87.024999,-18.817839 -90,-19.051639 L -90,-21 z "
               id="path29897"
               sodipodi:nodetypes="ccccc"
               inkscape:export-filename="/Users/izo/Desktop/export.png"
               inkscape:export-xdpi="65.172417"
               inkscape:export-ydpi="65.172417" />
            <path
               sodipodi:type="arc"
               style="opacity:1;fill:#eeeeec;fill-opacity:1;stroke:none;stroke-width:1;stroke-linecap:butt;stroke-linejoin:miter;stroke-miterlimit:4;stroke-dasharray:none;stroke-opacity:1"
               id="path29899"
               sodipodi:cx="-98.386719"
               sodipodi:cy="-21.07645"
               sodipodi:rx="1.1422991"
               sodipodi:ry="1.1422991"
               d="M -97.24442,-21.07645 A 1.1422991,1.1422991 0 1 1 -97.401026,-21.653734"
               sodipodi:start="0"
               sodipodi:end="5.7533746"
               transform="translate(11.761723,1.9514501)"
               sodipodi:open="true" />
          </g>
        </g>
        <g
           id="g29907"
           transform="matrix(0.6080747,0,0,0.6080747,52.564858,-21.994998)">
          <g
             transform="translate(-57.630657,2.8125001)"
             id="g29909">
            <rect
               style="opacity:0.88679241;fill:#2e3436;fill-opacity:1;stroke:#888a85;stroke-width:1;stroke-linecap:butt;stroke-linejoin:miter;stroke-miterlimit:4;stroke-dasharray:none;stroke-opacity:1"
               id="rect29911"
               width="8.2726212"
               height="4.7726207"
               x="-90.761307"
               y="-21.511311"
               rx="0.41190055"
               ry="4.7726207" />
            <path
               style="opacity:0.34509804;color:#000000;fill:url(#radialGradient33310);fill-opacity:1;fill-rule:nonzero;stroke:none;stroke-width:1;stroke-linecap:round;stroke-linejoin:miter;marker:none;marker-start:none;marker-mid:none;marker-end:none;stroke-miterlimit:4;stroke-dashoffset:0;stroke-opacity:1;visibility:visible;display:inline;overflow:visible"
               d="M -90,-21 L -83,-21 L -83,-19.102469 C -85.624998,-18.722963 -87.024999,-18.817839 -90,-19.051639 L -90,-21 z "
               id="path29913"
               sodipodi:nodetypes="ccccc"
               inkscape:export-filename="/Users/izo/Desktop/export.png"
               inkscape:export-xdpi="65.172417"
               inkscape:export-ydpi="65.172417" />
            <path
               sodipodi:type="arc"
               style="opacity:1;fill:#eeeeec;fill-opacity:1;stroke:none;stroke-width:1;stroke-linecap:butt;stroke-linejoin:miter;stroke-miterlimit:4;stroke-dasharray:none;stroke-opacity:1"
               id="path29915"
               sodipodi:cx="-98.386719"
               sodipodi:cy="-21.07645"
               sodipodi:rx="1.1422991"
               sodipodi:ry="1.1422991"
               d="M -97.24442,-21.07645 A 1.1422991,1.1422991 0 1 1 -97.401026,-21.653734"
               sodipodi:start="0"
               sodipodi:end="5.7533746"
               transform="translate(11.761723,1.9514501)"
               sodipodi:open="true" />
          </g>
          <g
             transform="translate(-57.630657,10.218747)"
             id="g29917">
            <rect
               style="opacity:0.88679241;fill:#2e3436;fill-opacity:1;stroke:#888a85;stroke-width:1;stroke-linecap:butt;stroke-linejoin:miter;stroke-miterlimit:4;stroke-dasharray:none;stroke-opacity:1"
               id="rect29919"
               width="8.2726212"
               height="4.7726207"
               x="-90.761307"
               y="-21.511311"
               rx="0.41190055"
               ry="4.7726207" />
            <path
               style="opacity:0.34509804;color:#000000;fill:url(#radialGradient33312);fill-opacity:1;fill-rule:nonzero;stroke:none;stroke-width:1;stroke-linecap:round;stroke-linejoin:miter;marker:none;marker-start:none;marker-mid:none;marker-end:none;stroke-miterlimit:4;stroke-dashoffset:0;stroke-opacity:1;visibility:visible;display:inline;overflow:visible"
               d="M -90,-21 L -83,-21 L -83,-19.102469 C -85.624998,-18.722963 -87.024999,-18.817839 -90,-19.051639 L -90,-21 z "
               id="path29921"
               sodipodi:nodetypes="ccccc"
               inkscape:export-filename="/Users/izo/Desktop/export.png"
               inkscape:export-xdpi="65.172417"
               inkscape:export-ydpi="65.172417" />
            <path
               sodipodi:type="arc"
               style="opacity:1;fill:#eeeeec;fill-opacity:1;stroke:none;stroke-width:1;stroke-linecap:butt;stroke-linejoin:miter;stroke-miterlimit:4;stroke-dasharray:none;stroke-opacity:1"
               id="path29923"
               sodipodi:cx="-98.386719"
               sodipodi:cy="-21.07645"
               sodipodi:rx="1.1422991"
               sodipodi:ry="1.1422991"
               d="M -97.24442,-21.07645 A 1.1422991,1.1422991 0 1 1 -97.401026,-21.653734"
               sodipodi:start="0"
               sodipodi:end="5.7533746"
               transform="translate(11.761723,1.9514501)"
               sodipodi:open="true" />
          </g>
          <g
             transform="translate(-57.630657,17.625)"
             id="g29925">
            <rect
               style="opacity:0.88679241;fill:#2e3436;fill-opacity:1;stroke:#888a85;stroke-width:1;stroke-linecap:butt;stroke-linejoin:miter;stroke-miterlimit:4;stroke-dasharray:none;stroke-opacity:1"
               id="rect29927"
               width="8.2726212"
               height="4.7726207"
               x="-90.761307"
               y="-21.511311"
               rx="0.41190055"
               ry="4.7726207" />
            <path
               style="opacity:0.34509804;color:#000000;fill:url(#radialGradient33314);fill-opacity:1;fill-rule:nonzero;stroke:none;stroke-width:1;stroke-linecap:round;stroke-linejoin:miter;marker:none;marker-start:none;marker-mid:none;marker-end:none;stroke-miterlimit:4;stroke-dashoffset:0;stroke-opacity:1;visibility:visible;display:inline;overflow:visible"
               d="M -90,-21 L -83,-21 L -83,-19.102469 C -85.624998,-18.722963 -87.024999,-18.817839 -90,-19.051639 L -90,-21 z "
               id="path29929"
               sodipodi:nodetypes="ccccc"
               inkscape:export-filename="/Users/izo/Desktop/export.png"
               inkscape:export-xdpi="65.172417"
               inkscape:export-ydpi="65.172417" />
            <path
               sodipodi:type="arc"
               style="opacity:1;fill:#eeeeec;fill-opacity:1;stroke:none;stroke-width:1;stroke-linecap:butt;stroke-linejoin:miter;stroke-miterlimit:4;stroke-dasharray:none;stroke-opacity:1"
               id="path29931"
               sodipodi:cx="-98.386719"
               sodipodi:cy="-21.07645"
               sodipodi:rx="1.1422991"
               sodipodi:ry="1.1422991"
               d="M -97.24442,-21.07645 A 1.1422991,1.1422991 0 1 1 -97.401026,-21.653734"
               sodipodi:start="0"
               sodipodi:end="5.7533746"
               transform="translate(11.761723,1.9514501)"
               sodipodi:open="true" />
          </g>
        </g>
      </g>
      <g
         transform="matrix(0.8775501,0,0,0.8775501,16.313758,4.2457494)"
         id="g30026">
        <g
           id="g30012"
           transform="translate(-0.3461642,-0.4088274)">
          <path
             inkscape:export-ydpi="65.172417"
             inkscape:export-xdpi="65.172417"
             inkscape:export-filename="/Users/izo/Desktop/export.png"
             transform="matrix(1.098038,0,0,1.098038,-10.437973,17.705522)"
             d="M 40.999998 16.178572 A 1.8214285 1.8214285 0 1 1  37.357141,16.178572 A 1.8214285 1.8214285 0 1 1  40.999998 16.178572 z"
             sodipodi:ry="1.8214285"
             sodipodi:rx="1.8214285"
             sodipodi:cy="16.178572"
             sodipodi:cx="39.17857"
             id="path6711"
             style="opacity:0.61956524;fill:#edd400;fill-opacity:1;stroke:url(#linearGradient33316);stroke-width:0.91071498;stroke-linecap:round;stroke-linejoin:miter;stroke-miterlimit:4;stroke-dasharray:none;stroke-dashoffset:0;stroke-opacity:1"
             sodipodi:type="arc" />
          <path
             inkscape:export-ydpi="65.172417"
             inkscape:export-xdpi="65.172417"
             inkscape:export-filename="/Users/izo/Desktop/export.png"
             transform="matrix(0.600001,0,0,0.551019,6.8529768,26.925042)"
             d="M 43.714285 14.535714 A 1.6964285 1.75 0 1 1  40.321428,14.535714 A 1.6964285 1.75 0 1 1  43.714285 14.535714 z"
             sodipodi:ry="1.75"
             sodipodi:rx="1.6964285"
             sodipodi:cy="14.535714"
             sodipodi:cx="42.017857"
             id="path16510"
             style="opacity:0.3;fill:#ffffff;fill-opacity:1;stroke:none;stroke-width:1;stroke-linecap:round;stroke-linejoin:miter;stroke-miterlimit:4;stroke-dasharray:none;stroke-dashoffset:0;stroke-opacity:1"
             sodipodi:type="arc" />
        </g>
        <g
           id="g30007"
           transform="translate(-0.3461642,-0.4088285)">
          <rect
             inkscape:export-ydpi="65.172417"
             inkscape:export-xdpi="65.172417"
             inkscape:export-filename="/Users/izo/Desktop/export.png"
             ry="2.155304"
             rx="0.18281466"
             y="33.332058"
             x="37.632542"
             height="4.2763033"
             width="7.2136226"
             id="rect24869"
             style="fill:url(#linearGradient33318);fill-opacity:1;stroke:#2e3436;stroke-width:1;stroke-linecap:round;stroke-linejoin:round;stroke-miterlimit:4;stroke-dasharray:none;stroke-opacity:1" />
          <path
             inkscape:export-ydpi="65.172417"
             inkscape:export-xdpi="65.172417"
             inkscape:export-filename="/Users/izo/Desktop/export.png"
             id="path24871"
             d="M 38.900381,35.740202 C 38.936852,35.9033 39.049148,36.086955 39.33759,36.160569 C 39.793226,36.276856 40.027127,35.959014 40.103625,35.8277 C 40.115383,35.82538 40.127733,35.823122 40.139321,35.820362 C 40.213723,35.551778 40.312353,35.271853 41.461351,35.39977 C 42.551814,35.52117 42.547877,35.71246 42.57298,35.920676 C 42.569215,35.919592 42.565495,35.918784 42.561735,35.91767 C 42.561735,35.91767 42.566307,36.573258 43.271885,36.398861 C 43.977875,36.224364 43.831949,35.736277 43.831949,35.736277 C 43.856162,35.593731 43.936869,34.598677 41.426976,34.508589 C 38.910507,34.418268 38.919531,35.329454 38.930467,35.447002 C 38.920696,35.441599 38.910441,35.437418 38.900776,35.431846 C 38.900776,35.431846 38.863912,35.577104 38.900381,35.740202 z "
             style="fill:#ef2929;fill-opacity:1;fill-rule:evenodd;stroke:none;stroke-width:1px;stroke-linecap:butt;stroke-linejoin:miter;stroke-opacity:1" />
          <path
             inkscape:export-ydpi="65.172417"
             inkscape:export-xdpi="65.172417"
             inkscape:export-filename="/Users/izo/Desktop/export.png"
             sodipodi:nodetypes="ccccc"
             id="path24873"
             d="M 37.942438,33.5 L 44.346165,33.5 L 44.346165,35.397531 C 41.944769,35.777037 40.664023,35.682161 37.942438,35.448361 L 37.942438,33.5 z "
             style="opacity:0.34509804;color:#000000;fill:url(#radialGradient33320);fill-opacity:1;fill-rule:nonzero;stroke:none;stroke-width:1;stroke-linecap:round;stroke-linejoin:miter;marker:none;marker-start:none;marker-mid:none;marker-end:none;stroke-miterlimit:4;stroke-dashoffset:0;stroke-opacity:1;visibility:visible;display:inline;overflow:visible" />
        </g>
        <g
           id="g30002"
           transform="translate(-0.3461642,-0.4088285)">
          <rect
             inkscape:export-ydpi="65.172417"
             inkscape:export-xdpi="65.172417"
             inkscape:export-filename="/Users/izo/Desktop/export.png"
             ry="2.155304"
             rx="0.18281466"
             y="33.332058"
             x="20.317003"
             height="4.2763033"
             width="7.2136226"
             id="rect24806"
             style="fill:url(#linearGradient33322);fill-opacity:1;stroke:#2e3436;stroke-width:1;stroke-linecap:round;stroke-linejoin:round;stroke-miterlimit:4;stroke-dasharray:none;stroke-opacity:1" />
          <path
             inkscape:export-ydpi="65.172417"
             inkscape:export-xdpi="65.172417"
             inkscape:export-filename="/Users/izo/Desktop/export.png"
             id="path7707"
             d="M 21.668236,34.191959 C 21.607006,34.347464 21.597042,34.5625 21.794632,34.785157 C 22.106752,35.136878 22.478623,35.004798 22.615584,34.938941 C 22.626621,34.943612 22.638113,34.948665 22.649258,34.952875 C 22.861434,34.772172 23.100032,34.595657 23.979802,35.345702 C 24.814751,36.057534 24.704256,36.213733 24.60832,36.400228 C 24.60581,36.39722 24.603183,36.394465 24.600693,36.391435 C 24.600693,36.391435 24.236964,36.936886 24.919013,37.188009 C 25.60146,37.43928 25.754236,36.953294 25.754236,36.953294 C 25.854197,36.848825 26.478847,36.070071 24.450922,34.58845 C 22.417683,33.10295 21.914354,33.862556 21.857514,33.966027 C 21.852452,33.956076 21.846303,33.946864 21.841424,33.936832 C 21.841424,33.936832 21.729466,34.036454 21.668236,34.191959 z "
             style="fill:#8ae234;fill-opacity:1;fill-rule:evenodd;stroke:none;stroke-width:1px;stroke-linecap:butt;stroke-linejoin:miter;stroke-opacity:1" />
          <path
             inkscape:export-ydpi="65.172417"
             inkscape:export-xdpi="65.172417"
             inkscape:export-filename="/Users/izo/Desktop/export.png"
             sodipodi:nodetypes="ccccc"
             id="path29998"
             d="M 20.596273,33.402924 L 27,33.402924 L 27,35.300455 C 24.598604,35.679961 23.317858,35.585085 20.596273,35.351285 L 20.596273,33.402924 z "
             style="opacity:0.34509804;color:#000000;fill:url(#radialGradient33324);fill-opacity:1;fill-rule:nonzero;stroke:none;stroke-width:1;stroke-linecap:round;stroke-linejoin:miter;marker:none;marker-start:none;marker-mid:none;marker-end:none;stroke-miterlimit:4;stroke-dashoffset:0;stroke-opacity:1;visibility:visible;display:inline;overflow:visible" />
        </g>
      </g>
      <path
         inkscape:export-ydpi="65.172417"
         inkscape:export-xdpi="65.172417"
         inkscape:export-filename="/Users/izo/Desktop/export.png"
         id="rect24955"
         d="M 31.438702,37.537806 L 31.438702,46.809651 C 31.438702,51.428018 32.70987,55.143655 34.292453,55.143655 L 54.911454,55.143655 C 56.46651,55.143655 57.721939,51.550534 57.765205,47.044112 C 51.978871,46.609859 42.373539,42.455237 31.438702,37.537806 z "
         style="opacity:0.45911949;fill:url(#linearGradient33326);fill-opacity:1;stroke:none;stroke-width:1;stroke-linecap:round;stroke-linejoin:round;stroke-miterlimit:4;stroke-dasharray:none;stroke-opacity:1" />
      <path
         inkscape:export-ydpi="65.172417"
         inkscape:export-xdpi="65.172417"
         inkscape:export-filename="/Users/izo/Desktop/export.png"
         id="path2443"
         d="M 35.426226,17.981181 L 34.860866,30.811256 C 42.641509,29.087715 45.724861,23.278342 55.399077,21.372493 L 55.285324,18.028616 L 35.426226,17.981181 z "
         style="opacity:0.23270443;fill:url(#linearGradient33328);fill-opacity:1;fill-rule:evenodd;stroke:none;stroke-width:0.25pt;stroke-linecap:butt;stroke-linejoin:miter;stroke-opacity:1"
         sodipodi:nodetypes="ccccc" />
    </g>
    <path
       sodipodi:nodetypes="cccccccc"
       id="path8643"
       d="M 9.743533,28.851425 L 21.610554,28.851425 L 21.610554,15.739004 L 27.458667,15.739004 L 15.651858,2 L 4,15.741562 L 9.747164,15.741562 L 9.743533,28.851425 z "
       style="opacity:1;color:#000000;fill:url(#linearGradient35635);fill-opacity:1.0;fill-rule:evenodd;stroke:none;stroke-width:1.00000036;stroke-linecap:round;stroke-linejoin:round;marker:none;marker-start:none;marker-mid:none;marker-end:none;stroke-miterlimit:10;stroke-dasharray:none;stroke-dashoffset:0;stroke-opacity:1;visibility:visible;display:inline;overflow:visible" />
  </g>
</svg>
