<?xml version="1.0" encoding="utf-8"?>
<!-- Generator: Adobe Illustrator 12.0.0, SVG Export Plug-In . SVG Version: 6.00 Build 51448)  -->
<!DOCTYPE svg PUBLIC "-//W3C//DTD SVG 1.1//EN" "http://www.w3.org/Graphics/SVG/1.1/DTD/svg11.dtd" [
	<!ENTITY ns_svg "http://www.w3.org/2000/svg">
	<!ENTITY ns_xlink "http://www.w3.org/1999/xlink">
]>
<svg  version="1.1" id="Layer_1" xmlns="&ns_svg;" xmlns:xlink="&ns_xlink;" width="43" height="48" viewBox="0 0 43 48"
	 overflow="visible" enable-background="new 0 0 43 48" xml:space="preserve">
<g id="Layer_x0020_1">
	<path d="M7.7,2.6c-2.9,0-5.2,2.3-5.2,5.2v30.8c0,2.9,2.3,5.2,5.2,5.2h27.5c2.899,0,5.2-2.3,5.2-5.2V7.8c0-2.9-2.301-5.2-5.2-5.2
		H7.7z"/>
	
		<linearGradient id="XMLID_75_" gradientUnits="userSpaceOnUse" x1="12.647" y1="39.083" x2="31.9623" y2="5.5291" gradientTransform="matrix(1 0 0 -1 -0.8574 45.8467)">
		<stop  offset="0" style="stop-color:#F0F0F0"/>
		<stop  offset="1" style="stop-color:#D6D6D6"/>
	</linearGradient>
	<path fill="url(#XMLID_75_)" d="M37.8,38.6c0,1.601-1.3,2.801-2.8,2.801H7.5c-1.6,0-2.8-1.301-2.8-2.801V7.8C4.7,6.2,6,5,7.5,5H35
		c1.6,0,2.8,1.3,2.8,2.8V38.6z"/>
	<g>
		
			<radialGradient id="XMLID_76_" cx="8.3335" cy="16.1187" r="1.2474" gradientTransform="matrix(1 0 0 -1 -0.8574 45.8467)" gradientUnits="userSpaceOnUse">
			<stop  offset="0" style="stop-color:#F0F0F0"/>
			<stop  offset="1" style="stop-color:#474747"/>
		</radialGradient>
		<path fill="url(#XMLID_76_)" d="M8.1,29.4c0,0.5-0.4,0.8-0.8,0.8c-0.4,0-0.8-0.4-0.8-0.8C6.5,29,6.9,28.6,7.3,28.6
			C7.7,28.6,8.1,29,8.1,29.4z"/>
		
			<radialGradient id="XMLID_77_" cx="8.3335" cy="27.9756" r="1.247" gradientTransform="matrix(1 0 0 -1 -0.8574 45.8467)" gradientUnits="userSpaceOnUse">
			<stop  offset="0" style="stop-color:#F0F0F0"/>
			<stop  offset="1" style="stop-color:#474747"/>
		</radialGradient>
		<path fill="url(#XMLID_77_)" d="M8.1,17.5c0,0.5-0.4,0.8-0.8,0.8c-0.4,0-0.9-0.3-0.9-0.8s0.4-0.8,0.8-0.8c0.4,0,0.8,0.4,0.8,0.8
			H8.1z"/>
	</g>
	<path fill="#FFFFFF" d="M10,41.4H9.7V5.6H10V41.4z"/>
	
		<linearGradient id="XMLID_78_" gradientUnits="userSpaceOnUse" x1="10.5708" y1="39.291" x2="10.1477" y2="5.7617" gradientTransform="matrix(1 0 0 -1 -0.8574 45.8467)">
		<stop  offset="0" style="stop-color:#EDEDED"/>
		<stop  offset="1" style="stop-color:#CACACA"/>
	</linearGradient>
	<path fill="url(#XMLID_78_)" d="M9.6,41.4H9.3V5.6h0.4v35.8H9.6z"/>
	<path fill="#FFFFFF" d="M5.9,8.8L5.3,40.4C4.8,39.9,4.7,39,4.7,39V7.7c0,0,0-0.8,0.7-1.7c0.7-0.9,2-1,2-1h28l-27,1.3
		c-1.1,0-1.7,0.5-1.9,0.8C6.3,7.3,5.9,8.1,5.9,8.8z"/>
	<path fill="#BEBEBE" d="M36.7,37.6L37.3,6C37.8,6.5,37.9,7.4,37.9,7.4v31.3c0,0,0,0.8-0.7,1.7c-0.8,0.899-2,1-2,1h-28L34.1,40.1
		c1.101,0,1.7-0.5,1.9-0.8c0.2-0.2,0.6-1,0.6-1.7H36.7z"/>
</g>
<g id="Layer_x0020_5">
	<g>
		<path d="M33.7,30.3c0,0.3,0.3,0.601,0.6,0.601S34.9,30.6,34.9,30.3S34.6,29.7,34.3,29.7S33.7,30,33.7,30.3z M33.6,30.3
			c0-0.399,0.301-0.7,0.7-0.7c0.4,0,0.7,0.301,0.7,0.7c0,0.4-0.3,0.7-0.7,0.7C33.9,31,33.6,30.7,33.6,30.3z"/>
		<g>
			<path d="M34,30.7V30h0.3c0.101,0,0.101,0,0.101,0s0.1,0,0.1,0.1V30.2c0,0.1,0,0.1-0.1,0.1c0,0-0.101,0.101-0.2,0.101
				c0,0,0,0,0.1,0l0.101,0.1l0.1,0.2h-0.1L34.3,30.5l-0.1-0.1l0,0l0,0c0,0,0,0-0.101,0H34V30.7L34,30.7z M34.1,30.3h0.2H34.4
				c0,0,0,0,0.1,0c0,0,0,0,0-0.1V30.1h-0.1h-0.2v0.2H34.1z"/>
		</g>
	</g>
	<g opacity="0.35">
		<path fill="none" d="M23.6,11.2C21.1,13.4,32,33.1,34.6,28.1c2.9-5.7-26.1,6.301-19.8,8c7.3,1.9,13.5-29,8.8-24.8V11.2z"/>
		<path d="M22.9,11c-3,3.9,7.1,21.9,11.8,17.7c2.6-2.3-1.101-3-2.9-2.7c-5,0.9-10.1,3-14.5,5.5c-0.9,0.5-6.4,3.5-3.7,5
			c3.1,1.7,6.1-2.8,7.2-4.8c2.9-5,4.4-11.3,4.9-17.1c0.2-1.8,0.1-6-2.7-3.9c-0.9,0.7-0.3,1.6,0.6,0.9c0.4-0.3,0.301,5,0.2,5.5
			c-0.5,3.4-1.399,6.7-2.5,10c-1,2.7-2.4,6.801-5.1,8.2c-2.1,1.101-1.5-0.8-0.5-1.5c1.2-0.899,2.6-1.6,3.9-2.2
			c2.8-1.399,5.7-2.5,8.7-3.399c1.101-0.4,2.3-0.601,3.5-0.8c1.9-0.301,2,1.3,0.7,0.5c-2.6-1.5-4.4-5.101-5.8-7.601
			c-0.9-1.6-4.2-7-2.8-8.9c0.699-0.9-0.801-0.9-1.301-0.3L22.9,11z"/>
	</g>
	<g>
		<path fill="none" d="M22.6,10.7C20.1,12.9,31,32.6,33.6,27.6c2.9-5.7-26.1,6.301-19.8,8c7.3,1.9,13.5-29,8.8-24.8V10.7z"/>
		<path fill="#F8310E" d="M21.9,10.6c-3,3.9,7.1,21.9,11.8,17.7c2.6-2.3-1.101-3-2.9-2.7c-5,0.9-10.1,3-14.5,5.5
			c-0.9,0.5-6.4,3.5-3.7,5c3.1,1.7,6.1-2.8,7.2-4.8c2.9-5,4.4-11.3,4.9-17.1c0.2-1.8,0.1-6-2.7-3.9c-0.9,0.7-0.3,1.6,0.6,0.9
			c0.4-0.3,0.301,5,0.2,5.5c-0.5,3.4-1.4,6.7-2.5,10c-1,2.7-2.4,6.8-5.1,8.2c-2.1,1.1-1.5-0.801-0.5-1.5c1.2-0.9,2.6-1.601,3.9-2.2
			c2.8-1.4,5.7-2.5,8.7-3.4c1.101-0.399,2.3-0.6,3.5-0.8c1.9-0.3,2,1.3,0.7,0.5c-2.6-1.5-4.4-5.1-5.8-7.6c-0.9-1.6-4.2-7-2.8-8.9
			c0.699-0.9-0.801-0.9-1.3-0.3L21.9,10.6z"/>
	</g>
</g>
<g id="Layer_x0020_4">
	<path fill="none" d="M43,48H0V0h43V48z"/>
</g>
</svg>
