<?xml version="1.0" encoding="utf-8"?>
<!-- Generator: Adobe Illustrator 12.0.0, SVG Export Plug-In . SVG Version: 6.00 Build 51448)  -->
<!DOCTYPE svg PUBLIC "-//W3C//DTD SVG 1.1//EN" "http://www.w3.org/Graphics/SVG/1.1/DTD/svg11.dtd" [
	<!ENTITY ns_svg "http://www.w3.org/2000/svg">
	<!ENTITY ns_xlink "http://www.w3.org/1999/xlink">
]>
<svg  version="1.1" id="Layer_1" xmlns="&ns_svg;" xmlns:xlink="&ns_xlink;" width="44.572" height="48" viewBox="0 0 44.572 48"
	 overflow="visible" enable-background="new 0 0 44.572 48" xml:space="preserve">
<g id="Layer_x0020_1">
	<path d="M9.324,2.56c-2.877,0-5.217,2.34-5.217,5.217v30.78c0,2.877,2.34,5.217,5.217,5.217h27.461c2.877,0,5.217-2.34,5.217-5.217
		V7.776c0-2.876-2.34-5.217-5.217-5.217L9.324,2.56L9.324,2.56z"/>
	
		<linearGradient id="XMLID_50_" gradientUnits="userSpaceOnUse" x1="14.2322" y1="39.084" x2="33.5476" y2="5.5299" gradientTransform="matrix(1 0 0 -1 -0.8574 45.8467)">
		<stop  offset="0" style="stop-color:#F0F0F0"/>
		<stop  offset="1" style="stop-color:#D6D6D6"/>
	</linearGradient>
	<path fill="url(#XMLID_50_)" d="M39.395,38.557c0,1.571-1.275,2.846-2.847,2.846H9.086c-1.571,0-2.846-1.273-2.846-2.846V7.776
		c0-1.571,1.274-2.846,2.846-2.846h27.462c1.57,0,2.847,1.274,2.847,2.846v30.779L39.395,38.557z"/>
	<g>
		
			<radialGradient id="XMLID_51_" cx="9.9177" cy="16.1191" r="1.247" gradientTransform="matrix(1 0 0 -1 -0.8574 45.8467)" gradientUnits="userSpaceOnUse">
			<stop  offset="0" style="stop-color:#F0F0F0"/>
			<stop  offset="1" style="stop-color:#474747"/>
		</radialGradient>
		<path fill="url(#XMLID_51_)" d="M9.662,29.373c0,0.468-0.379,0.848-0.847,0.848s-0.848-0.38-0.848-0.848s0.38-0.848,0.848-0.848
			S9.662,28.905,9.662,29.373z"/>
		
			<radialGradient id="XMLID_52_" cx="9.9177" cy="27.9756" r="1.247" gradientTransform="matrix(1 0 0 -1 -0.8574 45.8467)" gradientUnits="userSpaceOnUse">
			<stop  offset="0" style="stop-color:#F0F0F0"/>
			<stop  offset="1" style="stop-color:#474747"/>
		</radialGradient>
		<path fill="url(#XMLID_52_)" d="M9.662,17.516c0,0.468-0.379,0.847-0.847,0.847s-0.848-0.379-0.848-0.847
			c0-0.468,0.38-0.847,0.848-0.847S9.662,17.048,9.662,17.516z"/>
	</g>
	<path fill="#FFFFFF" d="M11.619,41.383h-0.383V5.557h0.383V41.383z"/>
	
		<linearGradient id="XMLID_53_" gradientUnits="userSpaceOnUse" x1="12.1135" y1="39.293" x2="11.6905" y2="5.7646" gradientTransform="matrix(1 0 0 -1 -0.8574 45.8467)">
		<stop  offset="0" style="stop-color:#EDEDED"/>
		<stop  offset="1" style="stop-color:#CACACA"/>
	</linearGradient>
	<path fill="url(#XMLID_53_)" d="M11.234,41.383h-0.383V5.557h0.383V41.383z"/>
	<path fill="#FFFFFF" d="M7.52,8.762L6.899,40.375c-0.451-0.451-0.631-1.432-0.631-1.432L6.229,7.66c0,0-0.038-0.807,0.703-1.739
		C7.681,4.977,8.929,4.92,8.929,4.92l28.021,0.04L10.008,6.273c-1.088,0-1.671,0.539-1.908,0.822
		C7.907,7.325,7.532,8.069,7.52,8.762z"/>
	<path fill="#BEBEBE" d="M38.242,37.577l0.621-31.613c0.451,0.451,0.631,1.431,0.631,1.431l0.039,31.285
		c0,0,0.037,0.807-0.703,1.738c-0.75,0.943-1.998,1.001-1.998,1.001l-28.021-0.04l26.942-1.312c1.088,0,1.67-0.539,1.908-0.822
		C37.855,39.016,38.23,38.27,38.242,37.577L38.242,37.577z"/>
</g>
<g id="Layer_x0020_4">
	<path fill="none" d="M44.572,48H0V0h44.572V48z"/>
</g>
<g id="Layer_x0020_5">
	<path fill="#969696" d="M15.303,9.313c-0.551,0-0.999,0.447-0.999,0.998v0.195c0,0.429,0.282,0.781,0.677,0.917
		c0,0.359,0,17.873,0,17.873s9.378,0,9.852,0c0,0.354,0,1.444,0,1.634c-0.297,0.219-0.481,0.553-0.481,0.916
		c0,0,0.012,0.057,0.022,0.112c-0.257,0.188-6.926,5.118-6.926,5.118l2.215-0.002l0.965-0.001c0,0,4.493-3.954,4.664-4.104
		c0.076,0.018,0.155,0.043,0.227,0.043c0.074,0,0.156-0.027,0.234-0.046c0.173,0.153,4.629,4.107,4.629,4.107l1.664,0.003h1.512
		c0,0-6.641-4.922-6.897-5.112c0.013-0.06,0.025-0.118,0.025-0.118c0-0.359-0.176-0.685-0.462-0.904c0-0.185,0-1.289,0-1.646
		c0.472,0,9.019,0,9.019,0s0-17.44,0-17.838c0.438-0.106,0.771-0.483,0.771-0.952v-0.195c0-0.551-0.449-0.998-0.999-0.998H15.303z"
		/>
	<path d="M14.804,8.813c-0.551,0-0.998,0.448-0.998,0.998v0.195c0,0.429,0.281,0.781,0.676,0.917c0,0.358,0,17.872,0,17.872
		s9.378,0,9.853,0c0,0.355,0,1.445,0,1.635c-0.296,0.219-0.482,0.553-0.482,0.915c0,0,0.012,0.058,0.022,0.112
		c-0.256,0.189-6.926,5.12-6.926,5.12l2.216-0.003l0.965-0.001c0,0,4.493-3.953,4.664-4.104c0.075,0.016,0.154,0.043,0.227,0.043
		c0.074,0,0.156-0.027,0.235-0.047c0.173,0.153,4.627,4.107,4.627,4.107l1.665,0.002h1.513c0,0-6.642-4.922-6.898-5.11
		c0.013-0.062,0.025-0.12,0.025-0.12c0-0.359-0.175-0.683-0.462-0.902c0-0.187,0-1.291,0-1.646c0.472,0,9.02,0,9.02,0
		s0-17.44,0-17.837c0.437-0.105,0.77-0.482,0.77-0.952V9.811c0-0.55-0.446-0.998-0.996-0.998H14.804z"/>
	<path fill="#A4A4A4" d="M25.167,31.309h-0.391V9.501h0.391v21.806V31.309z"/>
	
		<linearGradient id="XMLID_54_" gradientUnits="userSpaceOnUse" x1="28.1521" y1="20.3735" x2="21.8025" y2="34.8423" gradientTransform="matrix(1 0 0 -1 -0.8574 45.8467)">
		<stop  offset="0" style="stop-color:#FFFFFF"/>
		<stop  offset="1" style="stop-color:#EAEAEA"/>
	</linearGradient>
	<path fill="url(#XMLID_54_)" d="M34.187,28.18H14.924V10.284h19.264V28.18z"/>
	<path fill="#F9F9F9" d="M14.924,28.18l0.746-17.235l18.518-0.557H14.924V28.18z"/>
	<g>
		<path fill="#A4A4A4" d="M30.015,35.956l1.477,0.003l-6.275-4.639l-0.438-0.014L30.015,35.956L30.015,35.956z"/>
		<path fill="#A4A4A4" d="M19.884,35.956l-1.476,0.003l6.275-4.639l0.438-0.014L19.884,35.956L19.884,35.956z"/>
		<path fill="#DEDEDE" d="M18.409,35.959h0.698V35.73l5.577-4.408L18.409,35.959"/>
		<path fill="#DEDEDE" d="M30.475,35.958l-0.387-0.149l-5.256-4.451l5.183,4.6L30.475,35.958L30.475,35.958z"/>
		<path fill="#757575" d="M25.167,31.309l-5.283,4.647l-0.37,0.002l0.37-0.169L25.167,31.309z"/>
		<path fill="#878787" d="M31.491,35.959H31.19l-6.09-4.732L31.491,35.959L31.491,35.959z"/>
	</g>
	
		<linearGradient id="XMLID_55_" gradientUnits="userSpaceOnUse" x1="25.4587" y1="36.5029" x2="25.4587" y2="35.4085" gradientTransform="matrix(1 0 0 -1 -0.8574 45.8467)">
		<stop  offset="0" style="stop-color:#F0F0F0"/>
		<stop  offset="1" style="stop-color:#686868"/>
	</linearGradient>
	<path fill="url(#XMLID_55_)" d="M34.958,9.889c0,0.276-0.225,0.499-0.5,0.499H14.746c-0.274,0-0.499-0.223-0.499-0.499V9.693
		c0-0.275,0.224-0.5,0.499-0.5h19.712c0.275,0,0.5,0.224,0.5,0.5V9.889L34.958,9.889z"/>
	<path opacity="0.16" enable-background="new    " d="M34.187,10.388H14.924v1.405C16.01,10.267,34.187,10.388,34.187,10.388z"/>
	<path fill="#C9C9C9" d="M34.187,28.18V10.388l-0.535,17.125L14.924,28.18H34.187z"/>
	
		<radialGradient id="XMLID_56_" cx="25.6316" cy="14.8545" r="0.5902" gradientTransform="matrix(1 0 0 -1 -0.8574 45.8467)" gradientUnits="userSpaceOnUse">
		<stop  offset="0" style="stop-color:#F0F0F0"/>
		<stop  offset="1" style="stop-color:#848484"/>
	</radialGradient>
	<path fill="url(#XMLID_56_)" d="M25.63,31.229c0,0.369-0.299,0.668-0.668,0.668s-0.668-0.299-0.668-0.668s0.299-0.668,0.668-0.668
		S25.63,30.859,25.63,31.229z"/>
	<path d="M18.221,14.528c-0.758,0.477-1.174,1.123-1.174,1.822v0.581c0,0.699,0.417,1.345,1.174,1.822
		c0.715,0.45,1.659,0.698,2.659,0.698s1.944-0.248,2.66-0.698c0.757-0.477,1.173-1.123,1.173-1.822V16.35
		c0-0.699-0.416-1.346-1.173-1.822c-0.715-0.45-1.66-0.697-2.66-0.697S18.936,14.079,18.221,14.528z"/>
	
		<linearGradient id="XMLID_57_" gradientUnits="userSpaceOnUse" x1="20.7283" y1="30.4736" x2="22.9738" y2="27.2469" gradientTransform="matrix(1 0 0 -1 -0.8574 45.8467)">
		<stop  offset="0" style="stop-color:#C09287"/>
		<stop  offset="1" style="stop-color:#803926"/>
	</linearGradient>
	<path fill="url(#XMLID_57_)" d="M24.262,16.242c-0.406-0.95-1.783-1.649-3.422-1.649c-1.638,0-3.015,0.7-3.421,1.649h-0.122v0.581
		c0,1.231,1.586,2.229,3.543,2.229s3.543-0.999,3.543-2.229v-0.581H24.262z"/>
	
		<linearGradient id="XMLID_58_" gradientUnits="userSpaceOnUse" x1="20.5916" y1="31.1963" x2="22.9331" y2="27.8315" gradientTransform="matrix(1 0 0 -1 -0.8574 45.8467)">
		<stop  offset="0" style="stop-color:#C1553A"/>
		<stop  offset="1" style="stop-color:#803926"/>
	</linearGradient>
	<path fill="url(#XMLID_58_)" d="M24.384,16.242c0,1.231-1.586,2.229-3.543,2.229s-3.543-0.998-3.543-2.229
		c0-1.231,1.586-2.229,3.543-2.229S24.384,15.011,24.384,16.242z"/>
	
		<linearGradient id="XMLID_59_" gradientUnits="userSpaceOnUse" x1="21.2092" y1="29.8086" x2="24.3424" y2="28.0839" gradientTransform="matrix(1 0 0 -1 -0.8574 45.8467)">
		<stop  offset="0" style="stop-color:#2C7894"/>
		<stop  offset="1" style="stop-color:#0E3D47"/>
	</linearGradient>
	<path fill="url(#XMLID_59_)" d="M24.384,16.91l-0.005-0.608c-0.384,1.263-1.248,1.797-2.334,2.059v0.559
		C23.221,18.638,24.273,17.998,24.384,16.91z"/>
	
		<linearGradient id="XMLID_60_" gradientUnits="userSpaceOnUse" x1="20.5105" y1="31.7119" x2="24.1229" y2="28.507" gradientTransform="matrix(1 0 0 -1 -0.8574 45.8467)">
		<stop  offset="0" style="stop-color:#3FA6CC"/>
		<stop  offset="1" style="stop-color:#00687A"/>
	</linearGradient>
	<path fill="url(#XMLID_60_)" d="M24.384,16.242c-0.08,1.425-1.932,2.074-2.345,2.099l-1.198-2.099H24.384z"/>
	
		<linearGradient id="XMLID_61_" gradientUnits="userSpaceOnUse" x1="17.7605" y1="29.1123" x2="22.4265" y2="26.9307" gradientTransform="matrix(1 0 0 -1 -0.8574 45.8467)">
		<stop  offset="0" style="stop-color:#E8F066"/>
		<stop  offset="1" style="stop-color:#777A34"/>
	</linearGradient>
	<path fill="url(#XMLID_61_)" d="M20.099,19.003v-0.581c0.667,0.083,1.277,0.097,1.938-0.06l0.006,0.557
		C21.491,19.092,20.625,19.1,20.099,19.003L20.099,19.003z"/>
	
		<linearGradient id="XMLID_62_" gradientUnits="userSpaceOnUse" x1="18.97" y1="30.4404" x2="22.9531" y2="27.1866" gradientTransform="matrix(1 0 0 -1 -0.8574 45.8467)">
		<stop  offset="0" style="stop-color:#E8F066"/>
		<stop  offset="1" style="stop-color:#949941"/>
	</linearGradient>
	<path fill="url(#XMLID_62_)" d="M20.841,16.242l1.198,2.099c-0.733,0.266-1.938,0.082-1.938,0.082L20.841,16.242L20.841,16.242z"/>
	<path opacity="0.45" fill="#ECCFC7" enable-background="new    " d="M23.21,14.585c0,0,1.267,0.667,1.167,1.75
		c-0.1,1.082-1.689,2.464-4.315,2.083c2.641,0.143,4.048-1.182,4.146-2.043C24.305,15.513,23.699,14.96,23.21,14.585L23.21,14.585z"
		/>
	<path fill="#EDA18C" d="M19.696,18.353c-1.037-0.171-2.439-1.006-2.397-2.172c0.04-1.086,1.544-2.373,4.216-2.128
		c-2.646-0.12-4.006,1.093-4.062,2.08C17.398,17.066,18.55,18.116,19.696,18.353z"/>
	<path fill="#959595" d="M32.061,24.936H17.127v-1.502h14.935V24.936z"/>
	<path fill="#959595" d="M32.061,22.534H17.127V21.03h14.935V22.534z"/>
	<path fill="#959595" d="M32.061,20.131h-5.913v-1.503h5.913V20.131z"/>
	<path fill="#959595" d="M32.061,17.729h-5.913v-1.503h5.913V17.729z"/>
	<path fill="#959595" d="M32.061,15.327h-5.913v-1.504h5.913V15.327z"/>
</g>
</svg>
