<?xml version="1.0" encoding="utf-8"?>
<!-- Generator: Adobe Illustrator 12.0.0, SVG Export Plug-In . SVG Version: 6.00 Build 51448)  -->
<!DOCTYPE svg PUBLIC "-//W3C//DTD SVG 1.1//EN" "http://www.w3.org/Graphics/SVG/1.1/DTD/svg11.dtd" [
	<!ENTITY ns_svg "http://www.w3.org/2000/svg">
	<!ENTITY ns_xlink "http://www.w3.org/1999/xlink">
]>
<svg  version="1.1" id="Layer_1" xmlns="&ns_svg;" xmlns:xlink="&ns_xlink;" width="42.5" height="48" viewBox="0 0 42.5 48"
	 overflow="visible" enable-background="new 0 0 42.5 48" xml:space="preserve">
<g id="Layer_x0020_1">
	<path d="M8.2,3.6C5.3,3.6,3,5.9,3,8.8v30.8c0,2.9,2.3,5.2,5.2,5.2h27.5c2.899,0,5.2-2.3,5.2-5.2V8.8c0-2.9-2.301-5.2-5.2-5.2H8.2z"
		/>
	
		<linearGradient id="XMLID_6_" gradientUnits="userSpaceOnUse" x1="13.0576" y1="38.0645" x2="32.3731" y2="4.5102" gradientTransform="matrix(1 0 0 -1 -0.8574 45.8467)">
		<stop  offset="0" style="stop-color:#F0F0F0"/>
		<stop  offset="1" style="stop-color:#D6D6D6"/>
	</linearGradient>
	<path fill="url(#XMLID_6_)" d="M38.3,39.6c0,1.601-1.3,2.801-2.8,2.801H7.9c-1.6,0-2.8-1.301-2.8-2.801V8.8C5.1,7.2,6.4,6,7.9,6
		h27.5c1.6,0,2.8,1.3,2.8,2.8v30.8H38.3z"/>
	<g>
		
			<radialGradient id="XMLID_7_" cx="8.7798" cy="15.1187" r="1.2474" gradientTransform="matrix(1 0 0 -1 -0.8574 45.8467)" gradientUnits="userSpaceOnUse">
			<stop  offset="0" style="stop-color:#F0F0F0"/>
			<stop  offset="1" style="stop-color:#474747"/>
		</radialGradient>
		<path fill="url(#XMLID_7_)" d="M8.5,30.4c0,0.5-0.4,0.8-0.8,0.8c-0.4,0-0.8-0.4-0.8-0.8C6.9,30,7.3,29.6,7.7,29.6
			C8.1,29.6,8.5,30,8.5,30.4z"/>
		
			<radialGradient id="XMLID_8_" cx="8.7798" cy="26.9756" r="1.247" gradientTransform="matrix(1 0 0 -1 -0.8574 45.8467)" gradientUnits="userSpaceOnUse">
			<stop  offset="0" style="stop-color:#F0F0F0"/>
			<stop  offset="1" style="stop-color:#474747"/>
		</radialGradient>
		<path fill="url(#XMLID_8_)" d="M8.5,18.5c0,0.5-0.4,0.8-0.8,0.8c-0.4,0-0.9-0.3-0.9-0.8s0.4-0.8,0.8-0.8s0.8,0.4,0.8,0.8H8.5z"/>
	</g>
	<path fill="#FFFFFF" d="M10.5,42.4h-0.4V6.6h0.4V42.4z"/>
	
		<linearGradient id="XMLID_9_" gradientUnits="userSpaceOnUse" x1="10.9712" y1="38.293" x2="10.5481" y2="4.7646" gradientTransform="matrix(1 0 0 -1 -0.8574 45.8467)">
		<stop  offset="0" style="stop-color:#EDEDED"/>
		<stop  offset="1" style="stop-color:#CACACA"/>
	</linearGradient>
	<path fill="url(#XMLID_9_)" d="M10.1,42.4H9.7V6.6h0.4V42.4z"/>
	<path fill="#FFFFFF" d="M6.4,9.8L5.8,41.4C5.3,40.9,5.2,40,5.2,40V8.7c0,0,0-0.8,0.7-1.7c0.7-0.9,2-1,2-1h28l-27,1.3
		C7.8,7.3,7.2,7.8,7,8.1C6.8,8.3,6.4,9.1,6.4,9.8z"/>
	<path fill="#BEBEBE" d="M37.1,38.6L37.7,7c0.5,0.5,0.6,1.4,0.6,1.4v31.3c0,0,0,0.8-0.7,1.7c-0.8,0.899-2,1-2,1h-28L34.5,41.1
		c1.1,0,1.7-0.5,1.9-0.8c0.199-0.2,0.6-1,0.6-1.7H37.1z"/>
</g>
<g id="Layer_x0020_2">
	<path fill="none" d="M42.5,48H0V0h42.5V48z"/>
</g>
<g>
	<g opacity="0.25">
		<path stroke="#000000" stroke-width="2" stroke-linecap="round" stroke-linejoin="round" d="M25.324,30.284l-2.346,4.02
			c0,0,18.424-4.69,8.039-14.739C20.634,9.515,3.215,31.96,25.324,30.284z"/>
	</g>
	<radialGradient id="XMLID_10_" cx="19.0859" cy="21.1162" r="9.5232" gradientUnits="userSpaceOnUse">
		<stop  offset="0" style="stop-color:#FFFFFF"/>
		<stop  offset="1" style="stop-color:#DCDCDC"/>
	</radialGradient>
	<path fill="url(#XMLID_10_)" stroke="#478FC3" stroke-width="2" stroke-linecap="round" stroke-linejoin="round" d="M24.615,29.576
		l-2.346,4.02c0,0,18.425-4.691,8.04-14.74C19.925,8.806,2.507,31.252,24.615,29.576z"/>
</g>
<g opacity="0.25">
	<path d="M20.879,27.652l0.932-3.396c0.241-0.936,0.345-2.016,0.431-2.508h2.536c-0.035,0.396-0.069,0.78-0.12,1.176h0.051
		c0.621-0.768,1.57-1.308,2.742-1.308c0.174,0,0.328,0,0.501,0.013l-0.587,1.979c-0.104,0-0.241,0-0.379,0
		c-1.742,0-2.328,0.948-2.622,2.028l-0.534,2.016H20.879z"/>
</g>
<path fill="#476AC3" d="M20.171,26.943l0.932-3.396c0.241-0.937,0.345-2.017,0.431-2.509h2.537c-0.035,0.396-0.07,0.781-0.121,1.177
	H24c0.621-0.769,1.57-1.308,2.743-1.308c0.173,0,0.328,0,0.501,0.012l-0.588,1.98c-0.103,0-0.24,0-0.379,0
	c-1.742,0-2.328,0.947-2.621,2.027l-0.535,2.016H20.171z"/>
</svg>
