<?xml version="1.0" encoding="utf-8"?>
<!-- Generator: Adobe Illustrator 12.0.0, SVG Export Plug-In . SVG Version: 6.00 Build 51448)  -->
<!DOCTYPE svg PUBLIC "-//W3C//DTD SVG 1.1//EN" "http://www.w3.org/Graphics/SVG/1.1/DTD/svg11.dtd" [
	<!ENTITY ns_svg "http://www.w3.org/2000/svg">
	<!ENTITY ns_xlink "http://www.w3.org/1999/xlink">
]>
<svg  version="1.1" id="Layer_1" xmlns="&ns_svg;" xmlns:xlink="&ns_xlink;" width="42.8" height="38.1" viewBox="0 0 42.8 38.1"
	 overflow="visible" enable-background="new 0 0 42.8 38.1" xml:space="preserve">
<g id="Layer_x0020_3">
	<path opacity="0.35" enable-background="new    " d="M5,25.1l-5,6.8C-0.8,33.2,0.3,34.6,2.2,34.5h19.3
		c8.4,8.399,22.201,1,19.201-2.9l-5.5-7.8L5,25.1z"/>
</g>
<g id="Layer_x0020_1">
	
		<radialGradient id="XMLID_554_" cx="8.249" cy="26.7629" r="28.9216" gradientTransform="matrix(1 0 0 -1 -0.8574 35.9468)" gradientUnits="userSpaceOnUse">
		<stop  offset="0" style="stop-color:#3F3F3F"/>
		<stop  offset="1" style="stop-color:#000000"/>
	</radialGradient>
	<path fill="url(#XMLID_554_)" stroke="#000000" stroke-width="2.0553" stroke-linecap="round" stroke-linejoin="round" d="M29.6,1
		H5.9L3.2,5.5v25.6h29V5.5L29.6,1z"/>
	
		<linearGradient id="XMLID_555_" gradientUnits="userSpaceOnUse" x1="7.1348" y1="28.0334" x2="30.4079" y2="6.8763" gradientTransform="matrix(1 0 0 -1 -0.8574 35.9468)">
		<stop  offset="0" style="stop-color:#FFFFFF"/>
		<stop  offset="1" style="stop-color:#E4E4E4"/>
	</linearGradient>
	<path fill="url(#XMLID_555_)" d="M32.201,31.1h-29V5.5h29V31.1z"/>
	
		<radialGradient id="XMLID_556_" cx="8.249" cy="33.7102" r="21.8507" gradientTransform="matrix(1 0 0 -1 -0.8574 35.9468)" gradientUnits="userSpaceOnUse">
		<stop  offset="0" style="stop-color:#828282"/>
		<stop  offset="1" style="stop-color:#333333"/>
	</radialGradient>
	<path fill="url(#XMLID_556_)" d="M5.9,1L3.2,5.5h29L29.6,1H5.9z"/>
	
		<linearGradient id="XMLID_557_" gradientUnits="userSpaceOnUse" x1="2.3569" y1="23.4768" x2="28.5765" y2="2.3955" gradientTransform="matrix(1 0 0 -1 -0.8574 35.9468)">
		<stop  offset="0" style="stop-color:#B64545"/>
		<stop  offset="1" style="stop-color:#B60000"/>
	</linearGradient>
	<path fill="url(#XMLID_557_)" d="M14.3,31.1H3.2V5.5h11.1V31.1z"/>
	
		<linearGradient id="XMLID_558_" gradientUnits="userSpaceOnUse" x1="1.3428" y1="33.8538" x2="29.3224" y2="7.4184" gradientTransform="matrix(1 0 0 -1 -0.8574 35.9468)">
		<stop  offset="0" style="stop-color:#787896"/>
		<stop  offset="1" style="stop-color:#000068"/>
	</linearGradient>
	<path fill="url(#XMLID_558_)" d="M32.201,31.1H14.3v-15h17.901V31.1z"/>
	<g>
		<path d="M15.4,9.8c0.4-0.1,1-0.1,1.6-0.1c0.8,0,1.3,0.1,1.7,0.399c0.3,0.3,0.5,0.601,0.5,1.101c0,0.699-0.5,1.1-0.9,1.3l0,0
			c0.4,0.2,0.6,0.5,0.7,1c0.2,0.6,0.3,1.3,0.4,1.5h-1.2C18.1,14.9,18,14.4,17.8,13.8c-0.2-0.7-0.4-0.8-0.9-0.9h-0.4V15h-1.2V9.8
			H15.4z M16.6,12.1H17c0.6,0,1-0.3,1-0.8s-0.3-0.7-0.9-0.7c-0.3,0-0.5,0-0.5,0V12.1z"/>
		<path d="M20,9.8c0.4-0.1,0.9-0.1,1.6-0.1s1.3,0.1,1.601,0.399c0.299,0.3,0.6,0.7,0.6,1.2s-0.2,1-0.5,1.3
			c-0.4,0.4-1,0.601-1.7,0.601c-0.2,0-0.3,0-0.4,0V15.1H20V9.8z M21.2,12.2c0.1,0,0.2,0,0.4,0c0.601,0,1-0.301,1-0.9
			c0-0.5-0.3-0.8-0.9-0.8c-0.2,0-0.4,0-0.5,0v1.6V12.2z"/>
		<path d="M29.1,13c0-0.601,0-1.4,0-2.2l0,0c-0.2,0.7-0.399,1.4-0.601,2.1L27.8,15h-0.9L26.3,12.9C26.1,12.3,26,11.5,25.8,10.8l0,0
			c0,0.7-0.1,1.5-0.1,2.2L25.6,15H24.5L24.8,9.7h1.6l0.5,1.8c0.2,0.6,0.301,1.3,0.5,1.899l0,0c0.1-0.6,0.301-1.3,0.5-1.899l0.6-1.8
			H30.1l0.3,5.3h-1.199L29.1,13z"/>
	</g>
	<path opacity="0.51" fill="#FFFFFF" enable-background="new    " d="M32.201,5.5h-29v25.6L3.8,20.7V6.2L32.201,5.4V5.5z"/>
	<path opacity="0.51" fill="#FFFFFF" enable-background="new    " d="M29.6,1H5.9L3.2,5.5L4,5.4L6.3,1.5L29.6,1z"/>
	<path opacity="0.26" enable-background="new    " d="M32.201,5.5v25.6h-29l28.6-0.6V6.3L32.201,5.5z"/>
</g>
<g id="Layer_x0020_4">
	<path d="M23.8,20.7c-2,1.699-3,3.899-3,6.3c0,2.399,1.1,4.7,3,6.3s4.4,2.5,7.1,2.5c2.7,0,5.2-0.9,7.1-2.5c2-1.7,3-3.9,3-6.3
		c0-2.4-1.1-4.7-3-6.3C36.1,19.1,33.6,18.2,30.9,18.2C28.201,18.2,25.701,19.1,23.8,20.7z M28.701,27c0-0.9,1-1.601,2.199-1.601
		c1.2,0,2.2,0.801,2.2,1.601c0,0.899-1,1.6-2.2,1.6C29.701,28.6,28.701,27.8,28.701,27z"/>
	
		<linearGradient id="XMLID_559_" gradientUnits="userSpaceOnUse" x1="29.7573" y1="13.988" x2="33.2217" y2="4.8001" gradientTransform="matrix(1 0 0 -1 -0.8574 35.9468)">
		<stop  offset="0" style="stop-color:#FFFFFF"/>
		<stop  offset="1" style="stop-color:#9B9B9B"/>
	</linearGradient>
	<path fill="url(#XMLID_559_)" d="M24.201,21.2C22.4,22.7,21.4,24.8,21.4,27s1,4.3,2.801,5.8c1.799,1.5,4.1,2.3,6.6,2.3
		s4.9-0.8,6.6-2.3c1.801-1.5,2.801-3.6,2.801-5.8s-1-4.3-2.801-5.8c-1.8-1.5-4.1-2.301-6.6-2.301S25.9,19.7,24.201,21.2z M28.3,27
		c0-1.101,1.1-2,2.5-2s2.5,0.899,2.5,2c0,1.1-1.1,2-2.5,2S28.3,28.1,28.3,27z"/>
	
		<linearGradient id="XMLID_560_" gradientUnits="userSpaceOnUse" x1="33.2681" y1="0.1086" x2="29.9105" y2="17.8837" gradientTransform="matrix(1 0 0 -1 -0.8574 35.9468)">
		<stop  offset="0" style="stop-color:#FFFFFF"/>
		<stop  offset="0.4944" style="stop-color:#858585"/>
		<stop  offset="0.5225" style="stop-color:#FFFFFF"/>
		<stop  offset="1" style="stop-color:#C2C2C2"/>
	</linearGradient>
	<path fill="url(#XMLID_560_)" d="M30.701,19.1c-5,0-9,3.4-9,7.7c0,4.2,4.1,7.7,9,7.7c5,0,9-3.4,9-7.7S35.6,19.1,30.701,19.1z
		 M30.8,29.4c-1.6,0-2.9-1.1-2.9-2.5c0-1.399,1.301-2.5,2.9-2.5s2.9,1.101,2.9,2.5C33.701,28.3,32.4,29.4,30.8,29.4z"/>
	
		<linearGradient id="XMLID_561_" gradientUnits="userSpaceOnUse" x1="30.7827" y1="11.9636" x2="32.5361" y2="6.1191" gradientTransform="matrix(1 0 0 -1 -0.8574 35.9468)">
		<stop  offset="0" style="stop-color:#FFFFFF"/>
		<stop  offset="1" style="stop-color:#C2C2C2"/>
	</linearGradient>
	<path opacity="0.79" fill="url(#XMLID_561_)" enable-background="new    " d="M30.8,23C28.201,23,26,24.8,26,26.9
		c0,2.2,2.101,3.9,4.801,3.9c2.699,0,4.8-1.8,4.8-3.9C35.6,24.7,33.5,23,30.8,23z M30.8,28.9c-1.5,0-2.7-0.899-2.7-2.1
		c0-1.1,1.2-2.1,2.7-2.1S33.5,25.6,33.5,26.8C33.5,27.9,32.3,28.9,30.8,28.9z"/>
	<path fill="#AFAFAF" d="M32.6,25.5c-1.5-1.101-3.399-0.2-3.8,0.2C28.4,26.1,28.1,26.9,28.5,27.9C27.701,26.8,28.1,26,28.6,25.5
		C29.4,24.7,31.4,24.4,32.6,25.5z"/>
	<path fill="#FFFFFF" d="M29.1,28.4c1.5,1.101,3.3,0.301,3.8-0.3c0.4-0.5,0.6-1.1,0.2-2C33.9,27.2,33.4,28,33,28.4
		c-0.5,0.5-2.5,1.2-3.899,0.101V28.4z"/>
	<path fill="none" d="M20.5,16.6h22.3V38.2H20.5V16.6z"/>
</g>
<g id="Layer_x0020_2">
</g>
</svg>
