<?xml version="1.0" encoding="utf-8"?>
<!-- Generator: Adobe Illustrator 12.0.0, SVG Export Plug-In . SVG Version: 6.00 Build 51448)  -->
<!DOCTYPE svg PUBLIC "-//W3C//DTD SVG 1.1//EN" "http://www.w3.org/Graphics/SVG/1.1/DTD/svg11.dtd" [
	<!ENTITY ns_svg "http://www.w3.org/2000/svg">
	<!ENTITY ns_xlink "http://www.w3.org/1999/xlink">
]>
<svg  version="1.1" id="Layer_1" xmlns="&ns_svg;" xmlns:xlink="&ns_xlink;" width="43.9" height="48" viewBox="0 0 43.9 48"
	 overflow="visible" enable-background="new 0 0 43.9 48" xml:space="preserve">
<g id="Layer_x0020_1">
	<path d="M8.1,3.6c-2.9,0-5.2,2.3-5.2,5.2v30.8c0,2.9,2.3,5.2,5.2,5.2h27.5c2.899,0,5.199-2.3,5.199-5.2V8.8
		c0-2.9-2.3-5.2-5.199-5.2H8.1z"/>
	
		<linearGradient id="XMLID_542_" gradientUnits="userSpaceOnUse" x1="13.033" y1="38.1055" x2="32.3482" y2="4.5518" gradientTransform="matrix(1 0 0 -1 -0.8574 45.8467)">
		<stop  offset="0" style="stop-color:#F0F0F0"/>
		<stop  offset="1" style="stop-color:#D6D6D6"/>
	</linearGradient>
	<path fill="url(#XMLID_542_)" d="M38.2,39.6c0,1.601-1.3,2.801-2.8,2.801H7.9C6.3,42.4,5.1,41.1,5.1,39.6V8.8C5.1,7.2,6.4,6,7.9,6
		h27.5c1.6,0,2.8,1.3,2.8,2.8V39.6z"/>
	<g>
		
			<radialGradient id="XMLID_543_" cx="8.6824" cy="15.1187" r="1.2474" gradientTransform="matrix(1 0 0 -1 -0.8574 45.8467)" gradientUnits="userSpaceOnUse">
			<stop  offset="0" style="stop-color:#F0F0F0"/>
			<stop  offset="1" style="stop-color:#474747"/>
		</radialGradient>
		<path fill="url(#XMLID_543_)" d="M8.4,30.4c0,0.5-0.4,0.8-0.8,0.8c-0.4,0-0.801-0.4-0.801-0.8C6.8,30,7.2,29.6,7.6,29.6
			C8,29.6,8.4,30,8.4,30.4z"/>
		
			<radialGradient id="XMLID_544_" cx="8.6824" cy="26.9756" r="1.247" gradientTransform="matrix(1 0 0 -1 -0.8574 45.8467)" gradientUnits="userSpaceOnUse">
			<stop  offset="0" style="stop-color:#F0F0F0"/>
			<stop  offset="1" style="stop-color:#474747"/>
		</radialGradient>
		<path fill="url(#XMLID_544_)" d="M8.4,18.5c0,0.5-0.4,0.8-0.8,0.8c-0.4,0-0.9-0.3-0.9-0.8s0.4-0.8,0.8-0.8c0.4,0,0.8,0.4,0.8,0.8
			H8.4z"/>
	</g>
	<path fill="#FFFFFF" d="M10.4,42.4H10V6.6h0.4V42.4z"/>
	
		<linearGradient id="XMLID_545_" gradientUnits="userSpaceOnUse" x1="10.8713" y1="38.2939" x2="10.4483" y2="4.7655" gradientTransform="matrix(1 0 0 -1 -0.8574 45.8467)">
		<stop  offset="0" style="stop-color:#EDEDED"/>
		<stop  offset="1" style="stop-color:#CACACA"/>
	</linearGradient>
	<path fill="url(#XMLID_545_)" d="M10,42.4H9.6V6.6H10V42.4z"/>
	<path fill="#FFFFFF" d="M6.3,9.8L5.7,41.4C5.2,40.9,5,39.9,5,39.9V8.7c0,0,0-0.8,0.7-1.7s2-1,2-1h28L8.8,7.3
		C7.7,7.3,7.1,7.8,6.9,8.1C6.7,8.3,6.3,9.1,6.3,9.8z"/>
	<path fill="#BEBEBE" d="M37,38.6L37.6,7c0.5,0.5,0.6,1.4,0.6,1.4v31.3c0,0,0,0.8-0.7,1.7c-0.8,0.899-2,1-2,1h-28L34.4,41.1
		c1.1,0,1.7-0.5,1.899-0.8c0.2-0.2,0.601-1,0.601-1.7H37z"/>
</g>
<g id="Layer_x0020_2">
	<path fill="none" d="M43.9,48H0V0h43.9V48z"/>
</g>
<g id="Layer_x0020_3">
	<path opacity="0.2" enable-background="new    " d="M34.9,38.4h-9.5V10.2h9.5V38.4z"/>
	<path opacity="0.2" enable-background="new    " d="M23.3,38.2h-9.5v-9.9h9.5V38.2z"/>
	<path opacity="0.2" enable-background="new    " d="M23.3,26.2h-9.5v-16h9.5V26.2z"/>
</g>
<path fill="#FFE681" stroke="#000000" d="M20.486,23.05c0,0.118-0.2,0.177-0.301,0.177H0.785c-0.2,0-0.3-0.118-0.3-0.177v-9.632
	c0-0.118,0.199-0.177,0.3-0.177h19.399c0.2,0,0.301,0.117,0.301,0.177V23.05z"/>
<text transform="matrix(1 0 0 1 4.1296 20.793)" font-family="'MyriadPro-Black'" font-size="8">RTF</text>
</svg>
