<?xml version="1.0" encoding="utf-8"?>
<!-- Generator: Adobe Illustrator 12.0.0, SVG Export Plug-In . SVG Version: 6.00 Build 51448)  -->
<!DOCTYPE svg PUBLIC "-//W3C//DTD SVG 1.1//EN" "http://www.w3.org/Graphics/SVG/1.1/DTD/svg11.dtd" [
	<!ENTITY ns_svg "http://www.w3.org/2000/svg">
	<!ENTITY ns_xlink "http://www.w3.org/1999/xlink">
]>
<svg  version="1.1" id="Layer_1" xmlns="&ns_svg;" xmlns:xlink="&ns_xlink;" width="52" height="48" viewBox="0 0 52 48"
	 overflow="visible" enable-background="new 0 0 52 48" xml:space="preserve">
<g id="Layer_x0020_2">
	<path opacity="0.35" enable-background="new    " d="M21.5,44.2c0,0,1.3,1.1,4.1,0c2.8-1.101,20-6.2,23.9-9.101
		C51,34,50.3,32.6,49,31.7c-4.1-2.8-21.5-5.8-21.5-5.8S8.9,33.7,7.4,34.4C6,35,5.6,36.9,7.2,37.5l14.3,6.8V44.2z"/>
	<path d="M30.9,3.4L30.9,3.4c0,0-4.301,2.3-4.9,2.6c-0.2,0-5,0.1-5,0.1L3.5,13.4l0,0c-0.6,0.2-1.7,1-1.7,3v0.3
		c0,0,1.1,17.6,1.1,17.7C2.9,34.9,3,35.8,3.6,36.6C4.2,37.4,5,37.8,5.3,37.9c6.3,2.5,15.9,6.3,16.4,6.5c0.8,0.399,1.7,0.399,2,0.399
		l0,0h0.1c0.3,0,1.1-0.1,2-0.6L40,35.8c0.5-0.3,1.5-0.899,1.9-1.899C42.2,33.1,42.3,32.4,42.3,32.1l0,0l0.5-17.5l0,0
		c0-1.3-0.5-2.2-1-2.6l-0.5-0.6l0,0c0,0,0,0-0.1-0.1l0,0L34.5,4c-0.5-0.6-1.3-1-2.1-1C31.7,3,31.1,3.3,30.9,3.4z"/>
	
		<linearGradient id="XMLID_261_" gradientUnits="userSpaceOnUse" x1="22.7075" y1="26.0547" x2="22.7075" y2="33.3479" gradientTransform="matrix(1 0 0 -1 -0.8574 45.8467)">
		<stop  offset="0" style="stop-color:#989C80"/>
		<stop  offset="1" style="stop-color:#000000"/>
	</linearGradient>
	<path fill="url(#XMLID_261_)" d="M4,15.3l19.4,6.5l16.3-8.4l-0.3-0.1L21.1,8.2L4,15.3z"/>
	
		<linearGradient id="XMLID_262_" gradientUnits="userSpaceOnUse" x1="15.0957" y1="17.2139" x2="20.0795" y2="4.4372" gradientTransform="matrix(1 0 0 -1 -0.8574 45.8467)">
		<stop  offset="0" style="stop-color:#DEDFCE"/>
		<stop  offset="1" style="stop-color:#C2C4B5"/>
	</linearGradient>
	<path fill="url(#XMLID_262_)" d="M5.7,35.5c0,0,16,6.3,16.5,6.5s1.1,0.2,1.1,0.2V21.8L4,15.3c0,0-0.4,0.1-0.3,1.1l1.1,17.7
		c0,0,0,0.5,0.2,0.9C5.3,35.4,5.7,35.5,5.7,35.5z"/>
	
		<linearGradient id="XMLID_263_" gradientUnits="userSpaceOnUse" x1="42.1963" y1="8.2095" x2="15.7504" y2="34.6555" gradientTransform="matrix(1 0 0 -1 -0.8574 45.8467)">
		<stop  offset="0" style="stop-color:#989C80"/>
		<stop  offset="0.1523" style="stop-color:#91957A"/>
		<stop  offset="0.3784" style="stop-color:#7D8169"/>
		<stop  offset="0.6506" style="stop-color:#5D604E"/>
		<stop  offset="0.9562" style="stop-color:#313229"/>
		<stop  offset="1" style="stop-color:#2A2B23"/>
	</linearGradient>
	<path fill="url(#XMLID_263_)" d="M39.7,13.4c0,0,0.3,0.2,0.3,1l-0.5,17.4c0,0,0,0.5-0.2,0.9C39.1,33.1,38.4,33.5,38.4,33.5
		l-14.2,8.4c-0.4,0.3-0.9,0.3-0.9,0.3V21.8l16.3-8.4H39.7z"/>
	
		<linearGradient id="XMLID_264_" gradientUnits="userSpaceOnUse" x1="18.0654" y1="33.8135" x2="18.7804" y2="31.2742" gradientTransform="matrix(1 0 0 -1 -0.8574 45.8467)">
		<stop  offset="0" style="stop-color:#EFEFE0"/>
		<stop  offset="1" style="stop-color:#FFFFFF"/>
	</linearGradient>
	<path fill="url(#XMLID_264_)" d="M4,15.3l10.7,0.9L30.2,8L21,8.3L4,15.3z"/>
	
		<linearGradient id="XMLID_265_" gradientUnits="userSpaceOnUse" x1="40.4297" y1="32.0732" x2="39.3062" y2="33.1968" gradientTransform="matrix(1 0 0 -1 -0.8574 45.8467)">
		<stop  offset="0" style="stop-color:#989C80"/>
		<stop  offset="1" style="stop-color:#000000"/>
	</linearGradient>
	<path fill="url(#XMLID_265_)" d="M39.1,12.8L39,13.7l0.6-0.3L39.1,12.8z"/>
	
		<linearGradient id="XMLID_266_" gradientUnits="userSpaceOnUse" x1="34.4443" y1="27.2109" x2="3.0215" y2="55.8216" gradientTransform="matrix(1 0 0 -1 -0.8574 45.8467)">
		<stop  offset="0" style="stop-color:#989C80"/>
		<stop  offset="1" style="stop-color:#000000"/>
	</linearGradient>
	<path fill="url(#XMLID_266_)" d="M39,13.7l-14.6,7.5c0,0-0.6,0.3-1,0.2c-0.4,0-0.7-0.4-0.7-0.4l-6.9-6.8c0,0-0.1-0.1-0.1-0.4
		c0-0.3,0.4-0.4,0.4-0.4l15.4-8.3c0,0,0.2-0.1,0.5-0.1c0.2,0,0.3,0.2,0.3,0.2l6.7,7.4c0,0,0.3,0.3,0.3,0.6c0,0.2-0.3,0.4-0.3,0.4
		V13.7z"/>
	
		<linearGradient id="XMLID_267_" gradientUnits="userSpaceOnUse" x1="30.1279" y1="29.7559" x2="23.2348" y2="37.3501" gradientTransform="matrix(1 0 0 -1 -0.8574 45.8467)">
		<stop  offset="0" style="stop-color:#F2F2E1"/>
		<stop  offset="1" style="stop-color:#FFFFFF"/>
	</linearGradient>
	<path fill="url(#XMLID_267_)" d="M24.7,21c0,0-0.6,0.5-1.1,0l-6.7-6.7c-0.2-0.2-0.2-0.4,0.1-0.5l14.4-8.5c0,0-15.101,8-15.3,8.2
		c-0.4,0.2-0.5,0.6-0.2,1c0.2,0.2,5.2,5.1,7,6.8c0.4,0.4-0.4,0.3-0.4,0.3s1.9,0.6,2.3-0.5L24.7,21z"/>
	
		<linearGradient id="XMLID_268_" gradientUnits="userSpaceOnUse" x1="34.5469" y1="27.1025" x2="25.3211" y2="22.5856" gradientTransform="matrix(1 0 0 -1 -0.8574 45.8467)">
		<stop  offset="0" style="stop-color:#919186"/>
		<stop  offset="1" style="stop-color:#F3F4E4"/>
	</linearGradient>
	<path fill="url(#XMLID_268_)" d="M23.8,41c0.2-4.8,0.1-16.5,0.1-16.9c0-0.5-0.1-2.1,1.2-2.9l14.2-7.8l-15.3,8
		c-1.1,0.5-2-0.1-3.9-0.7c0.1,0.1-15.7-5.4-15.7-5.4s-0.9-0.4-0.8,0.8l1.2,18.2c0,0.5,0.4,1,0.9,1.2c-0.4-0.3-0.6-0.8-0.7-1.1
		L3.9,16.3C3.9,16,4,15.9,4.2,16c0,0,16.9,5.8,17.4,5.9c1.1,0.4,0.9,1.8,1,2.2c0,0.3,0.5,17.1,0.5,17.1s0.7,1.3,0.8-0.2H23.8z"/>
	<path fill="#FFFFFF" d="M6.3,14.9L21,8.3l-17,7l1.3,0.1l9.4,0.8l-8.3-1.3H6.3z"/>
	<path fill="#A6A698" d="M39.5,31.8L39.9,17l-1,14.9c0,0.3-0.101,0.5-0.301,0.6L34.3,36c0,0,4.2-2.5,4.5-2.7S39.5,32.7,39.5,31.8z"
		/>
	
		<linearGradient id="XMLID_269_" gradientUnits="userSpaceOnUse" x1="24.564" y1="3.624" x2="23.8727" y2="4.7658" gradientTransform="matrix(1 0 0 -1 -0.8574 45.8467)">
		<stop  offset="0" style="stop-color:#63635C"/>
		<stop  offset="1" style="stop-color:#F3F4E4"/>
	</linearGradient>
	<path fill="url(#XMLID_269_)" d="M22,41.9c1.1,0.6,1.8,0.3,2.9-0.301c0,0-1.1-0.1-1.1-1.199c-0.1-0.101-0.8,0.1-0.8,0
		c0,1-0.5,1.6-1,1.6V41.9z"/>
</g>
<g id="Layer_x0020_3">
	<path fill="none" d="M52,48H0V0h52V48z"/>
</g>
<path fill="#FFE681" stroke="#000000" d="M49.152,27.961c0,0.118-0.199,0.177-0.301,0.177H29.454c-0.2,0-0.3-0.118-0.3-0.177v-9.632
	c0-0.118,0.199-0.177,0.3-0.177h19.397c0.201,0,0.301,0.117,0.301,0.177V27.961z"/>
<text transform="matrix(1 0 0 1 31.7988 25.7041)" font-family="'MyriadPro-Black'" font-size="8">TGZ</text>
</svg>
