<?xml version="1.0" encoding="UTF-8" standalone="no"?>
<!-- Created with Inkscape (http://www.inkscape.org/) -->
<svg
   xmlns:dc="http://purl.org/dc/elements/1.1/"
   xmlns:cc="http://web.resource.org/cc/"
   xmlns:rdf="http://www.w3.org/1999/02/22-rdf-syntax-ns#"
   xmlns:svg="http://www.w3.org/2000/svg"
   xmlns="http://www.w3.org/2000/svg"
   xmlns:xlink="http://www.w3.org/1999/xlink"
   xmlns:sodipodi="http://sodipodi.sourceforge.net/DTD/sodipodi-0.dtd"
   xmlns:inkscape="http://www.inkscape.org/namespaces/inkscape"
   width="32px"
   height="32px"
   id="svg2914"
   sodipodi:version="0.32"
   inkscape:version="0.45"
   sodipodi:docbase="/Users/izo/Sites/spip-zone/_graphismes_/logos/spip_tango/spip_plugins/autorite/scalable"
   sodipodi:docname="illuminati-24.svg"
   inkscape:output_extension="org.inkscape.output.svg.inkscape"
   inkscape:export-filename="/Users/izo/Sites/spip-zone/_graphismes_/logos/spip_tango/spip_plugins/autorite/scalable/illuminati-24.png"
   inkscape:export-xdpi="67.5"
   inkscape:export-ydpi="67.5"
   sodipodi:modified="TRUE">
  <defs
     id="defs2916">
    <linearGradient
       inkscape:collect="always"
       id="linearGradient4542">
      <stop
         style="stop-color:#000000;stop-opacity:1;"
         offset="0"
         id="stop4544" />
      <stop
         style="stop-color:#000000;stop-opacity:0;"
         offset="1"
         id="stop4546" />
    </linearGradient>
    <radialGradient
       inkscape:collect="always"
       xlink:href="#linearGradient4542"
       id="radialGradient2574"
       gradientUnits="userSpaceOnUse"
       gradientTransform="matrix(1,0,0,0.284916,0,30.08928)"
       cx="24.306795"
       cy="42.07798"
       fx="24.306795"
       fy="42.07798"
       r="15.821514" />
    <linearGradient
       id="linearGradient2736">
      <stop
         style="stop-color:#5a7aa4;stop-opacity:1;"
         offset="0"
         id="stop2738" />
      <stop
         style="stop-color:#3b516c;stop-opacity:1.0000000;"
         offset="1.0000000"
         id="stop2740" />
    </linearGradient>
    <linearGradient
       id="linearGradient12512">
      <stop
         style="stop-color:#ffffff;stop-opacity:1.0000000;"
         offset="0.0000000"
         id="stop12513" />
      <stop
         style="stop-color:#fff520;stop-opacity:0.89108908;"
         offset="0.50000000"
         id="stop12517" />
      <stop
         style="stop-color:#fff300;stop-opacity:0.0000000;"
         offset="1.0000000"
         id="stop12514" />
    </linearGradient>
    <linearGradient
       id="linearGradient6976">
      <stop
         id="stop6978"
         offset="0.0000000"
         style="stop-color:#c1c3ae;stop-opacity:1.0000000;" />
      <stop
         id="stop6980"
         offset="1.0000000"
         style="stop-color:#818373;stop-opacity:1.0000000;" />
    </linearGradient>
    <linearGradient
       id="linearGradient2667">
      <stop
         id="stop2669"
         offset="0.0000000"
         style="stop-color:#ffffff;stop-opacity:1.0000000;" />
      <stop
         id="stop2671"
         offset="1.0000000"
         style="stop-color:#fcfcff;stop-opacity:0.0000000;" />
    </linearGradient>
    <radialGradient
       inkscape:collect="always"
       xlink:href="#linearGradient6976"
       id="radialGradient2969"
       gradientUnits="userSpaceOnUse"
       gradientTransform="matrix(1.044671,0,0,0.9710779,52.702584,-10.315297)"
       cx="31.460829"
       cy="30.522301"
       fx="31.460829"
       fy="30.522301"
       r="28.629936" />
    <radialGradient
       inkscape:collect="always"
       xlink:href="#linearGradient12512"
       id="radialGradient2971"
       gradientUnits="userSpaceOnUse"
       cx="55.000000"
       cy="125.00000"
       fx="55.000000"
       fy="125.00000"
       r="14.375000" />
    <radialGradient
       inkscape:collect="always"
       xlink:href="#linearGradient6976"
       id="radialGradient3954"
       cx="29.527464"
       cy="27.479502"
       fx="29.527464"
       fy="27.479502"
       r="13.151648"
       gradientTransform="matrix(1,0,0,0.8921332,0,2.9641263)"
       gradientUnits="userSpaceOnUse" />
    <radialGradient
       inkscape:collect="always"
       xlink:href="#linearGradient2736"
       id="radialGradient3963"
       gradientUnits="userSpaceOnUse"
       cx="-21.50807"
       cy="-17.02338"
       fx="-21.50807"
       fy="-17.02338"
       r="7.333992" />
  </defs>
  <sodipodi:namedview
     id="base"
     pagecolor="#ffffff"
     bordercolor="#666666"
     borderopacity="1.0"
     inkscape:pageopacity="0.0"
     inkscape:pageshadow="2"
     inkscape:zoom="11.197802"
     inkscape:cx="14.271354"
     inkscape:cy="16.114721"
     inkscape:current-layer="layer1"
     showgrid="true"
     inkscape:grid-bbox="true"
     inkscape:document-units="px"
     inkscape:window-width="1448"
     inkscape:window-height="813"
     inkscape:window-x="22"
     inkscape:window-y="64" />
  <metadata
     id="metadata2919">
    <rdf:RDF>
      <cc:Work
         rdf:about="">
        <dc:format>image/svg+xml</dc:format>
        <dc:type
           rdf:resource="http://purl.org/dc/dcmitype/StillImage" />
      </cc:Work>
    </rdf:RDF>
  </metadata>
  <g
     id="layer1"
     inkscape:label="Layer 1"
     inkscape:groupmode="layer">
    <path
       sodipodi:type="star"
       style="opacity:1;fill:url(#radialGradient3954);fill-opacity:1.0;stroke:#2e3436;stroke-width:0.8334339;stroke-linecap:round;stroke-linejoin:round;stroke-miterlimit:4;stroke-dasharray:none;stroke-opacity:1"
       id="path2975"
       sodipodi:sides="3"
       sodipodi:cx="29.559372"
       sodipodi:cy="30.749756"
       sodipodi:r1="14.650087"
       sodipodi:r2="8.0575476"
       sodipodi:arg1="-1.5707963"
       sodipodi:arg2="-0.52359878"
       inkscape:flatsided="false"
       inkscape:rounded="0.02"
       inkscape:randomized="0.009"
       d="M 29.684533,16.163197 C 29.938877,16.159618 36.459356,26.399869 36.588526,26.619347 C 36.717696,26.838825 42.386378,37.80301 42.260322,38.024055 C 42.134267,38.245099 29.941218,38.798694 29.686437,38.795794 C 29.431656,38.792893 16.919084,38.260962 16.794496,38.040439 C 16.669909,37.819916 22.512576,27.022043 22.642423,26.802638 C 22.77227,26.583233 29.430189,16.166777 29.684533,16.163197 z "
       transform="matrix(1.1998552,0,0,1.1998552,-19.42868,-16.971422)" />
    <path
       sodipodi:type="star"
       style="opacity:0.7;fill:none;fill-opacity:1;stroke:#eeeeec;stroke-width:0.90648512;stroke-linecap:round;stroke-linejoin:round;stroke-miterlimit:4;stroke-dasharray:none;stroke-opacity:1"
       id="path4134"
       sodipodi:sides="3"
       sodipodi:cx="29.559372"
       sodipodi:cy="30.749756"
       sodipodi:r1="14.650087"
       sodipodi:r2="8.0575476"
       sodipodi:arg1="-1.5707963"
       sodipodi:arg2="-0.52359878"
       inkscape:flatsided="false"
       inkscape:rounded="0.02"
       inkscape:randomized="0.009"
       d="M 29.684533,16.163197 C 29.938877,16.159618 36.459356,26.399869 36.588526,26.619347 C 36.717696,26.838825 42.386378,37.80301 42.260322,38.024055 C 42.134267,38.245099 29.941218,38.798694 29.686437,38.795794 C 29.431656,38.792893 16.919084,38.260962 16.794496,38.040439 C 16.669909,37.819916 22.512576,27.022043 22.642423,26.802638 C 22.77227,26.583233 29.430189,16.166777 29.684533,16.163197 z "
       transform="matrix(1.0981852,0,0,1.1081615,-16.426623,-14.451725)" />
    <path
       sodipodi:type="arc"
       style="opacity:0.5;color:#000000;fill:url(#radialGradient2574);fill-opacity:1;fill-rule:evenodd;stroke:none;stroke-width:2;stroke-linecap:round;stroke-linejoin:round;marker:none;marker-start:none;marker-mid:none;marker-end:none;stroke-miterlimit:4;stroke-dasharray:none;stroke-dashoffset:0;stroke-opacity:1;visibility:visible;display:inline;overflow:visible"
       id="path3667"
       sodipodi:cx="24.306795"
       sodipodi:cy="42.07798"
       sodipodi:rx="15.821514"
       sodipodi:ry="4.5078058"
       d="M 40.128309 42.07798 A 15.821514 4.5078058 0 1 1  8.485281,42.07798 A 15.821514 4.5078058 0 1 1  40.128309 42.07798 z"
       transform="matrix(2.0137458,0,0,1.4487313,-31.808214,-12.429087)" />
    <path
       style="opacity:0.7;fill:none;fill-opacity:1;stroke:#eeeeec;stroke-width:1.04467106;stroke-linecap:round;stroke-linejoin:round;stroke-miterlimit:4;stroke-dasharray:none;stroke-dashoffset:1.1248;stroke-opacity:1"
       d="M 58.310318,34.767365 L 89.43411,45.013382 L 112.80658,27.934644 L 84.73526,-6.1182599 L 58.310318,34.767365 z "
       id="path7947"
       sodipodi:nodetypes="ccccc" />
    <path
       sodipodi:type="arc"
       style="color:#000000;fill:url(#radialGradient2971);fill-opacity:1;fill-rule:nonzero;stroke:none;stroke-width:1.25000024;stroke-linecap:butt;stroke-linejoin:round;marker:none;marker-start:none;marker-mid:none;marker-end:none;stroke-miterlimit:4;stroke-dashoffset:0;stroke-opacity:1;visibility:visible;display:block"
       id="path12511"
       sodipodi:cx="55"
       sodipodi:cy="125"
       sodipodi:rx="14.375"
       sodipodi:ry="14.375"
       d="M 69.375 125 A 14.375 14.375 0 1 1  40.625,125 A 14.375 14.375 0 1 1  69.375 125 z"
       transform="matrix(0.7301516,0,0,0.7301516,-24.158338,-79.271547)"
       inkscape:export-filename="/home/jimmac/ximian_art/icons/nautilus/suse93/stock_new-16.png"
       inkscape:export-xdpi="33.852203"
       inkscape:export-ydpi="33.852203" />
    <path
       sodipodi:type="arc"
       style="fill:#eeeeec;fill-opacity:1;stroke:#2e3436;stroke-width:0.79328135;stroke-linecap:butt;stroke-linejoin:miter;stroke-miterlimit:10;stroke-dasharray:none;stroke-opacity:1"
       id="path165079"
       sodipodi:cx="-13.880608"
       sodipodi:cy="-18.603846"
       sodipodi:rx="10.16995"
       sodipodi:ry="5.3598385"
       d="M -3.7106581 -18.603846 A 10.16995 5.3598385 0 1 1  -24.050557,-18.603846 A 10.16995 5.3598385 0 1 1  -3.7106581 -18.603846 z"
       transform="matrix(1.2605868,0,0,1.2605868,33.497711,37.899938)" />
    <path
       sodipodi:type="arc"
       style="fill:url(#radialGradient3963);fill-opacity:1;stroke:#2e3436;stroke-width:2.16169405;stroke-linecap:butt;stroke-linejoin:miter;stroke-miterlimit:10;stroke-dasharray:none;stroke-opacity:1"
       id="path165081"
       sodipodi:cx="-21.50807"
       sodipodi:cy="-17.02338"
       sodipodi:rx="6.2531452"
       sodipodi:ry="6.2531452"
       d="M -15.254925 -17.02338 A 6.2531452 6.2531452 0 1 1  -27.761215,-17.02338 A 6.2531452 6.2531452 0 1 1  -15.254925 -17.02338 z"
       transform="matrix(1.0297015,0,0,1.0297015,38.146892,31.977177)" />
    <path
       sodipodi:type="arc"
       style="fill:none;fill-opacity:1;stroke:#eeeeec;stroke-width:1.39450061;stroke-linecap:butt;stroke-linejoin:miter;stroke-miterlimit:10;stroke-dasharray:none;stroke-opacity:1"
       id="path165083"
       sodipodi:cx="-21.50807"
       sodipodi:cy="-17.02338"
       sodipodi:rx="6.2531452"
       sodipodi:ry="6.2531452"
       d="M -15.254925 -17.02338 A 6.2531452 6.2531452 0 1 1  -27.761215,-17.02338 A 6.2531452 6.2531452 0 1 1  -15.254925 -17.02338 z"
       transform="matrix(0.9039702,0,0,0.9039702,35.442652,29.836802)" />
    <path
       sodipodi:type="star"
       style="fill:#eeeeec;fill-opacity:1;stroke:#eeeeec;stroke-width:2;stroke-linecap:round;stroke-linejoin:round;stroke-miterlimit:10;stroke-dasharray:none;stroke-opacity:1"
       id="path165085"
       sodipodi:sides="3"
       sodipodi:cx="-39.030621"
       sodipodi:cy="-21.764776"
       sodipodi:r1="8.3878422"
       sodipodi:r2="4.6133132"
       sodipodi:arg1="0.96007036"
       sodipodi:arg2="2.0072679"
       inkscape:flatsided="false"
       inkscape:rounded="0.02"
       inkscape:randomized="0.009"
       d="M -34.229204,-14.882906 C -34.347382,-14.79791 -40.838587,-17.582202 -40.969665,-17.644206 C -41.100742,-17.70621 -47.412529,-20.955212 -47.424897,-21.099604 C -47.437264,-21.243996 -41.764326,-25.443336 -41.644706,-25.525754 C -41.525087,-25.608173 -35.651177,-29.500775 -35.51972,-29.43989 C -35.388263,-29.379004 -34.487691,-22.253906 -34.473952,-22.10857 C -34.460212,-21.963234 -34.111027,-14.967903 -34.229204,-14.882906 z "
       transform="matrix(0.2125505,0,0,0.2254379,21.913212,16.227683)" />
    <path
       sodipodi:type="arc"
       style="opacity:0.8;fill:none;fill-opacity:1;stroke:#eeeeec;stroke-width:0.72056466;stroke-linecap:butt;stroke-linejoin:miter;stroke-miterlimit:10;stroke-dasharray:none;stroke-opacity:1"
       id="path7951"
       sodipodi:cx="-21.50807"
       sodipodi:cy="-17.02338"
       sodipodi:rx="6.2531452"
       sodipodi:ry="6.2531452"
       d="M -15.254925 -17.02338 A 6.2531452 6.2531452 0 1 1  -27.761215,-17.02338 A 6.2531452 6.2531452 0 1 1  -15.254925 -17.02338 z"
       transform="matrix(0.6254217,0,0,0.6254217,29.43494,25.258734)"
       inkscape:transform-center-y="-1.8567635"
       inkscape:transform-center-x="-18.740359" />
  </g>
</svg>
