<?xml version="1.0" encoding="UTF-8" standalone="no"?>
<!-- Created with Inkscape (http://www.inkscape.org/) -->
<svg
   xmlns:dc="http://purl.org/dc/elements/1.1/"
   xmlns:cc="http://web.resource.org/cc/"
   xmlns:rdf="http://www.w3.org/1999/02/22-rdf-syntax-ns#"
   xmlns:svg="http://www.w3.org/2000/svg"
   xmlns="http://www.w3.org/2000/svg"
   xmlns:xlink="http://www.w3.org/1999/xlink"
   xmlns:sodipodi="http://sodipodi.sourceforge.net/DTD/sodipodi-0.dtd"
   xmlns:inkscape="http://www.inkscape.org/namespaces/inkscape"
   width="64px"
   height="64px"
   id="svg2074"
   sodipodi:version="0.32"
   inkscape:version="0.44.1"
   sodipodi:docbase="/Users/izo/Desktop"
   sodipodi:docname="spip-192.svg"
   inkscape:export-filename="/Users/izo/Desktop/spip-192-16.png"
   inkscape:export-xdpi="22.5"
   inkscape:export-ydpi="22.5">
  <defs
     id="defs2076">
    <linearGradient
       inkscape:collect="always"
       id="linearGradient11164">
      <stop
         style="stop-color:white;stop-opacity:1;"
         offset="0"
         id="stop11166" />
      <stop
         style="stop-color:white;stop-opacity:0;"
         offset="1"
         id="stop11168" />
    </linearGradient>
    <linearGradient
       inkscape:collect="always"
       xlink:href="#linearGradient11164"
       id="linearGradient6814"
       gradientUnits="userSpaceOnUse"
       gradientTransform="matrix(2.241999,0,0,2.904196,-119.2076,-26.51735)"
       x1="21"
       y1="16"
       x2="21"
       y2="26.928572" />
    <linearGradient
       id="linearGradient2974">
      <stop
         id="stop3002"
         offset="0"
         style="stop-color:#ad7fa8;stop-opacity:1;" />
      <stop
         id="stop3000"
         offset="1"
         style="stop-color:#5c3566;stop-opacity:1;" />
    </linearGradient>
    <radialGradient
       id="XMLID_3_"
       cx="30.205099"
       cy="30.205099"
       r="29.705299"
       gradientUnits="userSpaceOnUse"
       gradientTransform="translate(2.727273,1.818182)">
      <stop
         offset="0"
         style="stop-color:#FCAF3E"
         id="stop3342" />
      <stop
         offset="1"
         style="stop-color:#CE5C00"
         id="stop3344" />
    </radialGradient>
    <radialGradient
       inkscape:collect="always"
       xlink:href="#linearGradient2974"
       id="radialGradient3012"
       cx="32"
       cy="62.13765"
       fx="32"
       fy="62.13765"
       r="31.40909"
       gradientTransform="matrix(1.673455,-5.547125e-7,4.914281e-7,1.605935,-21.55056,-38.69811)"
       gradientUnits="userSpaceOnUse" />
    <linearGradient
       inkscape:collect="always"
       xlink:href="#linearGradient11164"
       id="linearGradient3059"
       x1="-77.985794"
       y1="-15.500005"
       x2="-67.446022"
       y2="15.568433"
       gradientUnits="userSpaceOnUse"
       gradientTransform="matrix(1.014707,0,0,1.020645,98.49926,17.04727)" />
  </defs>
  <sodipodi:namedview
     id="base"
     pagecolor="#ffffff"
     bordercolor="#666666"
     borderopacity="1.0"
     inkscape:pageopacity="0.0"
     inkscape:pageshadow="2"
     inkscape:zoom="5.5"
     inkscape:cx="32"
     inkscape:cy="30.867273"
     inkscape:current-layer="layer1"
     showgrid="true"
     inkscape:document-units="px"
     inkscape:grid-bbox="true"
     inkscape:window-width="1680"
     inkscape:window-height="955"
     inkscape:window-x="0"
     inkscape:window-y="22" />
  <metadata
     id="metadata2079">
    <rdf:RDF>
      <cc:Work
         rdf:about="">
        <dc:format>image/svg+xml</dc:format>
        <dc:type
           rdf:resource="http://purl.org/dc/dcmitype/StillImage" />
      </cc:Work>
    </rdf:RDF>
  </metadata>
  <g
     id="layer1"
     inkscape:label="Layer 1"
     inkscape:groupmode="layer">
    <rect
       style="fill:url(#radialGradient3012);fill-opacity:1;stroke:#5c3566;stroke-opacity:1;stroke-linejoin:round;stroke-linecap:round"
       id="rect2082"
       width="61.81818"
       height="59.636364"
       x="1.09091"
       y="2.181818"
       ry="5.2727275" />
    <rect
       style="opacity:0.5;fill:none;fill-opacity:1;stroke:#eeeeec;stroke-width:1;stroke-opacity:1;stroke-miterlimit:4;stroke-dasharray:none"
       id="rect3014"
       width="56.682438"
       height="55.079746"
       x="3.6587811"
       y="4.4601269"
       ry="4.8698564" />
    <g
       id="g3348"
       transform="translate(1.794632,1.794924)">
      <path
         d="M 11.678,24.311 C 11.278,25.009 8.713,23.8 8.267,23.523 C 6.803,22.613 5.912,21.152 6.132,19.406 C 6.581,15.846 10.313,13.32 13.72,13.589 C 17.483,13.886 20.587,17.305 21.543,20.767 C 22.567,24.471 20.739,28.331 18.104,30.879 C 17.649,31.317 17.226,32.017 17.411,32.678 C 17.583,33.29 18.281,33.175 18.651,32.818 C 22.314,29.277 24.673,24.244 23.477,19.107 C 22.339,14.219 17.359,10.324 12.317,11.153 C 7.774,11.899 3.575,17.271 4.143,21.872 C 4.602,25.586 10.735,29.311 13.124,25.146 C 13.97,23.674 12.523,22.837 11.678,24.311 L 11.678,24.311 z "
         id="path3350"
         style="fill:white" />
      <path
         d="M 37.562,30.855 C 37.68,29.461 39.883,28.662 40.977,28.251 C 42.348,27.737 43.821,27.493 45.276,27.418 C 47.882,27.285 50.674,27.895 52.801,29.452 C 54.415,30.635 56.217,33.656 54.324,35.32 C 52.013,37.355 47.868,36.485 45.244,35.711 C 44.647,35.535 43.939,37.005 44.675,37.223 C 48.071,38.225 52.951,38.812 55.445,35.637 C 57.216,33.381 56.054,30.174 54.121,28.444 C 51.343,25.956 47.165,25.568 43.633,26.141 C 40.759,26.607 36.657,28.155 36.37,31.517 C 36.288,32.473 37.508,31.462 37.562,30.855 L 37.562,30.855 z "
         id="path3352"
         style="fill:white" />
      <g
         id="g3354">
        <g
           id="g3356">
          <path
             d="M 38.145,34.33 C 32.801,30.156 23.151,30.727 18.231,35.329 C 17.772,35.759 17.354,36.474 17.539,37.128 C 17.713,37.746 18.405,37.617 18.779,37.268 C 23.223,33.112 32.031,33.052 36.753,36.742 C 37.616,37.416 39.072,35.054 38.145,34.33 L 38.145,34.33 z "
             id="path3358"
             style="fill:white" />
        </g>
      </g>
      <path
         d="M 34.947,41.377 C 33.907,46.404 39.862,46.773 43.19,45.201 C 44.156,44.745 44.654,42.196 43.152,42.905 C 41.316,43.772 36.219,44.163 36.898,40.882 C 37.001,40.384 36.789,39.717 36.158,39.877 C 35.511,40.042 35.073,40.766 34.947,41.377 L 34.947,41.377 z "
         id="path3360"
         style="fill:white" />
      <path
         d="M 16.488,43.652 C 17.241,43.534 17.965,43.514 18.656,43.869 C 19.029,44.061 19.177,44.46 19.302,44.828 C 19.458,45.283 19.694,44.849 19.297,45.072 C 18.422,45.566 17.087,45.649 16.099,45.718 C 14.008,45.866 10.571,45.487 10.762,48.679 C 10.861,50.334 12.833,48.627 12.769,47.564 C 12.012,48.312 11.869,48.585 12.341,48.381 C 12.509,48.338 12.68,48.309 12.853,48.289 C 13.25,48.233 13.675,48.264 14.075,48.268 C 14.74,48.274 15.381,48.253 16.04,48.171 C 17.374,48.002 18.922,47.854 19.99,46.94 C 21.221,45.886 21.646,44.371 21.124,42.841 C 20.504,41.025 18.586,40.894 16.961,41.148 C 15.93,41.31 15.061,43.877 16.488,43.652 L 16.488,43.652 z "
         id="path3362"
         style="fill:white" />
      <g
         id="g3364">
        <path
           d="M 46.049,29.834 C 46.261,28.887 47.49,28.356 48.794,28.647 C 50.098,28.938 50.984,29.941 50.773,30.889 C 50.563,31.835 49.334,32.367 48.028,32.076 C 46.723,31.785 45.838,30.782 46.049,29.834 z "
           id="path3366"
           style="fill:white" />
      </g>
      <path
         d="M 43.933,26.382 C 43.933,26.382 39.483,23.711 38.847,24.855 C 38.211,25.999 38.593,27.779 39.483,27.779"
         id="path3368"
         style="fill:white" />
    </g>
    <path
       style="opacity:0.62893078;fill:url(#linearGradient3059);fill-opacity:1;stroke:none;stroke-linecap:round;stroke-linejoin:round;stroke-opacity:1"
       d="M 5.8755087,1.2272728 C 2.9114565,1.2272728 0.54829555,3.6361559 0.54829555,6.6175535 L 0.54829555,37.013633 C 5.8431943,37.709909 17.331785,36.614156 28.00881,26.711499 C 40.852852,14.79899 59.739766,13.64828 63.269886,13.538801 L 63.269886,6.6175535 C 63.269886,3.6361569 60.875017,1.2272728 57.910963,1.2272728 L 5.8755087,1.2272728 z "
       id="rect3029" />
    <path
       style="opacity:0.56603771;fill:url(#linearGradient6814);fill-opacity:1;fill-rule:evenodd;stroke:none;stroke-width:1px;stroke-linecap:butt;stroke-linejoin:miter;stroke-opacity:1"
       d="M -98.56596,60.427594 C -98.56596,60.427594 -82.26544,46.47601 -63.987941,46.087557 C -45.827874,45.699103 -42.979577,40.279164 -42.979577,40.279164 L -42.979577,30.730661 L -44.063833,25.515663 L -48.918534,22.845133 L -93.290285,22.853985 L -96.886307,25.302223 L -99.565879,29.632026 L -98.56596,60.427594 z "
       id="path10269"
       sodipodi:nodetypes="czcccccccc" />
  </g>
</svg>
