<?xml version="1.0" encoding="UTF-8" standalone="no"?>
<!-- Created with Inkscape (http://www.inkscape.org/) -->
<svg
   xmlns:i="http://ns.adobe.com/AdobeIllustrator/10.0/"
   xmlns:dc="http://purl.org/dc/elements/1.1/"
   xmlns:cc="http://web.resource.org/cc/"
   xmlns:rdf="http://www.w3.org/1999/02/22-rdf-syntax-ns#"
   xmlns:svg="http://www.w3.org/2000/svg"
   xmlns="http://www.w3.org/2000/svg"
   xmlns:xlink="http://www.w3.org/1999/xlink"
   xmlns:sodipodi="http://sodipodi.sourceforge.net/DTD/sodipodi-0.dtd"
   xmlns:inkscape="http://www.inkscape.org/namespaces/inkscape"
   width="48.000000px"
   height="48.000000px"
   id="svg249"
   sodipodi:version="0.32"
   inkscape:version="0.44.1"
   sodipodi:docbase="/Users/izoo/Sites/spip-zone/_graphismes_/logos/spip_tango/tango_vignettes/svg"
   sodipodi:docname="ogg.svg"
   inkscape:export-filename="/Users/izoo/Sites/spip-zone/_graphismes_/logos/spip_tango/tango_vignettes/png/mp3.png"
   inkscape:export-xdpi="97.5"
   inkscape:export-ydpi="97.5">
  <defs
     id="defs3">
    <radialGradient
       inkscape:collect="always"
       xlink:href="#linearGradient2315"
       id="radialGradient1360"
       gradientUnits="userSpaceOnUse"
       gradientTransform="matrix(1,0,0,0.509804,0,16.05392)"
       cx="4.3920336"
       cy="32.307854"
       fx="4.3920336"
       fy="32.307854"
       r="6.3750000" />
    <linearGradient
       inkscape:collect="always"
       id="linearGradient2315">
      <stop
         style="stop-color:#ffffff;stop-opacity:1;"
         offset="0"
         id="stop2317" />
      <stop
         style="stop-color:#ffffff;stop-opacity:0;"
         offset="1"
         id="stop2319" />
    </linearGradient>
    <radialGradient
       inkscape:collect="always"
       xlink:href="#linearGradient2315"
       id="radialGradient1358"
       gradientUnits="userSpaceOnUse"
       gradientTransform="matrix(1,0,0,0.509804,0,16.05392)"
       cx="4.3920336"
       cy="32.307854"
       fx="4.3920336"
       fy="32.307854"
       r="6.3750000" />
    <linearGradient
       inkscape:collect="always"
       id="linearGradient2072">
      <stop
         style="stop-color:#000000;stop-opacity:1;"
         offset="0"
         id="stop2074" />
      <stop
         style="stop-color:#000000;stop-opacity:0;"
         offset="1"
         id="stop2076" />
    </linearGradient>
    <radialGradient
       inkscape:collect="always"
       xlink:href="#linearGradient2072"
       id="radialGradient2078"
       cx="23.250000"
       cy="35.375000"
       fx="23.250000"
       fy="35.375000"
       r="18.500000"
       gradientTransform="matrix(1,0,0,0.398649,0,21.2728)"
       gradientUnits="userSpaceOnUse" />
    <linearGradient
       id="linearGradient4068">
      <stop
         style="stop-color:#eaeae9;stop-opacity:1;"
         offset="0"
         id="stop4070" />
      <stop
         style="stop-color:#a5a7a2;stop-opacity:1;"
         offset="1"
         id="stop4072" />
    </linearGradient>
    <linearGradient
       id="linearGradient4608">
      <stop
         style="stop-color:#eeeeec"
         offset="0"
         id="stop4610" />
      <stop
         style="stop-color:#8a8c87;stop-opacity:1;"
         offset="1"
         id="stop4612" />
    </linearGradient>
    <linearGradient
       id="linearGradient3674">
      <stop
         style="stop-color:#ffffff;stop-opacity:0;"
         offset="0"
         id="stop3676" />
      <stop
         style="stop-color:#ffffff;stop-opacity:1;"
         offset="1"
         id="stop3678" />
    </linearGradient>
    <radialGradient
       inkscape:collect="always"
       xlink:href="#linearGradient5060"
       id="radialGradient6719"
       gradientUnits="userSpaceOnUse"
       gradientTransform="matrix(-2.774389,0,0,1.969706,112.7623,-872.8854)"
       cx="605.71429"
       cy="486.64789"
       fx="605.71429"
       fy="486.64789"
       r="117.14286" />
    <linearGradient
       inkscape:collect="always"
       id="linearGradient5060">
      <stop
         style="stop-color:black;stop-opacity:1;"
         offset="0"
         id="stop5062" />
      <stop
         style="stop-color:black;stop-opacity:0;"
         offset="1"
         id="stop5064" />
    </linearGradient>
    <radialGradient
       inkscape:collect="always"
       xlink:href="#linearGradient5060"
       id="radialGradient6717"
       gradientUnits="userSpaceOnUse"
       gradientTransform="matrix(2.774389,0,0,1.969706,-1891.633,-872.8854)"
       cx="605.71429"
       cy="486.64789"
       fx="605.71429"
       fy="486.64789"
       r="117.14286" />
    <linearGradient
       id="linearGradient5048">
      <stop
         style="stop-color:black;stop-opacity:0;"
         offset="0"
         id="stop5050" />
      <stop
         id="stop5056"
         offset="0.5"
         style="stop-color:black;stop-opacity:1;" />
      <stop
         style="stop-color:black;stop-opacity:0;"
         offset="1"
         id="stop5052" />
    </linearGradient>
    <linearGradient
       inkscape:collect="always"
       xlink:href="#linearGradient5048"
       id="linearGradient6715"
       gradientUnits="userSpaceOnUse"
       gradientTransform="matrix(2.774389,0,0,1.969706,-1892.179,-872.8854)"
       x1="302.85715"
       y1="366.64789"
       x2="302.85715"
       y2="609.50507" />
    <linearGradient
       inkscape:collect="always"
       id="linearGradient5853">
      <stop
         style="stop-color:#000000;stop-opacity:1;"
         offset="0"
         id="stop5855" />
      <stop
         style="stop-color:#000000;stop-opacity:0;"
         offset="1"
         id="stop5857" />
    </linearGradient>
    <linearGradient
       id="linearGradient3531">
      <stop
         id="stop3533"
         offset="0.0000000"
         style="stop-color:#000000;stop-opacity:0.092783503;" />
      <stop
         id="stop3535"
         offset="1.0000000"
         style="stop-color:#000000;stop-opacity:0.0000000;" />
    </linearGradient>
    <linearGradient
       id="linearGradient3519">
      <stop
         style="stop-color:#ffffff;stop-opacity:1.0000000;"
         offset="0.0000000"
         id="stop3521" />
      <stop
         style="stop-color:#ffffff;stop-opacity:0.0000000;"
         offset="1.0000000"
         id="stop3523" />
    </linearGradient>
    <linearGradient
       id="linearGradient15662">
      <stop
         style="stop-color:#ffffff;stop-opacity:1.0000000;"
         offset="0.0000000"
         id="stop15664" />
      <stop
         style="stop-color:#f8f8f8;stop-opacity:1.0000000;"
         offset="1.0000000"
         id="stop15666" />
    </linearGradient>
    <linearGradient
       id="linearGradient269">
      <stop
         style="stop-color:#a3a3a3;stop-opacity:1.0000000;"
         offset="0.0000000"
         id="stop270" />
      <stop
         style="stop-color:#4c4c4c;stop-opacity:1.0000000;"
         offset="1.0000000"
         id="stop271" />
    </linearGradient>
    <linearGradient
       id="linearGradient259">
      <stop
         style="stop-color:#fafafa;stop-opacity:1.0000000;"
         offset="0.0000000"
         id="stop260" />
      <stop
         style="stop-color:#bbbbbb;stop-opacity:1.0000000;"
         offset="1.0000000"
         id="stop261" />
    </linearGradient>
    <radialGradient
       r="37.751713"
       fy="3.7561285"
       fx="8.8244190"
       cy="3.7561285"
       cx="8.8244190"
       gradientTransform="matrix(0.968273,0.000000,0.000000,1.032767,3.353553,0.646447)"
       gradientUnits="userSpaceOnUse"
       id="radialGradient15656"
       xlink:href="#linearGradient269"
       inkscape:collect="always" />
    <radialGradient
       r="86.708450"
       fy="35.736916"
       fx="33.966679"
       cy="35.736916"
       cx="33.966679"
       gradientTransform="scale(0.960493,1.041132)"
       gradientUnits="userSpaceOnUse"
       id="radialGradient15658"
       xlink:href="#linearGradient259"
       inkscape:collect="always" />
    <radialGradient
       r="38.158695"
       fy="7.2678967"
       fx="8.1435566"
       cy="7.2678967"
       cx="8.1435566"
       gradientTransform="matrix(0.968273,0.000000,0.000000,1.032767,3.353553,0.646447)"
       gradientUnits="userSpaceOnUse"
       id="radialGradient15668"
       xlink:href="#linearGradient15662"
       inkscape:collect="always" />
    <radialGradient
       inkscape:collect="always"
       xlink:href="#linearGradient5853"
       id="radialGradient5859"
       cx="24.875"
       cy="41.625"
       fx="24.875"
       fy="41.625"
       r="16.625"
       gradientTransform="matrix(0.834586,-4.742171e-18,1.889736e-18,0.332579,4.114662,27.78137)"
       gradientUnits="userSpaceOnUse" />
    <radialGradient
       inkscape:collect="always"
       xlink:href="#linearGradient2072"
       id="radialGradient5679"
       gradientUnits="userSpaceOnUse"
       gradientTransform="matrix(1,0,0,0.398649,0,21.2728)"
       cx="23.250000"
       cy="35.375000"
       fx="23.250000"
       fy="35.375000"
       r="18.500000" />
    <radialGradient
       inkscape:collect="always"
       xlink:href="#linearGradient2315"
       id="radialGradient5681"
       gradientUnits="userSpaceOnUse"
       gradientTransform="matrix(1,0,0,0.509804,0,16.05392)"
       cx="4.3920336"
       cy="32.307854"
       fx="4.3920336"
       fy="32.307854"
       r="6.3750000" />
    <radialGradient
       inkscape:collect="always"
       xlink:href="#linearGradient2315"
       id="radialGradient5683"
       gradientUnits="userSpaceOnUse"
       gradientTransform="matrix(1,0,0,0.509804,0,16.05392)"
       cx="4.3920336"
       cy="32.307854"
       fx="4.3920336"
       fy="32.307854"
       r="6.3750000" />
    <radialGradient
       inkscape:collect="always"
       xlink:href="#linearGradient2072"
       id="radialGradient5699"
       gradientUnits="userSpaceOnUse"
       gradientTransform="matrix(1,0,0,0.398649,0,21.2728)"
       cx="23.250000"
       cy="35.375000"
       fx="23.250000"
       fy="35.375000"
       r="18.500000" />
    <radialGradient
       inkscape:collect="always"
       xlink:href="#linearGradient2315"
       id="radialGradient5701"
       gradientUnits="userSpaceOnUse"
       gradientTransform="matrix(1,0,0,0.509804,0,16.05392)"
       cx="4.3920336"
       cy="32.307854"
       fx="4.3920336"
       fy="32.307854"
       r="6.3750000" />
    <radialGradient
       inkscape:collect="always"
       xlink:href="#linearGradient2315"
       id="radialGradient5703"
       gradientUnits="userSpaceOnUse"
       gradientTransform="matrix(1,0,0,0.509804,0,16.05392)"
       cx="4.3920336"
       cy="32.307854"
       fx="4.3920336"
       fy="32.307854"
       r="6.3750000" />
  </defs>
  <sodipodi:namedview
     id="base"
     pagecolor="#ffffff"
     bordercolor="#666666"
     borderopacity="0.21568627"
     inkscape:pageopacity="0.0"
     inkscape:pageshadow="2"
     inkscape:zoom="5.6568542"
     inkscape:cx="-4.6258547"
     inkscape:cy="34.239466"
     inkscape:current-layer="layer5"
     showgrid="false"
     inkscape:grid-bbox="true"
     inkscape:document-units="px"
     inkscape:window-width="911"
     inkscape:window-height="768"
     inkscape:window-x="303"
     inkscape:window-y="81"
     inkscape:showpageshadow="false" />
  <metadata
     id="metadata4">
    <rdf:RDF>
      <cc:Work
         rdf:about="">
        <dc:format>image/svg+xml</dc:format>
        <dc:type
           rdf:resource="http://purl.org/dc/dcmitype/StillImage" />
        <dc:title>Document Template</dc:title>
        <dc:subject>
          <rdf:Bag>
            <rdf:li>template</rdf:li>
          </rdf:Bag>
        </dc:subject>
        <dc:creator>
          <cc:Agent>
            <dc:title>Jakub Steiner</dc:title>
          </cc:Agent>
        </dc:creator>
        <dc:source>http://jimmac.musichall.cz</dc:source>
        <cc:license
           rdf:resource="http://creativecommons.org/licenses/by-sa/2.0/" />
      </cc:Work>
      <cc:License
         rdf:about="http://creativecommons.org/licenses/by-sa/2.0/">
        <cc:permits
           rdf:resource="http://web.resource.org/cc/Reproduction" />
        <cc:permits
           rdf:resource="http://web.resource.org/cc/Distribution" />
        <cc:requires
           rdf:resource="http://web.resource.org/cc/Notice" />
        <cc:requires
           rdf:resource="http://web.resource.org/cc/Attribution" />
        <cc:permits
           rdf:resource="http://web.resource.org/cc/DerivativeWorks" />
        <cc:requires
           rdf:resource="http://web.resource.org/cc/ShareAlike" />
      </cc:License>
    </rdf:RDF>
  </metadata>
  <g
     inkscape:label="Shadow"
     id="layer6"
     inkscape:groupmode="layer"
     style="opacity:1">
    <g
       style="display:inline"
       transform="matrix(2.105461e-2,0,0,2.086758e-2,42.85172,41.1536)"
       id="g6707">
      <rect
         style="opacity:0.40206185;color:black;fill:url(#linearGradient6715);fill-opacity:1;fill-rule:nonzero;stroke:none;stroke-width:1;stroke-linecap:round;stroke-linejoin:miter;marker:none;marker-start:none;marker-mid:none;marker-end:none;stroke-miterlimit:4;stroke-dasharray:none;stroke-dashoffset:0;stroke-opacity:1;visibility:visible;display:inline;overflow:visible"
         id="rect6709"
         width="1339.6335"
         height="478.35718"
         x="-1559.2523"
         y="-150.69685" />
      <path
         style="opacity:0.40206185;color:black;fill:url(#radialGradient6717);fill-opacity:1;fill-rule:nonzero;stroke:none;stroke-width:1;stroke-linecap:round;stroke-linejoin:miter;marker:none;marker-start:none;marker-mid:none;marker-end:none;stroke-miterlimit:4;stroke-dasharray:none;stroke-dashoffset:0;stroke-opacity:1;visibility:visible;display:inline;overflow:visible"
         d="M -219.61876,-150.68038 C -219.61876,-150.68038 -219.61876,327.65041 -219.61876,327.65041 C -76.744594,328.55086 125.78146,220.48075 125.78138,88.454235 C 125.78138,-43.572302 -33.655436,-150.68036 -219.61876,-150.68038 z "
         id="path6711"
         sodipodi:nodetypes="cccc" />
      <path
         sodipodi:nodetypes="cccc"
         id="path6713"
         d="M -1559.2523,-150.68038 C -1559.2523,-150.68038 -1559.2523,327.65041 -1559.2523,327.65041 C -1702.1265,328.55086 -1904.6525,220.48075 -1904.6525,88.454235 C -1904.6525,-43.572302 -1745.2157,-150.68036 -1559.2523,-150.68038 z "
         style="opacity:0.40206185;color:black;fill:url(#radialGradient6719);fill-opacity:1;fill-rule:nonzero;stroke:none;stroke-width:1;stroke-linecap:round;stroke-linejoin:miter;marker:none;marker-start:none;marker-mid:none;marker-end:none;stroke-miterlimit:4;stroke-dasharray:none;stroke-dashoffset:0;stroke-opacity:1;visibility:visible;display:inline;overflow:visible" />
    </g>
  </g>
  <g
     id="layer1"
     inkscape:label="Base"
     inkscape:groupmode="layer"
     style="display:inline">
    <rect
       ry="1.1490486"
       y="3.6464462"
       x="6.6035528"
       height="40.920494"
       width="34.875000"
       id="rect15391"
       style="color:#000000;fill:url(#radialGradient15658);fill-opacity:1.0000000;fill-rule:nonzero;stroke:url(#radialGradient15656);stroke-width:1.0000000;stroke-linecap:round;stroke-linejoin:round;stroke-miterlimit:4.0000000;stroke-dashoffset:0.0000000;stroke-opacity:1.0000000;marker:none;marker-start:none;marker-mid:none;marker-end:none;visibility:visible;display:block;overflow:visible" />
    <rect
       rx="0.14904857"
       ry="0.14904857"
       y="4.5839462"
       x="7.6660538"
       height="38.946384"
       width="32.775887"
       id="rect15660"
       style="color:#000000;fill:none;fill-opacity:1.0000000;fill-rule:nonzero;stroke:url(#radialGradient15668);stroke-width:1.0000000;stroke-linecap:round;stroke-linejoin:round;stroke-miterlimit:4.0000000;stroke-dashoffset:0.0000000;stroke-opacity:1.0000000;marker:none;marker-start:none;marker-mid:none;marker-end:none;visibility:visible;display:block;overflow:visible" />
  </g>
  <g
     style="display:inline"
     inkscape:label="Text"
     id="layer5"
     inkscape:groupmode="layer">
    <switch
       id="switch5387"
       transform="matrix(0.587013,0,0,0.362387,8.602614,5.801164)"
       style="opacity:0.42138367;fill:#8ae234;fill-opacity:1">
	<foreignObject
   requiredExtensions="http://ns.adobe.com/AdobeIllustrator/10.0/"
   x="0"
   y="0"
   width="1"
   height="1"
   id="foreignObject5389"
   style="fill-opacity:1.0;fill:url(#linearGradient5412)">
		<i:pgfRef
   xlink:href="#adobe_illustrator_pgf"
   style="fill-opacity:1.0;fill:url(#linearGradient5412)">
		</i:pgfRef>

	</foreignObject>

	<g
   i:extraneous="self"
   id="g5391"
   style="fill:#8ae234;fill-opacity:1">
		<g
   id="Calque_1"
   i:layer="yes"
   i:dimmedPercent="50"
   i:rgbTrio="#4F008000FFFF"
   style="fill:#8ae234;fill-opacity:1">
			<path
   i:knockout="Off"
   clip-rule="evenodd"
   d="M 0,27.325 C 0,26.089 0,24.852 0,23.614 C 0.375,22.583 0.099,20.902 0.508,19.904 C 0.61,20.307 0.296,21.128 0.675,21.254 C 0.612,20.684 0.968,20.534 1.182,20.242 C 1.137,20.792 1.706,20.729 1.856,21.085 C 1.966,20.07 1.635,18.614 2.025,17.88 C 2.332,18.264 2.303,19.818 2.531,20.073 C 2.64,19.339 2.311,18.166 2.7,17.712 C 2.734,18.03 2.587,19.378 2.869,18.893 C 2.967,18.596 2.664,17.902 3.038,17.88 C 3.131,18.126 2.84,18.752 3.205,18.724 C 3.316,17.822 2.984,16.478 3.374,15.857 C 3.43,17.59 3.691,16.768 3.88,19.06 C 4.003,17.23 4.247,19.964 4.385,19.567 C 4.489,19.163 4.174,18.343 4.554,18.217 C 4.581,18.415 4.525,18.696 4.723,18.723 C 4.877,18.428 4.781,17.881 5.06,17.711 C 5.039,18.743 5.057,19.738 5.567,20.241 C 5.676,19.339 5.345,17.996 5.735,17.373 C 6.219,17.79 5.502,19.406 6.241,19.566 C 6.342,19.216 6.033,18.457 6.409,18.385 C 6.424,18.932 6.497,19.422 6.747,19.733 C 6.857,18.383 6.523,16.587 6.914,15.517 C 7.025,16.419 6.693,17.763 7.083,18.385 C 7.249,16.489 7.648,19.402 7.757,19.059 C 7.864,18.491 7.539,17.493 7.926,17.203 C 7.843,18.154 7.974,19.837 8.093,19.227 C 8.241,18.48 7.843,17.621 8.262,16.528 C 8.664,17.363 8.441,18.824 8.767,19.733 C 8.797,19.482 8.707,19.111 8.936,19.059 C 9.248,19.317 8.933,21.076 9.274,20.747 C 9.281,19.462 9.181,18.068 9.61,17.204 C 9.644,17.524 9.497,18.871 9.779,18.386 C 9.89,16.922 9.555,15.013 9.948,13.831 C 10.06,15.744 9.723,18.104 10.115,19.734 C 10.584,19.135 9.975,17.458 10.453,16.867 C 10.562,17.881 10.23,19.338 10.62,20.072 C 10.864,19.809 10.846,19.285 11.127,19.059 C 11.224,19.355 10.923,20.051 11.294,20.072 C 11.391,19.775 11.091,19.081 11.463,19.059 C 11.568,19.572 11.246,20.512 11.631,20.747 C 11.898,19.495 11.62,17.7 11.968,16.529 C 12.082,17.212 11.68,19.604 12.306,18.722 C 12.34,19.04 12.191,20.389 12.473,19.903 C 12.581,19.279 12.255,18.223 12.642,17.879 C 13.056,18.093 12.567,20.081 12.98,19.734 C 13.087,19.167 12.762,18.168 13.148,17.879 C 13.259,18.95 12.927,20.462 13.317,21.253 C 13.427,20.183 13.095,18.669 13.486,17.879 C 13.447,18.593 13.751,18.963 13.992,19.397 C 14.103,18.439 13.771,17.039 14.161,16.361 C 14.091,17.557 14.531,19.135 14.667,19.566 C 14.772,19.053 14.451,18.113 14.836,17.878 C 14.909,18.431 14.666,20.176 15.004,19.902 C 15.111,19.389 14.789,18.449 15.173,18.215 C 15.2,18.413 15.144,18.694 15.342,18.721 C 15.442,18.372 15.133,17.613 15.511,17.54 C 15.662,18.007 15.165,19.123 15.848,19.058 C 15.956,18.379 15.629,17.265 16.017,16.866 C 16.01,17.829 16.081,18.713 16.354,19.396 C 16.826,18.744 16.211,17.005 16.692,16.36 C 16.686,17.097 16.63,17.883 17.029,18.215 C 17.055,16.666 17.104,15.141 17.367,13.829 C 17.367,15.516 17.367,17.202 17.367,18.89 C 17.713,19.316 17.39,15.319 17.873,15.01 C 17.873,15.797 17.873,16.585 17.873,17.371 C 18.537,17.641 17.931,16.642 18.378,16.696 C 18.309,18.227 18.432,19.566 19.053,20.406 C 19.165,18.832 18.829,16.81 19.222,15.515 C 19.192,17.851 19.494,19.853 19.897,21.756 C 20.004,21.188 19.679,20.19 20.065,19.901 C 20.086,20.182 19.974,21.429 20.234,20.912 C 20.359,19.745 20.277,18.37 20.909,17.708 C 20.99,17.907 21.089,18.09 21.246,18.214 C 21.233,12.578 21.117,6.839 21.753,1.852 C 21.843,3.729 21.557,5.982 21.92,7.587 C 21.895,8.47 21.967,9.758 22.089,8.598 C 22.316,6.431 21.784,2.465 22.258,1.007 C 22.291,4.967 22.114,9.135 22.594,12.647 C 22.891,12.043 22.569,10.821 22.932,10.285 C 23.166,13.144 22.346,17.056 23.606,18.889 C 23.717,17.65 23.382,15.967 23.774,15.009 C 24.123,16.346 24.016,18.141 24.281,19.564 C 24.255,19.144 24.367,18.863 24.617,18.72 C 24.606,19.294 24.565,19.897 24.955,20.07 C 25.061,19.557 24.739,18.617 25.123,18.383 C 25.233,19.341 24.902,20.74 25.292,21.419 C 25.566,20.946 25.427,23.144 25.798,21.251 C 25.902,21.654 25.586,22.474 25.967,22.6 C 26.255,21.764 25.944,20.329 26.303,19.564 C 26.118,20.873 27.078,21.037 27.316,21.925 C 27.427,15.346 27.091,8.319 27.484,2.021 C 27.594,3.632 27.347,8.675 27.484,10.96 C 27.553,12.086 27.747,13.731 27.991,11.973 C 28.343,14.264 27.813,17.436 28.497,19.394 C 28.606,18.548 28.275,17.262 28.667,16.695 C 28.914,18.077 28.506,20.116 29.172,21.081 C 29.283,20.011 28.949,18.497 29.341,17.708 C 29.134,18.931 29.57,20.39 29.509,20.575 C 29.837,19.586 29.137,18.533 29.678,17.201 C 29.678,18.101 29.678,19.001 29.678,19.901 C 30.132,20.234 29.548,18.091 30.015,17.877 C 30.084,18.379 29.852,20.053 30.184,19.732 C 30.288,19.275 29.97,18.393 30.353,18.215 C 30.463,19.229 30.131,20.686 30.522,21.42 C 30.619,21.124 30.318,20.43 30.69,20.407 C 30.78,20.992 30.439,22.007 31.028,22.095 C 31.22,20.855 30.874,16.847 31.871,18.046 C 31.993,12.088 31.656,5.679 32.049,0 C 32.049,2.699 32.049,5.397 32.049,8.097 C 32.132,9.306 32.301,7.721 32.218,7.253 C 32.218,6.578 32.218,5.903 32.218,5.23 C 31.804,4.534 32.69,1.654 32.387,1.35 C 32.503,1.467 32.509,4.265 32.554,4.217 C 33.394,3.38 31.754,1.833 32.724,1.35 C 32.869,4.691 32.773,8.273 33.062,11.471 C 33.09,11.218 33.001,10.848 33.23,10.796 C 33.285,11.202 33.086,12.723 33.398,12.314 C 33.51,10.401 33.174,8.042 33.568,6.411 C 33.592,10.771 33.477,15.271 34.074,19.061 C 34.074,19.343 34.074,19.623 34.074,19.905 C 34.005,20.513 34.382,20.136 34.242,19.736 C 34.349,19.169 34.025,18.17 34.411,17.881 C 34.411,18.388 34.411,18.894 34.411,19.399 C 34.427,19.666 34.841,19.531 34.749,19.905 C 34.749,20.13 34.749,20.355 34.749,20.579 C 35.24,20.112 34.592,17.051 35.086,16.025 C 35.186,18.063 34.77,20.615 35.593,21.929 C 35.704,20.578 35.369,18.782 35.76,17.712 C 35.871,18.614 35.539,19.958 35.93,20.579 C 36.366,18.767 35.811,15.963 36.267,14.169 C 36.359,17.002 36.178,20.106 36.774,22.434 C 36.883,21.42 36.551,19.964 36.942,19.229 C 36.338,19.722 37.504,19.927 37.28,19.398 C 37.486,19.883 36.988,20.579 37.448,20.579 C 37.558,19.621 37.226,18.221 37.617,17.543 C 37.754,18.643 37.295,20.339 37.955,20.916 C 38.066,14.9 37.729,8.436 38.124,2.7 C 38.236,5.624 37.898,8.997 38.291,11.639 C 38.389,11.343 38.089,10.648 38.461,10.627 C 38.487,10.825 38.432,11.106 38.63,11.133 C 38.723,10.888 38.433,10.261 38.797,10.289 C 38.95,12.723 38.45,15.809 39.135,17.712 C 39.504,17.236 39.066,15.954 39.473,15.519 C 39.583,16.645 39.25,18.216 39.642,19.061 C 40.097,18.616 39.513,17.132 39.979,16.7 C 40.058,17.859 40.051,19.101 40.317,20.074 C 40.292,19.366 40.404,19.668 40.653,19.905 C 40.765,18.442 40.43,16.533 40.823,15.35 C 40.925,16.713 40.612,19.382 40.992,19.905 C 40.862,19.592 41.161,17.439 41.161,18.893 C 41.161,20.732 41.237,21.504 41.328,19.568 C 41.377,18.56 41.15,17.276 41.497,15.519 C 41.451,17.59 41.604,19.461 41.836,21.254 C 42.007,25.249 41.966,18.22 42.341,18.049 C 42.272,18.774 42.403,21.528 42.511,19.568 C 42.619,18.497 42.287,16.985 42.679,16.194 C 42.679,17.15 42.679,18.106 42.679,19.061 C 42.651,20.862 42.972,19.373 42.848,18.387 C 43.352,13.774 42.68,7.987 43.184,3.373 C 43.189,4.438 43.119,5.578 43.354,6.411 C 43.383,7.837 43.314,9.601 43.354,10.627 C 43.362,10.851 43.412,12.452 43.523,11.639 C 43.961,8.42 43.057,3.935 43.692,0.845 C 43.736,3.117 43.631,5.564 43.692,7.086 C 43.778,9.266 43.819,8.118 43.859,7.086 C 43.898,6.124 43.701,4.614 44.028,4.049 C 44.133,5.913 43.812,9.1 44.198,10.122 C 44.295,9.825 43.993,9.131 44.367,9.109 C 44.505,10.938 44.04,13.372 44.703,14.675 C 44.813,13.94 44.483,12.768 44.872,12.314 C 44.965,12.56 44.675,13.186 45.041,13.158 C 45.147,12.59 44.824,11.591 45.209,11.303 C 45.33,14.218 45.384,17.201 45.885,19.736 C 45.739,18.465 46.367,19.995 46.222,18.725 C 46.826,18.625 46.226,19.733 46.898,19.569 C 47.006,18.779 46.676,17.548 47.065,17.039 C 47.187,18.491 46.736,20.518 47.571,21.256 C 47.563,20.403 47.638,19.635 47.909,19.063 C 48.002,19.308 47.713,19.935 48.078,19.907 C 48.509,19.606 47.967,18.333 48.415,18.052 C 48.496,19.043 48.505,20.994 48.753,21.257 C 48.753,20.807 48.753,20.357 48.753,19.907 C 48.976,19.909 48.907,20.202 49.091,20.244 C 49.188,19.948 48.886,19.254 49.259,19.231 C 49.287,19.484 49.198,19.854 49.427,19.906 C 49.903,19.201 49.282,17.4 49.765,16.701 C 49.875,17.771 49.542,19.284 49.935,20.075 C 50.437,15.856 49.766,10.462 50.271,6.243 C 50.326,10.293 51.021,13.703 51.284,17.545 C 51.458,16.707 51.321,15.56 51.621,14.846 C 51.731,15.916 51.399,17.429 51.79,18.22 C 52.23,17.872 51.671,16.526 52.127,16.196 C 52.237,17.21 51.905,18.667 52.297,19.401 C 52.323,19.203 52.268,18.922 52.465,18.896 C 52.485,19.355 52.374,21.454 52.633,20.582 C 52.745,18.108 52.409,15.185 52.802,12.992 C 52.914,14.793 52.578,17.04 52.971,18.558 C 52.997,18.36 52.943,18.079 53.141,18.053 C 53.174,18.371 53.026,19.72 53.308,19.233 C 53.419,17.996 53.085,16.312 53.477,15.354 C 53.365,21.033 53.702,27.161 53.308,32.559 C 53.288,32.278 53.401,31.031 53.141,31.545 C 53.193,33.173 52.773,34.327 52.633,35.764 C 52.633,34.245 52.633,32.728 52.633,31.209 C 52.707,30.874 52.568,29.656 52.465,30.534 C 52.465,30.759 52.465,30.984 52.465,31.209 C 51.951,31.369 52.165,32.259 52.127,32.896 C 51.588,32.905 51.756,33.08 51.453,33.571 C 51.355,33.274 51.656,32.58 51.284,32.559 C 50.829,38.232 50.293,43.824 50.102,49.763 C 50.102,43.186 50.102,36.608 50.102,30.029 C 49.522,31.247 50.015,33.54 49.596,34.921 C 49.486,33.514 49.82,31.661 49.427,30.535 C 49.308,31.146 49.364,31.933 49.091,32.389 C 48.962,31.451 49.031,30.312 48.753,29.523 C 48.141,30.71 48.68,33.046 48.247,34.415 C 48.145,33.052 48.457,30.385 48.078,29.86 C 48.114,31.945 47.455,29.753 47.404,29.016 C 46.951,30.307 47.253,32.352 46.898,33.74 C 46.788,32.95 47.118,31.72 46.729,31.21 C 46.801,32.258 46.373,31.053 46.054,31.546 C 45.947,30.979 46.271,29.981 45.885,29.692 C 45.508,30.338 46.034,33.788 45.378,32.56 C 45.235,34.441 45.71,36.94 45.041,38.295 C 45.071,37.671 45.05,34.762 44.872,36.439 C 43.984,38.418 44.67,41.972 44.198,44.367 C 44.167,42.945 44.241,41.686 44.198,41.162 C 44.057,39.508 44.037,41.883 44.028,42.682 C 44.007,44.63 44.174,47.786 43.859,49.259 C 43.77,46.706 44.108,43.725 43.523,41.669 C 43.523,41.219 43.523,40.769 43.523,40.318 C 43.142,40.445 43.457,41.265 43.354,41.669 C 43.149,44.388 43.777,47.939 43.016,50.103 C 42.904,43.862 43.242,37.171 42.848,31.211 C 42.882,31.695 42.805,32.068 42.511,32.223 C 42.229,31.099 42.185,29.737 41.836,28.681 C 41.454,29.986 41.7,31.92 41.328,33.235 C 41.328,31.998 41.328,30.761 41.328,29.525 C 40.894,28.812 41.446,31.847 40.992,32.223 C 40.945,31.862 41.122,30.423 40.823,30.874 C 40.715,31.553 41.043,32.668 40.653,33.066 C 40.546,32.275 40.875,31.045 40.486,30.536 C 40.466,31.401 40.607,31.665 39.979,31.211 C 39.87,32.281 40.202,33.795 39.81,34.585 C 39.701,33.402 40.033,31.774 39.642,30.874 C 39.56,31.748 39.569,32.711 39.305,33.403 C 39.275,32.378 39.352,31.856 39.305,31.38 C 39.189,30.245 39.183,31.599 39.135,31.886 C 38.741,34.261 38.878,39.036 38.63,41.162 C 38.59,40.473 38.547,39.784 38.291,39.308 C 38.18,41.557 38.517,44.255 38.124,46.223 C 37.759,40.853 38.194,34.683 37.786,29.356 C 37.427,31.078 37.852,33.584 37.448,35.26 C 37.337,33.515 37.673,31.323 37.28,29.862 C 37.033,30.177 37.273,30.98 36.942,31.212 C 36.611,30.95 36.873,27.759 36.604,29.525 C 36.294,30.452 36.448,31.841 36.099,32.73 C 36.107,31.709 36.146,30.657 35.76,30.031 C 35.663,30.328 35.965,31.021 35.593,31.043 C 35.485,30.364 35.812,29.25 35.424,28.851 C 35.136,30.023 35.248,31.6 34.918,32.73 C 34.809,31.995 35.139,30.822 34.749,30.368 C 34.485,30.948 34.472,31.778 34.242,32.391 C 34.242,31.436 34.242,30.48 34.242,29.525 C 34.378,28.949 33.991,28.562 34.074,29.356 C 34.074,29.862 34.074,30.368 34.074,30.875 C 33.257,32.363 34.256,35.667 33.398,37.116 C 33.29,36.269 33.621,34.983 33.23,34.417 C 32.89,36.955 32.879,44.068 32.724,46.729 C 32.654,47.943 32.857,49.458 32.387,48.08 C 32.279,48.703 32.605,49.76 32.218,50.103 C 31.468,48.783 33.199,43.664 32.218,42.682 C 32.488,42.952 32.049,45.514 32.049,46.223 C 32.049,47.711 32.176,48.859 31.88,49.765 C 31.88,44.536 31.88,39.308 31.88,34.078 C 31.803,33.474 32.057,31.662 31.712,31.886 C 31.603,32.676 31.933,33.906 31.543,34.416 C 31.504,32.261 31.157,30.415 30.868,28.512 C 30.609,29.603 30.56,30.904 30.193,31.886 C 30.166,31.633 30.254,31.263 30.024,31.211 C 29.915,32.058 30.246,33.343 29.856,33.91 C 29.755,32.602 30.065,29.992 29.687,29.524 C 29.589,29.82 29.891,30.515 29.518,30.536 C 29.071,30.59 29.676,29.592 29.012,29.861 C 28.552,30.357 29.146,31.906 28.676,32.39 C 28.535,31.968 29.002,30.94 28.337,31.041 C 27.985,33.331 28.399,36.39 28,38.631 C 27.971,38.38 28.06,38.009 27.831,37.956 C 27.145,40.757 27.797,44.895 27.325,47.908 C 27.213,41.611 27.551,34.865 27.156,28.849 C 27.327,29.513 26.784,29.827 26.481,29.523 C 26.379,29.925 26.693,30.746 26.312,30.873 C 25.645,30.474 26.161,28.888 25.47,28.511 C 25.486,29.371 25.59,30.32 24.964,30.535 C 24.962,30.288 25.027,29.155 24.795,29.691 C 24.926,31.148 24.61,31.225 24.29,32.053 C 24.197,31.808 24.487,31.181 24.121,31.209 C 24.237,32.674 23.984,33.771 23.615,34.75 C 23.505,33.849 23.837,32.505 23.447,31.884 C 22.661,34.415 23.211,38.282 22.772,41.16 C 22.669,39.576 22.985,36.677 22.603,35.931 C 22.563,36.501 22.768,37.979 22.267,37.113 C 22.155,40.767 22.492,44.872 22.098,48.245 C 21.927,46.73 22.473,44.495 21.761,43.521 C 21.65,44.592 21.983,46.105 21.592,46.895 C 21.496,45.863 21.794,43.548 21.424,43.354 C 21.313,44.591 21.648,46.275 21.255,47.233 C 21.041,42.05 21.691,36.001 20.918,31.378 C 20.815,31.782 21.129,32.601 20.749,32.728 C 20.817,31.892 20.673,30.051 20.244,31.209 C 20.166,30.606 20.42,28.792 20.075,29.016 C 19.975,29.367 20.284,30.124 19.907,30.198 C 19.953,29.812 19.865,29.563 19.569,29.523 C 19.534,30.781 19.72,32.259 19.233,33.065 C 18.832,32.561 19.311,30.293 18.895,30.366 C 18.797,30.662 19.099,31.358 18.727,31.379 C 18.698,31.126 18.787,30.756 18.558,30.704 C 18.448,31.662 18.779,33.062 18.389,33.74 C 18.341,33.226 18.416,32.588 17.884,32.559 C 17.778,33.073 18.099,34.011 17.715,34.246 C 17.469,33.014 17.326,32.644 16.871,31.546 C 16.896,31.967 16.902,32.366 16.534,32.39 C 16.482,31.881 16.722,31.078 16.197,31.041 C 15.971,31.414 16.142,32.691 15.69,31.885 C 15.715,32.641 15.672,33.327 15.353,33.74 C 15.37,33.049 15.381,32.363 15.015,32.053 C 14.989,32.251 15.044,32.531 14.847,32.559 C 14.626,32.373 14.776,30.961 14.509,31.378 C 14.631,32.286 14.396,32.838 14.003,33.232 C 13.917,32.471 14.193,30.463 13.834,30.534 C 13.863,31.612 13.92,32.277 13.328,32.388 C 13.246,31.734 13.51,29.854 13.159,30.028 C 13.103,30.603 13.352,32.271 12.822,31.378 C 12.572,31.914 12.821,32.951 12.484,33.401 C 12.497,32.547 12.524,31.674 12.147,31.209 C 12.05,31.505 12.351,32.2 11.978,32.221 C 11.764,31.705 11.74,30.999 11.473,30.534 C 11.37,30.938 11.684,31.758 11.304,31.884 C 11.331,31.239 11.295,30.655 10.967,30.365 C 10.478,31.057 10.508,32.268 10.293,33.232 C 10.22,30.693 10.32,30.343 10.124,32.052 C 10.025,32.917 9.98,34.464 9.787,35.257 C 9.704,34.548 9.973,32.604 9.618,32.727 C 9.514,33.184 9.832,34.065 9.45,34.245 C 9.577,32.486 9.183,31.252 9.282,29.522 C 9.094,28.953 8.978,31.191 8.944,31.883 C 8.733,31.847 8.6,31.62 8.607,32.052 C 8.699,33.268 8.529,34.223 8.1,34.919 C 8.1,33.907 8.1,32.895 8.1,31.883 C 7.849,30.12 8.102,33.023 7.763,33.232 C 7.776,32.659 7.815,32.056 7.427,31.883 C 7.46,32.423 7.143,32.612 6.752,32.727 C 6.769,32.034 6.779,31.349 6.414,31.039 C 6.389,31.238 6.444,31.518 6.246,31.544 C 6.155,31.301 6.444,30.674 6.078,30.702 C 6.225,31.524 5.842,31.814 5.572,32.22 C 5.494,31.616 5.748,29.803 5.403,30.028 C 5.299,30.431 5.614,31.252 5.234,31.378 C 5.207,31.178 5.263,30.899 5.065,30.872 C 5.059,31.876 4.992,32.822 4.728,33.57 C 4.673,33.164 4.872,31.642 4.559,32.052 C 4.454,32.509 4.773,33.39 4.39,33.57 C 4.302,32.756 4.584,30.683 4.223,30.703 C 4.334,31.548 4.101,32.785 3.716,31.715 C 3.608,32.395 3.936,33.509 3.548,33.908 C 3.456,33.662 3.745,33.036 3.379,33.064 C 3.27,33.91 3.6,35.197 3.21,35.763 C 3.332,33.899 3.106,32.381 2.368,31.377 C 2.373,32.113 2.43,32.9 2.03,33.231 C 1.563,32.07 2.253,30.584 1.355,30.027 C 1.366,30.033 1.351,30.551 1.187,30.196 C 1.01,29.813 1.482,29.38 1.018,29.352 C 1.003,29.9 0.931,30.389 0.68,30.702 C 0.707,29.883 0.671,29.442 0.343,30.196 C 0.211,29.251 0.28,28.114 0,27.325 z "
   id="path5394"
   style="fill:#8ae234;fill-opacity:1;fill-rule:evenodd" />

		</g>

	</g>

</switch>
    <path
       sodipodi:type="arc"
       style="opacity:0.3;color:black;fill:url(#radialGradient5699);fill-opacity:1;fill-rule:evenodd;stroke:none;stroke-width:2;stroke-linecap:round;stroke-linejoin:round;marker:none;marker-start:none;marker-mid:none;marker-end:none;stroke-miterlimit:4;stroke-dasharray:none;stroke-dashoffset:0;stroke-opacity:1;visibility:visible;display:inline;overflow:visible"
       id="path1344"
       sodipodi:cx="23.25"
       sodipodi:cy="35.375"
       sodipodi:rx="18.5"
       sodipodi:ry="7.375"
       d="M 41.75 35.375 A 18.5 7.375 0 1 1  4.75,35.375 A 18.5 7.375 0 1 1  41.75 35.375 z"
       transform="matrix(0.602951,0,0,0.602951,19.67162,22.69236)" />
    <path
       sodipodi:nodetypes="cccccccccccccc"
       id="path7042"
       d="M 44.769455,25.683305 C 44.769455,25.683305 30.863898,27.392457 30.863898,27.392457 L 30.863898,40.525484 C 29.871468,40.189248 28.493224,40.101351 26.982401,40.41243 C 24.355757,40.953259 22.473618,42.401859 22.761744,43.63445 C 23.04987,44.86704 25.410921,45.437708 28.037565,44.896879 C 30.519698,44.385805 32.670715,43.065233 32.62158,41.882124 L 32.715791,30.407212 C 32.715791,30.407212 42.924027,28.661485 42.924027,28.661485 L 42.924027,39.08326 C 36.74378,38.178833 34.909481,40.82774 35.197608,42.060331 C 35.485734,43.292921 37.846786,43.863588 40.47343,43.322759 C 42.804062,42.84288 44.472448,41.656678 44.63756,40.534111 L 44.769455,25.683305 z "
       style="color:black;fill:#ad7fa8;fill-opacity:1;fill-rule:nonzero;stroke:#5c3566;stroke-width:0.60295099;stroke-linecap:round;stroke-linejoin:round;marker:none;marker-start:none;marker-mid:none;marker-end:none;stroke-miterlimit:4;stroke-dashoffset:0;stroke-opacity:1;visibility:visible;display:block" />
    <path
       sodipodi:type="arc"
       style="opacity:0.51176471;color:black;fill:url(#radialGradient5701);fill-opacity:1;fill-rule:nonzero;stroke:none;stroke-width:1;stroke-linecap:butt;stroke-linejoin:miter;marker:none;marker-start:none;marker-mid:none;marker-end:none;stroke-miterlimit:4;stroke-dasharray:none;stroke-dashoffset:0;stroke-opacity:1;visibility:visible;display:block;overflow:visible"
       id="path2313"
       sodipodi:cx="5.875"
       sodipodi:cy="32.75"
       sodipodi:rx="6.375"
       sodipodi:ry="3.25"
       d="M 12.25 32.75 A 6.375 3.25 0 1 1  -0.5,32.75 A 6.375 3.25 0 1 1  12.25 32.75 z"
       transform="matrix(0.442877,-6.731646e-2,6.731646e-2,0.442877,22.02516,28.35459)" />
    <path
       transform="matrix(0.442877,-6.731646e-2,6.731646e-2,0.442877,33.98922,26.64544)"
       d="M 12.25 32.75 A 6.375 3.25 0 1 1  -0.5,32.75 A 6.375 3.25 0 1 1  12.25 32.75 z"
       sodipodi:ry="3.25"
       sodipodi:rx="6.375"
       sodipodi:cy="32.75"
       sodipodi:cx="5.875"
       id="path2323"
       style="opacity:0.51176471;color:black;fill:url(#radialGradient5703);fill-opacity:1;fill-rule:nonzero;stroke:none;stroke-width:1;stroke-linecap:butt;stroke-linejoin:miter;marker:none;marker-start:none;marker-mid:none;marker-end:none;stroke-miterlimit:4;stroke-dasharray:none;stroke-dashoffset:0;stroke-opacity:1;visibility:visible;display:block;overflow:visible"
       sodipodi:type="arc" />
  </g>
</svg>
