<?xml version="1.0" encoding="UTF-8" standalone="no"?>
<!-- Created with Inkscape (http://www.inkscape.org/) -->

<svg
   xmlns:a="http://ns.adobe.com/AdobeSVGViewerExtensions/3.0/"
   xmlns:dc="http://purl.org/dc/elements/1.1/"
   xmlns:cc="http://creativecommons.org/ns#"
   xmlns:rdf="http://www.w3.org/1999/02/22-rdf-syntax-ns#"
   xmlns:svg="http://www.w3.org/2000/svg"
   xmlns="http://www.w3.org/2000/svg"
   xmlns:xlink="http://www.w3.org/1999/xlink"
   xmlns:sodipodi="http://sodipodi.sourceforge.net/DTD/sodipodi-0.dtd"
   xmlns:inkscape="http://www.inkscape.org/namespaces/inkscape"
   width="48.000000px"
   height="48.000000px"
   id="svg249"
   sodipodi:version="0.32"
   inkscape:version="0.48.2 r9819"
   sodipodi:docname="template_video.svg"
   inkscape:export-filename="/Users/izoo/Sites/spip-zone/_graphismes_/logos/spip_tango/tango_vignettes/png/quicktime.png"
   inkscape:export-xdpi="97.5"
   inkscape:export-ydpi="97.5"
   version="1.1">
  <defs
     id="defs3">
    <linearGradient
       inkscape:collect="always"
       xlink:href="#linearGradient2667"
       id="linearGradient6854"
       gradientUnits="userSpaceOnUse"
       gradientTransform="matrix(1.122314,0,0,0.902103,13.79769,11.2288)"
       x1="11.492236"
       y1="1.6537577"
       x2="17.199417"
       y2="26.729263" />
    <linearGradient
       id="linearGradient4114"
       inkscape:collect="always">
      <stop
         id="stop4116"
         offset="0"
         style="stop-color:#000000;stop-opacity:1;" />
      <stop
         id="stop4118"
         offset="1"
         style="stop-color:#000000;stop-opacity:0;" />
    </linearGradient>
    <radialGradient
       inkscape:collect="always"
       xlink:href="#linearGradient4114"
       id="radialGradient6852"
       gradientUnits="userSpaceOnUse"
       gradientTransform="scale(1.64399,0.608276)"
       cx="15.115514"
       cy="63.965388"
       fx="15.115514"
       fy="63.965388"
       r="12.289036" />
    <radialGradient
       id="radialGradient7677"
       cx="18.186001"
       cy="18.186501"
       r="17.687"
       gradientUnits="userSpaceOnUse"
       style="fill-opacity:1.0;fill:url(#radialGradient7700);stroke:url(#linearGradient7708)">
      <stop
         offset="0"
         style="stop-color:#719DCE;fill-opacity:1.0;fill:url(#radialGradient7700);stroke:url(#linearGradient7708)"
         id="stop7679" />
      <stop
         offset="0.1957"
         style="stop-color:#6C98CA;fill-opacity:1.0;fill:url(#radialGradient7700);stroke:url(#linearGradient7708)"
         id="stop7681" />
      <stop
         offset="0.4348"
         style="stop-color:#5D89BD;fill-opacity:1.0;fill:url(#radialGradient7700);stroke:url(#linearGradient7708)"
         id="stop7683" />
      <stop
         offset="0.6967"
         style="stop-color:#4570A8;fill-opacity:1.0;fill:url(#radialGradient7700);stroke:url(#linearGradient7708)"
         id="stop7685" />
      <stop
         offset="0.9731"
         style="stop-color:#244E8A;fill-opacity:1.0;fill:url(#radialGradient7700);stroke:url(#linearGradient7708)"
         id="stop7687" />
      <stop
         offset="1"
         style="stop-color:#204A87;fill-opacity:1.0;fill:url(#radialGradient7700);stroke:url(#linearGradient7708)"
         id="stop7689" />
      <a:midPointStop
         offset="0"
         style="stop-color:#719DCE;fill-opacity:1.0;fill:url(#radialGradient7700);stroke:url(#linearGradient7708)" />
      <a:midPointStop
         offset="0.6649"
         style="stop-color:#719DCE;fill-opacity:1.0;fill:url(#radialGradient7700);stroke:url(#linearGradient7708)" />
      <a:midPointStop
         offset="1"
         style="stop-color:#204A87;fill-opacity:1.0;fill:url(#radialGradient7700);stroke:url(#linearGradient7708)" />
    </radialGradient>
    <linearGradient
       id="linearGradient3400">
      <stop
         style="stop-color:#416db4;stop-opacity:1;"
         offset="0"
         id="stop3402" />
      <stop
         style="stop-color:#385e9b;stop-opacity:1;"
         offset="1"
         id="stop3404" />
    </linearGradient>
    <linearGradient
       id="linearGradient2667">
      <stop
         id="stop2669"
         offset="0.0000000"
         style="stop-color:#ffffff;stop-opacity:1.0000000;" />
      <stop
         id="stop2671"
         offset="1.0000000"
         style="stop-color:#fcfcff;stop-opacity:0.0000000;" />
    </linearGradient>
    <linearGradient
       inkscape:collect="always"
       xlink:href="#linearGradient2667"
       id="linearGradient6740"
       gradientUnits="userSpaceOnUse"
       gradientTransform="matrix(1.662163,0,0,0.441228,-3.179701,2.157646)"
       x1="11.492236"
       y1="1.6537577"
       x2="17.199417"
       y2="26.729263" />
    <radialGradient
       inkscape:collect="always"
       xlink:href="#linearGradient5060"
       id="radialGradient6719"
       gradientUnits="userSpaceOnUse"
       gradientTransform="matrix(-2.774389,0,0,1.969706,112.7623,-872.8854)"
       cx="605.71429"
       cy="486.64789"
       fx="605.71429"
       fy="486.64789"
       r="117.14286" />
    <linearGradient
       inkscape:collect="always"
       id="linearGradient5060">
      <stop
         style="stop-color:black;stop-opacity:1;"
         offset="0"
         id="stop5062" />
      <stop
         style="stop-color:black;stop-opacity:0;"
         offset="1"
         id="stop5064" />
    </linearGradient>
    <radialGradient
       inkscape:collect="always"
       xlink:href="#linearGradient5060"
       id="radialGradient6717"
       gradientUnits="userSpaceOnUse"
       gradientTransform="matrix(2.774389,0,0,1.969706,-1891.633,-872.8854)"
       cx="605.71429"
       cy="486.64789"
       fx="605.71429"
       fy="486.64789"
       r="117.14286" />
    <linearGradient
       id="linearGradient5048">
      <stop
         style="stop-color:black;stop-opacity:0;"
         offset="0"
         id="stop5050" />
      <stop
         id="stop5056"
         offset="0.5"
         style="stop-color:black;stop-opacity:1;" />
      <stop
         style="stop-color:black;stop-opacity:0;"
         offset="1"
         id="stop5052" />
    </linearGradient>
    <linearGradient
       inkscape:collect="always"
       xlink:href="#linearGradient5048"
       id="linearGradient6715"
       gradientUnits="userSpaceOnUse"
       gradientTransform="matrix(2.774389,0,0,1.969706,-1892.179,-872.8854)"
       x1="302.85715"
       y1="366.64789"
       x2="302.85715"
       y2="609.50507" />
    <linearGradient
       inkscape:collect="always"
       id="linearGradient5853">
      <stop
         style="stop-color:#000000;stop-opacity:1;"
         offset="0"
         id="stop5855" />
      <stop
         style="stop-color:#000000;stop-opacity:0;"
         offset="1"
         id="stop5857" />
    </linearGradient>
    <linearGradient
       id="linearGradient3531">
      <stop
         id="stop3533"
         offset="0.0000000"
         style="stop-color:#000000;stop-opacity:0.092783503;" />
      <stop
         id="stop3535"
         offset="1.0000000"
         style="stop-color:#000000;stop-opacity:0.0000000;" />
    </linearGradient>
    <linearGradient
       id="linearGradient3519">
      <stop
         style="stop-color:#ffffff;stop-opacity:1.0000000;"
         offset="0.0000000"
         id="stop3521" />
      <stop
         style="stop-color:#ffffff;stop-opacity:0.0000000;"
         offset="1.0000000"
         id="stop3523" />
    </linearGradient>
    <linearGradient
       id="linearGradient15662">
      <stop
         style="stop-color:#ffffff;stop-opacity:1.0000000;"
         offset="0.0000000"
         id="stop15664" />
      <stop
         style="stop-color:#f8f8f8;stop-opacity:1.0000000;"
         offset="1.0000000"
         id="stop15666" />
    </linearGradient>
    <linearGradient
       id="linearGradient269">
      <stop
         style="stop-color:#a3a3a3;stop-opacity:1.0000000;"
         offset="0.0000000"
         id="stop270" />
      <stop
         style="stop-color:#4c4c4c;stop-opacity:1.0000000;"
         offset="1.0000000"
         id="stop271" />
    </linearGradient>
    <linearGradient
       id="linearGradient259">
      <stop
         style="stop-color:#fafafa;stop-opacity:1.0000000;"
         offset="0.0000000"
         id="stop260" />
      <stop
         style="stop-color:#bbbbbb;stop-opacity:1.0000000;"
         offset="1.0000000"
         id="stop261" />
    </linearGradient>
    <radialGradient
       r="37.751713"
       fy="3.7561285"
       fx="8.8244190"
       cy="3.7561285"
       cx="8.8244190"
       gradientTransform="matrix(0.968273,0.000000,0.000000,1.032767,3.353553,0.646447)"
       gradientUnits="userSpaceOnUse"
       id="radialGradient15656"
       xlink:href="#linearGradient269"
       inkscape:collect="always" />
    <radialGradient
       r="86.708450"
       fy="35.736916"
       fx="33.966679"
       cy="35.736916"
       cx="33.966679"
       gradientTransform="scale(0.960493,1.041132)"
       gradientUnits="userSpaceOnUse"
       id="radialGradient15658"
       xlink:href="#linearGradient259"
       inkscape:collect="always" />
    <radialGradient
       r="38.158695"
       fy="7.2678967"
       fx="8.1435566"
       cy="7.2678967"
       cx="8.1435566"
       gradientTransform="matrix(0.968273,0.000000,0.000000,1.032767,3.353553,0.646447)"
       gradientUnits="userSpaceOnUse"
       id="radialGradient15668"
       xlink:href="#linearGradient15662"
       inkscape:collect="always" />
    <linearGradient
       inkscape:collect="always"
       xlink:href="#linearGradient3519"
       id="linearGradient3525"
       gradientTransform="matrix(0.668545,0,0,1.495785,-68.41259,21.2132)"
       x1="57.643562"
       y1="8.6012535"
       x2="34.242393"
       y2="21.033955"
       gradientUnits="userSpaceOnUse" />
    <radialGradient
       inkscape:collect="always"
       xlink:href="#linearGradient5853"
       id="radialGradient5859"
       cx="24.875"
       cy="41.625"
       fx="24.875"
       fy="41.625"
       r="16.625"
       gradientTransform="matrix(0.834586,-4.742171e-18,1.889736e-18,0.332579,4.114662,27.78137)"
       gradientUnits="userSpaceOnUse" />
    <radialGradient
       inkscape:collect="always"
       xlink:href="#linearGradient3400"
       id="radialGradient7750"
       gradientUnits="userSpaceOnUse"
       gradientTransform="matrix(1,0,0,0.999973,0,4.999863e-4)"
       cx="18.187"
       cy="18.186501"
       fx="18.187"
       fy="18.186501"
       r="18.187" />
    <linearGradient
       inkscape:collect="always"
       xlink:href="#radialGradient7677"
       id="linearGradient7752"
       gradientUnits="userSpaceOnUse"
       x1="0"
       y1="18.186501"
       x2="36.374001"
       y2="18.186501" />
    <radialGradient
       inkscape:collect="always"
       xlink:href="#linearGradient3400"
       id="radialGradient7754"
       gradientUnits="userSpaceOnUse"
       gradientTransform="matrix(1,0,0,0.999973,0,4.999863e-4)"
       cx="18.187"
       cy="18.186501"
       fx="18.187"
       fy="18.186501"
       r="18.187" />
    <linearGradient
       inkscape:collect="always"
       xlink:href="#radialGradient7677"
       id="linearGradient7756"
       gradientUnits="userSpaceOnUse"
       x1="0"
       y1="18.186501"
       x2="36.374001"
       y2="18.186501" />
    <radialGradient
       inkscape:collect="always"
       xlink:href="#linearGradient4114"
       id="radialGradient7793"
       gradientUnits="userSpaceOnUse"
       gradientTransform="scale(1.64399,0.608276)"
       cx="15.115514"
       cy="63.965389"
       fx="15.115514"
       fy="63.965389"
       r="12.289036" />
    <linearGradient
       inkscape:collect="always"
       xlink:href="#linearGradient2667"
       id="linearGradient7795"
       gradientUnits="userSpaceOnUse"
       gradientTransform="matrix(1.122314,0,0,0.902103,13.79769,11.2288)"
       x1="11.492236"
       y1="1.6537577"
       x2="17.199417"
       y2="26.729263" />
    <linearGradient
       inkscape:collect="always"
       xlink:href="#linearGradient2667"
       id="linearGradient7798"
       gradientUnits="userSpaceOnUse"
       gradientTransform="matrix(1.115855,-3.9983e-2,7.968495e-2,1.076209,11.9579,10.56464)"
       x1="11.492236"
       y1="1.6537577"
       x2="17.199417"
       y2="26.729263" />
    <linearGradient
       inkscape:collect="always"
       xlink:href="#linearGradient2667"
       id="linearGradient7814"
       gradientUnits="userSpaceOnUse"
       gradientTransform="matrix(1.115855,-3.9983e-2,7.968495e-2,1.076209,-77.72025,-10.79945)"
       x1="11.492236"
       y1="1.6537577"
       x2="17.199417"
       y2="26.729263" />
    <linearGradient
       inkscape:collect="always"
       xlink:href="#radialGradient7727"
       id="linearGradient9349"
       x1="0"
       y1="18.186501"
       x2="36.374001"
       y2="18.186501"
       gradientUnits="userSpaceOnUse" />
  </defs>
  <sodipodi:namedview
     id="base"
     pagecolor="#ffffff"
     bordercolor="#666666"
     borderopacity="0.21568627"
     inkscape:pageopacity="0.0"
     inkscape:pageshadow="2"
     inkscape:zoom="5.6568542"
     inkscape:cx="28.266828"
     inkscape:cy="34.239466"
     inkscape:current-layer="layer1-8"
     showgrid="false"
     inkscape:grid-bbox="true"
     inkscape:document-units="px"
     inkscape:window-width="911"
     inkscape:window-height="756"
     inkscape:window-x="282"
     inkscape:window-y="0"
     inkscape:showpageshadow="false"
     inkscape:window-maximized="0" />
  <metadata
     id="metadata4">
    <rdf:RDF>
      <cc:Work
         rdf:about="">
        <dc:format>image/svg+xml</dc:format>
        <dc:type
           rdf:resource="http://purl.org/dc/dcmitype/StillImage" />
        <dc:title></dc:title>
        <dc:subject>
          <rdf:Bag>
            <rdf:li>template</rdf:li>
          </rdf:Bag>
        </dc:subject>
        <dc:creator>
          <cc:Agent>
            <dc:title>Jakub Steiner</dc:title>
          </cc:Agent>
        </dc:creator>
        <dc:source>http://jimmac.musichall.cz</dc:source>
        <cc:license
           rdf:resource="http://creativecommons.org/licenses/by-sa/2.0/" />
      </cc:Work>
      <cc:License
         rdf:about="http://creativecommons.org/licenses/by-sa/2.0/">
        <cc:permits
           rdf:resource="http://web.resource.org/cc/Reproduction" />
        <cc:permits
           rdf:resource="http://web.resource.org/cc/Distribution" />
        <cc:requires
           rdf:resource="http://web.resource.org/cc/Notice" />
        <cc:requires
           rdf:resource="http://web.resource.org/cc/Attribution" />
        <cc:permits
           rdf:resource="http://web.resource.org/cc/DerivativeWorks" />
        <cc:requires
           rdf:resource="http://web.resource.org/cc/ShareAlike" />
      </cc:License>
    </rdf:RDF>
  </metadata>
  <g
     inkscape:label="Shadow"
     id="layer6"
     inkscape:groupmode="layer">
    <g
       style="display:inline"
       transform="matrix(2.105461e-2,0,0,2.086758e-2,42.85172,41.1536)"
       id="g6707">
      <rect
         style="opacity:0.40206185;color:black;fill:url(#linearGradient6715);fill-opacity:1;fill-rule:nonzero;stroke:none;stroke-width:1;stroke-linecap:round;stroke-linejoin:miter;marker:none;marker-start:none;marker-mid:none;marker-end:none;stroke-miterlimit:4;stroke-dasharray:none;stroke-dashoffset:0;stroke-opacity:1;visibility:visible;display:inline;overflow:visible"
         id="rect6709"
         width="1339.6335"
         height="478.35718"
         x="-1559.2523"
         y="-150.69685" />
      <path
         style="opacity:0.40206185;color:black;fill:url(#radialGradient6717);fill-opacity:1;fill-rule:nonzero;stroke:none;stroke-width:1;stroke-linecap:round;stroke-linejoin:miter;marker:none;marker-start:none;marker-mid:none;marker-end:none;stroke-miterlimit:4;stroke-dasharray:none;stroke-dashoffset:0;stroke-opacity:1;visibility:visible;display:inline;overflow:visible"
         d="M -219.61876,-150.68038 C -219.61876,-150.68038 -219.61876,327.65041 -219.61876,327.65041 C -76.744594,328.55086 125.78146,220.48075 125.78138,88.454235 C 125.78138,-43.572302 -33.655436,-150.68036 -219.61876,-150.68038 z "
         id="path6711"
         sodipodi:nodetypes="cccc" />
      <path
         sodipodi:nodetypes="cccc"
         id="path6713"
         d="M -1559.2523,-150.68038 C -1559.2523,-150.68038 -1559.2523,327.65041 -1559.2523,327.65041 C -1702.1265,328.55086 -1904.6525,220.48075 -1904.6525,88.454235 C -1904.6525,-43.572302 -1745.2157,-150.68036 -1559.2523,-150.68038 z "
         style="opacity:0.40206185;color:black;fill:url(#radialGradient6719);fill-opacity:1;fill-rule:nonzero;stroke:none;stroke-width:1;stroke-linecap:round;stroke-linejoin:miter;marker:none;marker-start:none;marker-mid:none;marker-end:none;stroke-miterlimit:4;stroke-dasharray:none;stroke-dashoffset:0;stroke-opacity:1;visibility:visible;display:inline;overflow:visible" />
    </g>
  </g>
  <g
     id="layer1"
     inkscape:label="Base"
     inkscape:groupmode="layer"
     style="display:inline">
    <rect
       ry="1.1490486"
       y="3.6464462"
       x="6.6035528"
       height="40.920494"
       width="34.875"
       id="rect15391"
       style="color:black;fill:url(#radialGradient15658);fill-opacity:1;fill-rule:nonzero;stroke:url(#radialGradient15656);stroke-width:1;stroke-linecap:round;stroke-linejoin:round;marker:none;marker-start:none;marker-mid:none;marker-end:none;stroke-miterlimit:4;stroke-dashoffset:0;stroke-opacity:1;visibility:visible;display:block;overflow:visible" />
    <rect
       rx="0.14904857"
       ry="0.14904857"
       y="4.5839462"
       x="7.6660538"
       height="38.946384"
       width="32.775887"
       id="rect15660"
       style="color:black;fill:none;fill-opacity:1;fill-rule:nonzero;stroke:url(#radialGradient15668);stroke-width:1;stroke-linecap:round;stroke-linejoin:round;marker:none;marker-start:none;marker-mid:none;marker-end:none;stroke-miterlimit:4;stroke-dashoffset:0;stroke-opacity:1;visibility:visible;display:block;overflow:visible" />
    <g
       id="g7590"
       transform="matrix(0.865406,0,0,0.865192,4.598218,0.70705)">
      <g
         transform="matrix(0.636121,0,0.280133,0.329059,52.51193,11.69097)"
         id="g7529">
        <rect
           style="opacity:1;fill:#2e3436;fill-opacity:1;stroke:none;stroke-width:1;stroke-linejoin:round;stroke-miterlimit:4;stroke-dasharray:none;stroke-opacity:1"
           id="rect7517"
           width="9.5459414"
           height="16.263456"
           x="-67.705475"
           y="-19.589479" />
        <rect
           style="opacity:1;fill:#2e3436;fill-opacity:1;stroke:none;stroke-width:1;stroke-linejoin:round;stroke-miterlimit:4;stroke-dasharray:none;stroke-opacity:1"
           id="rect7521"
           width="9.5459414"
           height="16.263456"
           x="-26.601624"
           y="-19.589479" />
        <rect
           style="opacity:1;fill:#eeeeec;fill-opacity:1;stroke:none;stroke-width:1;stroke-linejoin:round;stroke-miterlimit:4;stroke-dasharray:none;stroke-opacity:1"
           id="rect7523"
           width="9.5459414"
           height="16.263456"
           x="-36.877586"
           y="-19.589479" />
        <rect
           style="opacity:1;fill:#2e3436;fill-opacity:1;stroke:none;stroke-width:1;stroke-linejoin:round;stroke-miterlimit:4;stroke-dasharray:none;stroke-opacity:1"
           id="rect7525"
           width="9.5459414"
           height="16.263456"
           x="-47.153549"
           y="-19.589479" />
        <rect
           style="opacity:1;fill:#eeeeec;fill-opacity:1;stroke:none;stroke-width:1;stroke-linejoin:round;stroke-miterlimit:4;stroke-dasharray:none;stroke-opacity:1"
           id="rect7527"
           width="9.5459414"
           height="16.263456"
           x="-57.429512"
           y="-19.589479" />
      </g>
      <g
         transform="matrix(-0.636121,0,-0.280133,0.329059,-7.82594,16.82993)"
         id="g7536">
        <rect
           style="opacity:1;fill:#2e3436;fill-opacity:1;stroke:none;stroke-width:1;stroke-linejoin:round;stroke-miterlimit:4;stroke-dasharray:none;stroke-opacity:1"
           id="rect7538"
           width="9.5459414"
           height="16.263456"
           x="-67.705475"
           y="-19.589479" />
        <rect
           style="opacity:1;fill:#2e3436;fill-opacity:1;stroke:none;stroke-width:1;stroke-linejoin:round;stroke-miterlimit:4;stroke-dasharray:none;stroke-opacity:1"
           id="rect7540"
           width="9.5459414"
           height="16.263456"
           x="-26.601624"
           y="-19.589479" />
        <rect
           style="opacity:1;fill:#eeeeec;fill-opacity:1;stroke:none;stroke-width:1;stroke-linejoin:round;stroke-miterlimit:4;stroke-dasharray:none;stroke-opacity:1"
           id="rect7542"
           width="9.5459414"
           height="16.263456"
           x="-36.877586"
           y="-19.589479" />
        <rect
           style="opacity:1;fill:#2e3436;fill-opacity:1;stroke:none;stroke-width:1;stroke-linejoin:round;stroke-miterlimit:4;stroke-dasharray:none;stroke-opacity:1"
           id="rect7544"
           width="9.5459414"
           height="16.263456"
           x="-47.153549"
           y="-19.589479" />
        <rect
           style="opacity:1;fill:#eeeeec;fill-opacity:1;stroke:none;stroke-width:1;stroke-linejoin:round;stroke-miterlimit:4;stroke-dasharray:none;stroke-opacity:1"
           id="rect7546"
           width="9.5459414"
           height="16.263456"
           x="-57.429512"
           y="-19.589479" />
      </g>
    </g>
    <rect
       style="fill:#2e3436;fill-opacity:1;stroke:none;stroke-width:1;stroke-linejoin:round;stroke-miterlimit:4;stroke-dasharray:none;stroke-opacity:1"
       id="rect7560"
       width="5.6568542"
       height="8.8388348"
       x="8.0211315"
       y="5.2448745" />
    <path
       sodipodi:nodetypes="ccccc"
       style="opacity:0.47169812;fill:url(#linearGradient6740);fill-opacity:1;fill-rule:evenodd;stroke:none;stroke-width:0.25pt;stroke-linecap:butt;stroke-linejoin:miter;stroke-opacity:1"
       d="M 7.7151042,5.1507989 L 6.6384604,13.951339 C 21.455522,12.769109 21.961055,8.7842816 40.38414,7.477004 L 40.167515,5.1833337 L 7.7151042,5.1507989 z "
       id="path2884" />
    <g
       id="layer1-8"
       transform="translate(-130.93239,25.529709)">
      <polygon
         style="fill:#c2ea54"
         id="polygon4099"
         points="97.683,18.958 98.875,18.958 83.917,11.458 84.487,12.29 97.683,18.958 "
         transform="translate(76.842407,-8.6620581)" />
      <polygon
         style="fill:#6f7f42"
         id="polygon4101"
         points="97.683,18.958 97.683,18.958 97.688,18.958 84.481,25.13 83.917,25.958 98.875,18.958 "
         transform="translate(76.842407,-8.6620581)" />
      <polygon
         style="fill:#c0e65a"
         id="polygon4103"
         points="84.481,25.13 84.479,25.131 84.479,25.131 84.479,12.286 84.487,12.29 83.917,11.458 83.917,25.958 "
         transform="translate(76.842407,-8.6620581)" />
      <polygon
         style="fill:#acd147"
         id="polygon4105"
         points="84.487,12.29 84.479,12.286 84.479,12.286 84.479,25.131 84.481,25.13 97.688,18.958 97.683,18.958 "
         transform="translate(76.842407,-8.6620581)" />
    </g>
  </g>
  <g
     style="display:inline"
     inkscape:label="Text"
     id="layer5"
     inkscape:groupmode="layer" />
</svg>
