<?xml version="1.0" encoding="UTF-8" standalone="no"?>
<!-- Created with Inkscape (http://www.inkscape.org/) -->
<svg
   xmlns:dc="http://purl.org/dc/elements/1.1/"
   xmlns:cc="http://web.resource.org/cc/"
   xmlns:rdf="http://www.w3.org/1999/02/22-rdf-syntax-ns#"
   xmlns:svg="http://www.w3.org/2000/svg"
   xmlns="http://www.w3.org/2000/svg"
   xmlns:xlink="http://www.w3.org/1999/xlink"
   xmlns:sodipodi="http://sodipodi.sourceforge.net/DTD/sodipodi-0.dtd"
   xmlns:inkscape="http://www.inkscape.org/namespaces/inkscape"
   width="64px"
   height="64px"
   id="svg2194"
   sodipodi:version="0.32"
   inkscape:version="0.45"
   sodipodi:docbase="/Users/izo/Sites/spip-zone/_graphismes_/logos/spip_tango/spip_plugins/spip-outliner/scalable"
   sodipodi:docname="indent.svg"
   inkscape:output_extension="org.inkscape.output.svg.inkscape"
   inkscape:export-filename="/Users/izo/Sites/spip-zone/_graphismes_/logos/spip_tango/spip_plugins/spip-outliner/48x48/indent.png"
   inkscape:export-xdpi="67.5"
   inkscape:export-ydpi="67.5"
   sodipodi:modified="true">
  <defs
     id="defs2196">
    <linearGradient
       inkscape:collect="always"
       id="linearGradient3101">
      <stop
         style="stop-color:#000000;stop-opacity:1;"
         offset="0"
         id="stop3103" />
      <stop
         style="stop-color:#000000;stop-opacity:0;"
         offset="1"
         id="stop3105" />
    </linearGradient>
    <radialGradient
       inkscape:collect="always"
       xlink:href="#linearGradient3101"
       id="radialGradient3107"
       cx="17.3125"
       cy="25.53125"
       fx="17.3125"
       fy="25.53125"
       r="9.6875"
       gradientTransform="matrix(1,0,0,0.351613,0,16.55413)"
       gradientUnits="userSpaceOnUse" />
    <linearGradient
       inkscape:collect="always"
       id="linearGradient2091">
      <stop
         style="stop-color:#000000;stop-opacity:1;"
         offset="0"
         id="stop2093" />
      <stop
         style="stop-color:#000000;stop-opacity:0;"
         offset="1"
         id="stop2095" />
    </linearGradient>
    <radialGradient
       inkscape:collect="always"
       xlink:href="#linearGradient2091"
       id="radialGradient2097"
       cx="23.070683"
       cy="35.127438"
       fx="23.070683"
       fy="35.127438"
       r="10.319340"
       gradientTransform="matrix(0.914812,1.265023e-2,-8.21502e-3,0.213562,2.253914,27.18889)"
       gradientUnits="userSpaceOnUse" />
    <linearGradient
       id="linearGradient7916">
      <stop
         style="stop-color:#ffffff;stop-opacity:1;"
         offset="0"
         id="stop7918" />
      <stop
         style="stop-color:#ffffff;stop-opacity:0.34020618;"
         offset="1.0000000"
         id="stop7920" />
    </linearGradient>
    <linearGradient
       id="linearGradient1322">
      <stop
         id="stop1324"
         offset="0.0000000"
         style="stop-color:#729fcf" />
      <stop
         id="stop1326"
         offset="1.0000000"
         style="stop-color:#5187d6;stop-opacity:1.0000000;" />
    </linearGradient>
    <linearGradient
       id="linearGradient2224">
      <stop
         style="stop-color:#32342f;stop-opacity:0.54639173;"
         offset="0.0000000"
         id="stop2226" />
      <stop
         style="stop-color:#32342f;stop-opacity:0;"
         offset="1"
         id="stop2228" />
    </linearGradient>
    <linearGradient
       id="linearGradient5176">
      <stop
         id="stop5178"
         offset="0.0000000"
         style="stop-color:#a2a59c;stop-opacity:1.0000000;" />
      <stop
         id="stop5180"
         offset="1.0000000"
         style="stop-color:#535750;stop-opacity:1.0000000;" />
    </linearGradient>
    <linearGradient
       id="linearGradient2206">
      <stop
         style="stop-color:#777973;stop-opacity:1.0000000;"
         offset="0.0000000"
         id="stop2208" />
      <stop
         style="stop-color:#cbccca;stop-opacity:1.0000000;"
         offset="1.0000000"
         id="stop2210" />
    </linearGradient>
    <linearGradient
       id="linearGradient4254">
      <stop
         style="stop-color:#616161;stop-opacity:1.0000000;"
         offset="0.0000000"
         id="stop4256" />
      <stop
         style="stop-color:#a0a0a0;stop-opacity:1.0000000;"
         offset="1.0000000"
         id="stop4258" />
    </linearGradient>
    <linearGradient
       id="linearGradient2198">
      <stop
         style="stop-color:#748f48;stop-opacity:1.0000000;"
         offset="0.0000000"
         id="stop2200" />
      <stop
         style="stop-color:#1f2816;stop-opacity:1.0000000;"
         offset="1.0000000"
         id="stop2202" />
    </linearGradient>
    <linearGradient
       id="linearGradient2667">
      <stop
         id="stop2669"
         offset="0.0000000"
         style="stop-color:#ffffff;stop-opacity:1.0000000;" />
      <stop
         id="stop2671"
         offset="1.0000000"
         style="stop-color:#fcfcff;stop-opacity:0.0000000;" />
    </linearGradient>
    <linearGradient
       id="linearGradient2214">
      <stop
         style="stop-color:#a9aaa7;stop-opacity:1.0000000;"
         offset="0.0000000"
         id="stop2216" />
      <stop
         style="stop-color:#676964;stop-opacity:1.0000000;"
         offset="1.0000000"
         id="stop2218" />
    </linearGradient>
    <linearGradient
       id="linearGradient4808">
      <stop
         style="stop-color:#000000;stop-opacity:1.0000000"
         offset="0.0000000"
         id="stop4810" />
      <stop
         style="stop-color:#000000;stop-opacity:0.0000000"
         offset="1.0000000"
         id="stop4812" />
    </linearGradient>
    <linearGradient
       id="linearGradient3832">
      <stop
         style="stop-color:#ffffff;stop-opacity:1.0000000"
         offset="0.0000000"
         id="stop3834" />
      <stop
         style="stop-color:#e0e0e0;stop-opacity:1.0000000"
         offset="1.0000000"
         id="stop3836" />
    </linearGradient>
    <linearGradient
       id="linearGradient4816">
      <stop
         style="stop-color:#204a87;stop-opacity:1.0000000"
         offset="0.0000000"
         id="stop4818" />
      <stop
         style="stop-color:#204a87;stop-opacity:0.0000000"
         offset="1.0000000"
         id="stop4820" />
    </linearGradient>
    <linearGradient
       id="linearGradient12512">
      <stop
         style="stop-color:#ffffff;stop-opacity:1.0000000"
         offset="0.0000000"
         id="stop12513" />
      <stop
         style="stop-color:#fff520;stop-opacity:0.89108908"
         offset="0.50000000"
         id="stop12517" />
      <stop
         style="stop-color:#fff300;stop-opacity:0.0000000"
         offset="1.0000000"
         id="stop12514" />
    </linearGradient>
    <linearGradient
       inkscape:collect="always"
       xlink:href="#linearGradient1322"
       id="linearGradient34805"
       gradientUnits="userSpaceOnUse"
       gradientTransform="matrix(0.5774852,0,0,0.5774852,-14.952113,-12.547243)"
       x1="34.892849"
       y1="36.422989"
       x2="45.918697"
       y2="48.547989" />
    <linearGradient
       inkscape:collect="always"
       xlink:href="#linearGradient7916"
       id="linearGradient34807"
       gradientUnits="userSpaceOnUse"
       gradientTransform="matrix(0.5774852,0,0,0.5774852,-4.5470719,-4.7100813)"
       x1="16.874998"
       y1="22.851799"
       x2="27.900846"
       y2="34.976799" />
    <radialGradient
       inkscape:collect="always"
       xlink:href="#linearGradient4808"
       id="radialGradient35688"
       gradientUnits="userSpaceOnUse"
       gradientTransform="matrix(2.5048078,0,0,0.5038206,-11.504281,44.71221)"
       cx="17.368311"
       cy="25.681942"
       fx="17.368311"
       fy="25.681942"
       r="11.799845" />
    <linearGradient
       inkscape:collect="always"
       xlink:href="#linearGradient2206"
       id="linearGradient36262"
       x1="27.600458"
       y1="4.3637252"
       x2="27.798042"
       y2="17.240322"
       gradientUnits="userSpaceOnUse" />
    <linearGradient
       inkscape:collect="always"
       xlink:href="#linearGradient2206"
       id="linearGradient36270"
       x1="27.24206"
       y1="42.895035"
       x2="27.439646"
       y2="56.85965"
       gradientUnits="userSpaceOnUse" />
    <linearGradient
       inkscape:collect="always"
       xlink:href="#linearGradient2206"
       id="linearGradient36278"
       x1="26.704466"
       y1="42.895035"
       x2="27.081249"
       y2="55.771633"
       gradientUnits="userSpaceOnUse" />
    <linearGradient
       inkscape:collect="always"
       xlink:href="#linearGradient1322"
       id="linearGradient36310"
       x1="-99.234375"
       y1="64.25"
       x2="-97.4198"
       y2="52.436558"
       gradientUnits="userSpaceOnUse" />
    <linearGradient
       inkscape:collect="always"
       xlink:href="#linearGradient1322"
       id="linearGradient36312"
       gradientUnits="userSpaceOnUse"
       x1="-99.234375"
       y1="64.25"
       x2="-97.4198"
       y2="52.436558" />
    <linearGradient
       inkscape:collect="always"
       xlink:href="#linearGradient1322"
       id="linearGradient36314"
       gradientUnits="userSpaceOnUse"
       x1="-99.234375"
       y1="64.25"
       x2="-97.4198"
       y2="52.436558" />
    <linearGradient
       inkscape:collect="always"
       xlink:href="#linearGradient2206"
       id="linearGradient36316"
       gradientUnits="userSpaceOnUse"
       x1="27.600458"
       y1="4.3637252"
       x2="27.798042"
       y2="17.240322" />
    <linearGradient
       inkscape:collect="always"
       xlink:href="#linearGradient2206"
       id="linearGradient36318"
       gradientUnits="userSpaceOnUse"
       x1="27.600458"
       y1="4.3637252"
       x2="27.798042"
       y2="17.240322" />
    <linearGradient
       inkscape:collect="always"
       xlink:href="#linearGradient2206"
       id="linearGradient36320"
       gradientUnits="userSpaceOnUse"
       x1="26.704466"
       y1="42.895035"
       x2="27.081249"
       y2="55.771633" />
    <linearGradient
       inkscape:collect="always"
       xlink:href="#linearGradient2206"
       id="linearGradient36322"
       gradientUnits="userSpaceOnUse"
       x1="26.704466"
       y1="42.895035"
       x2="27.081249"
       y2="55.771633" />
    <linearGradient
       inkscape:collect="always"
       xlink:href="#linearGradient2206"
       id="linearGradient36324"
       gradientUnits="userSpaceOnUse"
       x1="27.24206"
       y1="42.895035"
       x2="27.439646"
       y2="56.85965" />
    <linearGradient
       inkscape:collect="always"
       xlink:href="#linearGradient2206"
       id="linearGradient36326"
       gradientUnits="userSpaceOnUse"
       x1="27.24206"
       y1="42.895035"
       x2="27.439646"
       y2="56.85965" />
  </defs>
  <sodipodi:namedview
     id="base"
     pagecolor="#ffffff"
     bordercolor="#666666"
     borderopacity="1.0"
     inkscape:pageopacity="0.0"
     inkscape:pageshadow="2"
     inkscape:zoom="7.0646522"
     inkscape:cx="78.760844"
     inkscape:cy="41.917536"
     inkscape:current-layer="layer1"
     showgrid="true"
     inkscape:document-units="px"
     inkscape:grid-bbox="true"
     inkscape:window-width="1501"
     inkscape:window-height="985"
     inkscape:window-x="112"
     inkscape:window-y="22"
     showguides="true"
     inkscape:guide-bbox="true" />
  <metadata
     id="metadata2199">
    <rdf:RDF>
      <cc:Work
         rdf:about="">
        <dc:format>image/svg+xml</dc:format>
        <dc:type
           rdf:resource="http://purl.org/dc/dcmitype/StillImage" />
      </cc:Work>
    </rdf:RDF>
  </metadata>
  <g
     id="layer1"
     inkscape:label="Layer 1"
     inkscape:groupmode="layer">
    <path
       id="path3933"
       style="opacity:0.56725147;color:#000000;fill:url(#radialGradient35688);fill-opacity:1;fill-rule:evenodd;stroke:none;stroke-width:1;stroke-linecap:round;stroke-linejoin:round;marker:none;marker-start:none;marker-mid:none;marker-end:none;stroke-miterlimit:4;stroke-dasharray:none;stroke-dashoffset:0;stroke-opacity:1;visibility:visible;display:inline;overflow:visible"
       d="M 61.556344,57.65129 C 61.55847,60.934928 48.325019,63.597069 31.999999,63.597069 C 15.67498,63.597069 2.4415311,60.934928 2.4436561,57.65129 C 2.4415311,54.367654 15.67498,51.705514 31.999999,51.705514 C 48.325019,51.705514 61.55847,54.367654 61.556344,57.65129 L 61.556344,57.65129 z " />
    <g
       id="g36214"
       transform="translate(0,-2.1818626)"
       style="fill:url(#linearGradient36262);fill-opacity:1;stroke:#555753">
      <rect
         ry="4.5427928"
         rx="5.664763"
         y="4.8637252"
         x="5.5215092"
         height="11.876597"
         width="52.956982"
         id="rect27904"
         style="opacity:1;fill:url(#linearGradient36316);fill-opacity:1;stroke:#555753;stroke-width:1;stroke-linecap:round;stroke-linejoin:round;stroke-miterlimit:4;stroke-dasharray:none;stroke-opacity:1" />
      <rect
         ry="3.9370708"
         rx="5.495368"
         y="5.65552"
         x="6.313303"
         height="10.293008"
         width="51.373394"
         id="rect35692"
         style="opacity:0.5;fill:url(#linearGradient36318);fill-opacity:1;stroke:#555753;stroke-width:1;stroke-linecap:round;stroke-linejoin:round;stroke-miterlimit:4;stroke-dasharray:none;stroke-opacity:1" />
    </g>
    <g
       id="g36204"
       transform="translate(0,-9.5400541)"
       style="fill:url(#linearGradient36270);fill-opacity:1;stroke:#555753">
      <rect
         ry="4.5427928"
         rx="5.664763"
         y="43.395035"
         x="5.5215092"
         height="11.876597"
         width="52.956982"
         id="rect35690"
         style="opacity:1;fill:url(#linearGradient36324);fill-opacity:1;stroke:#555753;stroke-width:1;stroke-linecap:round;stroke-linejoin:round;stroke-miterlimit:4;stroke-dasharray:none;stroke-opacity:1" />
      <rect
         ry="3.9370708"
         rx="5.495368"
         y="44.186829"
         x="6.313303"
         height="10.293008"
         width="51.373394"
         id="rect35696"
         style="opacity:0.4;fill:url(#linearGradient36326);fill-opacity:1;stroke:#555753;stroke-width:1;stroke-linecap:round;stroke-linejoin:round;stroke-miterlimit:4;stroke-dasharray:none;stroke-opacity:1" />
    </g>
    <g
       id="g36190"
       transform="translate(133.96875,-33.776698)"
       style="fill:url(#linearGradient36310);fill-opacity:1;stroke:#204a87">
      <path
         id="rect27906"
         d="M -112.78125,51.875 C -115.91953,51.875 -118.46875,53.889542 -118.46875,56.40625 L -118.46875,59.1875 C -118.46875,61.704207 -115.91953,63.749999 -112.78125,63.75 L -80,63.75 L -80,51.875 L -112.78125,51.875 z "
         style="fill:url(#linearGradient36312);fill-opacity:1;stroke:#204a87;stroke-width:1;stroke-linecap:round;stroke-linejoin:round;stroke-miterlimit:4;stroke-dasharray:none;stroke-opacity:1" />
      <path
         id="rect35694"
         d="M -112.30356,52.650088 C -115.26986,52.650088 -117.66241,54.408558 -117.66241,56.592308 L -117.66241,59.001442 C -117.66241,61.185194 -115.26986,62.943663 -112.30356,62.943662 L -81.124791,62.943662 L -81.124791,52.712663 C -81.124791,52.691758 -81.125129,52.670924 -81.124791,52.650088 L -112.30356,52.650088 z "
         style="opacity:0.4;fill:url(#linearGradient36314);fill-opacity:1;stroke:#204a87;stroke-width:0.98767626;stroke-linecap:round;stroke-linejoin:round;stroke-miterlimit:4;stroke-dasharray:none;stroke-opacity:1" />
    </g>
    <g
       id="g4401"
       transform="translate(-37.369143,10.191584)">
      <path
         transform="matrix(0.4868353,0,0,0.5050915,76.919248,2.0109141)"
         d="M 46.138718 23.42804 A 22.008699 21.213203 0 1 1  2.1213188,23.42804 A 22.008699 21.213203 0 1 1  46.138718 23.42804 z"
         sodipodi:ry="21.213203"
         sodipodi:rx="22.008699"
         sodipodi:cy="23.42804"
         sodipodi:cx="24.130018"
         id="path1650"
         style="fill:#f57900;fill-opacity:1;fill-rule:nonzero;stroke:#ce5c00;stroke-width:4.03323889;stroke-linecap:round;stroke-linejoin:round;stroke-miterlimit:4;stroke-dasharray:none;stroke-dashoffset:0;stroke-opacity:1"
         sodipodi:type="arc" />
      <path
         transform="matrix(0.4529483,0,0,0.4699338,77.736942,2.8345901)"
         d="M 46.138718 23.42804 A 22.008699 21.213203 0 1 1  2.1213188,23.42804 A 22.008699 21.213203 0 1 1  46.138718 23.42804 z"
         sodipodi:ry="21.213203"
         sodipodi:rx="22.008699"
         sodipodi:cy="23.42804"
         sodipodi:cx="24.130018"
         id="path3392"
         style="fill:none;fill-opacity:1;fill-rule:nonzero;stroke:#fcaf3e;stroke-width:2.1674912;stroke-linecap:round;stroke-linejoin:round;stroke-miterlimit:4;stroke-dasharray:none;stroke-dashoffset:0;stroke-opacity:1"
         sodipodi:type="arc" />
      <path
         transform="matrix(0.4360836,0,0,0.4360836,130.8954,4.8979812)"
         d="M -80.333332,20 L -92.833334,27.216878 L -105.33333,34.433758 L -105.33333,20 L -105.33333,5.5662422 L -92.833333,12.783122 L -80.333332,20 z "
         inkscape:randomized="0"
         inkscape:rounded="0"
         inkscape:flatsided="false"
         sodipodi:arg2="1.0471976"
         sodipodi:arg1="0"
         sodipodi:r2="8.333333"
         sodipodi:r1="16.666668"
         sodipodi:cy="20"
         sodipodi:cx="-97"
         sodipodi:sides="3"
         id="path36157"
         style="fill:#ffffff;fill-opacity:1;stroke:#ffffff;stroke-width:3.01087832;stroke-linecap:round;stroke-linejoin:round;stroke-miterlimit:4;stroke-dasharray:none;stroke-opacity:1"
         sodipodi:type="star" />
      <path
         sodipodi:nodetypes="czssc"
         id="path3068"
         d="M 98.920084,13.590961 C 98.920084,19.172751 95.800971,11.371669 89.295658,13.790095 C 82.738836,16.227668 78.696203,19.172751 78.696203,13.590961 C 78.696203,8.00917 83.226351,3.479022 88.808145,3.479022 C 94.389933,3.479022 98.920084,8.00917 98.920084,13.590961 z "
         style="fill:#fffeff;fill-opacity:0.21390375;fill-rule:nonzero;stroke:none;stroke-width:1;stroke-linecap:round;stroke-linejoin:round;stroke-miterlimit:4;stroke-dasharray:none;stroke-dashoffset:0;stroke-opacity:1" />
    </g>
    <g
       id="g36208"
       transform="translate(0,6.0465052)"
       style="fill:url(#linearGradient36278);fill-opacity:1;stroke:#555753">
      <rect
         ry="4.5427928"
         rx="5.664763"
         y="43.395035"
         x="5.5215092"
         height="11.876597"
         width="52.956982"
         id="rect36210"
         style="opacity:1;fill:url(#linearGradient36320);fill-opacity:1;stroke:#555753;stroke-width:1;stroke-linecap:round;stroke-linejoin:round;stroke-miterlimit:4;stroke-dasharray:none;stroke-opacity:1" />
      <rect
         ry="3.9370708"
         rx="5.495368"
         y="44.186829"
         x="6.313303"
         height="10.293008"
         width="51.373394"
         id="rect36212"
         style="opacity:0.4;fill:url(#linearGradient36322);fill-opacity:1;stroke:#555753;stroke-width:1;stroke-linecap:round;stroke-linejoin:round;stroke-miterlimit:4;stroke-dasharray:none;stroke-opacity:1" />
    </g>
    <path
       sodipodi:type="arc"
       style="opacity:1;fill:#ffffff;fill-opacity:1;stroke:none;stroke-width:0.435;stroke-linecap:round;stroke-linejoin:round;stroke-miterlimit:4;stroke-dasharray:none;stroke-opacity:1"
       id="path2433"
       sodipodi:cx="-62.002506"
       sodipodi:cy="5.5814538"
       sodipodi:rx="3.046366"
       sodipodi:ry="3.046366"
       d="M -58.95614 5.5814538 A 3.046366 3.046366 0 1 1  -65.048872,5.5814538 A 3.046366 3.046366 0 1 1  -58.95614 5.5814538 z"
       transform="translate(73.738641,3.0387075)" />
    <path
       sodipodi:type="arc"
       style="opacity:1;fill:#ffffff;fill-opacity:1;stroke:none;stroke-width:0.435;stroke-linecap:round;stroke-linejoin:round;stroke-miterlimit:4;stroke-dasharray:none;stroke-opacity:1"
       id="path3404"
       sodipodi:cx="-62.002506"
       sodipodi:cy="5.5814538"
       sodipodi:rx="3.046366"
       sodipodi:ry="3.046366"
       d="M -58.95614 5.5814538 A 3.046366 3.046366 0 1 1  -65.048872,5.5814538 A 3.046366 3.046366 0 1 1  -58.95614 5.5814538 z"
       transform="translate(113.95614,3.0387075)" />
    <path
       sodipodi:type="arc"
       style="opacity:1;fill:#ffffff;fill-opacity:1;stroke:none;stroke-width:0.435;stroke-linecap:round;stroke-linejoin:round;stroke-miterlimit:4;stroke-dasharray:none;stroke-opacity:1"
       id="path3406"
       sodipodi:cx="-62.002506"
       sodipodi:cy="5.5814538"
       sodipodi:rx="3.046366"
       sodipodi:ry="3.046366"
       d="M -58.95614 5.5814538 A 3.046366 3.046366 0 1 1  -65.048872,5.5814538 A 3.046366 3.046366 0 1 1  -58.95614 5.5814538 z"
       transform="translate(73.738641,34.211826)" />
    <path
       sodipodi:type="arc"
       style="opacity:1;fill:#ffffff;fill-opacity:1;stroke:none;stroke-width:0.435;stroke-linecap:round;stroke-linejoin:round;stroke-miterlimit:4;stroke-dasharray:none;stroke-opacity:1"
       id="path3408"
       sodipodi:cx="-62.002506"
       sodipodi:cy="5.5814538"
       sodipodi:rx="3.046366"
       sodipodi:ry="3.046366"
       d="M -58.95614 5.5814538 A 3.046366 3.046366 0 1 1  -65.048872,5.5814538 A 3.046366 3.046366 0 1 1  -58.95614 5.5814538 z"
       transform="translate(113.95614,34.211826)" />
    <path
       sodipodi:type="arc"
       style="opacity:1;fill:#ffffff;fill-opacity:1;stroke:none;stroke-width:0.435;stroke-linecap:round;stroke-linejoin:round;stroke-miterlimit:4;stroke-dasharray:none;stroke-opacity:1"
       id="path3410"
       sodipodi:cx="-62.002506"
       sodipodi:cy="5.5814538"
       sodipodi:rx="3.046366"
       sodipodi:ry="3.046366"
       d="M -58.95614 5.5814538 A 3.046366 3.046366 0 1 1  -65.048872,5.5814538 A 3.046366 3.046366 0 1 1  -58.95614 5.5814538 z"
       transform="translate(73.738641,49.798385)" />
    <path
       sodipodi:type="arc"
       style="opacity:1;fill:#ffffff;fill-opacity:1;stroke:none;stroke-width:0.435;stroke-linecap:round;stroke-linejoin:round;stroke-miterlimit:4;stroke-dasharray:none;stroke-opacity:1"
       id="path3412"
       sodipodi:cx="-62.002506"
       sodipodi:cy="5.5814538"
       sodipodi:rx="3.046366"
       sodipodi:ry="3.046366"
       d="M -58.95614 5.5814538 A 3.046366 3.046366 0 1 1  -65.048872,5.5814538 A 3.046366 3.046366 0 1 1  -58.95614 5.5814538 z"
       transform="translate(113.95614,49.798385)" />
    <path
       sodipodi:type="arc"
       style="opacity:1;fill:#ffffff;fill-opacity:1;stroke:none;stroke-width:0.435;stroke-linecap:round;stroke-linejoin:round;stroke-miterlimit:4;stroke-dasharray:none;stroke-opacity:1"
       id="path3414"
       sodipodi:cx="-62.002506"
       sodipodi:cy="5.5814538"
       sodipodi:rx="3.046366"
       sodipodi:ry="3.046366"
       d="M -58.95614 5.5814538 A 3.046366 3.046366 0 1 1  -65.048872,5.5814538 A 3.046366 3.046366 0 1 1  -58.95614 5.5814538 z"
       transform="translate(83.327068,18.454348)" />
    <text
       xml:space="preserve"
       style="font-size:18.12164497px;font-style:normal;font-weight:normal;fill:#ffffff;fill-opacity:1;stroke:none;stroke-width:1px;stroke-linecap:butt;stroke-linejoin:miter;stroke-opacity:1;font-family:Trebuchet MS"
       x="16.915146"
       y="10.734353"
       id="text3416"><tspan
         sodipodi:role="line"
         id="tspan3418"
         x="16.915146"
         y="10.734353"
         style="font-size:6.0405488px;font-family:superscript">une liste</tspan></text>
    <text
       xml:space="preserve"
       style="font-size:18.12164497px;font-style:normal;font-weight:normal;fill:#ffffff;fill-opacity:1;stroke:none;stroke-width:1px;stroke-linecap:butt;stroke-linejoin:miter;stroke-opacity:1;font-family:Trebuchet MS"
       x="16.915146"
       y="57.49403"
       id="text4389"><tspan
         sodipodi:role="line"
         id="tspan4391"
         x="16.915146"
         y="57.49403"
         style="font-size:6.0405488px;font-family:superscript">une liste</tspan></text>
    <text
       xml:space="preserve"
       style="font-size:18.12164497px;font-style:normal;font-weight:normal;fill:#ffffff;fill-opacity:1;stroke:none;stroke-width:1px;stroke-linecap:butt;stroke-linejoin:miter;stroke-opacity:1;font-family:Trebuchet MS"
       x="16.915146"
       y="41.907471"
       id="text4393"><tspan
         sodipodi:role="line"
         id="tspan4395"
         x="16.915146"
         y="41.907471"
         style="font-size:6.0405488px;font-family:superscript">une liste</tspan></text>
  </g>
</svg>
