<?xml version="1.0" encoding="UTF-8" standalone="no"?>
<!-- Created with Inkscape (http://www.inkscape.org/) -->
<svg
   xmlns:dc="http://purl.org/dc/elements/1.1/"
   xmlns:cc="http://web.resource.org/cc/"
   xmlns:rdf="http://www.w3.org/1999/02/22-rdf-syntax-ns#"
   xmlns:svg="http://www.w3.org/2000/svg"
   xmlns="http://www.w3.org/2000/svg"
   xmlns:xlink="http://www.w3.org/1999/xlink"
   xmlns:sodipodi="http://sodipodi.sourceforge.net/DTD/sodipodi-0.dtd"
   xmlns:inkscape="http://www.inkscape.org/namespaces/inkscape"
   width="64px"
   height="64px"
   id="svg2303"
   sodipodi:version="0.32"
   inkscape:version="0.44.1"
   sodipodi:docbase="/Users/izo/Sites/spip-zone/_graphismes_/logos/spip_tango/tango_database/svg"
   sodipodi:docname="import_export_plus.svg"
   inkscape:export-filename="/Users/izo/Sites/spip-zone/_graphismes_/logos/spip_tango/tango_database/png/import_export_plus.png"
   inkscape:export-xdpi="90"
   inkscape:export-ydpi="90">
  <defs
     id="defs2305">
    <linearGradient
       inkscape:collect="always"
       id="linearGradient11164">
      <stop
         style="stop-color:white;stop-opacity:1;"
         offset="0"
         id="stop11166" />
      <stop
         style="stop-color:white;stop-opacity:0;"
         offset="1"
         id="stop11168" />
    </linearGradient>
    <linearGradient
       inkscape:collect="always"
       xlink:href="#linearGradient11164"
       id="linearGradient48121"
       gradientUnits="userSpaceOnUse"
       gradientTransform="matrix(2.143418,0,0,3.771515,-11.8974,-60.11578)"
       x1="21"
       y1="16"
       x2="21"
       y2="26.928572" />
    <radialGradient
       inkscape:collect="always"
       xlink:href="#linearGradient5060"
       id="radialGradient5031"
       gradientUnits="userSpaceOnUse"
       gradientTransform="matrix(-2.774389,0,0,1.969706,112.7623,-872.8854)"
       cx="605.71429"
       cy="486.64789"
       fx="605.71429"
       fy="486.64789"
       r="117.14286" />
    <radialGradient
       inkscape:collect="always"
       xlink:href="#linearGradient5060"
       id="radialGradient5029"
       gradientUnits="userSpaceOnUse"
       gradientTransform="matrix(2.774389,0,0,1.969706,-1891.633,-872.8854)"
       cx="605.71429"
       cy="486.64789"
       fx="605.71429"
       fy="486.64789"
       r="117.14286" />
    <linearGradient
       inkscape:collect="always"
       xlink:href="#linearGradient5048"
       id="linearGradient5027"
       gradientUnits="userSpaceOnUse"
       gradientTransform="matrix(2.774389,0,0,1.969706,-1892.179,-872.8854)"
       x1="302.85715"
       y1="366.64789"
       x2="302.85715"
       y2="609.50507" />
    <linearGradient
       inkscape:collect="always"
       xlink:href="#linearGradient3832"
       id="linearGradient2267"
       gradientUnits="userSpaceOnUse"
       gradientTransform="matrix(3.516144,0,0,3.706512,-14.49134,-26.26902)"
       x1="17.880680"
       y1="11.072588"
       x2="18.049149"
       y2="30.455215" />
    <linearGradient
       inkscape:collect="always"
       id="linearGradient4258">
      <stop
         style="stop-color:#2e3436;stop-opacity:1;"
         offset="0"
         id="stop4260" />
      <stop
         style="stop-color:#2e3436;stop-opacity:0;"
         offset="1"
         id="stop4262" />
    </linearGradient>
    <linearGradient
       inkscape:collect="always"
       xlink:href="#linearGradient4258"
       id="linearGradient4264"
       x1="28.63998"
       y1="7"
       x2="28.107492"
       y2="27.335777"
       gradientUnits="userSpaceOnUse"
       gradientTransform="matrix(1.042029,0,0,1.192167,-0.746136,-4.889953)" />
    <linearGradient
       id="linearGradient8650"
       inkscape:collect="always">
      <stop
         id="stop8652"
         offset="0"
         style="stop-color:#ffffff;stop-opacity:1;" />
      <stop
         id="stop8654"
         offset="1"
         style="stop-color:#ffffff;stop-opacity:0;" />
    </linearGradient>
    <linearGradient
       id="linearGradient2591">
      <stop
         style="stop-color:#73d216"
         offset="0"
         id="stop2593" />
      <stop
         style="stop-color:#4e9a06"
         offset="1.0000000"
         id="stop2595" />
    </linearGradient>
    <linearGradient
       id="linearGradient8662"
       inkscape:collect="always">
      <stop
         id="stop8664"
         offset="0"
         style="stop-color:#000000;stop-opacity:1;" />
      <stop
         id="stop8666"
         offset="1"
         style="stop-color:#000000;stop-opacity:0;" />
    </linearGradient>
    <linearGradient
       id="linearGradient2865"
       inkscape:collect="always">
      <stop
         id="stop2867"
         offset="0"
         style="stop-color:#000000;stop-opacity:1;" />
      <stop
         id="stop2869"
         offset="1"
         style="stop-color:#000000;stop-opacity:0;" />
    </linearGradient>
    <radialGradient
       inkscape:collect="always"
       xlink:href="#linearGradient2865"
       id="radialGradient3397"
       gradientUnits="userSpaceOnUse"
       gradientTransform="matrix(1,0,0,0.348243,0,26.35543)"
       cx="23.5625"
       cy="40.4375"
       fx="23.5625"
       fy="40.4375"
       r="19.5625" />
    <linearGradient
       id="linearGradient7916">
      <stop
         style="stop-color:#ffffff;stop-opacity:1;"
         offset="0"
         id="stop7918" />
      <stop
         style="stop-color:#ffffff;stop-opacity:0.34020618;"
         offset="1.0000000"
         id="stop7920" />
    </linearGradient>
    <linearGradient
       id="XMLID_6_"
       gradientUnits="userSpaceOnUse"
       x1="29.5005"
       y1="64.250999"
       x2="89.000504"
       y2="4.7509999"
       gradientTransform="matrix(0.472977,0,0,0.472977,3.97613,5.287614)">
      <stop
         offset="0"
         style="stop-color:#729FCF"
         id="stop4139" />
      <stop
         offset="1"
         style="stop-color:#3465A4"
         id="stop4141" />
    </linearGradient>
    <linearGradient
       id="XMLID_7_"
       gradientUnits="userSpaceOnUse"
       x1="29.5005"
       y1="91.25"
       x2="89.000504"
       y2="31.75"
       gradientTransform="matrix(0.472977,0,0,0.472977,3.97613,5.287614)">
      <stop
         offset="0"
         style="stop-color:#AD7FA8"
         id="stop4146" />
      <stop
         offset="1"
         style="stop-color:#75507B"
         id="stop4148" />
    </linearGradient>
    <linearGradient
       id="XMLID_8_"
       gradientUnits="userSpaceOnUse"
       x1="29.5"
       y1="120.25"
       x2="89"
       y2="60.75"
       gradientTransform="matrix(0.472977,0,0,0.472977,3.97613,5.287614)">
      <stop
         offset="0"
         style="stop-color:#CEE14B"
         id="stop4153" />
      <stop
         offset="1"
         style="stop-color:#9DB029"
         id="stop4155" />
    </linearGradient>
    <linearGradient
       id="linearGradient3832">
      <stop
         style="stop-color:#ffffff;stop-opacity:1.0000000"
         offset="0.0000000"
         id="stop3834" />
      <stop
         style="stop-color:#e0e0e0;stop-opacity:1.0000000"
         offset="1.0000000"
         id="stop3836" />
    </linearGradient>
    <linearGradient
       id="linearGradient4816">
      <stop
         style="stop-color:#204a87;stop-opacity:1.0000000"
         offset="0.0000000"
         id="stop4818" />
      <stop
         style="stop-color:#204a87;stop-opacity:0.0000000"
         offset="1.0000000"
         id="stop4820" />
    </linearGradient>
    <linearGradient
       id="linearGradient12512">
      <stop
         style="stop-color:#ffffff;stop-opacity:1.0000000"
         offset="0.0000000"
         id="stop12513" />
      <stop
         style="stop-color:#fff520;stop-opacity:0.89108908"
         offset="0.50000000"
         id="stop12517" />
      <stop
         style="stop-color:#fff300;stop-opacity:0.0000000"
         offset="1.0000000"
         id="stop12514" />
    </linearGradient>
    <linearGradient
       inkscape:collect="always"
       id="linearGradient5060">
      <stop
         style="stop-color:black;stop-opacity:1;"
         offset="0"
         id="stop5062" />
      <stop
         style="stop-color:black;stop-opacity:0;"
         offset="1"
         id="stop5064" />
    </linearGradient>
    <linearGradient
       id="linearGradient5048">
      <stop
         style="stop-color:black;stop-opacity:0;"
         offset="0"
         id="stop5050" />
      <stop
         id="stop5056"
         offset="0.5"
         style="stop-color:black;stop-opacity:1;" />
      <stop
         style="stop-color:black;stop-opacity:0;"
         offset="1"
         id="stop5052" />
    </linearGradient>
    <linearGradient
       id="linearGradient2873">
      <stop
         style="stop-color:#939393;stop-opacity:1;"
         offset="0"
         id="stop2875" />
      <stop
         style="stop-color:#424242;stop-opacity:1;"
         offset="1"
         id="stop2877" />
    </linearGradient>
    <linearGradient
       id="linearGradient2855">
      <stop
         style="stop-color:#dfdfdf;stop-opacity:1;"
         offset="0"
         id="stop2857" />
      <stop
         style="stop-color:#ffffff;stop-opacity:1;"
         offset="1"
         id="stop2859" />
    </linearGradient>
    <linearGradient
       id="linearGradient2919">
      <stop
         style="stop-color:#a3a4a0;stop-opacity:1;"
         offset="0"
         id="stop2921" />
      <stop
         style="stop-color:#888a85;stop-opacity:1;"
         offset="1"
         id="stop2923" />
    </linearGradient>
    <linearGradient
       id="linearGradient2966">
      <stop
         style="stop-color:#ffd1d1;stop-opacity:1;"
         offset="0"
         id="stop2968" />
      <stop
         id="stop3006"
         offset="0.5"
         style="stop-color:#ff1d1d;stop-opacity:1;" />
      <stop
         style="stop-color:#6f0000;stop-opacity:1;"
         offset="1"
         id="stop2970" />
    </linearGradient>
    <linearGradient
       id="linearGradient2974">
      <stop
         style="stop-color:#c1c1c1;stop-opacity:1;"
         offset="0"
         id="stop2976" />
      <stop
         style="stop-color:#acacac;stop-opacity:1;"
         offset="1"
         id="stop2978" />
    </linearGradient>
    <linearGradient
       id="linearGradient2994">
      <stop
         style="stop-color:#000000;stop-opacity:1;"
         offset="0"
         id="stop2996" />
      <stop
         style="stop-color:#c9c9c9;stop-opacity:1;"
         offset="1"
         id="stop2998" />
    </linearGradient>
    <radialGradient
       inkscape:collect="always"
       xlink:href="#linearGradient8662"
       id="radialGradient7733"
       gradientUnits="userSpaceOnUse"
       gradientTransform="matrix(1,0,0,0.536723,0,16.87306)"
       cx="24.837126"
       cy="36.421127"
       fx="24.837126"
       fy="36.421127"
       r="15.644737" />
    <radialGradient
       inkscape:collect="always"
       xlink:href="#linearGradient2591"
       id="radialGradient7735"
       gradientUnits="userSpaceOnUse"
       gradientTransform="matrix(-0.843022,0,0,1.020168,34.90361,10.23041)"
       cx="22.291636"
       cy="32.797512"
       fx="22.291636"
       fy="32.797512"
       r="16.956199" />
    <radialGradient
       inkscape:collect="always"
       xlink:href="#linearGradient8650"
       id="radialGradient7737"
       gradientUnits="userSpaceOnUse"
       gradientTransform="matrix(-2.046729,0,0,1.55761,58.9209,12.3005)"
       cx="25.075571"
       cy="5.7859797"
       fx="25.075571"
       fy="5.7859797"
       r="17.171415" />
    <linearGradient
       inkscape:collect="always"
       xlink:href="#linearGradient5048"
       id="linearGradient7747"
       gradientUnits="userSpaceOnUse"
       gradientTransform="matrix(2.774389,0,0,1.969706,-1892.179,-872.8854)"
       x1="302.85715"
       y1="366.64789"
       x2="302.85715"
       y2="609.50507" />
    <radialGradient
       inkscape:collect="always"
       xlink:href="#linearGradient5060"
       id="radialGradient7749"
       gradientUnits="userSpaceOnUse"
       gradientTransform="matrix(2.774389,0,0,1.969706,-1891.633,-872.8854)"
       cx="605.71429"
       cy="486.64789"
       fx="605.71429"
       fy="486.64789"
       r="117.14286" />
    <radialGradient
       inkscape:collect="always"
       xlink:href="#linearGradient5060"
       id="radialGradient7751"
       gradientUnits="userSpaceOnUse"
       gradientTransform="matrix(-2.774389,0,0,1.969706,112.7623,-872.8854)"
       cx="605.71429"
       cy="486.64789"
       fx="605.71429"
       fy="486.64789"
       r="117.14286" />
    <linearGradient
       inkscape:collect="always"
       xlink:href="#linearGradient7916"
       id="linearGradient7844"
       gradientUnits="userSpaceOnUse"
       gradientTransform="matrix(1,0,0,0.919752,-74.85459,20.97203)"
       x1="37.19141"
       y1="28"
       x2="104.83812"
       y2="28" />
    <linearGradient
       inkscape:collect="always"
       xlink:href="#linearGradient5048"
       id="linearGradient10532"
       gradientUnits="userSpaceOnUse"
       gradientTransform="matrix(2.774389,0,0,1.969706,-1892.179,-872.8854)"
       x1="302.85715"
       y1="366.64789"
       x2="302.85715"
       y2="609.50507" />
    <radialGradient
       inkscape:collect="always"
       xlink:href="#linearGradient5060"
       id="radialGradient10534"
       gradientUnits="userSpaceOnUse"
       gradientTransform="matrix(2.774389,0,0,1.969706,-1891.633,-872.8854)"
       cx="605.71429"
       cy="486.64789"
       fx="605.71429"
       fy="486.64789"
       r="117.14286" />
    <radialGradient
       inkscape:collect="always"
       xlink:href="#linearGradient5060"
       id="radialGradient10536"
       gradientUnits="userSpaceOnUse"
       gradientTransform="matrix(-2.774389,0,0,1.969706,112.7623,-872.8854)"
       cx="605.71429"
       cy="486.64789"
       fx="605.71429"
       fy="486.64789"
       r="117.14286" />
    <linearGradient
       inkscape:collect="always"
       xlink:href="#XMLID_8_"
       id="linearGradient10544"
       gradientUnits="userSpaceOnUse"
       gradientTransform="translate(-26.36179,73.84113)"
       x1="-12.443448"
       y1="-22.573759"
       x2="57.487453"
       y2="-22.573759" />
    <linearGradient
       inkscape:collect="always"
       xlink:href="#XMLID_8_"
       id="linearGradient10546"
       gradientUnits="userSpaceOnUse"
       x1="-38.805237"
       y1="51.267368"
       x2="31.125664"
       y2="51.267368" />
    <linearGradient
       inkscape:collect="always"
       xlink:href="#linearGradient5048"
       id="linearGradient10564"
       gradientUnits="userSpaceOnUse"
       gradientTransform="matrix(2.774389,0,0,1.969706,-1892.179,-872.8854)"
       x1="302.85715"
       y1="366.64789"
       x2="302.85715"
       y2="609.50507" />
    <radialGradient
       inkscape:collect="always"
       xlink:href="#linearGradient5060"
       id="radialGradient10566"
       gradientUnits="userSpaceOnUse"
       gradientTransform="matrix(2.774389,0,0,1.969706,-1891.633,-872.8854)"
       cx="605.71429"
       cy="486.64789"
       fx="605.71429"
       fy="486.64789"
       r="117.14286" />
    <radialGradient
       inkscape:collect="always"
       xlink:href="#linearGradient5060"
       id="radialGradient10568"
       gradientUnits="userSpaceOnUse"
       gradientTransform="matrix(-2.774389,0,0,1.969706,112.7623,-872.8854)"
       cx="605.71429"
       cy="486.64789"
       fx="605.71429"
       fy="486.64789"
       r="117.14286" />
    <linearGradient
       inkscape:collect="always"
       xlink:href="#XMLID_6_"
       id="linearGradient10570"
       gradientUnits="userSpaceOnUse"
       gradientTransform="translate(-35.1311,33.24432)"
       x1="-12.443448"
       y1="-22.573759"
       x2="57.487453"
       y2="-22.573759" />
    <linearGradient
       inkscape:collect="always"
       xlink:href="#XMLID_6_"
       id="linearGradient10572"
       gradientUnits="userSpaceOnUse"
       x1="-38.805237"
       y1="51.267368"
       x2="31.125664"
       y2="51.267368"
       gradientTransform="translate(-8.769311,-40.59681)" />
    <linearGradient
       inkscape:collect="always"
       xlink:href="#linearGradient5048"
       id="linearGradient11509"
       gradientUnits="userSpaceOnUse"
       gradientTransform="matrix(2.774389,0,0,1.969706,-1892.179,-872.8854)"
       x1="302.85715"
       y1="366.64789"
       x2="302.85715"
       y2="609.50507" />
    <radialGradient
       inkscape:collect="always"
       xlink:href="#linearGradient5060"
       id="radialGradient11511"
       gradientUnits="userSpaceOnUse"
       gradientTransform="matrix(2.774389,0,0,1.969706,-1891.633,-872.8854)"
       cx="605.71429"
       cy="486.64789"
       fx="605.71429"
       fy="486.64789"
       r="117.14286" />
    <radialGradient
       inkscape:collect="always"
       xlink:href="#linearGradient5060"
       id="radialGradient11513"
       gradientUnits="userSpaceOnUse"
       gradientTransform="matrix(-2.774389,0,0,1.969706,112.7623,-872.8854)"
       cx="605.71429"
       cy="486.64789"
       fx="605.71429"
       fy="486.64789"
       r="117.14286" />
    <linearGradient
       inkscape:collect="always"
       xlink:href="#XMLID_8_"
       id="linearGradient11515"
       gradientUnits="userSpaceOnUse"
       gradientTransform="translate(-26.36179,73.84113)"
       x1="-12.443448"
       y1="-22.573759"
       x2="57.487453"
       y2="-22.573759" />
    <linearGradient
       inkscape:collect="always"
       xlink:href="#XMLID_8_"
       id="linearGradient11517"
       gradientUnits="userSpaceOnUse"
       x1="-38.805237"
       y1="51.267368"
       x2="31.125664"
       y2="51.267368" />
    <linearGradient
       inkscape:collect="always"
       xlink:href="#linearGradient7916"
       id="linearGradient11519"
       gradientUnits="userSpaceOnUse"
       gradientTransform="matrix(1,0,0,0.919752,-74.85459,20.97203)"
       x1="37.19141"
       y1="28"
       x2="104.83812"
       y2="28" />
    <linearGradient
       inkscape:collect="always"
       xlink:href="#linearGradient5048"
       id="linearGradient11521"
       gradientUnits="userSpaceOnUse"
       gradientTransform="matrix(2.774389,0,0,1.969706,-1892.179,-872.8854)"
       x1="302.85715"
       y1="366.64789"
       x2="302.85715"
       y2="609.50507" />
    <radialGradient
       inkscape:collect="always"
       xlink:href="#linearGradient5060"
       id="radialGradient11523"
       gradientUnits="userSpaceOnUse"
       gradientTransform="matrix(2.774389,0,0,1.969706,-1891.633,-872.8854)"
       cx="605.71429"
       cy="486.64789"
       fx="605.71429"
       fy="486.64789"
       r="117.14286" />
    <radialGradient
       inkscape:collect="always"
       xlink:href="#linearGradient5060"
       id="radialGradient11525"
       gradientUnits="userSpaceOnUse"
       gradientTransform="matrix(-2.774389,0,0,1.969706,112.7623,-872.8854)"
       cx="605.71429"
       cy="486.64789"
       fx="605.71429"
       fy="486.64789"
       r="117.14286" />
    <linearGradient
       inkscape:collect="always"
       xlink:href="#XMLID_6_"
       id="linearGradient11527"
       gradientUnits="userSpaceOnUse"
       gradientTransform="translate(-35.1311,33.24432)"
       x1="-12.443448"
       y1="-22.573759"
       x2="57.487453"
       y2="-22.573759" />
    <linearGradient
       inkscape:collect="always"
       xlink:href="#XMLID_6_"
       id="linearGradient11529"
       gradientUnits="userSpaceOnUse"
       gradientTransform="translate(-8.769311,-40.59681)"
       x1="-38.805237"
       y1="51.267368"
       x2="31.125664"
       y2="51.267368" />
    <linearGradient
       inkscape:collect="always"
       xlink:href="#linearGradient7916"
       id="linearGradient11549"
       gradientUnits="userSpaceOnUse"
       gradientTransform="matrix(1,0,0,0.919752,-217.0352,114.0913)"
       x1="37.19141"
       y1="28"
       x2="104.83812"
       y2="28" />
    <linearGradient
       inkscape:collect="always"
       xlink:href="#XMLID_8_"
       id="linearGradient2191"
       gradientUnits="userSpaceOnUse"
       gradientTransform="matrix(0.399462,0,0,0.511384,9.460864,3.148147)"
       x1="29.5"
       y1="120.25"
       x2="89"
       y2="60.75" />
    <linearGradient
       inkscape:collect="always"
       xlink:href="#linearGradient7916"
       id="linearGradient2198"
       gradientUnits="userSpaceOnUse"
       gradientTransform="matrix(0.620457,0,0,0.620457,147.4141,-59.64299)"
       x1="16.874998"
       y1="22.851799"
       x2="27.900846"
       y2="34.976799" />
    <linearGradient
       inkscape:collect="always"
       xlink:href="#linearGradient2873"
       id="linearGradient3094"
       gradientUnits="userSpaceOnUse"
       x1="106.64115"
       y1="-22.727886"
       x2="140.55354"
       y2="-22.727886" />
    <radialGradient
       inkscape:collect="always"
       xlink:href="#linearGradient8650"
       id="radialGradient3096"
       gradientUnits="userSpaceOnUse"
       gradientTransform="matrix(-2.046729,0,0,1.55761,168.157,-43.30423)"
       cx="25.075571"
       cy="5.7859797"
       fx="25.075571"
       fy="5.7859797"
       r="17.171415" />
    <linearGradient
       inkscape:collect="always"
       xlink:href="#XMLID_7_"
       id="linearGradient3102"
       gradientUnits="userSpaceOnUse"
       gradientTransform="matrix(0.240119,0,0,0.523,34.02836,2.433754)"
       x1="29.5005"
       y1="91.25"
       x2="89.000504"
       y2="31.75" />
    <linearGradient
       inkscape:collect="always"
       xlink:href="#XMLID_6_"
       id="linearGradient3108"
       gradientUnits="userSpaceOnUse"
       gradientTransform="matrix(0.230802,0,0,0.523016,3.997511,2.746835)"
       x1="29.5005"
       y1="64.250999"
       x2="89.000504"
       y2="4.7509999" />
    <radialGradient
       inkscape:collect="always"
       xlink:href="#linearGradient8650"
       id="radialGradient3112"
       gradientUnits="userSpaceOnUse"
       gradientTransform="matrix(-1.072478,0,0,0.816181,54.68265,27.98417)"
       cx="25.075571"
       cy="5.7859797"
       fx="25.075571"
       fy="5.7859797"
       r="17.171415" />
  </defs>
  <sodipodi:namedview
     id="base"
     pagecolor="#ffffff"
     bordercolor="#666666"
     borderopacity="1.0"
     inkscape:pageopacity="0.0"
     inkscape:pageshadow="2"
     inkscape:zoom="3.2188104"
     inkscape:cx="42.978133"
     inkscape:cy="32.681288"
     inkscape:current-layer="layer1"
     showgrid="true"
     inkscape:document-units="px"
     inkscape:grid-bbox="true"
     inkscape:window-width="997"
     inkscape:window-height="761"
     inkscape:window-x="425"
     inkscape:window-y="147"
     showguides="true"
     inkscape:guide-bbox="true" />
  <metadata
     id="metadata2308">
    <rdf:RDF>
      <cc:Work
         rdf:about="">
        <dc:format>image/svg+xml</dc:format>
        <dc:type
           rdf:resource="http://purl.org/dc/dcmitype/StillImage" />
      </cc:Work>
    </rdf:RDF>
  </metadata>
  <g
     id="layer1"
     inkscape:label="Layer 1"
     inkscape:groupmode="layer">
    <rect
       x="-179.84375"
       y="136.45908"
       width="67.646713"
       height="6.7705913"
       id="rect7787"
       style="opacity:0.44654092;fill:url(#linearGradient11549);fill-opacity:1;stroke:none;stroke-opacity:1" />
    <g
       style="display:inline"
       id="g5022"
       transform="matrix(3.151081e-2,0,0,1.939631e-2,61.15576,59.86813)">
      <rect
         y="-150.69685"
         x="-1559.2523"
         height="478.35718"
         width="1339.6335"
         id="rect4173"
         style="opacity:0.40206185;color:black;fill:url(#linearGradient5027);fill-opacity:1;fill-rule:nonzero;stroke:none;stroke-width:1;stroke-linecap:round;stroke-linejoin:miter;marker:none;marker-start:none;marker-mid:none;marker-end:none;stroke-miterlimit:4;stroke-dasharray:none;stroke-dashoffset:0;stroke-opacity:1;visibility:visible;display:inline;overflow:visible" />
      <path
         sodipodi:nodetypes="cccc"
         id="path5058"
         d="M -219.61876,-150.68038 C -219.61876,-150.68038 -219.61876,327.65041 -219.61876,327.65041 C -76.744594,328.55086 125.78146,220.48075 125.78138,88.454235 C 125.78138,-43.572302 -33.655436,-150.68036 -219.61876,-150.68038 z "
         style="opacity:0.40206185;color:black;fill:url(#radialGradient5029);fill-opacity:1;fill-rule:nonzero;stroke:none;stroke-width:1;stroke-linecap:round;stroke-linejoin:miter;marker:none;marker-start:none;marker-mid:none;marker-end:none;stroke-miterlimit:4;stroke-dasharray:none;stroke-dashoffset:0;stroke-opacity:1;visibility:visible;display:inline;overflow:visible" />
      <path
         style="opacity:0.40206185;color:black;fill:url(#radialGradient5031);fill-opacity:1;fill-rule:nonzero;stroke:none;stroke-width:1;stroke-linecap:round;stroke-linejoin:miter;marker:none;marker-start:none;marker-mid:none;marker-end:none;stroke-miterlimit:4;stroke-dasharray:none;stroke-dashoffset:0;stroke-opacity:1;visibility:visible;display:inline;overflow:visible"
         d="M -1559.2523,-150.68038 C -1559.2523,-150.68038 -1559.2523,327.65041 -1559.2523,327.65041 C -1702.1265,328.55086 -1904.6525,220.48075 -1904.6525,88.454235 C -1904.6525,-43.572302 -1745.2157,-150.68036 -1559.2523,-150.68038 z "
         id="path5018"
         sodipodi:nodetypes="cccc" />
    </g>
    <rect
       width="56.563034"
       height="58.874321"
       rx="1.1061546"
       ry="1.106155"
       x="4.8474588"
       y="3.3531864"
       style="color:black;fill:url(#linearGradient2267);fill-opacity:1;fill-rule:evenodd;stroke:#272725;stroke-width:1.34329629;stroke-linecap:butt;stroke-linejoin:miter;marker:none;marker-start:none;marker-mid:none;marker-end:none;stroke-miterlimit:4;stroke-dasharray:none;stroke-dashoffset:0;stroke-opacity:1;visibility:visible;display:inline;overflow:visible"
       id="rect3818"
       inkscape:export-filename="/Users/izoo/Sites/spip-zone/_plugins_/_stable_/forms/forms2/img_pack/rect3818.png"
       inkscape:export-xdpi="33.75"
       inkscape:export-ydpi="33.75" />
    <rect
       width="55.4608"
       height="8.3451605"
       rx="0.22227089"
       ry="0.22227085"
       x="5.3985758"
       y="3.4552143"
       style="color:black;fill:url(#linearGradient4264);fill-opacity:1;fill-rule:evenodd;stroke:none;stroke-width:1;stroke-linecap:butt;stroke-linejoin:miter;marker:none;marker-start:none;marker-mid:none;marker-end:none;stroke-miterlimit:4;stroke-dasharray:none;stroke-dashoffset:0;stroke-opacity:1;visibility:visible;display:inline;overflow:visible"
       id="rect2468" />
    <g
       id="g3104"
       transform="matrix(1.073359,0,0,1,3.678122,0)">
      <rect
         style="fill:url(#linearGradient3108);stroke:#204a87;stroke-width:0.73457605;stroke-linejoin:round;stroke-miterlimit:4;stroke-dasharray:none"
         id="rect4143"
         height="9.9373064"
         width="23.080149"
         y="15.82224"
         x="6.1324201" />
      <rect
         style="opacity:0.44654092;fill:#eeeeec;stroke:none;stroke-opacity:1"
         id="rect4159"
         height="4.3630004"
         width="22.650166"
         y="16.221296"
         x="6.3474126" />
    </g>
    <g
       id="g3098"
       transform="matrix(2.026679,0,0,1,-26.80516,2.167837)">
      <rect
         style="fill:url(#linearGradient3102);stroke:#5c3566;stroke-width:0.80139422;stroke-linejoin:round;stroke-miterlimit:4;stroke-dasharray:none"
         id="rect2171"
         height="9.9369993"
         width="24.011862"
         y="29.629757"
         x="36.249451" />
      <rect
         style="opacity:0.44654092;fill:#eeeeec;stroke:none;stroke-opacity:1"
         id="rect2175"
         height="4.3628654"
         width="23.564522"
         y="30.211855"
         x="36.473125" />
    </g>
    <g
       id="g2187"
       transform="matrix(0.639198,0,0,1,1.253841,4)">
      <rect
         style="fill:url(#linearGradient2191);stroke:#727e0a;stroke-width:0.955589;stroke-linejoin:round;stroke-miterlimit:4;stroke-dasharray:none"
         id="rect4157"
         height="9.7162933"
         width="39.946194"
         y="44.57024"
         x="13.155869" />
      <rect
         style="opacity:0.44654092;fill:#eeeeec;stroke:none;stroke-opacity:1"
         id="rect4163"
         height="4.265964"
         width="39.201996"
         y="44.952248"
         x="13.52797" />
    </g>
    <g
       id="g2193"
       transform="matrix(0.703527,0,0,0.703527,-63.9923,51.1607)">
      <path
         sodipodi:nodetypes="ccccccccccccc"
         id="text1314"
         d="M 164.48564,-36.364411 L 164.48564,-41.965261 L 170.67685,-41.990191 L 170.67685,-46.330491 L 164.49118,-46.330491 L 164.48564,-52.510348 L 160.13234,-52.503423 L 160.13511,-46.341571 L 153.93697,-46.295861 L 153.91482,-41.972181 L 160.14065,-41.990191 L 160.1448,-36.381031 L 164.48564,-36.364411 z "
         style="font-size:59.90107727px;font-style:normal;font-variant:normal;font-weight:bold;font-stretch:normal;text-align:start;line-height:125%;writing-mode:lr-tb;text-anchor:start;fill:#c00;fill-opacity:1;stroke:#a40000;stroke-width:0.62045729;stroke-linecap:butt;stroke-linejoin:miter;stroke-miterlimit:4;stroke-dasharray:none;stroke-opacity:1;font-family:Bitstream Vera Sans" />
      <path
         sodipodi:nodetypes="ccccccccccccc"
         id="path7076"
         d="M 163.85546,-36.975271 L 163.85546,-42.580591 L 170.06165,-42.580591 L 170.05749,-45.698041 L 163.861,-45.698041 L 163.861,-51.899492 L 160.76192,-51.888412 L 160.76746,-45.698041 L 154.54664,-45.686961 L 154.53002,-42.601371 L 160.77454,-42.595831 L 160.76623,-36.994661 L 163.85546,-36.975271 z "
         style="font-size:59.90107727px;font-style:normal;font-variant:normal;font-weight:bold;font-stretch:normal;text-align:start;line-height:125%;writing-mode:lr-tb;text-anchor:start;opacity:0.40860219;fill:#a40000;fill-opacity:1;stroke:url(#linearGradient2198);stroke-width:0.62045765px;stroke-linecap:butt;stroke-linejoin:miter;stroke-opacity:1;font-family:Bitstream Vera Sans" />
      <path
         sodipodi:nodetypes="ccccccccc"
         id="path7914"
         d="M 154.23473,-44.155751 C 154.23473,-42.953611 170.35693,-44.756821 170.35693,-44.175141 L 170.35693,-46.036511 L 164.16205,-46.017121 L 164.16205,-52.200119 L 160.43931,-52.200119 L 160.43931,-46.017121 L 154.23473,-46.017121 L 154.23473,-44.155751 z "
         style="opacity:0.31182796;fill:white;fill-opacity:1;fill-rule:evenodd;stroke:none;stroke-width:1px;stroke-linecap:butt;stroke-linejoin:miter;stroke-opacity:1" />
    </g>
    <path
       sodipodi:nodetypes="cccccccc"
       id="path8643"
       d="M 39.95655,32.388173 L 39.95655,41.293181 L 33.16946,41.293181 L 33.16946,45.737998 L 22.710584,36.829966 L 33.166217,27.794179 L 33.166217,32.39095 L 39.95655,32.388173 z "
       style="color:black;fill:#2e3436;fill-opacity:1;fill-rule:evenodd;stroke:#000004;stroke-width:0.523996;stroke-linecap:round;stroke-linejoin:round;marker:none;marker-start:none;marker-mid:none;marker-end:none;stroke-miterlimit:10;stroke-dasharray:none;stroke-dashoffset:0;stroke-opacity:1;visibility:visible;display:inline;overflow:visible" />
    <path
       style="opacity:0.55345914;fill:url(#linearGradient48121);fill-opacity:1;fill-rule:evenodd;stroke:none;stroke-width:1px;stroke-linecap:butt;stroke-linejoin:miter;stroke-opacity:1"
       d="M 5.4030722,53.029721 C 5.4030722,53.029721 23.420385,34.676601 40.894216,34.172137 C 58.255788,33.667675 60.978856,26.629104 60.978856,26.629104 L 60.978856,4 L 5.4030722,4 L 5.4030722,53.029721 z "
       id="path10269"
       sodipodi:nodetypes="czcccc" />
  </g>
</svg>
